nr,url,heimilisfang,tegund,nidurstada,spurning
35806 (00.01.000.0 12),http://gamli.rvk.is/vefur/owa/edutils.parse_page?nafn=BN035806,Álfsnes,breytingar,Samþykkt.  Samræmist ákvæðum laga nr. 73/1997. Áskilin lokaúttekt byggingarfulltrúa.,"Sótt er um leyfi til að breyta salernum, klæðningu og gluggum félagsheimilisins á lóðinni nr. 1 við Álfsnes. Gjald kr. 6.800"
35686 (01.26.300.2),http://gamli.rvk.is/vefur/owa/edutils.parse_page?nafn=BN035686,Ármúli 11,flóttastigi - stækka anddyri ofl.,Samþykkt.  Samræmist ákvæðum laga nr. 73/1997. Áskilin lokaúttekt byggingarfulltrúa.,"Sótt er um leyfi til að sameina matshluta 01 og 02 í matshluta 01 koma fyrir flóttastiga fyrir 3. og 4. hæðina á norðausturhorn hússins og stækka anddyri með því að færa áður inndreginn aðalinngang 1. hæðar í línu með útvegg hússins á lóðinni nr. 11 við Ármúla.  Stærðir 7,6 ferm., 33,5 rúmm. Gjald kr. 6.800 + 2.278"
35774 (02.40.450.2),http://gamli.rvk.is/vefur/owa/edutils.parse_page?nafn=BN035774,Barðastaðir 25-35,"færa byggingar úr 7,0m í 7,4 m frá götu",Samþykkt.  Samræmist ákvæðum laga nr. 73/1997. Frágangur á lóðamörkum verði gerður í samráði við lóðarhafa aðliggjandi lóða. Áskilin lokaúttekt byggingarfulltrúa.,Sótt er um leyfi til þess að færa nýsamþykkt raðhús og bílgeymslur um 40 sm aftar á lóð nr. 25-35 við Barðastaði. Gjald kr. 6.800
35481 (01.14.311.0),http://gamli.rvk.is/vefur/owa/edutils.parse_page?nafn=BN035481,Bjarkargata 14,kvistur,Samþykkt.  Samræmist ákvæðum laga nr. 73/1997. Áskilin lokaúttekt byggingarfulltrúa. Þinglýsa skal samþykkt meðlóðarhafa. Skilyrt er að eignaskiptayfirlýsingu vegna breytinga í húsinu sé þinglýst fyrir útgáfu á byggingarleyfi. Með vísan til samþykktar borgarráðs frá 1. september 1998 skal utanhúss- og lóðarfrágangi vera lokið eigi síðar en innan tveggja ára frá útgáfu byggingarleyfis að viðlögðum dagsektarákvæðum 57. gr. skipulags- og byggingarlaga nr. 73/1997.,"Sótt er um leyfi til að gera kvisti á austur- og vesturhluta þaks og breyta innra skipulagi þakhæðar á tvíbýlishúsinu á lóðinni nr. 14 við Bjarkargötu. Málinu fylgir skilyrt samþykki meðlóðarhafa dags. 10. júní 2006. Grenndarkynning stóð yfir frá 7. mars til 4. apríl 2007. Engar athugasemdir bárust. Stækkun:  12,9 ferm og 31,9 rúmm. Gjald kr. 6.800 + 2.169"
35661 (01.23.000.1),http://gamli.rvk.is/vefur/owa/edutils.parse_page?nafn=BN035661,Borgartún 26,reyndarteikningar,Samþykkt.  Samræmist ákvæðum laga nr. 73/1997. Frágangur á lóðamörkum verði gerður í samráði við lóðarhafa aðliggjandi lóða. Áskilið samþykki heilbrigðiseftirlits. Áskilin lokaúttekt byggingarfulltrúa.,"Sótt er um leyfi til að stækka kjallarageymslur, breytingum á tæknirýmum við stigakjarna, breyttum stiga í miðstigahúsi, innra skipulagi aðallega í verslun 0102, skrifstofu 0201 og innréttingu banka í einingu 0103,  breytingum á aðkomum á 1. hæð, breytingum á gluggum og klæðningu 1. hæðar breytt að hluta í viðarklæðningu í stað cortenstálklæðningar ásamt fyrir leiðréttingu stærða húss og fjölgun bílastæða um þrjú suðaustan við skrifstofu- og þjónustuhúsið á lóð nr. 26 við Borgartún. Brunahönnun Línuhönnunar uppfærð 17. mars 2007 fylgir erindinu. Leiðréttar stærðir: Verslunar- og skrifstofuhús var samtals 17628 ferm. verður 17719,7 ferm., var 71040,3 rúmm. verður 70720 rúmm. B-rými voru 767 ferm. verða 627,8 ferm., voru 4500 rúmm. verða 3268,8 rúmm. Gjald kr. 6.800"
35777 (01.23.200.1),http://gamli.rvk.is/vefur/owa/edutils.parse_page?nafn=BN035777,Borgartún 32,br. og stækkun,Frestað. Vísað til athugasemda á umsóknarblaði.,"Sótt er um leyfi til þess að stækka veitingasal á 1. hæð Cabin hótels í norðaustur, breyta innra skipulagi hluta 1. hæðar og 6. hæðar austurenda, breyta gluggum nýsamþykktrar 7. hæðar og stækka til vestur, fjölga hótelhebergjum á 7.hæð, breyta staðsetningu loftræstisamstæðu frá kjallara í rými á 6. hæð og klæða með álplötum aðalstigahús  atvinnuhússins á lóðinni nr. 32 við Borgartún. Stærð: Stækkun samtals xxx ferm., xxx rúmm. Gjald kr. 6.800 + xxx"
35817 (00.00.000.0 01),http://gamli.rvk.is/vefur/owa/edutils.parse_page?nafn=BN035817,Borgartún 37,Loftnetabúnaður f. GSM síma,Frestað. Vísað til athugasemda á umsóknarblaði.,Sótt er um leyfi til þess að setja upp tvö loftnet á  miðju þaks austari húshluta ásamt tengiskáp fyrir GSM - búnað í þakhýsi á sama stað á þaki atvinnuhússins á lóð nr. 37 við Borgartún. Samþykki f.h. eigenda dags. 14. febrúar 2007 fylgir erindinu. Gjald kr. 6.800
35795 (01.22.000.2),http://gamli.rvk.is/vefur/owa/edutils.parse_page?nafn=BN035795,Borgartún 6,innréttingu sjúkraþjálfunar,Frestað. Vísað til athugasemda eldvarnaeftirlits.,Sótt er um leyfi til að innrétta eignarhluta 0101 fyrir sjúkraþjálfun í atvinnuhúsinu á lóðinni nr. 6 við Borgartún. Gjald kr. 6.800
35759 (01.27.300.5),http://gamli.rvk.is/vefur/owa/edutils.parse_page?nafn=BN035759,Bólstaðarhlíð 10,kvistir - fjarlægja stromp,Frestað. Málinu vísað til skipulagsstjóra til ákvörðunar um grenndarkynningu. Vísað er til uppdrátta 01 og 02 dags. 4. apríl 2007.,"Sótt er um leyfi til að byggja tvo kvisti á norðurþekju hússins á lóðinni nr. 10 við Bólstaðarhlíð.  Einnig er sótt eum leyfi til að fjarlægja reykháf niður á plötu 3. hæðar. Málinu fylgir samþykki meðlóðarhafa dags. 15. og 16. apríl 2007. Stækkun 2,7 ferm. og 10,34 rúmm. Gjald kr. 6.800 + 703"
35798 (04.30.430.1),http://gamli.rvk.is/vefur/owa/edutils.parse_page?nafn=BN035798,Dragháls 28-30/F.....,breyting á gluggum og dyrum fl.,Samþykkt.  Samræmist ákvæðum laga nr. 73/1997. Áskilin lokaúttekt byggingarfulltrúa. Skilyrt er að eignaskiptayfirlýsingu vegna breytinga í húsinu sé þinglýst fyrir útgáfu á byggingarleyfi.,Sótt er um leyfi til að fjölga eignarhlutum og til að breyta gluggum og dyrum á 1. hæð atvinnuhússins á lóðinni nr. 28-30 við Dragháls. Gjald kr. 6.800
35339 (04.03.000.1),http://gamli.rvk.is/vefur/owa/edutils.parse_page?nafn=BN035339,Eirhöfði 12,viðbygging og breytingar,Samþykkt.  Samræmist ákvæðum laga nr. 73/1997. Frágangur á lóðamörkum verði gerður í samráði við lóðarhafa aðliggjandi lóða. Áskilin lokaúttekt byggingarfulltrúa.,"Sótt er um leyfi til þess að byggja viðbyggingu við norðausturhorn og rífa anddyrisbyggingu við austurhlið og  innrétta atvinnuhúsið fyrir vörugeymslur og skrifstofur á lóð nr. 12 við Eirhöfða. Stærðir: Niðurrif 13,2 ferm. Stækkun 1. og 2. hæðar 107  ferm. samtals og 333,6  rúmm. Gjald kr. 6.800 + 6.800 + 22.685"
35338 (04.03.000.1),http://gamli.rvk.is/vefur/owa/edutils.parse_page?nafn=BN035338,Eirhöfði 12,nýtt atvinnuhús,Samþykkt.  Samræmist ákvæðum laga nr. 73/1997. Áskilin lokaúttekt byggingarfulltrúa.,"Sótt er um leyfi til þess að byggja að hluta tveggja hæða stálgrindarhús sem sjálfstæða byggingu fyrir atvinnustarfsemi á austari hluta lóðar nr. 12 við Eirhöfða. Lagt er til að nýbygging verði nr. 10 við Eirhöfða.  Jafnframt er erindi 31763 dregið til baka. Bréf hönnuðar dags. 1. febrúar 2007 fylgir erindinu. Stærð: Atvinnuhús (matshluti 02) 1. hæð 642 ferm., 2. hæð 403,2 ferm., samtals 1045,4 ferm., 4611,6 rúmm. Gjald kr. 6.800 + 6.800 + 313.589"
35811 (02.45.610.1),http://gamli.rvk.is/vefur/owa/edutils.parse_page?nafn=BN035811,Fossaleynir 1,Loftnetabúnaður f. GSM síma,Samþykkt.  Samræmist ákvæðum laga nr. 73/1997.,Sótt er um leyfi til þess að setja upp eitt loftnet á veggbrún upp fyrir þak suðvesturhorns ásamt tengiskáp fyrir GSM - búnað í tæknirými á 4. hæð Egilshallar á lóð nr. 1 við Fossaleynir. Samþykki f.h. eigenda dags. 23.mars 2007 fylgir erindinu. Gjald kr. 6.800
35803 (02.69.580.2),http://gamli.rvk.is/vefur/owa/edutils.parse_page?nafn=BN035803,Freyjubrunnur 2-8,raðhús br. gólfkóti,Frestað. Vísað til athugasemda á umsóknarblaði.,"Sótt er um leyfi til þess að lækka gólfkóta neðri hæðar nýsamþykkts tveggja hæða raðhúss um 8 sm á lóð nr. 2-8 við Freyjubrunn. Stærð: Rúmmálsaukning 33,8 rúmm. Gjald kr. 6.800 + 2.298"
35805 (04.64.150.3),http://gamli.rvk.is/vefur/owa/edutils.parse_page?nafn=BN035805,Fýlshólar 3,breytingar,Samþykkt.  Samræmist ákvæðum laga nr. 73/1997. Með vísan til samþykktar borgarráðs frá 1. september 1998 skal utanhúss- og lóðarfrágangi vera lokið eigi síðar en innan tveggja ára frá útgáfu byggingarleyfis að viðlögðum dagsektarákvæðum 57. gr. skipulags- og byggingarlaga nr. 73/1997.,"Sótt er um leyfi til að stóla upp þak á bílskúrnum við tvíbýlishúsið á lóðinni nr. 3 við Fýlshóla. Stækkun:  12,2 rúmm. Gjald kr. 6.800 + 830"
35342 (01.11.510.1),http://gamli.rvk.is/vefur/owa/edutils.parse_page?nafn=BN035342,Grandagarður 8,"klæða + viðbygg, nýr inngangur","Samþykkt.  Samræmist ákvæðum laga nr. 73/1997. Áskilin lokaúttekt byggingarfulltrúa. Áskilið samþykki heilbrigðiseftirlits. Í samþykktinni felst ekki endanleg afstaða byggingaryfirvalda til lóðarafmörkunar hússins, þinglýsa skal yfirlýsingu þess efnis.","Sótt er um leyfi til þess að byggja við vesturhlið 1. og 2. hæðar fyrir nýjan inngang að Sjóminjasafninu, byggja litla útbyggingu við austurhlið 1. og 2. hæðar ásamt svölum á 2. hæð, innrétta hluta 1. hæðar, breyta innra skipulagi 2. hæðar safnsins, leiðrétta skráningu hússins ásamt leyfi til þess að einangra norðurhluta húss að utan og klæða með steinflísum og timbri atvinnuhúsið á lóð nr. 8 við Grandagarð. Brunahönnun VSI dags. 30. janúar 2007, ástandskönnun dags. 20. febrúar 2007, umsögn burðarvirkishönnuðar dags. 19. febrúar og samþykki meðeigenda (á teikningu)  fylgja erindinu. Stærð: Stækkun vegna viðbygginga samtals 72,6 ferm., 273,1 rúmm. Gjald kr. 6.800 + 6.800 + 18.571"
35813 (01.46.110.2),http://gamli.rvk.is/vefur/owa/edutils.parse_page?nafn=BN035813,Grensásvegur 11,leiðrétting á afstöðumynd,Frestað. Vísað til athugasemda á umsóknarblaði.,"Sótt er um samþykki fyrir leiðréttri afstöðumynd þar sem fram kemur að fjarlægð að eystri lóðamörkum er um 1,6m minni en ráð var fyrir gert við samþykkt viðbyggingar atvinnuhússins á lóð nr. 11 við Grensásveg. Gjald kr. 6.800"
35815 (04.12.130.1),http://gamli.rvk.is/vefur/owa/edutils.parse_page?nafn=BN035815,Guðríðarstígur 2-4,Loftnetabúnaður f. GSM,Samþykkt.  Samræmist ákvæðum laga nr. 73/1997.,Sótt er um leyfi til þess að setja upp eitt loftnet á veggbrún upp fyrir þak suðausturhorns ásamt tengiskáp fyrir GSM - búnað í inntaksrými í kjallara atvinnuhússins á lóð nr. 2-4  við Guðríðarstíg. Samþykki f.h. eigenda dags. 16. febrúar 2007 fylgir erindinu. Gjald kr. 6.800
35799 (02.57.610.1),http://gamli.rvk.is/vefur/owa/edutils.parse_page?nafn=BN035799,Gylfaflöt 24-30,reyndarteikningar ásamt breytingum,Frestað. Vísað til athugasemda á umsóknarblaði.,"Sótt er um leyfi fyrir reyndarteikningum með breytingum á léttum milliveggjum og að koma fyrir tanki við austurhlið einingar 0102 á atvinnuhúsnæðinu á lóð nr. 24-30 við Gylfaflöt.  Meðfylgjandi er yfirlýsing húsfélagsins dags. 5. mars 2007. Stærð: xxx ferm., xxxx rúmm. Gjald kr. 6.800 + xxxx"
35648 (01.72.730.1),http://gamli.rvk.is/vefur/owa/edutils.parse_page?nafn=BN035648,Háaleitisbraut 68,"útveggir á 1. hæð, stækkun",Frestað. Vantar brunatæknilega greinargerð.,"Sótt er um leyfi fyrir stækkun á 1. hæð með tilheyrandi breytingu á gangstétt á lóð ásamt minnháttar breytingar í kjallara og 1. hæð ásamt því að uppfæra brunavarnir í Austurveri Verslunarmiðstöð á lóðinni nr. 68 við Háaleitisbraut.  Meðfylgjandi er bréf brunavarnarhönnuðar ódagsett og samþykki meðeigenda dags. 16. mars 2007. Stærðir: Stækkun 280,9 ferm., 1223,6 rúmm. Gjald kr. 6.800 + 83.205"
35634 (01.23.400.1),http://gamli.rvk.is/vefur/owa/edutils.parse_page?nafn=BN035634,Hátún 10-12,breyting kjallara nr. 10,Frestað. Vísað til athugasemda eldvarnaeftirlits.,"Sótt er um leyfi fyrir að breyta innra fyrirkomulagi í kjallara og koma fyrir þvottahúsi, fjölga geymslum og stækka verkstæðisaðstöðu með því að  fækka bílastæðum um 11 í kjalllara vistheimili Öryrkjabandalagsins nr. 10 við Hátún. Bréf hönnuðar dags. 29. mars 2007 fylgir erindinu. Gjald kr. 6.800"
35812 (04.73.160.1),http://gamli.rvk.is/vefur/owa/edutils.parse_page?nafn=BN035812,Helluvað 7-21,15-21 breyting á eignarhaldi,Samþykkt.  Samræmist ákvæðum laga nr. 73/1997. Áskilin lokaúttekt byggingarfulltrúa.,Sótt er um leyfi til að breyta eignarhaldi á geymslu nr. 0008 í fjölbýlishúsinu á lóðinni nr. 15-21 við Helluvað. Gjald kr. 6.800
34876 (01.34.620.3),http://gamli.rvk.is/vefur/owa/edutils.parse_page?nafn=BN034876,Hrísateigur 20,stækkun,Frestað. Málinu vísað til skipulagsstjóra til ákvörðunar um grenndarkynningu. Vísað er til uppdrátta nr. 01 og 02 dags. 5. febrúar 2007.,"Sótt er um leyfi til þess að byggja skála framan við bílskúr breyta notkun á bílskúr mhl 02 og tengja við mhl 0102 í íbúðarhúsi (mhl. 01), byggja viðbyggingu við suðurhlið 1. hæðar mhl. 01, og til að byggja  viðbyggingu með svölum ofan á við austurhlið fjölbýlishússins á lóðinni nr. 20 við Hrísateig. Útskrift úr gerðabók embættisafgreiðslufundar skipulagsfulltrúa frá 3. nóvember 2006 fylgir erindinu. Málinu fylgir samþykki meðlóðarhafa dags. 5. mars 2007. Stærð: Skáli framan við bílskúr 13,8 ferm., viðbygging við austurhlið 16,0 ferm., og garðskáli 10 ferm. Samtals 39,8 ferm., og 98,1 rúmm. Gjald kr. 6.100 + 6.800 + 6.671"
35793 (02.87.420.1),http://gamli.rvk.is/vefur/owa/edutils.parse_page?nafn=BN035793,Hverafold  1-5,Endurnýjun á byggingarleyfi (BN031866),Samþykkt.  Samræmist ákvæðum laga nr. 73/1997. Áskilin lokaúttekt byggingarfulltrúa.,Sótt er um endurnýjun á byggingarleyfi frá 12. júlí 2005 þar sem sótt er um leyfi til þess að breyta þaki og setja hefðbundna bárujárnsklæðningu í stað plexiglersþaks á tengibyggingu í húsinu nr. 5 á lóðinni nr. 1-5 við Hverafold. Málinu fylgir samþykki húsfélagsins dags. 12. apríl 2007. Gjald kr. 6.800
35776 (04.99.540.3),http://gamli.rvk.is/vefur/owa/edutils.parse_page?nafn=BN035776,Jórusel 15,viðbygging fl.,Frestað. Vísað til athugasemda á umsóknarblaði. Málinu vísað til umsagnar skipulagsstjóra.,"Sótt er um leyfi til þess að byggja einlyfta viðbyggingu við suðvesturhlið 1. hæðar, innrétta kjallara fyrir aukarými, byggja útigeymslur undir svölum við suðurausturhlið og fjölga bílastæðum fyrir einbýlishússið á lóð nr. 15 við Jórusel. Stærð: Viðbygging 13,6 ferm., 50,8 rúmm., tvær útigeymslur samtals 6,6 ferm., 17,8 rúmm. Gjald kr. 6.800 + 4.665"
35768 (01.35.300.1),http://gamli.rvk.is/vefur/owa/edutils.parse_page?nafn=BN035768,Kambsvegur 1,stækka svalir,Frestað. Vísað til athugasemda á umsóknarblaði. Að þeim uppfylltum verður málið sent skipulagsstjóra til ákvörðunar um grenndarkynningu.,"Sótt er um leyfi til þess að stækka svalir 1., 2. og 3. hæðar við austurhlið fjölbýlishússins á lóð nr. 1 við Kambsveg. Samþykki nágranna að Kambsvegi 1A og 3 dags. 14. mars 2007 fylgir erindinu. Gjald kr. 6.800"
35773 (04.13.220.1),http://gamli.rvk.is/vefur/owa/edutils.parse_page?nafn=BN035773,Kirkjustétt 2-6,verslun 11-11,Frestað. Vísað til athugasemda á umsóknarblaði.,Sótt er um leyfi til þess að breyta innra skipulagi húss A (matshluta 01) þar sem innréttuð verður matvöruverslun í austurhluta húss og bætt við nýrri flóttahurð á suðurhlið atvinnuhússins á lóð nr. 2-6 við Kirkjustétt. Ljósrit af afsali vegna umsækjanda dags. 12.4 apríl 2007 og bréf hönnuðar ódags. fylgja erindinu. Gjald kr. 6.800
35816 (01.35.620.2 02),http://gamli.rvk.is/vefur/owa/edutils.parse_page?nafn=BN035816,Kleppsvegur 120,Loftnetabúnaður f. GSM,Frestað. Vísað til athugasemda á umsóknarblaði.,Sótt er um leyfi til þess að setja upp þrjú loftnet á efsta hluta stigahúss húss nr. 120 ásamt tengiskáp fyrir GSM - búnað á efsta stigapalli fjölbýlishússins á lóð nr. 118-120 við Kleppsveg. Samþykki f.h. húsfélagsins dags. 2. apríl 2007 fylgir erindinu. Gjald kr. 6.800
35810 (01.32.930.2),http://gamli.rvk.is/vefur/owa/edutils.parse_page?nafn=BN035810,Köllunarklettsvegur 8,"br. innra skipulagi á 1., 2. og 3h.",Frestað. Vísað til athugasemda eldvarnaeftirlits.,"Sótt er um leyfi til að breyta innra fyrirkomulagi 1., 2. og 3. hæðar í skrifstofuhluta ásamt því að síkka glugga  á norðurhlið hússins á lóðinni nr. 8 við Köllunarklettsveg. Gjald kr. 6.800"
35790 (01.17.302.0),http://gamli.rvk.is/vefur/owa/edutils.parse_page?nafn=BN035790,Laugavegur 55,endurnýjun á b.leyfi (bn032444),Samþykkt.  Samræmist ákvæðum laga nr. 73/1997. Áskilin lokaúttekt byggingarfulltrúa. Áskilið samþykki heilbrigðiseftirlits. Áskilið samþykki Vinnueftirlits ríkisins.,"Sótt er um endurnýjun á byggingarleyfi frá 22. nóvember 2005 þar sem sótt var um leyfi til þess að breyta fyrirkomulagi skábrautar og tröppu á lóð, færa sorpgeymslu út á lóð, dýpka gólf í áður sorpgeymslu í kjallara og nýta það rými sem hluta veitingahúss á lóðinni nr. 55 við Laugaveg. Jafnframt er sótt um leyfi til þess að sameina matshluta 01, 02 og 03 lóðinni. Stærð: Stækkun vegna dýpkunar gólfs 16,8 rúmm. Gjald kr. 6.800 + 1.142"
35789 (01.18.130.7),http://gamli.rvk.is/vefur/owa/edutils.parse_page?nafn=BN035789,Lokastígur 24A,Húsið gert að einni íbúð,Frestað. Vísað til athugasemda á umsóknarblaði.,Sótt er um leyfi til að breyta í eina íbúð tvíbýlishúsinu á lóðinni nr. 24A við Lokastíg. Gjald kr. 6.800
34700 (04.05.540.1),http://gamli.rvk.is/vefur/owa/edutils.parse_page?nafn=BN034700,Malarhöfði 10,"millipallur, varahlutir og verkst.",Samþykkt.  Samræmist ákvæðum laga nr. 73/1997. Áskilin lokaúttekt byggingarfulltrúa.,Sótt er um leyfi til þess að breyta matshluta 05 fyrir varahlutaverslun á 1. hæð ásamt verkstæði með tilheyrandi útlitsbreytingu og bætta inn milligólfi fyrir skrifstofur í atvinnuhúsinu á lóð nr. 10 við Malarhöfða. Bréf hönnuðar dags. 17. apríl 2007 fylgir erindinu. Stærð: Milligólf  53 ferm. Gjald kr. 6.100 + 6.800
35802 (01.19.611.1),http://gamli.rvk.is/vefur/owa/edutils.parse_page?nafn=BN035802,Mímisvegur 8,"svalir á 1.,2. og 3.h suðurhliðar",Frestað. Vísað til athugasemda á umsóknarblaði. Málinu vísað til skipulagsstjóra til ákvörðunar um grenndarkynningu. Vísað er til uppdrátta nr. 01 og 02 dags. 4. apríl 2007.,"Sótt er um leyfi til þess að setja svalir við suðlæga hlið 1., 2. og 3. hæðar fjölbýlishússins á lóð nr. 8 við Mímisveg. Gjald kr. 6.800"
35523 (01.24.110.1),http://gamli.rvk.is/vefur/owa/edutils.parse_page?nafn=BN035523,Mjölnisholt 12 - 14,hótel og fjölbýlishús,Samþykkt.  Samræmist ákvæðum laga nr. 73/1997. Frágangur á lóðamörkum verði gerður í samráði við lóðarhafa aðliggjandi lóða. Áskilin lokaúttekt byggingarfulltrúa. Áskilið samþykki heilbrigðiseftirlits.,"Sótt er um leyfi til þess að byggja við núverandi atvinnuhús nr. 14 við Mjölnisholt geymslukjallar og  bílakjallara að norðurhlið, breyta núverandi kjallara í 1. hæð með morgunverðasal og stækkuðum efri hæðum húss í hótel með 63 gistiherbergjum.  Á nýrri 6. og 7. hæð verða sex íbúðir með aðkomu yfir ""gjá"" að norðurhluta húss sem verður sjö stallaðar hæðir með tuttugu og sex íbúðum ofan á kjallarahæðirnar, allt steinsteypt og einangrað að innan á sameinaðri lóð nr. 12-14 við Mjölnisholt. Brunahönnun VSI dags. 20. mars 2007, bílastæðaútreikningur hönnuðar ódags.,  bréf VHÁ ehf. dags. 13. mars 2007 og samrunaskjal lóða innfært 17. apríl 2007 fylgja erindinu. Stærð: Niðurrif efri hæðar útbyggingar Mjölnisholti 14 samtals 94,8 ferm. Stækkun hótel og íbúðir samtals 4956,8 ferm., bílgeymsla 655 ferm., samtals nýbygging 5611,8 ferm., 16484,7 rúmm. pallar og svalagangar (B-rými) samtals 387,4 ferm., 1300,4 rúmm. Gjald kr. 6.800 + 6.800 + 1.209.387"
35808,http://gamli.rvk.is/vefur/owa/edutils.parse_page?nafn=BN035808,Neshagi 15,kjallaraíbúð o.fl.,Frestað. Vísað til athugasemda á umsóknarblaði.,Sótt er um leyfi fyrir breytingum á innra skipulagi vegna eignaskipta í fjölbýlishúsinu á lóðinni nr. 15 við Neshaga.  Einnig er sótt um samþykkt á íbúð í kjallara hússins. Málinu fylgir virðingargjörð dags. 20. mars 1952 og 7. maí 1968. Gjald kr. 6.800
35832 (04.73.330.2),http://gamli.rvk.is/vefur/owa/edutils.parse_page?nafn=BN035832,Norðlingabraut 14,leiðrétting á reyndateikn.,Samþykkt.  Samræmist ákvæðum laga nr. 73/1997. Áskilin lokaúttekt byggingarfulltrúa.,Sótt er um samþykki fyrir leiðréttri reyndarteikningu þar sem sýnt er brunahólfandi rými fyrir loftræstibúnað á 2. hæð atvinnuhússins á lóð nr. 14 við Norðlingabraut. Gjald kr. 6.800
35819 (04.13.310.3),http://gamli.rvk.is/vefur/owa/edutils.parse_page?nafn=BN035819,Prestastígur 9,Loftnetabúnaður f. GSM,Frestað. Vísað til athugasemda á umsóknarblaði.,Sótt er um leyfi til þess að setja upp eitt loftnet efst á norðurhorn lyftuhúss ásamt tengiskáp fyrir GSM - búnað í stigahúsi á 5. hæð fjölbýlishússins á lóð nr. 9 við Prestastíg. Samþykki f.h. húsfélagsins dags. 21. mars 2007 fylgir erindinu. Gjald kr. 6.800
22612 (01.34.210.8),http://gamli.rvk.is/vefur/owa/edutils.parse_page?nafn=BN022612,Rauðalækur 67 ,Breyting inni,Samþykkt.  Samræmist ákvæðum laga nr. 73/1997.,Sótt er um samþykki fyrir reyndarteikningum af húsinu á lóðinni nr. 67 við Rauðalæk. Sýnd er geymsla undir kjallarastiga og innra fyrirkomulagi á þriðju hæð er breytt. Afstöðumynd er breytt þannig að bílskúr sem samþykktur var 30. september 1993 en aldrei byggður er tekinn út af afstöðumynd. Málinu fylgir samþykki allra þinglýstra lóðarhafa. Gjald kr. 4.100
35543 (05.05.510.1),http://gamli.rvk.is/vefur/owa/edutils.parse_page?nafn=BN035543,Sifjarbrunnur 1,Einbýlishús á 2 hæðum,Frestað. Lagfæra skráningartöflu.,"Sótt er um leyfi til að byggja steinsteypt, tvílyft einbýlishús með innbyggðri bílgeymslu á lóðinni nr. 1 við Sifjarbrunn. Stærð:  Íbúð 226,4 ferm., bílgeymsla 36,1 ferm. Samtals 262,5 ferm., 708,6 rúmm. Gjald kr. 6.800 + 48.185"
35687 (01.25.400.1),http://gamli.rvk.is/vefur/owa/edutils.parse_page?nafn=BN035687,Skipholt 50A,fjölga íbúðum 2.hæð,Samþykkt.  Samræmist ákvæðum laga nr. 73/1997. Frágangur á lóðamörkum verði gerður í samráði við lóðarhafa aðliggjandi lóða. Áskilin lokaúttekt byggingarfulltrúa.,Sótt er um leyfi til að fjölga úr 5 íbúðum í 7 á annarri hæð með tilheyrandi breytingum á  innra skipulagi og fjölgun svalahurða út á verönd í húsinu nr. 50A við Skipholt. Meðfylgjandi er samþykki meðlóðarhafa á teikningu dags. 12. desember 2005 með breytingadags. 20. mars 2007. Gjald kr. 6.800
35660 (01.42.740.1),http://gamli.rvk.is/vefur/owa/edutils.parse_page?nafn=BN035660,Skútuvogur 13,leyfi fyrir vindfang,Frestað. Vísað til athugasemda á umsóknarblaði.,"Sótt er um leyfi til að byggja vindfang úr áli og gleri við verslunarhúsið á lóðinni nr. 13 við Skútuvog. Stækkun:  4,2 ferm. og 13,5 rúmm. Gjald kr. 6.800 + 918"
35804 (01.60.--9.9),http://gamli.rvk.is/vefur/owa/edutils.parse_page?nafn=BN035804,Suðurgata Háskóli Ísl,viðbótarf ánastangir og fl.,Samþykkt.  Samræmist ákvæðum laga nr. 73/1997.,"Sótt er um leyfi til þess að setja upp merkingar fyrir Þjóðminjasafn Íslands á garðvegg á norðausturhorni lóðar, með viðbótar fánastöngum að Suðurgötu og fánaborðum við inngang að safnarhúsinu ásamt á glerspjöldum austantil á lóð nr. 41 við Suðurgötu. Samþykki f.h. Háskóla Íslands með tölvubréfi dags. 11. apríl 2007 fylgir erindinu. Gjald kr. 6.800"
35519 (01.26.410.3),http://gamli.rvk.is/vefur/owa/edutils.parse_page?nafn=BN035519,Suðurlandsbraut 24,áður br. innra fyrirkomulag,Frestað. Vísað til athugasemda á umsóknarblaði.,Sótt er um samþykki fyrir núverandi innra skipulagi í kjallara og á 1. - 5. hæð atvinnuhússins á lóð nr. 24 við Suðurlandsbraut. Gjald kr. 6.800 + 6.800
35818 (00.00.000.0 01),http://gamli.rvk.is/vefur/owa/edutils.parse_page?nafn=BN035818,Suðurlandsbraut 32,Loftnetabúnaður f. GSM,Samþykkt.  Samræmist ákvæðum laga nr. 73/1997.,Sótt er um leyfi til þess að setja upp þrjú loftnet efst á  lyftuhús ásamt tengiskáp fyrir GSM - búnað í rými yfir lyftu atvinnuhússins á lóð nr. 32 við Suðurlandsbraut. Samþykki f.h. eigenda dags. 22. janúar 2007 fylgir erindinu. Gjald kr. 6.800
35572,http://gamli.rvk.is/vefur/owa/edutils.parse_page?nafn=BN035572,Sæmundargata 4 (Háskólatorg),byggja 3. hæðina,Samþykkt.  Samræmist ákvæðum laga nr. 73/1997. Frágangur á lóðamörkum verði gerður í samráði við lóðarhafa aðliggjandi lóða. Áskilin lokaúttekt byggingarfulltrúa. Áskilið samþykki heilbrigðiseftirlits.,"Sótt er um leyfi til þess að byggja léttbyggða 3. hæð fyrir skrifstofur og vinnuaðstöðu kennara ofan á suðurhluta Háskólatorgs og breyta lítillega nýsamþykktum neðri hæðum þ.e. Sæmundagötu 10 á lóð Háskóla Íslands við Suðurgötu. Brunahönnun endurskoðuð 5. mars 2007 fylgir erindinu. Stærð: Stækkun samtals 1114,8 ferm., 4567,9 rúmm. Gjald kr. 6.800 + 6.800 + 310.617"
35375 (02.69.850.5),http://gamli.rvk.is/vefur/owa/edutils.parse_page?nafn=BN035375,Úlfarsbraut 98,fjölbýlish. m. 6 íb. og 6 bílg.,Samþykkt.  Samræmist ákvæðum laga nr. 73/1997. Frágangur á lóðamörkum verði gerður í samráði við lóðarhafa aðliggjandi lóða. Áskilin lokaúttekt byggingarfulltrúa.,"Sótt er um leyfi til þess að byggja þriggja hæða steinsteypt fjölbýlishús með sex íbúðum og innbyggðri bílgeymslu fyrir sex bíla allt einangrað að utan og klætt með hvítri málmklæðningu á lóð nr. 98 við Úlfarsbraut. Stærð: Íbúð 1. hæð 243,1 ferm., 2. hæð 239,7 ferm., 3. hæð 351,3 ferm., bílgeymsla 116,6 ferm., samtals 950,7 ferm., 2981,9 rúmm. Gjald kr. 6.800 + 6.800 + 202.769"
34777 (02.52.960.2),http://gamli.rvk.is/vefur/owa/edutils.parse_page?nafn=BN034777,"7"">Viðarrimi 2-18",12 - viðbygging,Samþykkt.  Samræmist ákvæðum laga nr. 73/1997. Frágangur á lóðamörkum verði gerður í samráði við lóðarhafa aðliggjandi lóða. Með vísan til samþykktar borgarráðs frá 1. september 1998 skal utanhúss- og lóðarfrágangi vera lokið eigi síðar en innan tveggja ára frá útgáfu byggingarleyfis að viðlögðum dagsektarákvæðum 57. gr. skipulags- og byggingarlaga nr. 73/1997.,"Sótt er um leyfi til þess að byggja steinsteypta viðbyggingu við vesturhlið keðjuhúss nr. 12 á lóð nr. 2-18 við Viðarrima. Útskrift úr gerðabók embættisafgreiðslufundar skipulagfulltrúa frá 13. október 2006 fylgir erindinu. Samþykki eigenda aðlægra húsa dags. 20. júlií 2006 fylgir erindinu. Stærð: Viðbygging 18,4 ferm., 67,9 rúmm. Gjald kr. 6.100 + 4.617"
35814 (01.19.200.1),http://gamli.rvk.is/vefur/owa/edutils.parse_page?nafn=BN035814,Vitastígur Iðnskóli,Loftnetabúnaður f. GSM síma,Samþykkt.  Samræmist ákvæðum laga nr. 73/1997.,Sótt er um leyfi til að koma fyrir loftnetabúnaði fyrir GSM á skólabyggingunni á lóðinni Vitastíg Iðnskóli. Gjald kr. 6.800
35775 (04.77.380.1),http://gamli.rvk.is/vefur/owa/edutils.parse_page?nafn=BN035775,Þingvað 21,einbýlishús m.viðbættri 2.hæð,Frestað. Vísað til athugasemda á umsóknarblaði.,"Sótt er um leyfi til þess að byggja að hluta tvílyft einbýlishús með innbyggri bílgeymslu allt úr forsteyptum einingum á lóð nr. 21 við Þingvað. Stærð: Einbýlishús íbúð 1. hæð 218 ferm., 2. hæð 57,2 ferm., bílgeymsla 34,2 ferm., samtals 309,4 ferm., 1109 rúmm. Gjald kr. 6.800 + 75.412"
35794 (01.18.630.9),http://gamli.rvk.is/vefur/owa/edutils.parse_page?nafn=BN035794,Þórsgata 24-28,br. eldvarnarmerkingum,Samþykkt.  Samræmist ákvæðum laga nr. 73/1997. Áskilin lokaúttekt byggingarfulltrúa. Áskilið samþykki heilbrigðiseftirlits.,Sótt er um leyfi til að breyta eldvarnarmerkingum á hurðum í rýmum 0001 og 0002 í gistiheimilinu á lóðinni nr. 24-26 við Þórsgötu. Gjald kr 6.800
35827 (04.07.500.1),http://gamli.rvk.is/vefur/owa/edutils.parse_page?nafn=BN035827,Höfðabakki 9,lóðamarkabreyting,Samþykkt.  Samræmist ákvæðum laga nr. 73/1997.,"Lögð fram tillaga Framkvæmdasviðs, landupplýsingadeildar dags. 18. apríl 2007, að breytingu á lóðamörkum lóðarinnar nr. 9 við Höfðabakka. Lóðin er 43109 ferm. Bætt við lóðina 1755 ferm. Tekið af lóðinni 156 ferm. Lóðin verður 44708 ferm. Deiliskipulagsbreyting var samþykkt í skipulagsnefnd 24. júní 2002 og í borgarráði 2. júlí 2002."
35809 (01.13.911.8),http://gamli.rvk.is/vefur/owa/edutils.parse_page?nafn=BN035809,Ásvallagata 48,(fsp) Niðurrif,Frestað. Málinu vísað til umsagnar skipulagsstjóra.,Spurt er hvort leyft yrði að rífa tvíbýlishúsið á lóðinni nr. 48 við Ásvallagötu og byggja nýtt hús
35782 (02.84.620.1),http://gamli.rvk.is/vefur/owa/edutils.parse_page?nafn=BN035782,Baughús 2,(fsp) breyting kjallararými,Jákvætt. Að fyrirspyrjandi láti vinna tillögu að breytingu á deiliskipulagi í samræmi við umsögn skipulagsstjóra dags. 13. apríl 2007. Að öðru leyti er vísað til athugasemda á fyrirspurnarblaði.,Spurt er hvort samþykkt yrði stækkun einbýlishússins í áður sökkulrými með gluggum á suðaustur- og norðausturhlið og annari aðkomu frá norðvesturhlið auk sér aðkomu að geymslurými í suðausturenda kjallara einbýlishússins á lóð nr. 2 við Baughús. Bréf fyrirspyrjanda dags. 23. janúar 2007 fylgir erindinu.
35772 (01.71.310.3),http://gamli.rvk.is/vefur/owa/edutils.parse_page?nafn=BN035772,Blönduhlíð 16,"(fsp) huð út í garð ,sólpallur",Jákvætt. Að uppfylltum skilyrðum enda verði sótt um byggingarleyfi og samþykki meðeigenda fylgi.,Spurt er hvort leyft yrði að setja svalahurð frá svefnherbergi kjallaraíbúðar með um 2m breiðum palli fyrir framan við suðurhlið fjölbýlishússins á lóð nr. 16 við Blönduhlíð.
35786,http://gamli.rvk.is/vefur/owa/edutils.parse_page?nafn=BN035786,Dugguvogur 23,(fsp) íbúð með vinnuaðstöðu,Frestað. Málinu vísað til umsagnar skipulagsstjóra.,Spurt er hvort leyfi fengist til að breyta atvinnuhúsnæði í íbúð eining 0305 í atvinnuhúsnæðinu á lóðinni nr. 23 við Dugguvog.
35792 (01.19.531.3),http://gamli.rvk.is/vefur/owa/edutils.parse_page?nafn=BN035792,Eiríksgata 31,(fsp) viðbygging,Frestað. Málinu vísað til umsagnar skipulagsstjóra.,Spurt er hvort leyfi fengist fyrir viðbyggingu sem nemur stærð svala á norðurhlið þríbýlishússins nr. 31 við Eiriksgötu.
35788 (01.63.660.6),http://gamli.rvk.is/vefur/owa/edutils.parse_page?nafn=BN035788,Fossagata 9,(fsp) viðbygging og kvistir,Frestað. Málinu vísað til umsagnar skipulagsstjóra.,Spurt er hvort leyft yrði að byggja viðbyggingu við 1. hæð ofan á steyptann kjallara við suðurhliðar með svölum á þaki ásamt einn kvist á hvorri þekju einbýlishússins á lóð nr. 9 við Fossagötu.
35787 (04.93.340.6),http://gamli.rvk.is/vefur/owa/edutils.parse_page?nafn=BN035787,Giljasel 9,(fsp) breyting í kjallara,Frestað. Málinu vísað til umsagnar skipulagsstjóra. Biðja skal um íbúðaskoðun byggingarfulltrúa.,Spurt er hvort áður gerð íbúð í kjallara fengist samþykkt í keðjuhúsinu á lóðinni nr. 9 við Giljasel.
35791 (01.81.740.5),http://gamli.rvk.is/vefur/owa/edutils.parse_page?nafn=BN035791,Háagerði 87,(fsp) hækka viðbyggingu,Frestað. Málinu vísað til umsagnar skipulagsstjóra.,"Spurt er hvort leyft yrði að færa til núverandi kvist á suðurhlið, byggja nýjan kvist á norðurhlið og hækka viðbyggingu sem fyrir er við einbýlishúsið á lóðinni nr. 87 við Háagerði."
35833 (01.24.442.0),http://gamli.rvk.is/vefur/owa/edutils.parse_page?nafn=BN035833,Háteigsvegur 2,(fsp) breyta 0102 í hárgreiðslustofu,Jákvætt. Að uppfylltum skilyrðum enda verði sótt um byggingarleyfi og umsókn fylgi samþykki meðeigenda.,Spurt er hvort leyft yrði að innrétta hársnyrtistofu í rými 0102 sem hefur nýlega fengist samþykkt sem íbúð en var áður verslunarhúsnæði á lóðinni nr. 2 við Háteigsveg.
35828 (01.24.720.9),http://gamli.rvk.is/vefur/owa/edutils.parse_page?nafn=BN035828,Hrefnugata 7,(fsp) breikka bílskúr,Frestað. Málinu vísað til umsagnar skipulagsstjóra.,Spurt hvort leyft yrði að breikka bílskúr í vestur í líkingu við skissu á baklóð fjölbýlishússins á lóð nr. 7 við Hrefnugötu.
35797 (01.24.101.5),http://gamli.rvk.is/vefur/owa/edutils.parse_page?nafn=BN035797,Mjölnisholt 10,(fsp) íbúð í geymslu á baklóð,Frestað. Málinu vísað til umsagnar skipulagsstjóra.,Spurt er hvort leyft yrði að innrétta geymslu á baklóð í íbúðarhúsnæði á lóð nr. 10 við Mjölnisholt.
35771 (01.24.310.6),http://gamli.rvk.is/vefur/owa/edutils.parse_page?nafn=BN035771,Rauðarárstígur 24,(fsp) breytingar,Frestað. Málinu vísað til umsagnar skipulagsstjóra.,Spurt er hvort leyft yrði að breyta í verkstæði bílskúrnum við fjölbýlishúsið á lóðinni nr. 24 við Rauðarárstíg.
