nr,url,heimilisfang,tegund,nidurstada,spurning
36042 (05.86.530.1),http://gamli.rvk.is/vefur/owa/edutils.parse_page?nafn=BN036042,Almannadalur 17-23,hesthús nr. 19,Frestað. Vísað til athugasemda á umsóknarblaði.,"Sótt er um leyfi til þess að byggja hesthús með tveimur eignum,  eign 0101 tólf hestar, eign 0102 átján hestar, alls þrjátíu hestar og með kaffiaðstöðu á 2. hæð í hverri eign,  úr steinsteyptum einingum einangrað að utan og klætt með steyptri veðurkápu sem hús nr. 19 á lóð nr. 17-23 í Almannadal. Stærð: Hesthús 1. hæð 258,6 ferm., 2. hæð 162,7 ferm. samtals 421,3 ferm., 1402,1 rúmm. Gjald kr. 6.800 + 95.343"
36041 (05.86.530.1),http://gamli.rvk.is/vefur/owa/edutils.parse_page?nafn=BN036041,Almannadalur 17-23,hesthús nr. 23,Frestað. Vísað til athugasemda á umsóknarblaði.,"Sótt er um leyfi til þess að byggja hesthús með þremur eignum,  eign 0101 tólf hestar, eign 0102 tólf hestar, eign 0103 átján hestar, alls fjörutíuogtveir hestar og með kaffiaðstöðu á 2. hæð í hverri eign, úr steinsteyptum einingum allt einangrað að utan og klætt með steyptri veðurkápu sem hús nr. 23 á lóð nr. 17-23 í Almannadal. Stærð: Hesthús 1. hæð 368,4 ferm., 2. hæð 228 ferm. samtals 596,4 ferm., 1995 rúmm. Gjald kr. 6.800 + 135.660"
36040 (05.86.530.1),http://gamli.rvk.is/vefur/owa/edutils.parse_page?nafn=BN036040,Almannadalur 17-23,hesthús nr. 17,Frestað. Vísað til athugasemda á umsóknarblaði.,"Sótt er um leyfi til þess að byggja hesthús með þremur eignum,  eign 0101 tólf hestar, eign 0102 tólf hestar, eign 0103 átján hestar, alls fjörutíuogtveir hestar og með kaffiaðstöðu á 2. hæð í hverri eign allt einangrað að utan og klætt með steyptri veðurkápu sem hús nr. 17 á lóð nr. 17-23 í Almannadal. Stærð: Hesthús 1. hæð 368,4 ferm., 2. hæð 228 ferm. samtals 596,4 ferm., 1995 rúmm. Gjald kr. 6.800 + 135.660"
35853 (05.86.550.1),http://gamli.rvk.is/vefur/owa/edutils.parse_page?nafn=BN035853,Almannadalur 9-15,hesthús nr. 11,Frestað. Vísað til athugasemda á umsóknarblaði.,"Sótt er um leyfi til þess að byggja hesthús með þremur einingum, einingu 0101 níu hestar, einingu 0102 níu hestar, einingu 0103 tólf hestar, alls þrjátíu hestar og með kaffiaðstöðu á millilofti í hverri eign, allt úr steinsteyptum einingum með ysta yfirborð steinað sem hús nr. 11 á lóð nr. 9-15 í Almannadal. Stærð: Hesthús nr. 11 samtals 383,3 ferm., 1311,9 rúmm. Gjald kr. 6.800 + 89.209"
36135 (01.19.102.8),http://gamli.rvk.is/vefur/owa/edutils.parse_page?nafn=BN036135,Barónsstígur 31,"hækkun á þaki, kvistir",Frestað. Vísað til athugasemda á umsóknarblaði. Að þeim uppfylltum verður málið sent skipulagsstjóra til ákvörðunar um grenndarkynningu.,"Sótt er um leyfi til að lyfta þaki og byggja kvisti á fjölbýlishúsið á lóðinni nr. 31 við Barónsstíg.  Jafnframt er erindi xx dregið til baka. Stækkun xx ferm., xx rúmm. Gjald kr. 6.800 + xx"
36134 (01.19.102.7),http://gamli.rvk.is/vefur/owa/edutils.parse_page?nafn=BN036134,Barónsstígur 33,"lyfta þaki, kvistir",Frestað. Vísað til athugasemda á umsóknarblaði. Að þeim uppfylltum verður málið sent skipulagsstjóra til ákvörðunar um grenndarkynningu.,"Sótt er um leyfi til að lyfta þaki og byggja kvisti á fjölbýlishúsið á lóðinni nr. 33 við Barónsstíg.   Jafnframt er erindi xx dregið til baka. Stækkun xx ferm., xx rúmm. Gjald kr. 6.800 + xx"
36104 (01.67.400.2),http://gamli.rvk.is/vefur/owa/edutils.parse_page?nafn=BN036104,Baugatangi 4,endurnýjun fyrri umsóknar,Samþykkt.  Samræmist ákvæðum laga nr. 73/1997. Frágangur á lóðamörkum verði gerður í samráði við lóðarhafa aðliggjandi lóða. Áskilin lokaúttekt byggingarfulltrúa.,"Sótt er um endurnýjun á byggingarleyfi BN023292 frá 12. mars 2002, endurnýjað 25. maí 2004 og 9. maí 2005, þar sem veitt var leyfi til að byggja steinsteypt einbýlishús með innbyggðri tvöfaldri bílgeymslu þannig að austurhluti húss verði tveggja hæða og ekið er niður í bílgeymslu á lóð nr. 4 við Baugatanga. Stærð: Íbúð 1. hæð 139,7 ferm., 2. hæð 84,4 ferm., bílgeymsla 47,5 ferm., samtals 271,6 ferm., 825,8 rúmm. Gjald kr. 6.800 + 56.154"
35858 (01.17.130.7),http://gamli.rvk.is/vefur/owa/edutils.parse_page?nafn=BN035858,Bergstaðastræti 4,ofanábygging,Frestað. Grenndarkynningu ólokið.,"Sótt er um leyfi til að rífa þak og byggja nýja hæð ofan á, byggja stigahús norðan við og til að breyta nýtingu 2. hæðar fjöleignahússins (Mhl. 1) á lóðinni nr. 4 við Bergstaðastræti. Málinu fylgir greinargerð hönnuðar dags. 24. apríl 2007, umsögn skipulagsfulltrúa dags. 28. febrúar 2007, álit Húsafriðunarnefndar dags. 13. febrúar 2007 og umsögn Minjasafns Reykjavíkur dags. 29. janúar 2007. Málinu fylgir einnig tölvupóstur með samþykki meðlóðarhafa ódagsettur. Ennfremur nýtt samþykki meðlóðarhafa dags. 8 . júní 2007. Einnig lögð fram útskrift úr gerðabók embættisafgreiðslufundar skipulagsstjóra frá 11. maí 2007. Stækkun: 46,1ferm., 342,3 rúmm. Gjald kr. 6.800 + 23.276"
35962 (04.06.510.1),http://gamli.rvk.is/vefur/owa/edutils.parse_page?nafn=BN035962,Bíldshöfði 20,"Stigahús, hurðir",Samþykkt.  Samræmist ákvæðum laga nr. 73/1997. Áskilin lokaúttekt byggingarfulltrúa. Áskilið samþykki heilbrigðiseftirlits.,Sótt er um leyfi til að gera að sjálfstæðu brunahólfi stigahús við suðurhlið á öllum hæðum í atvinnuhúsnæðinu á lóðinni nr. 20 við Bíldshöfða. Gjald kr. 6.800
36029 (01.88.552.1),http://gamli.rvk.is/vefur/owa/edutils.parse_page?nafn=BN036029,Blesugróf 38,innrétta kjallara,Samþykkt.  Samræmist ákvæðum laga nr. 73/1997. Með vísan til samþykktar borgarráðs frá 1. september 1998 skal utanhúss- og lóðarfrágangi vera lokið eigi síðar en innan tveggja ára frá útgáfu byggingarleyfis að viðlögðum dagsektarákvæðum 57. gr. skipulags- og byggingarlaga nr. 73/1997.,"Sótt er um leyfi til þess að innrétta kjallara í áður sökkulrými undir einbýlishúsinu á lóð nr. 38 við Blesugróf. Umsögn burðarvirkishönnuðar dags. 11. júní 2007 fylgir erindinu. Stærð: Kjallari 133,8 ferm., 381,2 rúmm. Gjald kr. 6.800 + 25.922"
36146 (01.35.100.1),http://gamli.rvk.is/vefur/owa/edutils.parse_page?nafn=BN036146,Brúnavegur 13,Viðb. við Laugarásbíó,Frestað. Vísað til athugasemda á umsóknarblaði.,"Sótt er um leyfi til þess að byggja viðbyggingu fyrir snyrtingar við austurhlið núverandi kvikmyndarhúss sem 1. áfanga af áður samþykktri stækkun (BN 34405) Laugaásbíós á lóð Hrafnistu við Brúnaveg. Stærð: Viðbygging (1.áfangi) 95,6 ferm., 553,8 rúmm. Gjald kr. 6.800 + 37.658"
36131 (01.35.710.2),http://gamli.rvk.is/vefur/owa/edutils.parse_page?nafn=BN036131,Efstasund 39,setja dyr á austurhlið útí bakgarð,Samþykkt.  Samræmist ákvæðum laga nr. 73/1997. Með vísan til samþykktar borgarráðs frá 1. september 1998 skal utanhúss- og lóðarfrágangi vera lokið eigi síðar en innan tveggja ára frá útgáfu byggingarleyfis að viðlögðum dagsektarákvæðum 57. gr. skipulags- og byggingarlaga nr. 73/1997.,Sótt er um leyfi til að koma fyrir dyrum út í garð á austurhlið einbýlishússins á lóðinni nr. 39 við Efstasund. Gjald kr. 6.800
35990 (01.52.620.8),http://gamli.rvk.is/vefur/owa/edutils.parse_page?nafn=BN035990,Einimelur 6,breyta innra skipulagi  og fl.,Samþykkt.  Samræmist ákvæðum laga nr. 73/1997. Með vísan til samþykktar borgarráðs frá 1. september 1998 skal utanhúss- og lóðarfrágangi vera lokið eigi síðar en innan tveggja ára frá útgáfu byggingarleyfis að viðlögðum dagsektarákvæðum 57. gr. skipulags- og byggingarlaga nr. 73/1997.,"Sótt er um leyfi til að breyta innra skipulagi, að útbúa innbyggðar svalir á 2. hæð suðurhliðar í samræmi við upphaflegar teikningar, að síkka glugga í borðstofu og til að stækka verönd, byggja útigeymslu, koma fyrir setlaug endurbyggja og stækka steyptan vegg í kringum verönd út í lóðamörk við einbýlishúsið nr. 6. við Einimel. Málinu fylgir samþykki lóðarhafa Einimels 4 áritað á uppdrátt. Gjald kr. 6.800"
36147 (01.19.890.1 30),http://gamli.rvk.is/vefur/owa/edutils.parse_page?nafn=BN036147,Eiríksgata 36,reisa nýjan reykskála úr áli og gleri,Samþykkt.  Samræmist ákvæðum laga nr. 73/1997. Með vísan til samþykktar borgarráðs frá 1. september 1998 skal utanhúss- og lóðarfrágangi vera lokið eigi síðar en innan tveggja ára frá útgáfu byggingarleyfis að viðlögðum dagsektarákvæðum 57. gr. skipulags- og byggingarlaga nr. 73/1997.,"Sótt er um leyfi til að reisa reykskála úr áli og gleri áfastan við vesturhlið geðdeildar LSH á lóðinni nr. 36 við Eiríksgötu. Stærð:  20,6 ferm. 77,96 rúmm. Gjald kr. 6800 + 5.301"
36052 (04.79.160.2),http://gamli.rvk.is/vefur/owa/edutils.parse_page?nafn=BN036052,Elliðavað 7-11,Raðhús m. 3 íb.,Samþykkt.  Samræmist ákvæðum laga nr. 73/1997. Frágangur á lóðamörkum verði gerður í samráði við lóðarhafa aðliggjandi lóða. Áskilin lokaúttekt byggingarfulltrúa.,"Sótt er um leyfi til þess að byggja tvílyft steinsteypt raðhús með þremur íbúðum og jafn mörgum innbyggðum bílgeymslum á lóð nr. 7-11 við Elliðavað. Umboð hönnuðar dags. 18. maí 2007 fylgir erindinu. Stærð: Hús nr. 7 (matshluti 01) íbúð 1. hæð 84,5 ferm., 2, hæð 102,5 frm., bílgeymsla 28,9 ferm., samtals 215,9 ferm., 703,1 rúmm. Hús nr. 9 (matshluti 02) íbúð 1. hæð 94 ferm., 2. hæð 93,6 ferm., bílgeymsla 32,2 ferm., samtals 219,8 ferm., 716,7 rúmm. Hús nr. 11 (matshluti 03) íbúð 1. hæð 95,1 ferm., 2. hæð 95 ferm., bílgeymsla 30,7 ferm., samtals 220,8 ferm., 719,8 rúmm.  Raðhús er samtals 656,5 ferm., 2139,6 rúmm. Gjald kr. 6.800 + 145.493"
36099 (04.35.120.5),http://gamli.rvk.is/vefur/owa/edutils.parse_page?nafn=BN036099,Fagribær 9,Niðurrif,Samþykkt.  Samræmist ákvæðum laga nr. 73/1997.,"Sótt er um leyfi til að rífa einbýlishúsið á lóðinni nr. 9 við Fagrabæ. Stærð niðurrifs:  Fastanr. 204-5439, merkt 0101 íbúð 64,5 ferm. Gjald kr. 6.800"
36046 (01.29.710.1),http://gamli.rvk.is/vefur/owa/edutils.parse_page?nafn=BN036046,Fellsmúli 24-30,br. innréttingum á 2. h,Samþykkt.  Samræmist ákvæðum laga nr. 73/1997. Áskilin lokaúttekt byggingarfulltrúa.,Sótt er um leyfi til þess að setja upp tvo þakglugga á steyptan þakhluta yfir 2. hæð og breyta innra skipulagi skrifstofuhúsnæðis 2. hæðar ásamt eignaafmörkun að stigahúsi 2. hæðar atvinnuhússins (Mhl. 2) á lóð nr. 24-30 við Fellsmúla. Gjald kr. 6.800
36050 (01.08.930.1),http://gamli.rvk.is/vefur/owa/edutils.parse_page?nafn=BN036050,Fiskislóð 15-21,br. inni og útlit,Frestað. Vísað til athugasemda á umsóknarblaði.,"Sótt er um leyfi til þess að stækka byggingavöruverslun á kostnað timburverslunar sbr. erindi BN34701, auka lofthæð í skrifstofurými á 2. hæð, stækka stiga milli 1. og 2. hæðar, breyta opum á útvegg og innra skipulagi verslunarhússins á lóð nr. 15-21 við Fiskislóð. Brunahönnun VGK dags. í maí 2007 og samþykki f.h. Faxaflóahafnar (á teikningu) fylgja erindinu. Stærð: Verslunarhús var 7149,1 ferm. verður 7145,1 ferm., var 65362,8 rúmm. verður 65433,8 rúmm. eða 4 ferm., minnkun, og aukning um 71 rúmm. Gjald kr. 6.800 + 4.828"
35355 (10.89.102),http://gamli.rvk.is/vefur/owa/edutils.parse_page?nafn=BN035355,Fiskislóð 29,bílaþvottastöð,Frestað. Vantar hæðar- og mæliblað ásamt vottun eininga.,"Sótt er um leyfi til þess að byggja einlyft stálgrindarhús klætt með stálsamlokueiningum fyrir bílaþvottastöð á lóð nr. 29 við Fiskislóð. Brunahönnun dags. 29. janúar og 30. maí 2007,  bréf hönnuðar dags. 5. júní 2007 og lýsing á einingum fylgja erindinu. Stærð: Bílaþvottastöð samtals 630,5 ferm. 3134,8 rúmm. Yfirbyggð þvottastæði (B-rými) samtals 411,9 ferm., 1970,3 rúmm. Gjald kr. 6.800 + 6.800 + 347.147"
35716 (01.68.--9.9 09),http://gamli.rvk.is/vefur/owa/edutils.parse_page?nafn=BN035716,Flugvöllur 106930,gámahús til bráðab.,Frestað. Vísað til athugasemda á umsóknarblaði.,"Sótt er um leyfi til bráðabirgða fyrir 4 gámum auk óupphitaðrar tengibyggingar að húsi Landhelgisgæslunar á Reykjavíkurflugvelli  Meðfylgjandi er samkomulag milli Flugstoða og Landhelgisgæslunar dags. 11. jan. 2007, útskrift úr gerðabók skipulagsfulltrúa dags. 19. mars 2007. Stærð: Gámahús: 60 ferm., 150 rúmm., Tengigangar: 64,1 ferm., 150,1 rúmm. Gjald kr. 6.800 + 20.407"
36095 (02.45.610.1),http://gamli.rvk.is/vefur/owa/edutils.parse_page?nafn=BN036095,Fossaleynir 1,Stækkun girðingar,Samþykkt.  Samræmist ákvæðum laga nr. 73/1997.,Sótt er um leyfi til þess að stækka girðingu utan um geymslusvæði austurhúss íþrótta- og afþreyingarmiðstöðvarinnar á lóðinni nr. 1 við Fossaleyni. Bréf hönnuðar dags. 28. maí 2007 fylgir erindinu. Gjald kr. 6.800
35706 (02.69.580.1),http://gamli.rvk.is/vefur/owa/edutils.parse_page?nafn=BN035706,Freyjubrunnur 33,"fjölbýlish. m. 5 íb., 5. bílg.",Frestað. Skipulagsferli ólokið.,"Sótt er um leyfi til þess að byggja fjögurra hæða steinsteypt fjölbýlishús með samtals fimm íbúðum og innbyggðri bílgeymslu fyrir fimm bíla á lóð nr. 33 við Freyjubrunn. Umsögn skipulagsstjóra dags. 4. maí 2007 fylgir erindinu. Stærð: Geymslur íbúða o.fl. 1. hæð 177,6 ferm., íbúðir 2. hæð 254,8 ferm., 3. hæð 254,8 ferm., 4. hæð  194,5 ferm., bílgeymsla 113,1 ferm., fjölbýlishús samtals 994,8 ferm., 3056,1 rúmm. Gjald kr. 6.800 + 6.800 + 207.815"
35708 (02.69.350.9),http://gamli.rvk.is/vefur/owa/edutils.parse_page?nafn=BN035708,Friggjarbrunnur 31-33,nýbygging parhús,Frestað. Vísað til athugasemda á umsóknarblaði.,"Sótt er um leyfi til þess að byggja tveggja  hæða parhús ásamt kjallara og með innbyggðum bílgeymslum allt úr forsteyptum einingum á lóð nr. 31-33 við Friggjarbrunn. Stærð: Parhús nr. 31 (matshluti 01) íbúð kjallari 85,4 ferm., 1. hæð 71,5 ferm., 2. hæð 83,9 ferm., bílgeymsla 27,1 ferm., samtals 267,9 ferm., 877,5 rúmm. Parhús nr 33 (matshluti 02) er sömu stærðar og hús nr. 31 eða samtals 267,9 ferm., 877,5 rúmm. Gjald kr. 6.800 + 6.800 + 119.340"
35996 (01.13.651.2),http://gamli.rvk.is/vefur/owa/edutils.parse_page?nafn=BN035996,Grjótagata 9,Viðbygg. til versturs og suðurs.,Samþykkt.  Samræmist ákvæðum laga nr. 73/1997. Frágangur á lóðamörkum verði gerður í samráði við lóðarhafa aðliggjandi lóða. Með vísan til samþykktar borgarráðs frá 1. september 1998 skal utanhúss- og lóðarfrágangi vera lokið eigi síðar en innan tveggja ára frá útgáfu byggingarleyfis að viðlögðum dagsektarákvæðum 57. gr. skipulags- og byggingarlaga nr. 73/1997.,"Sótt er um leyfi til að byggja við til vesturs og suðurs, byggja stigahús og anddyri til norðurs, lækka gólf í kjallara og útbúa tvær íbúðir í húsinu á lóðinni nr. 9 við Grjótagötu. Virðingargjörð dags. 1. apríl 1943 fylgir erindinu. Stækkun:  104,7 ferm., 290,2 rúmm. Gjald kr. 6.800 + 19.734"
35872 (02.57.570.2),http://gamli.rvk.is/vefur/owa/edutils.parse_page?nafn=BN035872,Gylfaflöt 9,"Br. inni, millip., gluggar",Frestað. Vísað til athugasemda á umsóknarblaði.,"Sótt er um leyfi til að breyta atvinnuhúsnæði til aðlögunar að rekstri fyrirtækisins Landsnet þar sem innra fyrirkomulagi er breytt, bætt við gluggum, inngangur færður til og hurðum breytt, byggður millipallur á 2. hæð, leiðréttar stærðir húss ásamt tilfærslu á sorpi og breytingu á bílstæðum á lóð nr. 9 við Gylfaflöt.  Jafnframt er erindi 35469 dregið til baka. Bréf hönnuðar dags. 26. apríl og 4. júní 2007 og drög að brunahönnun ódagsett. og umsögn burðarvirkishönnuðar dags. 19. maí 2007 fylgja erindinu. Stærð: Millipallur 379 ferm. Samtals verður hús 4663,7 ferm., 18899,9 rúmm. Gjald kr. 6.800"
35634 (01.23.400.1),http://gamli.rvk.is/vefur/owa/edutils.parse_page?nafn=BN035634,Hátún 10-12,breyting kjallara nr. 10,Samþykkt.  Samræmist ákvæðum laga nr. 73/1997. Áskilin lokaúttekt byggingarfulltrúa.,"Sótt er um leyfi fyrir að breyta innra fyrirkomulagi í kjallara og koma fyrir þvottahúsi, fjölga geymslum og stækka verkstæðisaðstöðu með því að  fækka bílastæðum um 11 í kjalllara vistheimili Öryrkjabandalagsins nr. 10 við Hátún. Bréf hönnuðar dags. 29. mars 2007 fylgir erindinu. Gjald kr. 6.800"
35951 (01.23.400.2),http://gamli.rvk.is/vefur/owa/edutils.parse_page?nafn=BN035951,Hátún 14,2 h norð og ofan á vest,Samþykkt.  Samræmist ákvæðum laga nr. 73/1997. Frágangur á lóðamörkum verði gerður í samráði við lóðarhafa aðliggjandi lóða. Áskilin lokaúttekt byggingarfulltrúa. Með vísan til samþykktar borgarráðs frá 1. september 1998 skal utanhúss- og lóðarfrágangi vera lokið eigi síðar en innan tveggja ára frá útgáfu byggingarleyfis að viðlögðum dagsektarákvæðum 57. gr. skipulags- og byggingarlaga nr. 73/1997.,"Sótt er um leyfi til þess að byggja tveggja hæða steinsteypta viðbyggingu við norðurhlið íþróttahúss fatlaðra, einnar hæða tengigang við 1. hæð austurhliðar, breyta rými við suðvesturhorn 1. hæðar í búningsaðstöðu ásamt ofanábyggingu á vesturhluta húss með nýjum stiga og lyftu við hlið aðalinngangs sem seinni áfanga á lóð nr. 14 við Hátún. Bréf hönnuðar dags. 8. maí og 5. júní 2007 ásamt umsögn Rb vegna ""Lett-Tak"" eininga dags. 30. nóvember 2006 fylgja erindinu. Stærð: Viðbyggingar samtals 972,5 ferm., 3747,1 rúmm. Gjald kr. 6.800 + 254.803"
34278 (01.35.311.3),http://gamli.rvk.is/vefur/owa/edutils.parse_page?nafn=BN034278,Hjallavegur 14,bílskúr,Samþykkt.  Samræmist ákvæðum laga nr. 73/1997. Frágangur á lóðamörkum verði gerður í samráði við lóðarhafa aðliggjandi lóða. Áskilin lokaúttekt byggingarfulltrúa. Með vísan til samþykktar borgarráðs frá 1. september 1998 skal utanhúss- og lóðarfrágangi vera lokið eigi síðar en innan tveggja ára frá útgáfu byggingarleyfis að viðlögðum dagsektarákvæðum 57. gr. skipulags- og byggingarlaga nr. 73/1997. Komi til þess að dæla þurfi frárennsli frá bílgeymslunni er allur búnaður og rekstrarkotnaður greiddur af umsækjanda.,"Sótt er  um leyfi til að byggja steinsteyptan tvöfaldan bílskúr á lóðinni nr. 14 við Hjallaveg. Málinu fylgir samþykki lóðarhafa Hjallavegar 12 áritað á uppdrátt. Stærð: 54 ferm., 192,5 rúmm. Gjald kr. 6.100 + 6.800 + 13.090"
36091 (00.00.000.0),http://gamli.rvk.is/vefur/owa/edutils.parse_page?nafn=BN036091,Hlíðarhús 3-5,br. skráningu,Samþykkt.  Samræmist ákvæðum laga nr. 73/1997. Þinglýsa skal yfirlýsingu um að íbúðirnar hafi sama eignarhald.,"Sótt er um leiðréttingu á skráningu Eirarhúss, húshluta með öryggisíbúðum (matshluti 02) á lóðinni nr. 3-5 við Hlíðarhús. Gjald kr. 6.800"
35903 (01.43.010.1),http://gamli.rvk.is/vefur/owa/edutils.parse_page?nafn=BN035903,Holtavegur 23,br. á innra fyrirkomulagi við gang í kj.,Samþykkt.  Samræmist ákvæðum laga nr. 73/1997. Áskilin lokaúttekt byggingarfulltrúa. Áskilið samþykki heilbrigðiseftirlits.,Sótt er um leyfi fyrir minnháttar breytingum á innra fyrirkomulagi í kjallara Langholtsskóla í A-álmu hússins á lóðinni nr. 23 við Holtaveg. Erindinu fylgir umsögn brunahönnuðar dags. 1. júní 2007.  Gjald kr. 6.800
35994 (01.36.020.5),http://gamli.rvk.is/vefur/owa/edutils.parse_page?nafn=BN035994,Hraunteigur 3,bæta hæð ofan á hús,Samþykkt.  Samræmist ákvæðum laga nr. 73/1997. Með vísan til samþykktar borgarráðs frá 1. september 1998 skal utanhúss- og lóðarfrágangi vera lokið eigi síðar en innan tveggja ára frá útgáfu byggingarleyfis að viðlögðum dagsektarákvæðum 57. gr. skipulags- og byggingarlaga nr. 73/1997. Áskilin lokaúttekt byggingarfulltrúa.,"Sótt er um leyfi til að byggja hæð ofan á einbýlishúsið á lóðinni nr. 3 við Hraunteig. Leiðréttar eru stærðir á bílskúr. Stærðir: Leiðréttar stærðir bílskúrs 44,8 ferm., 130,0 rúmm. Stækkun: Íbúðarhúsnæði 82,3 ferm., 199,2 rúmm. Gjald kr. 6.800 + 13.546"
35985 (04.11.340.5),http://gamli.rvk.is/vefur/owa/edutils.parse_page?nafn=BN035985,Jónsgeisli 57,"stækka verönd, skjólveggur",Samþykkt.  Samræmist ákvæðum laga nr. 73/1997. Frágangur á lóðamörkum verði gerður í samráði við lóðarhafa aðliggjandi lóða. Með vísan til samþykktar borgarráðs frá 1. september 1998 skal utanhúss- og lóðarfrágangi vera lokið eigi síðar en innan tveggja ára frá útgáfu byggingarleyfis að viðlögðum dagsektarákvæðum 57. gr. skipulags- og byggingarlaga nr. 73/1997.,"Sótt er um leyfi til að stækka verönd við suðurhlið, setja upp skjólveggi og steypa tröppur niður í garð við einbýlishúsið á lóðinni nr. 57 við Jónsgeisla. Meðfylgjandi er samþykki aðliggandi lóðarhafa dags 14. maí 2007, aukaafrit vegna samþykki Jónsgeisla 55. Einnig lögð fram útskrift úr gerðabók embættisafgreiðslufundar skipulagsstjóra frá 8. júní 2007. Gjald kr. 6.800"
35868 (04.11.330.6),http://gamli.rvk.is/vefur/owa/edutils.parse_page?nafn=BN035868,Jónsgeisli 91,Atvinnuhús á einni hæð,Samþykkt.  Samræmist ákvæðum laga nr. 73/1997. Frágangur á lóðamörkum verði gerður í samráði við lóðarhafa aðliggjandi lóða. Áskilin lokaúttekt byggingarfulltrúa. Skila skal vottun eininga eigi síðar en við úttekt á botnplötu.,"Sótt er um leyfi til þess að byggja einlyft steinsteypt atvinnuhús allt einangrað að utan og klætt með álplötum fyrir tvær verslunar- og þjónustueiningar á lóð nr. 91 við Jónsgeisla. Stærð: Atvinnuhús samtals 240 ferm., 1458 rúmm. Gjald kr. 6.800 + 6.800 + 99.144"
36186 (04.11.330.7),http://gamli.rvk.is/vefur/owa/edutils.parse_page?nafn=BN036186,Jónsgeisli 93,takmarkað byggingarleyfi,Samþykkt.  Samræmist ákvæðum laga nr. 73/1997. Samþykktin fellur úr gildi við útgáfu á endanlegu byggingarleyfi.  Vegna útgáfu á takmörkuðu byggingarleyfi skal umsækjandi hafa samband við yfirverkfræðing embættis byggingarfulltrúa.,"Ofanritaður sækir um takmarkað byggingarleyfi fyrir greftri, fyllingu og aðstöðugerð á lóðinni nr. 93 við Jónsgeisla."
36117 (34.53.380.2),http://gamli.rvk.is/vefur/owa/edutils.parse_page?nafn=BN036117,"Kistumelur 6, 6a og 8",bráðab. byggingaleyfi,Samþykkt.  Samræmist ákvæðum laga nr. 73/1997. Samþykktin fellur úr gildi við útgáfu á endanlegu byggingarleyfi.  Vegna útgáfu á takmörkuðu byggingarleyfi skal umsækjandi hafa samband við yfirverkfræðing embættis byggingarfulltrúa.,Sótt er um takmarkað byggingarleyfi til að jafna jarðveg og koma upp aðstöðu á lóðinni nr. 6-8 við Kistumel. Gjald kr. 6.800
36173 (01.72.100.1),http://gamli.rvk.is/vefur/owa/edutils.parse_page?nafn=BN036173,Kringlan  4-12,"takm. byggingl. sökkl, grunnpl, kaffihús",Samþykkt.  Samræmist ákvæðum laga nr. 73/1997. Samþykktin fellur úr gildi við útgáfu á endanlegu byggingarleyfi.  Vegna útgáfu á takmörkuðu byggingarleyfi skal umsækjandi hafa samband við yfirverkfræðing embættis byggingarfulltrúa.,Ofanritaður sækir um takmarkað byggingarleyfi fyrir sökklum og grunnplötu vegna viðbyggingar fyrir kaffihúsi á lóðinni nr. 4-12 við Kringluna.
35743 (04.14.120.1),http://gamli.rvk.is/vefur/owa/edutils.parse_page?nafn=BN035743,Krókháls 9,"bílaumb., verkst. og verslun",Frestað. Umsækjandi hafi samband við Orkuveitu Reykjavíkur vegna kvaða á lóðinni.,"Sótt er um leyfi til þess að byggja steinsteypt einlyft atvinnuhús ásamt kjallara undir hluta og millilofti fyrir bílaumboð, verslun og verkstæði allt einangrað að utan og klætt með ýmist liggjandi svörtu trapisustáli, dökkgrænu stáli og álplötuklæðningu á lóð nr. 9 við Krókháls. Brunahönnun VSI dags. 29. mars 2007 fylgir erindinu. Stærð: Kjallari 1705,7 ferm., 1. hæð 5766,4 ferm., samtals 7472,1 ferm., 42434,3 rúmm. Gjald kr. 6.800 + 6.800 + 2.885.532"
36103 (01.54.320.8),http://gamli.rvk.is/vefur/owa/edutils.parse_page?nafn=BN036103,Kvisthagi 4,hækkun á þaki,Frestað. Vísað til athugasemda á umsóknarblaði. Málinu vísað til umsagnar skipulagsstjóra.,"Sótt er um leyfi til að hækka þak, byggja kvisti og innrétta rishæð fjölbýlishússins á lóðinni nr. 4 við Kvisthaga. Stækkun:  xx ferm., xx rúmm. Gjald kr. 6.800 + xx"
35675 (04.99.850.2),http://gamli.rvk.is/vefur/owa/edutils.parse_page?nafn=BN035675,Lambasel 20,breyta byggingaraðferð,Frestað. Skila skal vottunarskjali vegna eininga.,Sótt er um leyfi til þess að breyta byggingaraðferð áður samþykkts staðsteypts einbýlishúss í forsteyptar einingar sbr. BN34395 á lóð nr. 20 við Lambasel. Gjald kr. 6.800
35645 (01.35.321.4),http://gamli.rvk.is/vefur/owa/edutils.parse_page?nafn=BN035645,Langholtsvegur 12,Samþykki fyrir 2 íbúðum,Frestað. Lagfæra skráningu.,Sótt er um leyfi til að fá samþykkta áður gerða kjallaraíbúð í einbýlishúsinu á lóðinni nr. 12 við Langholtsveg. Málinu fylgir íbúðarskoðun byggingarfulltrúa dags. 30. september 2005 og virðingargjörð dags. 6. febrúar 1948.  Einnig fylgir ný íbúðarskoðun dags. 23. maí 2007. Gjald kr. 6.800
35982 (01.44.530.4),http://gamli.rvk.is/vefur/owa/edutils.parse_page?nafn=BN035982,Langholtsvegur 200,Stækkun kvista á rishæð,Frestað. Vísað til athugasemda á umsóknarblaði.,"Sótt er um leyfi til að stækka kvisti og breyta minniháttar innra skipulagi í einbýlishúsinu á lóðinni nr. 200 við Langholtsveg. Útskrift úr gerðabók embættisafgreiðslufundar skipulagsstjóra frá 8. júní 2007 fylgri erindinu. Stækkun:  xx ferm., xx rúmm. Gjald kr. 6.800 + xx"
36083 (01.36.511.0),http://gamli.rvk.is/vefur/owa/edutils.parse_page?nafn=BN036083,Laugateigur 42,leiðr. teikningar af risi 34149,Samþykkt.  Samræmist ákvæðum laga nr. 73/1997.,Sótt er um leiðréttingu á teikningu rishæðar frá  25. júlí 2006 (erindi BN34149) af tvíbýlishúsinu á lóð nr. 42 við Laugateig. Gjald kr. 6.800
36144 (01.25.110.1),http://gamli.rvk.is/vefur/owa/edutils.parse_page?nafn=BN036144,Laugavegur 176,breytingar á innra skipulagi,Samþykkt.  Samræmist ákvæðum laga nr. 73/1997. Áskilin lokaúttekt byggingarfulltrúa.,Sótt er  um leyfi til breytinga á innra skipulagi atvinnuhússins á lóðinni nr. 176 við Laugaveg. Gjald kr. 6.800
35986 (01.17.150.1),http://gamli.rvk.is/vefur/owa/edutils.parse_page?nafn=BN035986,Laugavegur 18,Br. hl. 3. h úr skrifst. í íb. herb.,Frestað. Vísað til athugasemda á umsóknarblaði.,"Sótt er um leyfi til þess að breyta hluta 3., 4. og 5. hæðar úr skrifstofum í íbúðarherbergi allt eignartengt íbúð 6. hæðar í fjöleignarhúsinu á lóðinni nr. 18 við Laugaveg.  Samþykki sumra meðeigenda dags. 26. apríl 2007 fylgir erindinu. Gjald kr. 6.800"
36119 (01.25.200.1),http://gamli.rvk.is/vefur/owa/edutils.parse_page?nafn=BN036119,Laugavegur 180-182,Reyndarteikn. nr.182,Samþykkt.  Samræmist ákvæðum laga nr. 73/1997. Áskilin lokaúttekt byggingarfulltrúa.,Sótt er um leyfi fyrir minni háttar breytingum á innra skipulagi vegna lokaúttektar á atvinnuhúsinu á lóðinni nr. 180-182 við Laugaveg. Gjald kr. 6.800
35968 (04.23.660.1),http://gamli.rvk.is/vefur/owa/edutils.parse_page?nafn=BN035968,Laxakvísl  2-6,Endurn. á byggingarl.(BN021276 - BN031764),Samþykkt.  Samræmist ákvæðum laga nr. 73/1997. Frágangur á lóðamörkum verði gerður í samráði við lóðarhafa aðliggjandi lóða. Með vísan til samþykktar borgarráðs frá 1. september 1998 skal utanhúss- og lóðarfrágangi vera lokið eigi síðar en innan tveggja ára frá útgáfu byggingarleyfis að viðlögðum dagsektarákvæðum 57. gr. skipulags- og byggingarlaga nr. 73/1997. Áskilin lokaúttekt byggingarfulltrúa.,"Sótt er um endurnýjun á byggingarleyfi nr. 21276 frá 28. janúar 2003 þar sem sótt var um ""leyfi til að byggja sex sambyggðar bílgeymslur úr steinsteypu á lóðinni nr. 2-6 við Laxakvísl. Jafnframt verði þrjú bílastæði flutt til innan lóðar."" Erindið var grenndarkynnt frá 3. ágúst til 1. september 2000. Engar athugasemdir bárust. Byggingarleyfið var endurnýjað 31. maí 2005 með erindi nr. 31764. Erindi 21276 fylgdi umsögn Borgarskipulags dags. 14. júlí 2000, útskrift úr gerðarbók skipulags- og umferðarnefndar frá 11. september 2000, útskrift úr gerðabók afgreiðslufundar skipulagsstjóra frá 3. nóvember 2000 og samþykki meðlóðarhafa dags. 6. janúar 2003. Erindi 31764 fylgdi samþykki meðlóðarhafa dags. 7.  maí 2005. Einnig lögð fram útskrift úr gerðabók embættisafgreiðslufundar frá 8. júní 2007. Stærðir: Samtals 161 ferm., 565 rúmm. Gjald kr. 6.800 + 38.420"
35869 (34.53.340.3),http://gamli.rvk.is/vefur/owa/edutils.parse_page?nafn=BN035869,Lækjarmelur 12,skipting eignarhluta,Frestað. Vísað til athugasemda eldvarnaeftirlits.,"Sótt er um leyfi til að breyta atvinnuhúsnæðinu sbr. erindi BN34233 þannig að í stað fjögurra eignahluta verði húsið átta eignahlutar með stærri millifleti ásamt samþykki fyrir leiðréttingu rúmmáls hússins á lóðinni nr. 12 við Lækjarmela. Stærð: Nýjar stærðir: 1.358,2, ferm. og 7.988 rúmm. Stækkun xxx ferm.,  xxx rúmm.  Gjald kr. 6.800 + xxx"
35846 (02.84.830.9),http://gamli.rvk.is/vefur/owa/edutils.parse_page?nafn=BN035846,Miðhús 44,breyting inni - breyting úti,Frestað. Gefa upp stækkun í fermetrum og rúmmetrum.,"Sótt er um leyfi til að grafa út sökkla, byggja sólstofu við jarðhæð, byggja yfir svalir á 2. hæð, afmarka sérnotaflöt á lóð og  breyta innra skipulagi og útliti tvíbýlishússins á lóðinni nr. 44 við Miðhús. Útskrift úr gerðabók embættisafgreiðslufundar skipulagsstjóra frá 11. maí 2007 fylgir erindinu. Stækkun:  76,7 ferm., og xx rúmm. Gjald kr. 6.800 + 17.347"
36167 (04.77.130.2),http://gamli.rvk.is/vefur/owa/edutils.parse_page?nafn=BN036167,Móvað 19,breyting á þakklæðningu,Samþykkt.  Samræmist ákvæðum laga nr. 73/1997.,"Sótt er um leyfi til að breyta um þakklæðningu frá bárujárni í þakdúk frá áður samþykktum uppdráttum, sbr. erindi BN030728  á einbýlishúsinu á lóðinni nr. 19 við Þingvað. Gjald kr. 6.800"
36181 (01.11.530.3),http://gamli.rvk.is/vefur/owa/edutils.parse_page?nafn=BN036181,Mýrargata 26,takmarkað byggingarleyfi,Samþykkt.  Samræmist ákvæðum laga nr. 73/1997. Samþykktin fellur úr gildi við útgáfu á endanlegu byggingarleyfi.  Vegna útgáfu á takmörkuðu byggingarleyfi skal umsækjandi hafa samband við yfirverkfræðing embættis byggingarfulltrúa.,"Ofanritaður sækir um takmarkað byggingarleyfi fyrir greftri, fyllingu og aðstöðugerð á lóðinni nr. 26 við Mýrargötu."
36120 (01.18.212.5),http://gamli.rvk.is/vefur/owa/edutils.parse_page?nafn=BN036120,Njálsgata 23,"Stækka kvist (norður og suður hlið), ekki hækkun.",Frestað. Vísað til athugasemda á umsóknarblaði.,"Sótt er um leyfi til að stækka kvisti á garðhlið og götuhlið fjölbýlishússins á lóðinni nr. 23, Mhl. 1 við Njálsgötu. Stækkun 4 ferm., 3,17 rúmm. Gjald kr. 6.800 + 216"
35954 (01.35.240.1),http://gamli.rvk.is/vefur/owa/edutils.parse_page?nafn=BN035954,Norðurbrún 1,br. innra skipulag,"Samþykkt.  Samræmist ákvæðum laga nr. 73/1997. Áskilið samþykki heilbrigðiseftirlits.

Þinglýsa skal yfirlýsingu um að eignarhald íbúða sé allt á sömu hendi.","Sótt er um leyfi til þess að breyta innra skipulagi þar sem innréttað verður, hárgreiðsla, snyrtistofa, tölvuver og bætt starfsmannaaðstaða í þjónustuveri í kjallara, sýnd er stækkun kjallara í áður sökkulrými og stækkaðir gluggar á norðausturhlið samkomusalar í kjallara, íbúðareiningu á 1. hæð breytt í vinnurými heimaþjónustu, skrifstofum og fundarherbergi á 1. hæð breytt, smá breytingar á innra skipulagi 2. hæðar og uppfærðar brunavarnir í öllu húsinu á lóð nr. 1 við Norðurbrún. Stærð: Stækkun kjallara 164,9 ferm., 312,2 rúmm. Gjald kr. 6.800 + 21.230"
35887 (01.44.131.2),http://gamli.rvk.is/vefur/owa/edutils.parse_page?nafn=BN035887,Nökkvavogur 23,Minni lofthæð í kjallara,"Samþykkt.  Samræmist ákvæðum laga nr. 73/1997. Frágangur á lóðamörkum verði gerður í samráði við lóðarhafa aðliggjandi lóða. Áskilin lokaúttekt byggingarfulltrúa.

Helga Guðmundsdóttir vék af fundi við afgreiðslu málsins.",Sótt er um leyfi til þess að breyta frá nýlega samþykktum teikningum (BN35564) þannig að lofthæð kjallara bílgeymslu lækkar um 65 cm. og burðarvirki þaks breytt í kraftsperrur í bílgeymslunni sbr. erindi BN33708 á lóðinnin nr. 23 við Nökkvavog. Stærðir:  Gjald kr. 6.800 + 6.800 +
36184 (04.12.640.1),http://gamli.rvk.is/vefur/owa/edutils.parse_page?nafn=BN036184,Ólafsgeisli 95,takmarkað byggingarleyfi,Samþykkt.  Samræmist ákvæðum laga nr. 73/1997. Samþykktin fellur úr gildi við útgáfu á endanlegu byggingarleyfi.  Vegna útgáfu á takmörkuðu byggingarleyfi skal umsækjandi hafa samband við yfirverkfræðing embættis byggingarfulltrúa.,"Ofanritaður sækir um takmarkað byggingarleyfi fyrir greftri, fyllingu og aðstöðugerð á lóðinni nr. 95 við Ólafsgeisla."
36101 (04.77.310.3),http://gamli.rvk.is/vefur/owa/edutils.parse_page?nafn=BN036101,Rauðavað 1-3,hurð úr stigahúsi,Samþykkt.  Samræmist ákvæðum laga nr. 73/1997.,Sótt er um leyfi til að breyta brunamerkingu á hurðum úr stigahúsi fjölbýlishússins á lóðinni nr. 1-3 við Rauðavað. Gjald kr. 6.800
36130 (01.28.130.3),http://gamli.rvk.is/vefur/owa/edutils.parse_page?nafn=BN036130,Safamýri 19,"neyðarútg, hurðar",Frestað. Vantar samþykki meðeigenda.,Sótt er um leyfi til að saga niður úr glugga í stofu neðstu hæðar til að útbúa neyðarútgang í fjölbýlishúsinu á lóðinni nr. 19 við Safamýri. Gjald kr. 6.800
36082 (01.13.010.5),http://gamli.rvk.is/vefur/owa/edutils.parse_page?nafn=BN036082,Seljavegur 2,br. 5.h í íbúð,Frestað. Vísað til athugasemda á umsóknarblaði.,"Sótt er um leyfi til þess að breyta atvinnuhúsnæði á 5. hæð matshluta 01 í íbúð, bæta við glugga á norðvesturhlið og norðausturhlið ásamt svölum í stað áður snyrtinga á 5. hæð fjöleignahússins á lóð nr. 2 við Seljaveg. Útskrift úr gerðabók embættisafgreiðslufundar skipulagsstjóra frá 8. júní 2007 fylgir erindinu. Gjald kr. 6.800"
36140 (01.29.200.6),http://gamli.rvk.is/vefur/owa/edutils.parse_page?nafn=BN036140,Síðumúli  3-5,"br. inni, nýtt vindf. og gl.",Frestað. Vísað til athugasemda á umsóknarblaði.,"Sótt er um leyfi til þess að breyta innra skipulagi, bæta við vindfangi á suðurhlið, breyta gluggum og fjarlægja núverandi akstursdyr á austur- og vesturhlið og setja í þeirra stað glugga með vöruhurðum á atvinnuhúsið á lóð nr. 3-5 við Síðumúla. Gjald kr. 6.800"
35664 (01.67.600.5),http://gamli.rvk.is/vefur/owa/edutils.parse_page?nafn=BN035664,Skildinganes 44,einbýlishús m. innb. bílg.,Frestað. Vísað til athugasemda á umsóknarblaði.,"Sótt er um leyfi til þess að byggja tvílyft steinsteypt einbýlishús með innbyggðri tvöfaldri bílgeymslu á lóð nr. 44 við Skildinganes. Stærð: Íbúð kjallari 205,3 ferm., 1. hæð 194,5 ferm., bílgeymsla 47,8 ferm., samtals 447,6 ferm., 1917,1 rúmm. Gjald kr. 6.800 + 6.800 + 130.363"
36084 (01.35.600.5),http://gamli.rvk.is/vefur/owa/edutils.parse_page?nafn=BN036084,Skipasund 1,"Kvistur, klæðning",Frestað. Vísað til athugasemda á umsóknarblaði.,"Sótt er um leyfi til að byggja kvisti á vesturþekju og til að einangra að utan og klæða með báruáli tvíbýlishúsið á lóðinni nr. 1 við Skipasund. Útskrift úr gerðabók embættisafgreiðslufundar skipulagsstjóra frá 8. júní 2007 fylgir erindinu. Stækkun: 34,3 ferm. og 20,6 rúmm. Gjald kr. 6.800 + xx"
36098 (02.53.420.4),http://gamli.rvk.is/vefur/owa/edutils.parse_page?nafn=BN036098,Smárarimi 33,br. baðherbergis,Samþykkt.  Samræmist ákvæðum laga nr. 73/1997.,Sótt er um leyfi til að breyta innra skipulagi á baðherbergi einbýlishússins á lóðinni nr. 33 við Smárarima. Gjald kr. 6.800
35975 (01.23.350.2),http://gamli.rvk.is/vefur/owa/edutils.parse_page?nafn=BN035975,Sóltún 4A,Dreifistöð Sóltún 4a,"Samþykkt.  Samræmist ákvæðum laga nr. 73/1997. Frágangur á lóðamörkum verði gerður í samráði við lóðarhafa aðliggjandi lóða.

Helga Guðmundsdóttir vék af fundi við afgreiðslu málsins.","Sótt er um leyfi til að byggja dreifistöð fyrir OR á lóðinni nr. 4A við Sóltún. Stærð:  15,3 ferm., og 52 rúmm. Gjald kr. 6.800 + 3.536"
36127 (01.71.200.2),http://gamli.rvk.is/vefur/owa/edutils.parse_page?nafn=BN036127,Stigahlíð 35,breyting á glerbrautalokun á svölum,Samþykkt.  Samræmist ákvæðum laga nr. 73/1997.,Sótt er um leyfi til breytinga á brautakerfi á svalalokun fjölbýlishússins nr. 35 við Stigahlíð. Gjald kr. 6.800
35840 (01.24.621.1),http://gamli.rvk.is/vefur/owa/edutils.parse_page?nafn=BN035840,Stórholt 35,kvistir,Frestað. Vísað til athugasemda eldvarnaeftirlits.,"Sótt er um leyfi til að gera kvisti á fjölbýlishúsið nr. 35 við Stórholt.  Meðfylgjandi er bréf aðalhönnuðar vegna stærðaraukningar dags. 23. maí 2007 og samþykki meðeigenda á teikningu dagsett 29. mars 2007. Einnig lögð fram útskrift úr gerðabók embættisafgreiðslufundar skipulagsstjóra frá 8. júní 2007. Stækkun: 8,4 ferm., 6,3 rúmm. Gjald kr. 6.800 + 428,0"
36047 (01.24.621.2),http://gamli.rvk.is/vefur/owa/edutils.parse_page?nafn=BN036047,Stórholt 37,kvistir á þakrými,Frestað. Vísað til athugasemda eldvarnaeftirlits.,"Sótt er um leyfi til að gera kvisti á fjölbýlishúsið (samanber erindi 35840) nr. 37 við Stórholt.  Meðfylgjandi er bréf aðalhönnuðar vegna stærðaraukningar dags. 23. maí 2007 og samþykki meðeigenda á teikningu dagsett 29. mars 2007. Einnig lögð fram útskrift úr gerðabók embættisafgreiðslufundar skipulagsstjóra frá 8. júní 2007. Stækkun: 8,4 ferm., 6,3 rúmm. Gjald kr. 6.800 + 428,0"
35638 (04.64.590.3),http://gamli.rvk.is/vefur/owa/edutils.parse_page?nafn=BN035638,Suðurhólar 35,inntaksrými,Frestað. Vísað til athugasemda á umsóknarblaði.,"Sótt er um leyfi til þess að breyta samkomuhúsi í þrjár íbúðir með tilheyrandi gluggabreytingum en fyrir er ein íbúð á neðri hæð í austurenda, klæða húsið til samræmis við hin fimm húsin sbr. erindi BN34184 ásamt leyfi til þess að byggja inntaksrými undir tröppum að efri hæð við vesturenda húss (matshluti 01)á lóð nr. 35 við Suðurhóla.  Stærðir: 10,2 ferm., 63,9 rúmm. Gjald kr. 6,800 + 4.345"
36148 (01.33.540.3),http://gamli.rvk.is/vefur/owa/edutils.parse_page?nafn=BN036148,Sundagarðar 10,br. innanhúss,Frestað. Vísað til athugasemda á umsóknarblaði.,Sótt er um leyfi til þess að stækka létt milliloft yfir kælum sunnanvert í húsinu og fjölga kælum í atvinnuhúsinu á lóð nr. 10 við Sundagarða. Stærð: Milliloft xxx ferm. Gjald kr. 6.800
35836 (01.13.210.4),http://gamli.rvk.is/vefur/owa/edutils.parse_page?nafn=BN035836,Tryggvagata 16,2 biðskýli,Samþykkt.  Samræmist ákvæðum laga nr. 73/1997.,Sótt er um leyfi til þess að setja upp tvö  tvöföld biðskýli við Austurberg í stað eldri skýla en annað þeirra var tvöfalt. Gjald kr. 6.800
28292 (04.68.600.1),http://gamli.rvk.is/vefur/owa/edutils.parse_page?nafn=BN028292,Unufell 44-50,"klæðning, svalaskýli",Samþykkt.  Samræmist ákvæðum laga nr. 73/1997. Með vísan til samþykktar borgarráðs frá 1. september 1998 skal utanhúss- og lóðarfrágangi vera lokið eigi síðar en innan tveggja ára frá útgáfu byggingarleyfis að viðlögðum dagsektarákvæðum 57. gr. skipulags- og byggingarlaga nr. 73/1997.,"Sótt er um leyfi til þess að einangra og klæða suðurgafl hússins með álplötum, breyta svalahandriðum og loka af tólf svölum sem svalaskýlum á austuhlið stigahúsa 44 og 46 ásamt tveimur garðskálum á fyrstu hæð sömu stigahúsa  fjölbýlishússins á lóð nr. 44-50 við Unufell. Fundarboð og fundargerð húsfundar 9. mars 2005 og 18. apríl 2007, ástandskönnun Línuhönnunar dags. 14. febrúar 2005 og 5. júní 2007 ásamt umsögn Húseigendafélagsins dags. 6. mars 2007 fylgja erindinu. Stærð: Svalaskýli og garðskálar samtals 160,2 ferm., 433,6 rúmm. Gjald kr. 5.100 + 6.800 + 29.485"
36125 (04.21.220.3),http://gamli.rvk.is/vefur/owa/edutils.parse_page?nafn=BN036125,Urriðakvísl 18,"gluggi á vinnustofu, stytta skjólvegg",Samþykkt.  Samræmist ákvæðum laga nr. 73/1997. Með vísan til samþykktar borgarráðs frá 1. september 1998 skal utanhúss- og lóðarfrágangi vera lokið eigi síðar en innan tveggja ára frá útgáfu byggingarleyfis að viðlögðum dagsektarákvæðum 57. gr. skipulags- og byggingarlaga nr. 73/1997.,Sótt er um leyfi til að grafa frá norðurhlið kjallara og koma fyrir gluggum og til að stytta skjólvegg við einbýlishúsið á lóðinni nr. 18 við Urriðakvísl.  Jafnframt er erindi 31521 dregið til baka. Gjald kr. 6.800
36172 (02.69.830.4),http://gamli.rvk.is/vefur/owa/edutils.parse_page?nafn=BN036172,Úlfarsbraut 34-36,takmarkað byggingarleyfi,Samþykkt.  Samræmist ákvæðum laga nr. 73/1997. Samþykktin fellur úr gildi við útgáfu á endanlegu byggingarleyfi.  Vegna útgáfu á takmörkuðu byggingarleyfi skal umsækjandi hafa samband við yfirverkfræðing embættis byggingarfulltrúa.,"Ofanritaðir sækja um takmarkað byggingarleyfi fyrir greftri, fyllingu og aðstöðugerð á lóðinni nr. 34-36 við Úlfarsbraut."
36182 (02.69.860.5),http://gamli.rvk.is/vefur/owa/edutils.parse_page?nafn=BN036182,Úlfarsbraut 96,takmarkað byggingarleyfi,Samþykkt.  Samræmist ákvæðum laga nr. 73/1997. Samþykktin fellur úr gildi við útgáfu á endanlegu byggingarleyfi.  Vegna útgáfu á takmörkuðu byggingarleyfi skal umsækjandi hafa samband við yfirverkfræðing embættis byggingarfulltrúa.,"Ofanritaður sækir um takmarkað byggingarleyfi fyrir greftri, fyllingu og aðstöðugerð á lóðinni nr. 96 við Úlfarsbraut."
36126 (01.33.770.2),http://gamli.rvk.is/vefur/owa/edutils.parse_page?nafn=BN036126,Vatnagarðar 6,"Br. inni,lagt í gólf, milliv. ofl.",Frestað. Vísað til athugasemda á umsóknarblaði.,Sótt er um leyfi til breytinga á innra skipulagi atvinnuhússins á lóðinni nr. 6 við Vatnagarða. Gjald kr. 6.800
36107 (01.13.200.2),http://gamli.rvk.is/vefur/owa/edutils.parse_page?nafn=BN036107,Vesturgata 22,br. á skipul. íb. 0202 og 0301,Samþykkt.  Samræmist ákvæðum laga nr. 73/1997.,Sótt er um leyfi til þess að breyta innra skipulagi ósamþykktra íbúða 0202 og 0301í fjölbýlishúsinu á lóðinni nr. 22 við Vesturgötu. Gjald kr. 6.800
36156 (01.19.001.8 02),http://gamli.rvk.is/vefur/owa/edutils.parse_page?nafn=BN036156,Vitastígur 14A,núverandi fyrirkomulag - breyta útliti,Frestað. Vísað til athugasemda á umsóknarblaði.,Sótt er um leyfi fyrir núverandi fyrirkomulagi og notkun og til að koma fyrir svölum á 2. hæð og í risi á vesturhlið fjölbýlishússins á lóðinni nr. 14a við Vitastíg.  Jafnframt er erindi 25730 dregið til baka. Gjald kr. 6.800
36128 (01.88.000.9),http://gamli.rvk.is/vefur/owa/edutils.parse_page?nafn=BN036128,Vogaland 7,útlitsbr. svalir og handrið.,Samþykkt.  Samræmist ákvæðum laga nr. 73/1997.,Sótt er um leyfi til þess að breyta svalahandriði og þakkanti frá nýsamþykktu erindi  BN034514 einbýlishússins á lóðinni nr. 7 við Vogaland. Gjald kr. 6.800
36145 (01.17.030.3),http://gamli.rvk.is/vefur/owa/edutils.parse_page?nafn=BN036145,Þingholtsstræti 3-5,br. inni og byggja yfir útigarð,Frestað. Vísað til athugasemda eldvarnaeftirlits.,"Sótt er um leyfi til þess að sameina tvö herbergi í kjallara húss nr. 3 og byggja yfir útigarð fyrir morgunverðarsal ásamt þjónustueldhúsi hótelsins á lóð nr. 3-5 við Þingholtsstræti. Umsögn brunahönnuðar dags. 5. júní 2007 fylgir erindinu. Stærð: Stækkun 25,8 ferm., 81,3 rúmm. Gjald kr. 6.800 + 5.528"
36185 (04.13.520.1),http://gamli.rvk.is/vefur/owa/edutils.parse_page?nafn=BN036185,Kirkjustétt 15-21,leiðr. v. svalask.,Samþykkt.  Samræmist ákvæðum laga nr. 73/1997.,"Á afgreiðslufundi byggingarfulltrúa þann 5. júní  síðastliðinn var sótt er um leyfi fyrir svalaskýli á íbúðir 0203, 0204 og 0205 á lóðinni nr. 15-21 við Kirkjustétt. Stæð var bókuð: Svalaskýli 6,9 ferm., 18,9 rúmm. en átti að vera 6,9 ferm., 18,9 rúmm. hvert eða samtals 20,7 ferm., 56,7 rúmm. og gjöld kr. 3.856."
36187 (04.73.--8.5 01),http://gamli.rvk.is/vefur/owa/edutils.parse_page?nafn=BN036187,Selásblettur 3A,sameina spildur/ fella af skrám,Samþykkt.  Samræmist ákvæðum laga nr. 73/1997.,"Lagt fram bréf Skipulagssjóðs Reykjavíkur, dags. 5. júní 2007, þar sem óskað er eftir því að landspildur verði sameinaðar óskráðu landi Reykjavíkurborgar og felldar af skrám, samkvæmt meðfylgjandi uppdrætti Framkvæmdasviðs, landupplýsingadeildar dags. 4. júní 2007. Suðurlandsv. Sbl. 13A, greininúmer 473-.-85, landnúmer 112421, stærð 20.000 ferm., samkvæmt FMR., 18795 ferm., samkvæmt landupplýsingadeild. Suðurlandsv. Sbl 2A, greininúmer 473-.-86, landnúmer 112422,  stærð 19.000 ferm., samkvæmt FMR. 17858 ferm., samkvæmt landupplýsingadeild."
36100 (01.43.030.1 05),http://gamli.rvk.is/vefur/owa/edutils.parse_page?nafn=BN036100,Álfheimar 16,(fsp) skúr í bakgarð,Nei. Miðað við framlögð gögn.,Spurt er hvort leyft yrði að byggja ca. 5 ferm. skúr í bakgarðinum við raðhúsið nr. 16 á lóðinni nr. 16-24 við Álfheima.
36005 (01.26.420.3),http://gamli.rvk.is/vefur/owa/edutils.parse_page?nafn=BN036005,Ármúli 23,(fsp) svalir 2:hæð,Jákvætt. Að uppfylltum skilyrðum enda verði sótt um byggingarleyfi.,Spurt er hvort leyfi fengist fyrir svölum á 2. hæð atvinnuhússins á lóðinni nr. 23 við Ármúla. Útskrift úr gerðabók embættisafgreiðslufundar skipulagsstjóra frá 8. júní 2007 fylgir erindinu.
36116 (01.82.420.6),http://gamli.rvk.is/vefur/owa/edutils.parse_page?nafn=BN036116,"6"">Básendi 11",(fsp) svalir,Jákvætt. Að uppfylltum skilyrðum enda verði sótt um byggingarleyfi.,Spurt er hvort leyft yrði að byggja svalir skv. meðfylgjandi skissu við þríbýlishúsið á lóðinni nr. 11 við Básenda.
36096 (01.18.530.1),http://gamli.rvk.is/vefur/owa/edutils.parse_page?nafn=BN036096,Bergstaðastræti 48,"(fsp) breyta í íbúð, svaladyr, gluggar",Jákvætt. Að uppfylltum skilyrðum enda verði sótt um byggingarleyfi.,Spurt er hvort leyft yrði að breyta skrifstofu í íbúð og koma fyrir svalahurð á bakhlið í atvinnu- og íbúðarhúsinu á lóðinni nr. 48 við Bergstaðastræti.
36133 (01.70.440.1),http://gamli.rvk.is/vefur/owa/edutils.parse_page?nafn=BN036133,Blönduhlíð 2,(fsp) breyta geymslu í íbúð,"Neikvætt að innrétta íbúð, hægt er að nýta húsnæðið sem bílgeymslu eða geymslu. Samþykkt að breyta skattflokki.",Spurt er hvort samþykki fengist fyrir íbúð sem innréttuð hefur verið í geymslu áfastri bílskúr á lóðinni nr. 2 við Blönduhlíð. Til vara er spurt hvort leyfi fengist fyrir breytingu á skattflokki sama húsnæðis úr C í A.
36106 (04.64.170.9),http://gamli.rvk.is/vefur/owa/edutils.parse_page?nafn=BN036106,Depluhólar 9,(fsp) Breyta innréttuðum kjallara,Frestað. Málinu vísað til umsagnar skipulagsstjóra.,Spurt er hvort leyft yrði að innrétta útgrafin kjallararými sem þvottahús og geymslur í einbýlishúsinu á lóðinni nr. 9 við Depluhóla. Málinu fylgir bréf umsækjanda dags. 1. júní 2007.
36092 (01.35.510.4),http://gamli.rvk.is/vefur/owa/edutils.parse_page?nafn=BN036092,Efstasund 7,(fsp) framlenging bílskúrs og þvottah.,Jákvætt að stækka þvottahús og gera svalir enda verði sótt um byggingarleyfi. Nei vegna lengingar bílskúrs samræmist ekki deiliskipulagi.,"Spurt er hvort leyft yrði að lengja bílskúr, stækka þvottahús og útbúa svalir ofan á viðbyggingunni skv. meðfylgjandi skissum af þríbýlishúsinu á lóðinni nr. 7 við Efstasund."
36188 (04.61.230.4),http://gamli.rvk.is/vefur/owa/edutils.parse_page?nafn=BN036188,Fremristekkur 7,(fsp) bílskúr,Frestað. Málinu vísað til umsagnar skipulagsstjóra.,Spurt er hvort byggja megi bílskúr á norðvesturhorni lóðar nr. 7 við Fremristekk.
36129 (02.69.550.2),http://gamli.rvk.is/vefur/owa/edutils.parse_page?nafn=BN036129,Freyjubrunnur 25-27,(fsp) hækkun byggingu,Jákvætt. Að uppfylltum skilyrðum enda verði sótt um byggingarleyfi.,Spurt er hvort leyft yrði að hækka um 750 mm miðað við útgefna skilmála fjölbýlishúsið á lóðinni nr. 25-27 við Freyjubrunn.
36031 (02.85.430.4),http://gamli.rvk.is/vefur/owa/edutils.parse_page?nafn=BN036031,Frostafold 48-54,(fsp) bílskúrar,Jákvætt að lóðarhafi geti látið vinna á eigin kostnað tillögu að breytingu á deiliskipulagi.,"Spurt er hvort leyft yrði að byggja bílskúr sömu stærðar og við hús nr. 72-74 við Fannafold milli húsa nr, 44-46 og 48-50 á lóð nr. 48-54 við Frostafold. Útskrift úr gerðabók embættisafgreiðslufundar skipulagsstjóra frá 8. júní 2007 fylgir erindinu."
35904 (02.69.370.2),http://gamli.rvk.is/vefur/owa/edutils.parse_page?nafn=BN035904,Iðunnarbrunnur 6,(fsp) breytingar,Jákvætt. Að uppfylltum skilyrðum og með vísan til útskriftar úr gerðabók embættisafgreiðslufundar skipulagsstjóra.,Spurt er hvort leyft yrði að breyta staðsetningu innbyggðrar bílgeymslu frá norðausturhorni byggingarreits í norðvesturhorn í líkingu við meðfylgjandi skissur einbýlishússins á lóð nr. 6 við Iðunnarbrunn. Útskrift úr gerðabók embættisafgreiðslufundar skipulagsstjóra frá 8. júní 2007 fylgir erindinu.
36089,http://gamli.rvk.is/vefur/owa/edutils.parse_page?nafn=BN036089,Jónsgeisli 15,(fsp) sólstofa,Með vísan til fyrirliggjandi gagna er ekki annað að sjá en að farið sé út fyrir byggingarreit og svar því nei.,Spurt er hvort leyft yrði að byggja sólstofu skv. meðfylgjandi skissu af einbýlishúsinu á lóðinni nr. 15 við Jónsgeisla.
36090 (01.54.310.6),http://gamli.rvk.is/vefur/owa/edutils.parse_page?nafn=BN036090,Kvisthagi 11,(fsp) svalir,Jákvætt. Að byggja svalir sem samræmast húsi enda verði sótt um byggingarleyfi.,Spurt er hvort leyft yrði að opna kvist á suðurhlið og útbúa svalir á rishæð fjölbýlishússins á lóðinni nr. 11 við Kvisthaga.
36105 (00.05.600.5),http://gamli.rvk.is/vefur/owa/edutils.parse_page?nafn=BN036105,Landspilda 125736,"(fsp) reisa sumarhús, bílskúr/geymsluskúr",Frestað. Málinu vísað til umsagnar skipulagsstjóra.,Spurt er hvort leyft yrði að reisa sumarhús og bílskúr á landspildu úr jörðinni Mógilsá. Bréf fyrirspyrjanda dags. 28. maí 2007 fylgir erindinu.
36011 (01.38.040.5),http://gamli.rvk.is/vefur/owa/edutils.parse_page?nafn=BN036011,Laugarásvegur 17,(fsp) nýjar tröppur - bílastæði,Jákvætt. Að uppfylltum skilyrðum enda verði sótt um byggingarleyfi sem grenndarkynnt verður.,Spurt er hvort leyft yrði að byggja nýjar útitröppur með geymslum undir og koma fyrir tveimur nýjum bílastæðum á lóðinni nr. 17 við Laugarásveg. Útskrift úr gerðabók embættisafgreiðslufundar skipulagsstjóra frá 8. júní 2007 fylgir erindinu.
36007 (01.17.420.4),http://gamli.rvk.is/vefur/owa/edutils.parse_page?nafn=BN036007,Laugavegur 70,(fsp) stækkun á svölum.,Jákvætt. Að uppfylltum skilyrðum enda verði sótt um byggingarleyfi í samræmi við útskrift úr gerðabók embættisafgreiðslufundar skipulagsstjóra.,Spurt er hvort leyft yrði að stækka svalir í líkingu við skissu af fjöleignarhúsinu á lóð nr. 70 við Laugaveg. Útskrift úr gerðabók embættisafgreiðslufundar skipulagsstjóra frá 8. júní 2007 fylgir erindinu.
36102 (01.81.541.3),http://gamli.rvk.is/vefur/owa/edutils.parse_page?nafn=BN036102,Melgerði 29,(fsp) byggja nýtt timburhús,Gera verður deiliskipulag og skal fyrirspyrjandi hafa samband við skipulagsstjóra vegna þess.,Spurt er hvort rífa megi núverandi hús og byggja í þess stað um 100 ferm. timburhús í líkingu við skissur á lóð nr. 29 við Melgerði.
36013 (01.52.420.2),http://gamli.rvk.is/vefur/owa/edutils.parse_page?nafn=BN036013,Reynimelur 80-86,(fsp) sólstofa,Jákvætt. Að uppfylltum skilyrðum enda verði sótt um byggingarleyfi.,Spurt er hvort leyft yrði að byggja sólstofu skv. meðfylgjandi skissum við raðhúsið á lóðinni nr. 80-86 við Reynimel. Útskrift úr gerðabók embættisafgreiðslufundar skipulagsstjóra frá 8. júní 2007 fylgir erindinu.
36183 (01.63.630.5),http://gamli.rvk.is/vefur/owa/edutils.parse_page?nafn=BN036183,Skerplugata 5,"(fsp) br. þaki vinnust, stækka 1.h",Jákvætt. Að uppfylltum skilyrðum enda verði sótt um byggingarleyfi og með vísan til athugasemda á fyrirspurnarblaði.,Spurt er hvort leyft yrði að stækka 1. hæð yfir vinnustofu undir breyttu þaki (lokað þak en sömu hæðar) og innrétta baðherbergi á 1. hæð einbýlishússins á lóð nr. 5 við Skerplugötu.
35955 (01.25.011.2),http://gamli.rvk.is/vefur/owa/edutils.parse_page?nafn=BN035955,Skipholt 29A,(fsp) breytingar,Jákvætt. Að uppfylltum skilyrðum enda verði sótt um byggingarleyfi.,Spurt er hvort leyfi fengist til að innrétta gistiheimili í atvinnuhúsnæðinu með tuttugu og einu gistirými ásamt móttöku og þvottahúsi á jarðhæð hússins á lóð nr. 29A Skipholt.  Útskrift úr gerðabók embættisafgreiðslufundar skipulagsstjóra frá 29. maí 2007 fylgir erindinu.
36071 (04.60.200.2),http://gamli.rvk.is/vefur/owa/edutils.parse_page?nafn=BN036071,Stekkjarbakki 2,(fsp) flettiskilti,Nei. Samræmist ekki deiliskipulagi.,Spurt er hvort leyft yrði að setja upp flettiskilti austan við þvottastöðina á lóð nr. 2 við Stekkarbakka. Bréf f.h. fyrirspyrjenda dags. 15. maí 2007 fylgir erindinu. Einnig lögð fram útskrift úr gerðabók embættisafgreiðslufundar skipulagsstjóra frá 8. júní 2007.
36121,http://gamli.rvk.is/vefur/owa/edutils.parse_page?nafn=BN036121,Sæbraut / Faxagata,(fsp) byggingaskilti,Frestað. Málinu vísað til umsagnar skrifstofu gatna- og eignaumsýslu þar sem skilti er utan lóðar.,Spurt er hvort leyft yrði að setja upp upplýsingaskilti varðandi byggingarframkæmdir TRH Austurhöfn 2 á milli Sæbrautar og Faxagötu.
36094 (01.13.210.1),http://gamli.rvk.is/vefur/owa/edutils.parse_page?nafn=BN036094,Tryggvagata 10,(fsp) flytja veitingastað,Jákvætt. Að uppfylltum skilyrðum enda verði sótt um byggingarleyfi.,Spurt er hvort leyft yrði að flytja thailenska veitingastaðinn KruaTai meðan á byggingaframkvæmdum stendur frá Tryggvagötu 14 í húsið á lóðinni nr. 10 við Tryggvagötu.
36157 (01.13.400.6),http://gamli.rvk.is/vefur/owa/edutils.parse_page?nafn=BN036157,Vesturgata 53-53A,(fsp) 53 breyta geymslu í íbúð,Neikvætt. Með vísan til umsagnar skipulagsstjóra á fyrirspurnarblaði.,Spurt er hvort leyft yrði að breyta geymsluskúr í íbúð á lóðinni nr. 53 við Vesturgötu.
