nr,url,heimilisfang,tegund,nidurstada,spurning
36324 (01.14.041.4),http://gamli.rvk.is/vefur/owa/edutils.parse_page?nafn=BN036324,Aðalstræti 9,sótt um skráningartöflu,Frestað. Vísað til athugasemda á umsóknarblaði.,"Sótt er um samþykki fyrir minni háttar breytingum á innra skipulagi  kjallara, 1. og 2. hæðar v/eignaskipta í atvinnu- og íbúðarhúsinu á lóðinni nr. 9 við Aðalstræti. Málinu fylgir fundargerð aðalfundar heildarhúsfélagsins dags. 28. júní 2007. Gjald kr. 6.800"
36041 (05.86.530.1),http://gamli.rvk.is/vefur/owa/edutils.parse_page?nafn=BN036041,Almannadalur 17-23,hesthús nr. 23,Frestað. Vísað til athugasemda á umsóknarblaði.,"Sótt er um leyfi til þess að byggja hesthús með þremur eignum,  eign 0101 tólf hestar, eign 0102 tólf hestar, eign 0103 átján hestar, alls fjörutíuogtveir hestar og með kaffiaðstöðu á 2. hæð í hverri eign, úr steinsteyptum einingum allt einangrað að utan og klætt með steyptri veðurkápu sem hús nr. 23 á lóð nr. 17-23 í Almannadal. Stærð: Hesthús 1. hæð 368,4 ferm., 2. hæð 228 ferm. samtals 596,4 ferm., 1995 rúmm. Gjald kr. 6.800 + 135.660"
36139 (05.86.520.1),http://gamli.rvk.is/vefur/owa/edutils.parse_page?nafn=BN036139,Almannadalur 25-29,hesthús nr.25,Frestað. Vísað til athugasemda á umsóknarblaði.,"Sótt er um leyfi til þess að byggja steinsteypt hesthús með fjórum einingum,  eining 0101 tólf hestar, eining 0102 tólf hestar, eining 0103 átta hestar, eining 0104 átta hestar, alls fjörutíu hestar og með kaffiaðstöðu tvær hæðir í hverri eign allt einangrað að utan og klætt með láréttri zinkhúðari bárujárnsklæðingu sem hús nr. 25 á lóð nr. 25-29 í Almannadal. Stærð:  1. hæð 368,4 ferm., 2. hæð. 226,9 ferm. Samtals 595,3 ferm., 2.014,6 rúmm. Gjald kr. 6.800 + 136.993"
35853 (05.86.550.1),http://gamli.rvk.is/vefur/owa/edutils.parse_page?nafn=BN035853,Almannadalur 9-15,hesthús nr. 11,Frestað. Vísað til athugasemda á umsóknarblaði.,"Sótt er um leyfi til þess að byggja hesthús með þremur einingum, einingu 0101 níu hestar, einingu 0102 níu hestar, einingu 0103 tólf hestar, alls þrjátíu hestar og með kaffiaðstöðu á millilofti í hverri eign, allt úr steinsteyptum einingum með ysta yfirborð steinað sem hús nr. 11 á lóð nr. 9-15 í Almannadal. Stærð: Hesthús nr. 11 samtals 383,3 ferm., 1311,9 rúmm. Gjald kr. 6.800 + 6.800 + 89.209"
36372 (01.84.710.3),http://gamli.rvk.is/vefur/owa/edutils.parse_page?nafn=BN036372,Áland  11-13,stækkun á sólpalli,Frestað. Vísað til athugasemda á umsóknarblaði.,Sótt er um leyfi til að stækka sólpall við hús nr. 11 á lóð nr. 11-13 við Áland. Samþykki meðeigenda og nágranna dags. 20.júni 2007  fylgir erindinu.   Gjald kr. 6.800
36316 (04.73.110.1),http://gamli.rvk.is/vefur/owa/edutils.parse_page?nafn=BN036316,Árvað 3,fimm kennslustofur,Frestað. Vísað til athugasemda á umsóknarblaði.,"Sótt er um leyfi til þess að bæta við fimm færanlegum kennslustofum ásamt tengigangi á lóð nr. 3 við Árvað. Stærð: Færanleg kennslustofa  nr. K-75, K-77, K-78, K70, H-11B ásamt tengigöngum T-40B og T-46B, T-47B Stækkun samtals 415,9 ferm.,  1306,6 rúmm. Gjald kr. 6.800 + 88.849"
36242 (02.42.230.1),http://gamli.rvk.is/vefur/owa/edutils.parse_page?nafn=BN036242,Bakkastaðir 2,sótt er um viðbótar færanlegar kennslustofur ásamt tengigangi.,Frestað. Vísað til athugasemda eldvarnaeftirlits.,"Sótt er um leyfi til að reisa færanlegar einnar hæðar kennslustofur ásamt tengigangi úr timbri við grunnskólan í Staðarhverfi á norðurhorni lóðar nr. 2 við Bakkastaði.  Bréf hönnuðar dags. 2. júlí 2007 fygir erindinu. Stærðir: Færanleg kennslustofa K-62A, K-85A og tengigangur T-39B samtals 136,3 ferm., 496,6 rúmm. Gjald kr. 6.800 + 33.769"
36310 (01.82.420.6),http://gamli.rvk.is/vefur/owa/edutils.parse_page?nafn=BN036310,Básendi 11,svalir,Frestað. Lagfæra skráningartöflu,"Sótt er um leyfi til að setja svalir á suðurhlið,  íbúð 0101,  þríbýlishúsins á lóð nr. 11 við Básenda. Meðfylgjandi er samþykki meðeigenda dags. 11. júní 2007. Gjald kr. 6.800"
36219 (01.18.020.9),http://gamli.rvk.is/vefur/owa/edutils.parse_page?nafn=BN036219,Bergstaðastræti 10,iðnaðarhúsnæði í íbúð,Frestað. Vísað til athugasemda á umsóknarblaði.,Sótt er um leyfi til að breyta jarðhæð iðnaðarhúsnæði (skóverkstæði) í íbúð með tilheyrandi breytingum á innra fyrirkomulagi fjölbýlishússins á lóðinni nr. 10 við Bergstaðastræti. Gjald kr. 6.800
35349 (01.18.411.1),http://gamli.rvk.is/vefur/owa/edutils.parse_page?nafn=BN035349,Bergstaðastræti 17B,viðbygging,Samþykkt.  Samræmist ákvæðum laga nr. 73/1997. Frágangur á lóðamörkum verði gerður í samráði við lóðarhafa aðliggjandi lóða. Áskilin lokaúttekt byggingarfulltrúa. Með vísan til samþykktar borgarráðs frá 1. september 1998 skal utanhúss- og lóðarfrágangi vera lokið eigi síðar en innan tveggja ára frá útgáfu byggingarleyfis að viðlögðum dagsektarákvæðum 57. gr. skipulags- og byggingarlaga nr. 73/1997.,"Sótt er um leyfi til að rífa vörugeymslu og byggja einnar hæðar steinsteypta viðbyggingu við einbýlishúsið á lóðinni nr. 17B við Bergstaðastræti.  Samþykki nágranna að Bergsstaðarstræti 19 (á teikningu) fylgir erindinu. Niðurrif:  Fastanr. 200-6874, matshl. 70, merkt 0101, vörugeymsla 11,7 ferm. Stærð: Viðbygging 27,7 ferm., 79,8 rúmm. Gjald kr. 6.800 + 5.426"
36237 (01.17.140.7),http://gamli.rvk.is/vefur/owa/edutils.parse_page?nafn=BN036237,Bergstaðastræti 3,girðing,Frestað. Með vísan til umsagnar skipulagsstjóra.,Sótt er um leyfi til að reisa skjólvegg á lóðarmörkum við gangstétt hússins á lóðinni nr. 3 við Bergstaðastræti. Samþykki sumra nágranna fylgir erindinu. Einnig lögð fram umsögn skipulagsstjóra dagsett 4. júlí 2007. Gjald kr. 6.800
35858 (01.17.130.7),http://gamli.rvk.is/vefur/owa/edutils.parse_page?nafn=BN035858,Bergstaðastræti 4,ofanábygging,Samþykkt.  Samræmist ákvæðum laga nr. 73/1997. Áskilin lokaúttekt byggingarfulltrúa. Með vísan til samþykktar borgarráðs frá 1. september 1998 skal utanhúss- og lóðarfrágangi vera lokið eigi síðar en innan tveggja ára frá útgáfu byggingarleyfis að viðlögðum dagsektarákvæðum 57. gr. skipulags- og byggingarlaga nr. 73/1997.,"Sótt er um leyfi til að rífa þak og byggja nýja hæð ofan á, byggja stigahús norðan við og til að breyta nýtingu 2. hæðar fjöleignahússins (Mhl. 1) á lóðinni nr. 4 við Bergstaðastræti. Málinu fylgir greinargerð hönnuðar dags. 24. apríl 2007, umsögn skipulagsfulltrúa dags. 28. febrúar 2007, álit Húsafriðunarnefndar dags. 13. febrúar 2007 og umsögn Minjasafns Reykjavíkur dags. 29. janúar 2007. Málinu fylgir einnig tölvupóstur með samþykki meðlóðarhafa ódagsettur. Ennfremur nýtt samþykki meðlóðarhafa dags. 8 . júní 2007. Einnig lögð fram útskrift úr gerðabók embættisafgreiðslufundar skipulagsstjóra frá 11. maí 2007. Stækkun: 46,1ferm., 342,3 rúmm. Gjald kr. 6.800 + 23.276"
36408,http://gamli.rvk.is/vefur/owa/edutils.parse_page?nafn=BN036408,Bíldshöfði 9B,Takmarkað byggingarleyfi,Samþykkt.  Samræmist ákvæðum laga nr. 73/1997. Samþykktin fellur úr gildi við útgáfu á endanlegu byggingarleyfi.  Vegna útgáfu á takmörkuðu byggingarleyfi skal umsækjandi hafa samband við yfirverkfræðing embættis byggingarfulltrúa.,"Ofanritaður sækir um takmarkað byggingarleyfi fyrir greftri, fyllingu og aðstöðugerð á lóðinni nr. 9B við Bíldshöfða"
36371 (02.35.410.2),http://gamli.rvk.is/vefur/owa/edutils.parse_page?nafn=BN036371,Breiðavík 49-57,nr. 57 reyndarteikn. og pottur,Frestað. Vísað til athugasemda á umsóknarblaði.,"Sótt er um leyfi fyrir minni háttar breytingum á innra skipulagi, til að koma fyrir nýjum glugga og loftrist á NV gafli og byggja skjólveggi og koma fyrir setlaug í garði raðhússins nr. 57 á lóðinni nr. 49-57 við Breiðuvík. Samþykki meðlóðarhafa dagsett 15. júní 2007 fylgir erindinu. Gjald kr. 6.800"
36406 (01.42.720.1),http://gamli.rvk.is/vefur/owa/edutils.parse_page?nafn=BN036406,Brúarvogur 1-3,Takmarkað byggingarleyfi,Samþykkt.  Samræmist ákvæðum laga nr. 73/1997. Samþykktin fellur úr gildi við útgáfu á endanlegu byggingarleyfi.  Vegna útgáfu á takmörkuðu byggingarleyfi skal umsækjandi hafa samband við yfirverkfræðing embættis byggingarfulltrúa.,"Ofanritaður sækir um takmarkað byggingarleyfi fyrir greftri, fyllingu og aðstöðugerð á lóðinni nr. 1-3 við Brúarvog."
36391 (01.13.422.1),http://gamli.rvk.is/vefur/owa/edutils.parse_page?nafn=BN036391,Bræðraborgarstígur 16,girðing,Frestað. Vísað til athugasemda á umsóknarblaði.,"Sótt er um leyfi til að girða með 1,8 m hárri stálnetsgirðingu á  lóðum nr. 16 við Bræðraborgarstíg og nr. 9 við Drafnarstíg.  Gjald kr. 6.800"
36290 (01.19.640.4),http://gamli.rvk.is/vefur/owa/edutils.parse_page?nafn=BN036290,Fjölnisvegur 18,breyting inni - hækkun mænis,Frestað. Vísað til athugasemda á umsóknarblaði. Að þeim uppfylltum verður málið sent skipulagsstjóra til ákröðunar um grenndarkynningu.,"Sótt er um leyfi  til að auka mænishæð lítillega (100 cm) samfara endurbyggingu á þaki, gera kvist og þaksvalir á suðvestur hlið og setja tvo nýja þakglugga ásamt því að breyta herbergjaskipan á  annari hæð, byggja nýjan stiga og gera eitt stórt rými í risi sambýlishússins á lóð nr. 18 við Fjölnisveg. Einnig lagt fram bréf skipulagsstjóra frá 6. júlí 2007.  Bréf dags. 25. júní 2007, samþykki meðeiganda (á teikningu) fylgja erindinu.   Stærð: Stækkun xx  ferm., 45 rúmm. Gjald kr. 6.800+ 3.060"
35953 (02.69.550.2),http://gamli.rvk.is/vefur/owa/edutils.parse_page?nafn=BN035953,Freyjubrunnur 25-27,8 íb. fjölbýlishús,Frestað. Vísað til athugasemda á umsóknarblaði.,"Sótt er um leyfi til þess að byggja þriggja hæða steinsteypt fjölbýlishús með átta íbúðum og bílageymslu fyrir sjö bíla á lóð nr. 25-27 við Freyjubrunn. Samþykki veggna garðveggja á lóðamörkum Gefjunarbrunnar 17-19 dags. 29. maí 2007 fylgir erindinu. Stærð: Íbúð 1. hæð 230,1 ferm., 2. hæð 528,3 ferm., 3. hæð 504,5 ferm., bílgeymsla 152 ferm., samtals 1414,9 ferm., 4454 rúmm. Gjald kr. 6.800 + 6.800 + 302.872"
36389 (05.05.510.5),http://gamli.rvk.is/vefur/owa/edutils.parse_page?nafn=BN036389,Friggjarbrunnur 10-12,breyting inni,Frestað. Vísað til athugasemda á umsóknarblaði.,Sótt er um leyfi til breytinga á áður útgefnu byggingarleyfi frá 20. mars 2007 (BN035242) á innra skipulagi parhússins á lóðinni nr. 10-12 við Friggjarbrunn. Gjald kr. 6.800
36159 (05.05.330.5),http://gamli.rvk.is/vefur/owa/edutils.parse_page?nafn=BN036159,Friggjarbrunnur 34-40,raðhús 4 íb,Samþykkt.  Samræmist ákvæðum laga nr. 73/1997. Áskilin lokaúttekt byggingarfulltrúa. Frágangur á lóðamörkum verði gerður í samráði við lóðarhafa aðliggjandi lóða.,"Sótt er um leyfi til að byggja steinsteypt raðhús á tveim hæðum með innbyggðum bílgeymslum á lóðinni nr. 34-40 við Friggjarbrunn. Jafnframt er erindi BN036142 dregið til baka. Stærðir:  Hús nr. 34, Mhl. 1:  1. hæð:  Íbúð 115,5 ferm., 2. hæð:  íbúð 77,6 ferm., bílgeymsla 31,3 ferm.  Samtals 224 ferm. og 788,9 rúmm. Hús nr. 36 og 38, Mhl. 1 og tvö eru sömu stærðar.  Hús nr. 40, Mhl. 4:  1. hæð:  Íbúð 143,4 ferm., 2. hæð:  Íbúð 79,5 ferm., bílgeymsla 31,3 ferm.  Samtals 254,2 ferm. og 878,7 rúmm. Friggjarbrunnur 34-40 samtals 927,4 ferm. og 3.245,4 rúmm. Gjald kr. 6.800 + 6.800 + 220.687"
36314 (02.86.130.5),http://gamli.rvk.is/vefur/owa/edutils.parse_page?nafn=BN036314,Funafold 49,bílageymsla og tengigangur,Frestað. Vísað til athugasemda á umsóknarblaði.,Sótt er um leyfi til að byggja bílgeymslu ásamt tengibyggingu úr forsteyptum einingum við einbýlishúsið á lóðinni nr. 49 við Funafold. Stærðir:  xx ferm.  xx rúmm. Gjald kr. 6.800 + xx
36373 (02.35.740.2),http://gamli.rvk.is/vefur/owa/edutils.parse_page?nafn=BN036373,Gautavík 25-27,nr. 27 hurð úr bílageymslu,Frestað. Vantar umsögn burðarvirkishönnuðar.,Sótt er um leyfi til að koma fyrir gönguhurð úr bílgeymslu merktri 0108 inn í utanhúss stigahús fjölbýlishússins nr. 27 á lóðinni nr. 25-27. Samþykki meðeigenda ódagsett fylgir erindinu Gjald kr. 6.800
35970 (02.69.540.5),http://gamli.rvk.is/vefur/owa/edutils.parse_page?nafn=BN035970,Gefjunarbrunnur 12,2. h einbýlishús,Frestað. Vísað til athugasemda á umsóknarblaði.,"Sótt er um leyfi til þess að byggja tvílyft steinsteypt einbýlishús með innbyggðri bílgeymslu með steinsalla sem yfirborðsáferð og flísar eða timburklætt að hluta á lóð nr. 12 við Gefjunarbrunn. Stærð: Íbúð 1. hæð 100,1 ferm., 2. hæð 87 ferm., bílgeymsla 21,6 ferm., samtals 208,7 ferm., 718,7 rúmm. Gjald kr. 6.800 + 6.800 + 48.872"
36136 (02.69.520.4),http://gamli.rvk.is/vefur/owa/edutils.parse_page?nafn=BN036136,Gefjunarbrunnur 9,einbýlishús,Samþykkt.  Samræmist ákvæðum laga nr. 73/1997. Frágangur á lóðamörkum verði gerður í samráði við lóðarhafa aðliggjandi lóða. Áskilin lokaúttekt byggingarfulltrúa.,"Sótt er um leyfi til þess að byggja tvílyft steinsteypt einbýlishús með innbyggðri bílgeymslu allt einangrað að utan og klætt með flísum á lóðinni nr. 9 við Gefjunarbrunn. Bréf hönnuðar dags. 5. júní 2007 og samþykki lóðarhafa Gefjunarbrunnar 7 (á teikningu) fylgja erindinu. Stærð:  Íbúð 1. hæð 89,2 ferm., 2. hæð 108,3 ferm., bílgeymsla 23,8 ferm. Samtals 221,3 ferm., 705,3 rúmm. Gjald kr. 6.800 + 6.800 + 47.960"
36336 (01.18.211.6),http://gamli.rvk.is/vefur/owa/edutils.parse_page?nafn=BN036336,Grettisgata 20C,Hækka þak og byggja kvisti,Frestað. Vísað til athugasemda á umsóknarblaði. Málinu vísað til umsagnar skipulagsstjóra.,"Sótt er um leyfi til að byggja rishæð með porti og byggja kvisti á báðar hliðar sömu rishæðar einbýlishússins á lóðinni nr. 20C við Grettisgötu. Stækkun:  xx ferm., xx rúmm. Gjald kr. 6.800 + xx"
36208 (04.35.310.2),http://gamli.rvk.is/vefur/owa/edutils.parse_page?nafn=BN036208,Hábær 33,viðbygging ofl.,Samþykkt.  Samræmist ákvæðum laga nr. 73/1997. Frágangur á lóðamörkum verði gerður í samráði við lóðarhafa aðliggjandi lóða. Með vísan til samþykktar borgarráðs frá 1. september 1998 skal utanhúss- og lóðarfrágangi vera lokið eigi síðar en innan tveggja ára frá útgáfu byggingarleyfis að viðlögðum dagsektarákvæðum 57. gr. skipulags- og byggingarlaga nr. 73/1997.,"Sótt er um leyfi til þess að byggja steinsteypta viðbyggingu er inniheldur anddyri, gestasnyrtingu og baðherbergi, breyta innra fyrirkomulagi tengt viðbyggingu, síkka glugga og seta útgönguhurð í stofu og hjónaherbergi, byggja verönd við suðvestur og norðvestur hlið ásamt áfastri girðingu að lóðarmörkum (Hábær 35)  færa sorpgeymslu og bæta við einu bílstæði framan við einbýlishúsið á lóð nr. 33 við Hábæ. Samþykki nágranna á lóð Hábær 35 fylgja erindinu. Stærð: Viðbygging 15,8 ferm., 47,6 rúmm.  Gjald kr. 6.800 + 6.800+ 3.237"
36370 (01.24.441.1),http://gamli.rvk.is/vefur/owa/edutils.parse_page?nafn=BN036370,Háteigsvegur 20,endurnýjun á byggingarleyfi dags. 02.05.2006,Samþykkt.  Samræmist ákvæðum laga nr. 73/1997. Áskilin lokaúttekt byggingarfulltrúa. Skilyrt er að eignaskiptayfirlýsingu vegna breytinga í húsinu sé þinglýst til þess að samþykktin öðlist gildi.,Sótt er um lendurnýjun á byggingarleyfi BN033672 frá 2. maí 2006 þar sem sótt er um leyfi fyrir innri breytingum í íbúð á 1. hæð 0101 fær geymslu í kjallara. Í íbúð 0102 er breytt innra fyrirkomulag og gluggafrontur minnkaður með timburvegg einangruðum með 100mm steinull klæddum flísum á lóð nr. 20 við  Háteigsveg. Gjald kr. 6.800
35988 (01.54.300.2),http://gamli.rvk.is/vefur/owa/edutils.parse_page?nafn=BN035988,Hofsvallagata 55,hringstigi - niðurrif svala,Samþykkt.  Samræmist ákvæðum laga nr. 73/1997. Áskilin lokaúttekt byggingarfulltrúa. Skilyrt er að eignaskiptayfirlýsingu vegna breytinga í húsinu sé þinglýst til þess að samþykktin öðlist gildi. Með vísan til samþykktar borgarráðs frá 1. september 1998 skal utanhúss- og lóðarfrágangi vera lokið eigi síðar en innan tveggja ára frá útgáfu byggingarleyfis að viðlögðum dagsektarákvæðum 57. gr. skipulags- og byggingarlaga nr. 73/1997.,"Sótt er um leyfi til að rífa svalir á vesturhlið og breyta svalahurð í glugga, til að byggja hringstiga af svölum ofan í garð og leyfi fyrir áður gerðum breytingum á innra skipulagi fjölbýlishússins á lóðinni nr. 55 við Hofsvallagötu.  Samþykki nágranna fylgir erindinu dags. 18. apríl 2007 og samþykki meðeigenda fylgir dags. 25. apríl 2007. Gjald kr. 6.800 + 6.800"
36177 (02.69.340.4),http://gamli.rvk.is/vefur/owa/edutils.parse_page?nafn=BN036177,Iðunnarbrunnur 1-3,Steinsteypt parhús á 2 hæðum,Samþykkt.  Samræmist ákvæðum laga nr. 73/1997.Frágangur á lóðamörkum verði gerður í samráði við lóðarhafa aðliggjandi lóða. Áskilin lokaúttekt byggingarfulltrúa.,"Sótt er um leyfi til þess að byggja tvílyft steinsteypt parhús með innbyggðum bílgeymslum á lóð nr. 1-3 við Iðunnarbrunn. Stærð: 1. hæð 195,5 ferm., 547,4 rúmm., 2.hæð 245,4 ferm., 766,2 rúmm., bílgeymsla 64,5 ferm., 180,6 rúmm. Samtals 505,4 ferm., 1.546,2 rúmm. Gjald kr. 6.800 + 6.800 + 105.142"
36338 (04.11.320.1),http://gamli.rvk.is/vefur/owa/edutils.parse_page?nafn=BN036338,Jónsgeisli 73-77,Aðsk. byggingaleyfi fyrir nr. 75,Frestað. Vísað til athugasemda á umsóknarblaði.,Vegna byggingastjóraskipta er sótt um aðskilið byggingaleyfi fyrir raðhúsið nr. 75 á lóðinni nr. 73-77 við Jónsgeisla. Gjald kr. 6.800
36403 (04.11.330.6),http://gamli.rvk.is/vefur/owa/edutils.parse_page?nafn=BN036403,Jónsgeisli 91,Takmarkað byggingarleyfi,Samþykkt.  Samræmist ákvæðum laga nr. 73/1997. Samþykktin fellur úr gildi við útgáfu á endanlegu byggingarleyfi.  Vegna útgáfu á takmörkuðu byggingarleyfi skal umsækjandi hafa samband við yfirverkfræðing embættis byggingarfulltrúa.,"Ofanritaður sækir um takmarkað byggingarleyfi fyrir greftri, fyllingu og aðstöðugerð á lóðinni nr. 91 við Jónsgeisla."
36246 (01.36.111.5),http://gamli.rvk.is/vefur/owa/edutils.parse_page?nafn=BN036246,Kirkjuteigur 33,sótt um leyfi til að byggja bílskúra.,Samþykkt.  Samræmist ákvæðum laga nr. 73/1997. Frágangur á lóðamörkum verði gerður í samráði við lóðarhafa aðliggjandi lóða. Ef gera þarf breytingu á borgarlandi vegna aðkomu að bílgeymslum greiðist það af lóðarhafa.,"Sótt er um leyfi til að byggja tvær bílgeymslur á lóð þríbýlishússins nr. 33 við Kirkjuteig. Meðfylgjandi er samþykki meðeigenda á teikningu dags. 7. maí 2007.  Stærðir: 60,8 ferm., 230,8 rúmm. Gjald kr. 6.800 + 15.694"
35849 (34.53.330.1),http://gamli.rvk.is/vefur/owa/edutils.parse_page?nafn=BN035849,-°°/*,iðnaðar og /eða geymsluhús,Frestað. Vantar rafræna skráningartöflu,"Sótt er um leyfi til þess að byggja stálgrindarskemmu klædda með yleinigum fyrir sex iðnaðar og/eða geymslueiningar á 1. hæð ásamt millilofti í hluta atvinnuhússins á lóð nr. 16 við Kistumel. Brunahönnun frá Tækniþjónustu Ragnars G. Gunnarssonar  dags. 12. júní 2007 og 25. júní 2007 fylgir erindinu. Stærð: Atvinnuhús 1. hæð 1370,7 ferm., milliloft 297,4 ferm., samtals 1668,1 ferm., 10678,4 rúmm. Gjald kr. 6.800 + 726.131"
36384 (01.32.520.1),http://gamli.rvk.is/vefur/owa/edutils.parse_page?nafn=BN036384,Klettagarðar 13,stækkun aðalstigahúss,Frestað. Vísað til athugasemda á umsóknarblaði.,Sótt er um leyfi til að stækka aðalstigahús og til að koma fyrir stiga á milli fyrstu og annarar hæðar hússins á lóð nr. 13 við Klettagarða.  Bréf arkitekts dagsett 3. júlí 2007 fylgir erindinu  Gjald kr. 6.800
36374 (01.32.230.1),http://gamli.rvk.is/vefur/owa/edutils.parse_page?nafn=BN036374,Klettagarðar 6,reyndarteikningar,Frestað. Vísað til athugasemda á umsóknarblaði.,"Sótt er um leyfi fyrir áorðnum breytingum á byggingartíma vegna byggingarleyfis BN029222 frá 18. maí 2004, vegna  lokaúttektar á atvinnuhúsinu á lóðinni nr. 6 við Klettagarða. Gjald kr. 6.800"
36162 (01.54.331.0),http://gamli.rvk.is/vefur/owa/edutils.parse_page?nafn=BN036162,Kvisthagi 5,Sögun á opi í vegg,Frestað. Vísað til athugasemda á umsóknarblaði.,Sótt er um leyfi til að fjarlægja vegg milli eldhús og stofu fyrstu hæðar tvíbýlishússins á lóðinni nr. 5 við Kvisthaga. Samþykki meðeiganda ódagsett fylgir erindinu. Gjald kr. 6.800
36245 (01.25.110.2),http://gamli.rvk.is/vefur/owa/edutils.parse_page?nafn=BN036245,Laugavegur 178,húsklæðningar og endurnýjun,Samþykkt.  Samræmist ákvæðum laga nr. 73/1997.,"Sótt er um leyfi til  að ál og flísaklæða útveggi  2., 3. og 4. hæð hússins á lóðinni nr. 178 við Laugaveg. Meðfylgjandi er bréf burðarvirkishönnuðar dags. 18. júní 2007 og samþykki meðeigenda dags. 19. júní 2007. Gjald kr. 6.800"
35986 (01.17.150.1),http://gamli.rvk.is/vefur/owa/edutils.parse_page?nafn=BN035986,Laugavegur 18,Br. hl. 3-5. h úr skrifst. í gistuh íb. herb.,Samþykkt.  Samræmist ákvæðum laga nr. 73/1997. Áskilin lokaúttekt byggingarfulltrúa. Áskilið samþykki heilbrigðiseftirlits.,"Sótt er um leyfi til þess að breyta hluta 3., 4. og 5. hæðar úr skrifstofum í gistiheimili í fjöleignarhúsinu á lóðinni nr. 18 við Laugaveg.  Samþykki meðeigenda dags. 26. apríl 2007 fylgir erindinu. Gjald kr. 6.800 + 6.800"
36032 (01.18.130.7),http://gamli.rvk.is/vefur/owa/edutils.parse_page?nafn=BN036032,Lokastígur 24A,br. inni (heimagist.),Frestað. Lagfæra gögn m.t.t. skráningar.,Sótt er um leyfi til þess að breyta innra skipulagi einbýlishússins á lóð nr. 24A við Lokastíg. Málinu fylgir bréf umsækjanda dags. 22. maí 2007. Gjald kr. 6.800
35601 (04.32.640.2),http://gamli.rvk.is/vefur/owa/edutils.parse_page?nafn=BN035601,Lyngháls 4,fjölga bílastæðum,Frestað. Vísað til athugasemda á umsóknarblaði.,Sótt er um leyfi til þess að fjölga innkeyrslum og bílastæðum á suðurlóð skrifstofu- og þjónustuhússins á lóð nr. 4 við Lyngháls. Umsögn skrifstofu gatna- og eignaumsýslu dags. 27. mars 2007 og dags. 3. apríl 2007 fylgir erindinu. Gjald kr. 6.800 + 6.800
36153 (04.05.570.1),http://gamli.rvk.is/vefur/owa/edutils.parse_page?nafn=BN036153,Malarhöfði 2-2A,"2A, br. glugggar og 2h. innréttingar",Samþykkt.  Samræmist ákvæðum laga nr. 73/1997. Áskilin lokaúttekt byggingarfulltrúa. Áskilið samþykki heilbrigðiseftirlits.,"Sótt er um leyfi til að loka stiga milli hæða, síkka glugga á austurhlið og innrétta efri hæð (niðurrif léttra milliveggja) ásamt leyfi fyrir áður gerðri stækkun á annarri hæð þar sem útidyrahurð er færð í línu með útvegg hússins á lóðinni nr. 2-2A við Malarhöfða. Stærð: Stækkun 3,0 ferm., 9,8 rúmm. Gjald kr. 6.800 + 666"
36053 (00.00.000.0),http://gamli.rvk.is/vefur/owa/edutils.parse_page?nafn=BN036053,Mímisvegur 2,hækka og stækka kvisti,Frestað. Vísað til athugasemda á umsóknarblaði. Málinu vísða til skipulagsstjóra til ákvörðunar um grenndarkynningu. Vísað er til fjögurra ónúmeraðra uppdrátta dags. 14. maí 2007.,"Sótt er um leyfi til þess að hækka þak útbyggingar á norðausturhlið, stækka kvist á suðurvesturþekju með svölum framan við og fá samþykkta íbúð á þakhæð fjölbýlishússins á lóð nr. 2 við Mímisveg. Samþykki meðeigenda dags. 14. maí 2007, umboð vegna samþykkis dags. 24. febrúar 2007 fylgja erindinu. Stærð: Stækkun 30,7 ferm., 84,1 rúmm. Gjald kr. 6.800 + 6.800 + 5.719"
36392 (04.77.120.1),http://gamli.rvk.is/vefur/owa/edutils.parse_page?nafn=BN036392,Móvað 1,stækka svalir o.fl,Samþykkt.  Samræmist ákvæðum laga nr. 73/1997. Áskilin lokaúttekt byggingarfulltrúa. Frágangur á lóðamörkum verði gerður í samráði við lóðarhafa aðliggjandi lóða.,"Sótt er um leyfi til breytinga á byggingarleyfi BN030025 frá 2. nóvember 2006, með því að stækka svalir og til að klæða að utan með granítflísum í stað Viroc platna einbýlishúsið á lóðinni nr. 1 við Móvað. Gjald kr. 6.800"
36404 (01.11.530.3),http://gamli.rvk.is/vefur/owa/edutils.parse_page?nafn=BN036404,Mýrargata 26,Takmarkað byggingarleyfi,Samþykkt.  Samræmist ákvæðum laga nr. 73/1997. Samþykktin fellur úr gildi við útgáfu á endanlegu byggingarleyfi.  Vegna útgáfu á takmörkuðu byggingarleyfi skal umsækjandi hafa samband við yfirverkfræðing embættis byggingarfulltrúa.,Ofanritaður sækir um takmarkað byggingarleyfi til að steypa undirstöður og grunnplötu á lóðinni nr. 26 við Mýrargötu.
35960 (01.51.701.0),http://gamli.rvk.is/vefur/owa/edutils.parse_page?nafn=BN035960,Nesvegur 52,"Forstofa m. útitr., færa snyrtingu",Samþykkt.  Samræmist ákvæðum laga nr. 73/1997.,"Sótt er um leyfi til þess að breyta forstofu frá nýsamþykktum uppdráttum sbr. erindi BN32136 þannig að tröppur snúi samhliða íbúðarhúsi og breyta staðsetningu snyrtingar einbýlishússins á lóð nr. 52 við Nesveg. Stærð: Stækkun 1. hæðar 3,8 ferm., 7,9 rúmm. Gjald kr. 6.800 + 6.800 + 537"
36331 (01.44.100.5),http://gamli.rvk.is/vefur/owa/edutils.parse_page?nafn=BN036331,Nökkvavogur 10,endurn. á leyfi frá 13.06.2006,Samþykkt.  Samræmist ákvæðum laga nr. 73/1997.,"Sótt er um endurnýjun á byggingarleyfi frá 13. júní 2006, þar sem veitt var leyfi fyrir áður gerðum breytingum, nýjum sólpalli með heitri laug og timbursvölum á suðurhlið einbýlishússins á lóðinni nr. 10 við Nökkvavog. Gjald kr. 6.800"
36309 (01.14.051.5),http://gamli.rvk.is/vefur/owa/edutils.parse_page?nafn=BN036309,""">Pósthússtræti 9",endurnýjun á veitingaleyfi kaffibrennslan,Samþykkt.  Samræmist ákvæðum laga nr. 73/1997. Áskilin lokaúttekt byggingarfulltrúa. Áskilið samþykki Vinnueftirlits ríkisins. Áskilið samþykki heilbrigðiseftirlits.,"Sótt er um samþykki fyrir núverandi innra skipulagi veitingasalar og bars á 1. hæð ásamt snyrtingum, eldhúsi og starfsmannaaðstöðu í kjallara atvinnuhússins á lóð nr. 9 við Pósthússtræti. Gjald kr. 6.800"
36385 (01.13.601.7),http://gamli.rvk.is/vefur/owa/edutils.parse_page?nafn=BN036385,Ránargata 8,viðbygging norðurhlið,Frestað. Vísað til athugasemda á umsóknarblaði. Málinu vísað til umsagnar skipulagsstjóra.,"Sótt er um leyfi til að byggja viðbyggingu úr steinsteypu og timbri við norðurhlið 1. hæðar einbýlishússins á lóð nr. 8 við Ránargötu. Jafnframt er erindi BN034287 dregið til baka. Samþykki eigenda Ránargötu 8a dags. 29. júní 2007 er i fylgiriti, samþykki eigenda Ránargötu 6a er áritað á aðaluppdrátt nr. 1 dags. 4. júní 2007, samþykki eiganda Ránargötu 6 áritað á teikningu dags. 4. júní 2007.  Bréf frá brunavarnarhönnuði dags. 30. maí 2007 fylgir erindi. Stærð: Viðbygging 29,6 ferm., 92,0 rúmm. Gjald kr. 6.800 + 6.256"
36383 (01.63.630.5),http://gamli.rvk.is/vefur/owa/edutils.parse_page?nafn=BN036383,Skerplugata 5,byggja milligólf,Samþykkt.  Samræmist ákvæðum laga nr. 73/1997.,"Sótt er um leyfi til þess að stækka 1. hæð yfir vinnustofu undir breyttu þaki en sömu hæðar og innrétta baðherbergi á 1. hæð einbýlishússins á lóð nr. 5 við Skerplugötu.  Samþykki nágranna (á teikningu) fylgir erindinu. Stærð: Milligólf 19,6 ferm. (þar af lofthæð <1,8m 6,2 ferm.) Gjald kr. 6.800"
35995 (01.18.201.2),http://gamli.rvk.is/vefur/owa/edutils.parse_page?nafn=BN035995,Skólavörðustígur 13,Lækka hluta hússins um eina hæð og tengja húshluta.,Samþykkt.  Samræmist ákvæðum laga nr. 73/1997. Áskilin lokaúttekt byggingarfulltrúa. Með vísan til samþykktar borgarráðs frá 1. september 1998 skal utanhúss- og lóðarfrágangi vera lokið eigi síðar en innan tveggja ára frá útgáfu byggingarleyfis að viðlögðum dagsektarákvæðum 57. gr. skipulags- og byggingarlaga nr. 73/1997.,"Sótt er um leyfi til að lækka húsið nr. 13A um eina hæð og endurbyggja hana lægri, byggja tengigang og lyftu á baklóð sem tengir saman húsin nr. 13 og 13A á lóðinni nr. 13 við Skólavörðustíg. Niðurrif: 69,4 ferm., 104,1 rúmm. Stækkun: 101,1 ferm. og 298,1 rúmm. Gjald kr. 6.800 + 6.800 + 20.271"
36381 (01.42.000.1),http://gamli.rvk.is/vefur/owa/edutils.parse_page?nafn=BN036381,Skútuvogur 2,br. á merkjum - skilti,Frestað. Vísað til athugasemda á umsóknarblaði.,"Sótt er um leyfi til þess að breyta merkjum og skiltun ásamt samþykki fyrir rafrænu skilti á norðvesturhorni (2x12,7 ferm.) atvinnuhússins á lóð nr. 2 við Skútuvog. Jafnframt er erindi BN035657 dregið til baka. Gjald kr. 6.800"
36199 (01.19.340.3),http://gamli.rvk.is/vefur/owa/edutils.parse_page?nafn=BN036199,Snorrabraut 60,viðbygging,Frestað. Vísað til athugasemda á umsóknarblaði.,"Sótt er um leyfi fyrir þriggja hæða steinsteyptri viðbyggingu við atvinnuhúsnæði  með kjallara að hluta undir tæknirými og inndregna efstu hæð á lóðinni nr. 60 við Snorrabraut. Stærð: 1494,3 ferm., 5205,3 rúmm. Gjald kr. 6.800 + 353.960"
36380 (02.53.610.3),http://gamli.rvk.is/vefur/owa/edutils.parse_page?nafn=BN036380,Sóleyjarimi 9-11,glerlokun íbúðasvala,Frestað. Vísað til athugasemda á umsóknarblaði.,"Sótt er um leyfi til að loka svölum með opnanlegum glerveggjum í fjölbýlishúsinu á lóð nr.  9 við Sóleyjarima.   Stærð: xx ferm., xx rúmm. Gjald kr. 6.800"
36332 (01.23.000.3 01),http://gamli.rvk.is/vefur/owa/edutils.parse_page?nafn=BN036332,Sóltún 1,"niðurrif á Sóltún 1, matshluti 12",Samþykkt.  Samræmist ákvæðum laga nr. 73/1997.,"Sótt er um leyfi til að rífa iðnaðar- og vöruhúsið, Mhl. 12, á lóðinni nr. 1 við Sóltún. Niðurrif:  Fastanr. 201-0030, Mhl. 12 merkt 0001 vörugeymsla, 2322 ferm., 9003 rúmm. Gjald kr. 6.800"
36390 (04.61.330.5),http://gamli.rvk.is/vefur/owa/edutils.parse_page?nafn=BN036390,Urðarstekkur 10,stækkun og breytingar,Frestað. Vísað til athugasemda á umsóknarblaði.,"Sótt er um leyfi til að stækka kjallara og breyta þaki yfir bifreiðageymslu á lóðinni nr. 10 við Urðarstíg til upprunalegs horfs.   Stærð: Kjallari xx ferm., xx rúmm.  Gjald kr. 6.800 +xxx"
36387 (01.26.310.2 08),http://gamli.rvk.is/vefur/owa/edutils.parse_page?nafn=BN036387,Vegmúli 2,Endurinnrétting á 2.hæð,Frestað. Vísað til athugasemda eldvarnaeftirlits.,Sótt er um leyfi til breytinga á innra skipulagi 2. hæðar og útliti bakhliðar atvinnuhússins á lóðinni nr. 2 við Vegmúla. Gjald kr. 6.800
36321 (04.38.560.3),http://gamli.rvk.is/vefur/owa/edutils.parse_page?nafn=BN036321,Vesturás 31-39,"nr. 39, áðurgerður kjallari - útitröppur, hurð",Frestað. Vísað til athugasemda á umsóknarblaði.,Sótt er um samþykki fyrir áður gerðum kjallara og til að tengja hann íbúð á hæð með hringstiga.  Einnig er sótt um leyfi til að lækka lóð og koma fyrir gluggum og hurð á norður og austurhlið kjallara raðhússins nr. 39 á lóðinni nr. 31-39 við Vesturás. Stækkun xx ferm. xx rúmm. Gjald kr. 6.800 + xx
35678 (01.24.331.2),http://gamli.rvk.is/vefur/owa/edutils.parse_page?nafn=BN035678,Vífilsgata 9,hækka þak,Samþykkt.  Samræmist ákvæðum laga nr. 73/1997. Skilyrt er að eignaskiptayfirlýsingu vegna breytinga í húsinu sé þinglýst til þess að samþykktin öðlist gildi. Með vísan til samþykktar borgarráðs frá 1. september 1998 skal utanhúss- og lóðarfrágangi vera lokið eigi síðar en innan tveggja ára frá útgáfu byggingarleyfis að viðlögðum dagsektarákvæðum 57. gr. skipulags- og byggingarlaga nr. 73/1997. Áskilin lokaúttekt byggingarfulltrúa.,"Sótt er um leyfi til þess að hækka þak eins og þegar hefur verið gert á húshluta nr. 11 ásamt leyfi til þess að byggja kvist á vesturgafli stærri en samþykkt var og með svölum framan við á þakhæð fjölbýlishússins á lóð nr. 9 við Vífilsgötu. Jafnframt er erindi 34151 dregið til baka. Grenndarkynning stóð yfir frá 4. maí til 1. júní 2007. Engar athugasemdir bárust. Samþykki meðeigenda að húsi dags. 11. nóvember 2006 fylgir erindinu. Stærð: Stækkun samtals 31,5 ferm., 31,5 rúmm. Gjald kr. 6.800 + 2.142"
36400 (04.77.370.4),http://gamli.rvk.is/vefur/owa/edutils.parse_page?nafn=BN036400,Þingvað 7,stoðveggur og br.,Samþykkt.  Samræmist ákvæðum laga nr. 73/1997. Frágangur á lóðamörkum verði gerður í samráði við lóðarhafa aðliggjandi lóða.,Sótt er um leyfi fyrir stoðvegg á suðvestur og norðurlóðarmörkum ásamt áður gerðri stækkun á baðherbergi í einbýlishúsi á lóð nr. 7 við Þingvað. Samþykki nágranna á lóðum nr. 5 og 9 við Þingvað fylgir erindinu á uppdrætti. Gjald kr. 6.800
36323 (02.55.020.2),http://gamli.rvk.is/vefur/owa/edutils.parse_page?nafn=BN036323,Þvervegur 1-7,dreifistöð,"Frestað. Vísað til athugasemda á umsóknarblaði.

Helga Guðmundsdóttir vék af fundi við afgreiðslu málsins",Sótt er um leyfi til að byggja nýja smádreifistöð OR á lóðinni nr. 1-7 við Þverveg. Gjald kr. 6.800
36296 (01.46.330.3),http://gamli.rvk.is/vefur/owa/edutils.parse_page?nafn=BN036296,Faxafen 9,fjölgun séreignahluta,Samþykkt.  Samræmist ákvæðum laga nr. 73/1997.,Sótt er um leyfi til að fjölga eignum 1. hæðar úr þremur í fjóra þannig að  eignarhlutar 0102 og 0104 verði sjálfstæðar eignir í atvinnuhúsnæðinu nr. 9 við Faxafen. Meðfylgjandi er samþykki stjórnarmanna fjöleignahússins nr. 9 við Faxafen dags. 12. júní 2007. Gjald kr. 6.800
36412 (00.00.000.0),http://gamli.rvk.is/vefur/owa/edutils.parse_page?nafn=BN036412,Ferjuvogur 2,fjarl. færanl. kennslust,Samþykkt.  Samræmist ákvæðum laga nr. 73/1997.,"Fjarlægðar eru færanlegar kennslustofur K-62A, K-85A og tengigangur T-39B frá Vogaskóla á lóð nr. 2 við Ferjuvog."
36236 (00.00.000.0 38),http://gamli.rvk.is/vefur/owa/edutils.parse_page?nafn=BN036236,Fluggarðar skýli 36,fjölga eignarhald úr einu í tvö,Frestað. Vísað til athugasemda á umsóknarblaði.,"Sótt er um leyfi til að fjölga eignarhlutum, úr einum í tvo, flugskýlis nr. 36 á Reykjavíkurflugvelli. Bréf hönnuðar fylgir með erindinu. Gjald kr. 6.800"
36375 (01.18.441.2),http://gamli.rvk.is/vefur/owa/edutils.parse_page?nafn=BN036375,Bergstaðastræti 31A,(fsp) framlenging,Frestað.,Spurt er hvort framlengt yrði leyfi til þess að staðsetja gám tímabundið eða til 15. janúar 2008 á lóðinni nr. 31 við Bergstaðastræti. Bréf framkvæmdasviðs dags. 28. júni 2007 fylgir erindinu.
36313 (04.06.500.1),http://gamli.rvk.is/vefur/owa/edutils.parse_page?nafn=BN036313,Bíldshöfði 16,(fsp) skipta eignarhluta,Frestað. Vísað til athugasemda á umsóknarblaði.,Spurt er hvort leyft yrði að skipta norðurhelming tengibyggingar í þjá eignahluta á 1. hæð og aðra þrjá á 2. hæð með aðkomu frá nýjum svalagangi ásamt samþykki fyrir notkun áður óuppfyllts sökkulrýmis sem geymsluhúsnæðis með inngang og vörhurð frá Bíldshöfða 14 á lóð nr. 16 við Bíldshöfða. Bréf hönnuðar ódags. fylgir erindinu.
36106 (04.64.170.9),http://gamli.rvk.is/vefur/owa/edutils.parse_page?nafn=BN036106,Depluhólar 9,(fsp) Breyta innréttuðum kjallara,Jákvætt. Að uppfylltum skilyrðum og með vísan til umsagnar skipulagsstjóra á fyrirspurnarblaði. Sækja má um endurnýjun á byggingarleyfi frá 29. júní 1989.,Spurt er hvort leyft yrði að innrétta útgrafin kjallararými sem þvottahús og geymslur í einbýlishúsinu á lóðinni nr. 9 við Depluhóla. Málinu fylgir bréf umsækjanda dags. 1. júní 2007.
36317 (01.35.702.1),http://gamli.rvk.is/vefur/owa/edutils.parse_page?nafn=BN036317,Efstasund 26,(fsp) ofanábygging,Jákvætt. Með vísan til umsagnar skipulagsstjóra á fyrirspurnarblaði.,Spurt er hvort byggja megi eina hæð ofan á tvíbýlishúsið nr. 26 við Efstasund.
36319 (01.41.210.9),http://gamli.rvk.is/vefur/owa/edutils.parse_page?nafn=BN036319,Efstasund 85,(fsp) stækka hús í 3 íbúðir,Með vísan til umsagnar skipulagsstjóra á fyrirspurnarblaði.,Spurt er um hversu mikið megi byggja samkvæmt deiliskipulagi á lóð nr. 85 við Efstasund.
36329 (32.47.331.0),http://gamli.rvk.is/vefur/owa/edutils.parse_page?nafn=BN036329,>Esjugrund 24,"(fsp) ný innkeyrsla, ný bílastæði og stækkun á bílageymslu",Nei. Samræmist ekki deiliskipulagi.,"Spurt er hvort stækka megi bílgeymslu um 3,2 m til norðvestur, að lóðarmörkum og búa til nýja innkeyrslu frá  suðaustri með tveim nýjum bílastæðum við einbýlishúsið á lóð nr. 24 við Esjugrund."
36334 (01.35.500.7),http://gamli.rvk.is/vefur/owa/edutils.parse_page?nafn=BN036334,Kleppsvegur 102,(fsp) byggingamöguleikar,Sjá samþykkt deiliskipulag.,Spurt er um hversu mikið megi byggja samkvæmt deiliskipulagi á lóð n. 102 við Kleppsveg Bréf fyrirspyrjanda ( ódagsett) fylgir erindi
36368 (01.18.351.0),http://gamli.rvk.is/vefur/owa/edutils.parse_page?nafn=BN036368,Laufásvegur 19,(fsp) sorpgeymsla,"Frestað. Málinu vísað til umsagnar gatna- og eignaumsýslu Framkvæmasviðs, Umhverfissviðs og skipulagsstjóra.",Spurt er hvort leyfi fengist fyrir gerð sorp og reiðhjólaskýlis á landi Reykjavíkur á syðsta bílstæði fyrir framan húsið á lóð nr. 19 við Laufásveg.
36335 (01.24.100.1),http://gamli.rvk.is/vefur/owa/edutils.parse_page?nafn=BN036335,Laugavegur 126,(fsp) kvistur,Frestað. Vísað til umsagnar skipulagsstjóra,Spurt er hvort hækka megi þak og byggja kvist á norðurhlið fjölbýlishússins á lóð nr. 126 við Laugarveg.
36376 (04.91.800.1),http://gamli.rvk.is/vefur/owa/edutils.parse_page?nafn=BN036376,Skógarsel 12,(fsp) auglýsingaskilti,Jákvætt. Að uppfylltum skilyrðum enda verði sótt um byggingarleyfi.,"Spurt er hvort reisa megi skilti til að auglýsa íþróttaviðburði, 3,8 m. á hæð og 2,7 m. á breidd við aðkomu lóðar Íþróttafélags Reykjavíkur nr. 12 við Skógarsel.   Bréf arkitekts dags.02. júlí 2007 fylgir erindi, einnig skýringarteikning með staðsetningu og ljósmyndir er sýna fyrirhugað skilti"
36320 (02.84.860.7),http://gamli.rvk.is/vefur/owa/edutils.parse_page?nafn=BN036320,Sveighús 13,(fsp)  viðbygging,Nei. Vísað til umsagnar skipulagsstjóra á fyrirspurnarblaði.,Spurt er hvort byggja megi viðbyggingu við norðurhlið einýlishússins á lóð nr. 12 við Sveighús.
36300 (01.52.411.0),http://gamli.rvk.is/vefur/owa/edutils.parse_page?nafn=BN036300,Víðimelur 55,(fsp) áður gerð íbúð,Neikvætt. Ekki er um áður gerða íbúð að ræða.,"Spurt er hvort samþykki fengist fyrir áður gerð íbúð 0002 í kjallara, lækka jarðvegshæð og að byggja pall við suðurhlið fjölbýlishússins á lóðinni nr. 55 við Víðimel. Virðingargjörð dags. 1. júní 1941 fylgir erindinu. Íbúðarskoðun dags. 6.júlí 2007 fylgir erindinu."
36401 (04.79.130.3),http://gamli.rvk.is/vefur/owa/edutils.parse_page?nafn=BN036401,Þingvað 31,(fsp) einbýlishús,Neikvætt. Með vísan til umsagnar skipulagsstjóra á fyrirspurnarblaði.,"Spurt er hvort leyft yrði að byggja tvílyft steinsteypt einbýlishús eins og fram kemur á forteikningum, samtals 372 m2, lægsta kóta aðalhæðar 81,10 á lóð nr. 31 við Þingvað. Bréf arkitekts dags. 25. júní 2007 fylgir erindinu."
