nr,url,heimilisfang,tegund,nidurstada,spurning
37029 (05.86.530.1),http://gamli.rvk.is/vefur/owa/edutils.parse_page?nafn=BN037029,Almannadalur 17-23,hesthús nr. 21 speglað,Samþykkt.  Samræmist ákvæðum laga nr. 73/1997. Frágangur á lóðamörkum verði gerður í samráði við lóðarhafa aðliggjandi lóða. Áskilin lokaúttekt byggingarfulltrúa.,"Sótt er um leyfi til þess að breyta byggingaraðferð úr steinsteyptu húsi, einangruðu að utan og klætt með láréttri zinkhúðari báraðri klæðningu, í steinsteyptar einingar ásamt leyfi til þess að spegla hesthúsi nr. 21 sbr. erindi 36141 á lóð nr. 17-23 í Almannadal. Vottorð um gæðakerfi nr. 10 dags. 14. júní 1996 fylgir erindinu. Gjald kr. 6.800"
37162 (05.86.530.1),http://gamli.rvk.is/vefur/owa/edutils.parse_page?nafn=BN037162,Almannadalur 17-23,Takmarkað byggingarleyfi,Samþykkt.  Samræmist ákvæðum laga nr. 73/1997. Samþykktin fellur úr gildi við útgáfu á endanlegu byggingarleyfi.  Vegna útgáfu á takmörkuðu byggingarleyfi skal umsækjandi hafa samband við yfirverkfræðing embættis byggingarfulltrúa.,"Sótt er um takmarkað byggingarleyfi fyrir greftri, fyllingu og aðstöðugerð hesthúss nr. 21 á lóð nr. 17-23 í Almannadal."
37007 (00.00.000.0),http://gamli.rvk.is/vefur/owa/edutils.parse_page?nafn=BN037007,Almannadalur 25,"breytingar, hús nr. 25",Samþykkt.  Samræmist ákvæðum laga nr. 73/1997. Frágangur á lóðamörkum verði gerður í samráði við lóðarhafa aðliggjandi lóða. Áskilin lokaúttekt byggingarfulltrúa.,"Sótt er um leyfi til að spegla hesthúsi nr. 25, sbr. erindi 36139 á lóð nr. 25 - 29 við Almannadal.  Gjald kr. 6.800"
37128 (04.68.100.1),http://gamli.rvk.is/vefur/owa/edutils.parse_page?nafn=BN037128,Asparfell 2-12,loftnetabúnaður,Frestað. Gera grein fyrir samþykki meðeigenda.,Sótt er um leyfi til að setja upp búnað fyrir farsíma á fjölbýlishúsinu nr. 6 við Æsufell á lóð nr. 2-12 við Asparfell. Samþykki dags. 6.júní 2007 fylgir. Gjald kr. 6.800
37046 (01.14.040.7),http://gamli.rvk.is/vefur/owa/edutils.parse_page?nafn=BN037046,Austurstræti 12,breytingar,Frestað. Vísað til athugasemda á umsóknarblaði.,Sótt er um leyfi til breytinga á veitingasal á 1. hæð sbr. erindi BN0344436 hússins á lóð nr. 12 við Austurstræti. Gjald kr. 6.800
37073 (01.81.640.5),http://gamli.rvk.is/vefur/owa/edutils.parse_page?nafn=BN037073,Bakkagerði 13,stækkun bílageymslu,Frestað. Vísað til athugasemda á umsóknarblaði. Skipulagsferli ólokið.,"Sótt er um leyfi til að stækka bílskúr einbýlishússins á lóðinni nr. 13 við Bakkagerði. Meðfylgjandi er greinargerð vegna breytingar á deiliskipulagi SN060796. Jákvæð umsögn byggingafulltrúa frá 6.janúar 2006. Stækkun: 12,6 ferm., og 44,6 rúmm. Gjald kr. 6.800 + 3.033 Útskrift úr gerðarbók embættisfundar skipulagsstjóra, 26. október 2007, fylgir erindinu."
34246 (01.81.640.1),http://gamli.rvk.is/vefur/owa/edutils.parse_page?nafn=BN034246,Bakkagerði 16,viðbygging,Samþykkt.  Samræmist ákvæðum laga nr. 73/1997. Með vísan til samþykktar borgarráðs frá 1. september 1998 skal utanhúss- og lóðarfrágangi vera lokið eigi síðar en innan tveggja ára frá útgáfu byggingarleyfis að viðlögðum dagsektarákvæðum 57. gr. skipulags- og byggingarlaga nr. 73/1997. Áskilin lokaúttekt byggingarfulltrúa.,"Sótt er um leyfi til að byggja steinsteypta viðbyggingu við austurhlið 1. hæðar, til breytinga á innra skipulagi og fyrir áður gerðri breytingu á kvistum einbýlishússins á lóð nr. 16 við Bakkagerði. Málinu fylgir samþykki eigenda Bakkagerðis nr. 19. dags. 4. júní 2007. Stærð: Stækkun 29,2 ferm., 87,2 rúmm. Gjald kr. 6.100 + 6.800 + 5.930"
37121 (02.40.731.0),http://gamli.rvk.is/vefur/owa/edutils.parse_page?nafn=BN037121,Bakkastaðir 157,reyndarteikningar,Samþykkt.  Samræmist ákvæðum laga nr. 73/1997.,Sótt er um samþykki reyndarteikninga sbr. BN017673 af einbýlishúsinu nr.  157 við Bakkastaði Gjald kr. 6.800
35931 (01.24.220.5),http://gamli.rvk.is/vefur/owa/edutils.parse_page?nafn=BN035931,Brautarholt 16,"skipta svölum á 2. og 3. h, inng. í kj.",Samþykkt.  Samræmist ákvæðum laga nr. 73/1997. Áskilin lokaúttekt byggingarfulltrúa.,"Sótt er um leyfi til þess að skipta með skilvegg svölum 2. og 3. hæðar, útbúa aðkomu að tæknirými í kjallara um núverandi gryfju í undirgangi á 1. hæð ásamt samþykki fyrir áður gerðri lokun glugga á suðurhlið 1. hæðar matshluta 01, stækkun við innganga að stigahúsum á norðurhlið 1. hæðar sömu byggingar, breytingu á innra skipulagi allra hæða og áður gerðri stækkun kjallara með lítilli snyrtingu í matshluta 01 á lóð nr. 16 við Brautarholt. Stærð: Áður gerð stækkun kjallara 4,2 ferm., anddyri 1. hæð 8,1 ferm., samtals áður gerð stækkun 12,3 ferm., 36,8 rúmm. Gjald kr. 6.800 + 6.800 + 2.502"
37146 (01.13.430.7),http://gamli.rvk.is/vefur/owa/edutils.parse_page?nafn=BN037146,Brekkustígur 10,endurnýjun á byggingarleyfi,Frestað. Málinu vísað til skipulagsstjóra til ákvörðunar um grenndarkynningu. Vísað er til uppdrátta nr. 1 og 2 dags. júlí 2006.,"Sótt er um endurnýjun á byggingarleyfi BN 34428 frá 19.sept. 2006 um samþykki fyrir áður gerðu geymslurými undir bílskúr, leyfi til þess að stækka neðri hæð með svölum á þaki, síkka glugga á austurhlið neðri hæðar, fjölga gluggum á norðurhlið sömu hæðar og breyta innra skipulagi einbýlishússins á lóð nr. 10 við Brekkustíg. Stærð: Áður gerð geymsla undir bílskúr 20,8 ferm., 41,1 rúmm. Viðbygging við neðri hæð einbýlishúss 20 ferm., 55,9 rúmm. Gjald kr. 6.800 + 6.596"
37141 (01.13.411.4),http://gamli.rvk.is/vefur/owa/edutils.parse_page?nafn=BN037141,Brekkustígur 6B,rífa hús og byggja tvíbýlishús,Frestað. Framlögð gögn mjög ófullkomin. Málinu vísað til umsagnar skipulagsstjóra.,"Sótt er um leyfi til að rífa hús og til að byggja steinsteypt tvíbýlishús á lóðinni nr. 6B við Brekkustíg. Niðurrif:  Fastanr. 200-0940 merkt 01 0101 íbúð 49,7 ferm. Nýbygging:  xx ferm.  xx rúmm. Gjald kr. 6.800 + xx"
37135 (01.42.720.1),http://gamli.rvk.is/vefur/owa/edutils.parse_page?nafn=BN037135,Brúarvogur 1-3,br. á samþykkt BN036137,Frestað. Vísað til athugasemda á umsóknarblaði.,"Sótt er um leyfi til þess að stækka bílaplan við vesturhlið ný samþykkts atvinnuhúss sbr. erindi BN036137,  bæta við stiga milli 1. og 2. hæðar, breyta starfsmannaaðstöðu, færa hleðsluklefa, setja nýjan inngang inn að verslun á 1. hæð, innrétta skrifstofur á hluta 2. hæðar og breyta innra skipulagi á skrifstofurými á 3. hæð ásamt fleiri breytingum á innra skipulagi atvinnuhússins á lóð nr. 1-3 við Brúarvog. Stærð: Atvinnuhúsið var samtals 6955,9 ferm. verður xxx ferm., var 62190,4 rúmm. verður xxx rúmm. Móttökusvæði undir bílapali (B-rými) var 1189,9 ferm. verður xxx ferm., var  7282,2 rúmm. Gjald kr. 6.800 + xxx"
36391 (01.13.422.1),http://gamli.rvk.is/vefur/owa/edutils.parse_page?nafn=BN036391,Bræðraborgarstígur 16,girðing,Samþykkt. Enda er ekki um verið að samþykkja girðingu á lóðamörkum að Drafnarstíg 7.  Frágangur á lóðamörkum verði gerður í samráði við lóðarhafa aðliggjandi lóða.,Sótt er um leyfi til þess að girða með 1 m hárri stálnetsgirðingu á  lóðum nr. 16 við Bræðraborgarstíg og nr. 9 við Drafnarstíg.  Samþykki eigenda Bræðraborgarstígs 14 (á teikningu) fylgir erindinu. Gjald kr. 6.800 + 6.800
37131 (04.30.960.1),http://gamli.rvk.is/vefur/owa/edutils.parse_page?nafn=BN037131,Bæjarháls 1,þv.plan - tæknirými,Frestað. Lagfæra skráningu.,"Sótt er um leyfi til að byggja tvö opin þvottaplön og tæknirými á lóð nr. 1 við Bæjarháls. Stærðir: 24,9 ferm, 122,7 rúmm. Gjald kr. 6.800 + 8.344"
37159 (00.00.000.0 09),http://gamli.rvk.is/vefur/owa/edutils.parse_page?nafn=BN037159,Bæjarháls 1,Rífa olíutanka,Samþykkt.  Samræmist ákvæðum laga nr. 73/1997. Áskilið samþykki heilbrigðiseftirlits.,"Orkuveita Reykjavíkur sækir um leyfi til þess að rífa tvo olíutanka á lóð fyrirtækisins Bæjarháls 1. Tankarnir voru byggðir 1967 og er hvor um sig 8,5 m. á hæð og 9,5 m. í þvermál. Fastanr. 204-4200 og 204-4201, landnúmer 190769, Málinu fylgir bréf OR dags. 22. október 2007. Gjald kr. 6.800"
30327 (01.36.650.1),http://gamli.rvk.is/vefur/owa/edutils.parse_page?nafn=BN030327,Engjateigur 7,reyndarteikningar,Frestað. Vísað til athugasemda umhverfis- og heilbrigðissviðs.,"Sótt er um samþykki fyrir afmörkun tölvutæknirýma í kjallara, fyrir breytingu á innra skipulagi allra hæða og breyttu fyrirkomulagi bílastæða á lóð nr. 7 við Engjateig. Brunahönnun VSI endurskoðuð 8. febrúar 2007 fylgir erindinu. Gjald kr. 5.400 + 6.800"
37152 (04.73.150.1),http://gamli.rvk.is/vefur/owa/edutils.parse_page?nafn=BN037152,Ferjuvað 1-5,Takmarkað byggingarleyfi,Samþykkt. Samræmist ákvæðum laga nr. 73/1997. Samþykktin fellur úr gildi við útgáfu á endanlegu byggingarleyfi. Vegna útgáfu á takmörkuðu byggingarleyfi skal umsækjandi hafa samband við yfirverkfræðing embættis byggingarfulltrúa.,Sótt er um takmarkað byggingarleyfi til að byggja sökkla á lóðinni nr. 1-3 við Ferjuvað.
37031 (01.08.930.1),http://gamli.rvk.is/vefur/owa/edutils.parse_page?nafn=BN037031,Fiskislóð 15-21,steinullarskýli og milliloft,Samþykkt.  Samræmist ákvæðum laga nr. 73/1997. Áskilið samþykki Umhverfis- og heilbrigðisstofu.,"Sótt er um leyfi til að stækka og færa steinullarskýli og setja milliloft í hluta vörumóttöku ásamt stiga sbr. erindi 34701 í verslunarhúsinu á lóð nr. 15 - 21 við Fiskislóð.  Umsögn brunahönnuðar dags. 23.október 2007 Stærð:  Milliloft 83,1 ferm., stækkun skýlis (B-rými) 76,5 ferm. 316,8 rúmm. Gjöld kr. 6.800 + 21.542"
37123 (01.19.621.1),http://gamli.rvk.is/vefur/owa/edutils.parse_page?nafn=BN037123,Fjölnisvegur 9,tengja Fjölnisv. 9 og 11. Sam. bílag. og svalir,Frestað. Vísað til athugasemda á umsóknarblaði. Vísað til umsagnar skipulagsstjóra.,"Sótt er um leyfi til þess að byggja við þegar byggða bílgeymslu sbr. erindi BN030351 húss nr. 9 og tengja bílgeymslu húss nr. 11 sbr. erindi BN028378 með sameiginlegri bílgeymslu , tengigangi og svölum ofaná fyrir bæði íbúðarhúsin sem sameinuð verða í eina eign á lóð nr. 9-11 við Fjölnisveg. Bréf hönnuðar dags. 23. október 2007 fylgir erindinu. Stærð: Stækkun xxx ferm., xxx rúmm. Gjald kr. 6.800 + xxx"
37144 (01.65.--9.9),http://gamli.rvk.is/vefur/owa/edutils.parse_page?nafn=BN037144,Flugvöllur 106746,bílastæði,Samþykkt.  Samræmist ákvæðum laga nr. 73/1997. Þinglýsa skal yfirlýsingu um að bílastæðin séu til bráðabirgða og skuli fjarlægð á kostnað umsækjanda hvenær sem borgarráð krefst þess.,Sótt er um stækkun á bráðabirgðabílastæðum ásamt frágangi við þau við Flugstöð Flugfélags Íslands á Reykjavíkurflugvelli við Njarðargötu. Gjald kr. 6.800
37037 (02.45.610.1),http://gamli.rvk.is/vefur/owa/edutils.parse_page?nafn=BN037037,Fossaleynir 1,br. forr. bíós o.fl.,Samþykkt.  Samræmist ákvæðum laga nr. 73/1997. Áskilið samþykki heilbrigðiseftirlits. Áskilin lokaúttekt byggingarfulltrúa.,"Sótt er um leyfi til þess að breyta forrými bíóhúss (4. áfanga) sbr. erindi 36460 ásamt starfsmannaaðstöðu og flóttaleiðum á 3. hæð viðbyggingar við Egilshöll á lóð nr. 1 við Fossaleyni. Umsögn brunahönnuðar dags. 9. október 2007 og bréf hönnuðar dags. 9., 18. og 25. október 2007 fylgja erindi. Stærð: Matshluti 03 var samtals 7159,4 ferm. verður 7293,5 ferm., var 47629,2 rúmm. verður 48105,7 rúmm. eða stækkun 134,1 ferm., 476,5 rúmm. Gjald kr. 6.800 + 6.800 + 32.402"
37130 (02.69.550.3),http://gamli.rvk.is/vefur/owa/edutils.parse_page?nafn=BN037130,Freyjubrunnur 29,breyting v/lagnastokka,Samþykkt.  Samræmist ákvæðum laga nr. 73/1997. Frágangur á lóðamörkum verði gerður í samráði við lóðarhafa aðliggjandi lóða. Áskilin lokaúttekt byggingarfulltrúa.,Sótt er um leyfi til breytinga á nýsamþykktu erindi nr. BN034756 á lagnastokkum í fjölbýlishúsinu á lóð nr. 29 við Freyjubrunn. Gjald kr. 6.800
37133 (02.69.380.3),http://gamli.rvk.is/vefur/owa/edutils.parse_page?nafn=BN037133,Freyjubrunnur 31,breyting v/lagnastokka,Samþykkt.  Samræmist ákvæðum laga nr. 73/1997. Frágangur á lóðamörkum verði gerður í samráði við lóðarhafa aðliggjandi lóða. Áskilin lokaúttekt byggingarfulltrúa.,Sótt er um lítilsháttar breytingar á lagnastokkum sbr. erindi BN034877 í fjölbýlishúsinu á lóð nr. 31 við Freyjubrunn. Gjald kr. 6.800
37125 (01.18.452.3),http://gamli.rvk.is/vefur/owa/edutils.parse_page?nafn=BN037125,Freyjugata 6,íbúð 0101,Samþykkt.  Samræmist ákvæðum laga nr. 73/1997.  Skilyrt er að eignaskiptayfirlýsingu vegna breytinga í húsinu sé þinglýst til þess að samþykktin öðlist gildi.,"Sótt er um leyfi til að stækka íbúð 0101 um eitt herbergi, sem færist frá íbúð 0103 á 1. hæð í fjölbýlishúsinu á lóð nr. 6 við Freyjugötu. Gjald kr. 6.800"
36944 (02.69.350.7),http://gamli.rvk.is/vefur/owa/edutils.parse_page?nafn=BN036944,Friggjarbrunnur 39-41,parhús,"Frestað. Vísað til athugasemda á umsóknarblaði. Verði ekki orðið við ábendingum um að minnka húsið, sbr. deiliskipulagsskilamála, verður að synja málinu.","Sótt er um leyfi til þess að byggja þriggja hæða steinsteypt parhús með innbyggðum bílgeymslum á lóð nr. 39-41 við Friggjarbrunn. Stærð: Hús nr. 39 (matshluti 01) íbúð 1. hæð 88 ferm., 2. hæð 58,6 ferm., 3. hæð 65,8 ferm., bílgeymsla 24,4 ferm., samtals 236,8 ferm., 783,3 rúmm. Hús nr. 41 (matshluti 02) er sömu stærðar og hús nr. 39 eða samtals 236,8 ferm., 783,3 rúmm. Gjald kr. 6.800 + 106.529"
37127 (01.80.700.1),http://gamli.rvk.is/vefur/owa/edutils.parse_page?nafn=BN037127,Furugerði 1,loftnetabúnaður,Frestað. Vísað til athugasemda á umsóknarblaði.,Sótt er um leyfi til að setja upp loftnetsbúnað fyrir GSM síma á fjölbýlishúsinu nr. 1 við Furugerði. Samþykki Félagsbústaða dags. 12.4.2007 fylgir Gjald kr. 6.800
36994 (01.11.510.1),http://gamli.rvk.is/vefur/owa/edutils.parse_page?nafn=BN036994,Grandagarður 8,stækk. norðurhl. 2. og 3. h,Frestað. Vísað til athugasemda á umsóknarblaði.,"Sótt er um leyfi til þess að breyta innra skipulagi og stækka 2. hæð yfir áður svalir við norðurgafl sem aðstöðu Sjóminjasafnsins,  byggja 3. hæðina fyrir skrifstofur með svölum á suðausturhlið, breyta flóttastiga við norðurgafl, hætta við nýsamþykkta viðbyggingu við suðausturhlið 1. og 2. hæðar sbr. erindi 35342 og klæða allan nyrðri hluta atvinnuhússins með dökkum steinflísum og málmklæðningu á lóð nr. 8 við Grandagarð. Jafnframt er erindi 36537 dregið til baka. Ástandslýsing dags. 20. febrúar  2007, brunahönnun VSI endurskoðuð 5. október 2007 ásamt umsögn brunahönnuðar dags. 22. október 2007 og samþykki  meðeigenda (á teikningu) fylgja erindinu. Stærð: Stækkun 2. hæðar xxx ferm., stækkun 3. hæðar xxx ferm., samtals 941,9 ferm., 4132,4 rúmm. Gjald kr. 6.800 + 281.003"
36842 (01.46.110.2),http://gamli.rvk.is/vefur/owa/edutils.parse_page?nafn=BN036842,Grensásvegur 11,breytingar,Frestað. Vísað til athugasemda á umsóknarblaði.,"Sótt er um leyfi til að minnka tveggja hæða bílakjallara og fækka bílastæðum um sjö í bílakjallara, færa tengibyggingu á milli núverandi byggingar og nýbyggingar um 2 metra til suðurs sbr. erindi 34908, breyta þjónustukjarna í núverandi byggingu og stækka svalir á fyrstu hæð í norðurhorni núverandi byggingar ásamt því að fjölga bílastæðum á lóð um sjö og breyta aðkeyrslu að lóð nr. 11 við Grensásveg.   Jafnframt er erindi BN036397 dregið til baka. Bréf hönnuðar dags. 11. september, 9. og 22. október   2007 og umsögn brunahönnuðar dags. 10. og 22. október 2007 fylgja erindi. Stærðir:  Bílakjallari minnkar um 124,1 ferm. og 388,8 rúmm. Gjald kr. 6.800 + 6.800"
36678 (01.29.530.5),http://gamli.rvk.is/vefur/owa/edutils.parse_page?nafn=BN036678,Grensásvegur 8-10,nýtt andd. á vesturhlið,Samþykkt.  Samræmist ákvæðum laga nr. 73/1997. Áskilin lokaúttekt byggingarfulltrúa.,"Sótt er um leyfi til að byggja anddyri úr steinsteypu, einangrað að utan og klætt málmplötum við vesturhlið atvinnuhúsnæðisins á lóð nr. 10 við Grensásveg.    Samþykki meðeigenda ódagsett fylgir erindinu. Einnig lögð fram útskrift úr gerðabók embættisafgreiðslufundar skipulagsstjóra frá 5. október 2007. Stærð: 29,7 ferm., 88,7 rúmm. Gjald kr. 6.800 + 6.032"
36940 (01.54.200.7),http://gamli.rvk.is/vefur/owa/edutils.parse_page?nafn=BN036940,Hagamelur 25,"niðurrif, nýr bílskúr",Samþykkt.  Samræmist ákvæðum laga nr. 73/1997. Með vísan til samþykktar borgarráðs frá 1. september 1998 skal utanhúss- og lóðarfrágangi vera lokið eigi síðar en innan tveggja ára frá útgáfu byggingarleyfis að viðlögðum dagsektarákvæðum 57. gr. skipulags- og byggingarlaga nr. 73/1997. Frágangur á lóðamörkum verði gerður í samráði við lóðarhafa aðliggjandi lóða. Áskilin lokaúttekt byggingarfulltrúa.,"Sótt er um leyfi til að rífa tvöfaldan bílskúr og byggja nýjan sömu stærðar við fjölbýlishúsið á lóðinni nr. 25 við Hagamel. Stærð:  63 ferm., 176,4 rúmm. Gjald kr. 6.800 + 11.995"
36941 (01.54.200.6),http://gamli.rvk.is/vefur/owa/edutils.parse_page?nafn=BN036941,Hagamelur 27,bílskúr,Samþykkt.  Samræmist ákvæðum laga nr. 73/1997. Með vísan til samþykktar borgarráðs frá 1. september 1998 skal utanhúss- og lóðarfrágangi vera lokið eigi síðar en innan tveggja ára frá útgáfu byggingarleyfis að viðlögðum dagsektarákvæðum 57. gr. skipulags- og byggingarlaga nr. 73/1997. Frágangur á lóðamörkum verði gerður í samráði við lóðarhafa aðliggjandi lóða. Áskilin lokaúttekt byggingarfulltrúa.,"Sótt er um leyfi til að byggja tvöfaldan steinsteyptan bílskúr við fjölbýlishúsið á lóðinni nr. 27 við Hagamel. Umsóknin var grenndarkynnt fyrir hagsmunaaðilum að Hagamel 25, 29 og Melhaga 12-14 og eru samþykki þeirra  árituð á uppdrátt. Stærð:  63 ferm., 176,4 rúmm. Gjald kr. 6.800 + 11.995"
37090 (02.35.160.2),http://gamli.rvk.is/vefur/owa/edutils.parse_page?nafn=BN037090,Hamravík 38-40,br. á eldvarnarhurð,Samþykkt.  Samræmist ákvæðum laga nr. 73/1997. Áskilin lokaúttekt byggingarfulltrúa.,Sótt er um breytingu á eldvarnarhurðum inn á geymslugang í kjallara fjölbýlishússins á lóðum nr. 38 og 40 við Hamravík. Gjald kr. 6.800
37072 (01.29.040.3),http://gamli.rvk.is/vefur/owa/edutils.parse_page?nafn=BN037072,Háaleitisbraut 13,viðbygging við andd.,Samþykkt.  Samræmist ákvæðum laga nr. 73/1997. Áskilið samþykki heilbrigðiseftirlits. Með vísan til samþykktar borgarráðs frá 1. september 1998 skal utanhúss- og lóðarfrágangi vera lokið eigi síðar en innan tveggja ára frá útgáfu byggingarleyfis að viðlögðum dagsektarákvæðum 57. gr. skipulags- og byggingarlaga nr. 73/1997. Áskilin lokaúttekt byggingarfulltrúa.,"Sótt er um leyfi til að byggja við anddyri þjálfunarmiðstöðvar fatlaðra á lóðinni nr. 13 við Háaleitisbraut. Samþykki meðeigenda fylgir erindinu. Stærð: Stækkun 50,8 ferm., 185,4 rúmm. Gjald kr. 6.800 + 12.607"
37071 (00.00.000.0 42),http://gamli.rvk.is/vefur/owa/edutils.parse_page?nafn=BN037071,Hólmsheiði B -18,milligólf st. kaffistofa,Frestað Lagfæra skráningu.,Sótt er um leyfi til að stækka milligólf í hlöðu og stækka kaffistofu á 2. hæð í hesthúsinu nr. B - 18 við Hólmsheiði. Stærð: Stækkun milligólfs  42 ferm. Gjald kr. 6.800
37124 (04.33.430.1),http://gamli.rvk.is/vefur/owa/edutils.parse_page?nafn=BN037124,Hraunbær  36-60,skipta upp sameign,Frestað. Vísað til athugasemda á umsóknarblaði.,"Sótt er um leyfi til að skipta upp sameign fjölbýlishússins 56 - 58, loka skal gangi á milli húsanna þannig að sameignir húsanna verði aðskildar. á lóð nr. 36 - 60 við Hraunbæ. Meðfylgjandi er samþykki húsfundar. Gjald kr. 6.800"
36766 (01.54.000.9),http://gamli.rvk.is/vefur/owa/edutils.parse_page?nafn=BN036766,Hringbraut 59-61,"reyndarteikn,. svalir, trappa breyting inni nr. 59-61",Samþykkt.  Samræmist ákvæðum laga nr. 73/1997. Skilyrt er að eignaskiptayfirlýsingu vegna breytinga í húsinu sé þinglýst til þess að samþykktin öðlist gildi. Áskilin lokaúttekt byggingarfulltrúa.,"Sótt er um leyfi fyrir tröppum niður í kjallara við stigahús nr. 59 á götuhlið, svölum með tröppum niður í garð á suðurhlið 1. hæðar á báðum lóðunum, sameina íbúðir 1. og 2. hæðar í stigahúsi nr. 61 í eina íbúð með breyttu innra fyrirkomulagi í fjölbýlishúsinu á lóðinni nr. 59-61 við Hringbraut. Málinu fylgir virðingargjörð dags. 21. nóvember 1936 og eignaskiptayfirlýsing dags. 19. júní 1973. Gjald kr. 6.800"
37139 (01.19.890.1),http://gamli.rvk.is/vefur/owa/edutils.parse_page?nafn=BN037139,Hringbraut Landsp.,bráðabirgðaskrifstofuhúsnæði,Frestað. Vísað til athugasemda á umsóknarblaði.  Málinu vísað til umsagnar skipulagsstjóra.,"Sótt er um leyfi til að byggja tveggja hæða skrifstofuálmu með stigahúsi á norðurhluta lóðar LSH - Landspítalans við Hringbraut. Sömuleiðis verður núverandi stigi fjarlægður. Stærðir: 1. hæð 74,4 ferm., 2. hæð 68,5 ferm., samtals 142,9 ferm., 327,9 rúmm. Gjöld kr. 6.800 + 22.297"
36824 (02.69.370.5),http://gamli.rvk.is/vefur/owa/edutils.parse_page?nafn=BN036824,Iðunnarbrunnur 12,einbýlishús,Frestað. Vísað til athugasemda á umsóknarblaði. Málinu vísað til umsagnar skipulagsstjóra.,"Sótt er um leyfi til að byggja tvílyft, steinsteypt einbýlishús með innbyggðri bílgeymslu á lóðinni nr. 12 við Iðunnarbrunn. Málinu fylgir brunatæknileg greinargerð frá Línuhönnun dags. 18. október 2007. Stærð:  1. hæð íbúð 78,2 ferm., bílgeymsla 32,1 ferm., 2. hæð íbúð 105,1 ferm. Samtals 215,4 ferm. og 667,4 rúmm. Gjald kr. 6.800 + 45.383"
37143 (01.35.410.8),http://gamli.rvk.is/vefur/owa/edutils.parse_page?nafn=BN037143,Kambsvegur 22,bílskúr,Frestað. Vísað til athugasemda á umsóknarblaði. Málinu vísað til skipulagsstjóra til ákvörðunar um grenndarkynningu. Vísað er til uppdrátta 10.01 - 10.03. dags. 1. oktober 2007.,"Sótt er um leyfi fyrir staðseyptri viðbyggingu bílgeymslu, sem einingu 0102 mhl. 02 á lóðinni nr. 22 við Kambsveg. Meðfylgandi er samþykki aðliggandi lóðarhafa á deiliteikningu. dags. 1. okt. 2007 og samþykki meðeiganda dags. 1. okt. 2007 Stærðir : 41,8 ferm., 137,9 rúmm. Gjald kr. 6.800 + 9.377"
36711 (01.35.410.7),http://gamli.rvk.is/vefur/owa/edutils.parse_page?nafn=BN036711,Kambsvegur 24,viðbyggingar,Frestað. Lagfæra skráningartöflu.,"Sótt er um leyfi til að byggja tveggja hæða steinsteypta viðbyggingu norðanmegin og aðra viðbyggingu úr gleri sunnanmegin við einbýlishúsið á lóðinni nr. 24 við Kambsveg. Grenndarkynning fór fram og voru lögð fram samþykki þeirra sem grenndarkynnt var fyrir. Stækkun:  74,9 ferm., 204,9 rúmm. Gjald kr. 6.800 + 13.935"
37094 (34.53.360.1),http://gamli.rvk.is/vefur/owa/edutils.parse_page?nafn=BN037094,Kistumelur 10,samnýting eigna,Samþykkt.  Samræmist ákvæðum laga nr. 73/1997.  Áskilin lokaúttekt byggingarfulltrúa.,"Sótt er um leyfi til að breyta sbr. erindi BN035351 skráningu og samnýta einingar 0101 og 0102, 0103 og 0104 að og með 0109 og 0110. í atvinnuhúsnæðinu á lóð nr. 10 við Kistumel.  Gjald kr. 6.800"
36191 (34.53.330.3),http://gamli.rvk.is/vefur/owa/edutils.parse_page?nafn=BN036191,Kistumelur 20,nýb. iðnaðarah.,Samþykkt.  Samræmist ákvæðum laga nr. 73/1997.  Áskilin lokaúttekt byggingarfulltrúa.   Með vísan til samþykktar borgarráðs frá 1. september 1998 skal utanhúss- og lóðarfrágangi vera lokið eigi síðar en innan tveggja ára frá útgáfu byggingarleyfis að viðlögðum dagsektarákvæðum 57. gr. skipulags- og byggingarlaga nr. 73/1997.               Vottun eininga skal skilað fyrir úttekt á botnplötu,"Sótt er um leyfi til þess að byggja stálgrindarskemmu að mestu á einni hæð klædda með formaðri stálkæðningu fyrir léttan iðnað á lóð nr. 20 við Kistumel. Yfirlýsing vegna breytts aðalhönnuðar dags. 5. september 2007 fylgir erindinu. Stærð: Iðnaðarhús 1. hæð 2036,9 ferm., 2. hæð 257,2 ferm., samtals 2294,1 ferm., 16098,9 rúmm. Gjald kr. 6.800 + 6.800 + 1.094.725"
35334 (01.18.213.9),http://gamli.rvk.is/vefur/owa/edutils.parse_page?nafn=BN035334,Klapparstígur 37,skipting í 2 íb. + svalir,Frestað. Vísað til athugasemda á umsóknarblaði.,Sótt er um leyfi til þess að setja svalir á bakhlið 2. hæðar og skipta íbúð þeirrar hæðar í tvær íbúðir í fjöleignahúsinu á lóð nr. 37 við Klapparstíg. Gjald kr. 6.800
36871 (32.48.550.1),http://gamli.rvk.is/vefur/owa/edutils.parse_page?nafn=BN036871,Kollagrund 3,dælu- og hreinsistöð,Samþykkt.  Samræmist ákvæðum laga nr. 73/1997. Með vísan til samþykktar borgarráðs frá 1. september 1998 skal utanhúss- og lóðarfrágangi vera lokið eigi síðar en innan tveggja ára frá útgáfu byggingarleyfis að viðlögðum dagsektarákvæðum 57. gr. skipulags- og byggingarlaga nr. 73/1997. Áskilin lokaúttekt byggingarfulltrúa. Áskilið samþykki heilbrigðiseftirlits.,"Sótt er um leyfi til þess að byggja hreinsistöð fyrir fráveitu á Kjalarnesi á lóðinni nr. 3 við Kollagrund. Stærð: 274,7 ferm. og 1306,9 rúmm. Gjald kr. 6.800 + 88.869"
36103 (01.54.320.8),http://gamli.rvk.is/vefur/owa/edutils.parse_page?nafn=BN036103,Kvisthagi 4,hækkun á þaki,Samþykkt.  Samræmist ákvæðum laga nr. 73/1997. Með vísan til samþykktar borgarráðs frá 1. september 1998 skal utanhúss- og lóðarfrágangi vera lokið eigi síðar en innan tveggja ára frá útgáfu byggingarleyfis að viðlögðum dagsektarákvæðum 57. gr. skipulags- og byggingarlaga nr. 73/1997. Skilyrt er að eignaskiptayfirlýsingu vegna breytinga í húsinu sé þinglýst fyrir útgáfu á byggingarleyfi. Áskilin lokaúttekt byggingarfulltrúa.,"Sótt er um leyfi til að hækka þak, byggja kvisti og innrétta rishæð fjölbýlishússins á lóðinni nr. 4 við Kvisthaga. Málinu fylgir samþykki meðlóðarhafa dags. 31. maí 2007. Stækkun:  61,4 ferm., 155,7 rúmm. Gjald kr. 6.800 + 10.588"
35235 (04.99.810.4),http://gamli.rvk.is/vefur/owa/edutils.parse_page?nafn=BN035235,Lambasel 8,einbýlishús m. innb. bílg.,Frestað. Vísað til athugasemda á umsóknarblaði.,"Sótt er um leyfi til þess að byggja einlyft steinsteypt einbýlishús með innbyggðri bílgeymslu allt einangrað að utan og klætt með flísum og liggjandi zinkhúðaðri  báruklæðningu á lóð nr. 8 við Lambasel. Stærð: Íbúð 218,9 ferm., bílgeymsla 23,5 ferm., samtals 242,4 ferm., 846,8 rúmm. Gjald kr. 6.800 + 6.800 + 57.582"
37126 (01.83.210.5),http://gamli.rvk.is/vefur/owa/edutils.parse_page?nafn=BN037126,Langagerði 48,br. rýmum,Samþykkt.  Samræmist ákvæðum laga nr. 73/1997.  Skilyrt er að eignaskiptayfirlýsingu vegna breytinga í húsinu sé þinglýst til þess að samþykktin öðlist gildi. Frágangur á lóðamörkum verði gerður í samráði við lóðarhafa aðliggjandi lóða.,"Sótt er um leyfi til að sameina sameiginlegt þvottahús íbúð 1. hæðar, loka dyraopi á útvegg og breyta notkun á geymslu í matshluta 70 í þvottahús á lóð nr. 48 við Langagerði. Meðfylgjandi er samþykki íbúa meðeiganda. Gjald kr. 6.800"
37153 (01.17.150.2 01),http://gamli.rvk.is/vefur/owa/edutils.parse_page?nafn=BN037153,Laugavegur 18B,reyndarteikn. - Dressmann,Samþykkt.  Samræmist ákvæðum laga nr. 73/1997.  Áskilin lokaúttekt byggingarfulltrúa.,Sótt er um samþykki fyrir reyndarteikningum vegna breytinga sem orðið hafa á framkvæmkvæmdartíma vegna Dressman sbr. erindi 33524 á 1. og 2. hæð fjöleignarhússins á lóð nr. 18B við Laugaveg. Gjald kr. 6.800
37148 (01.17.150.2 01),http://gamli.rvk.is/vefur/owa/edutils.parse_page?nafn=BN037148,Laugavegur 18B,stækka 1.h að Laugav. o.fl.,Frestað. Lagfæra skráningu.,"Sótt er um leyfi til þess að stækka 1. hæð að Laugavegi með því að færa fram inndregna verslunaglugga og loka undirgangi, innrétta íbúð í einingu 0202, breyta gluggum norður hliðar 2. hæðar, breyta gistirými (0403 og 0404) í íbúð, breyta skrifstofu á 4. hæð í gistirými ásamt lagfæringum á áður gerðri stækkun íbúðar á 4. hæð í fjöleignarhússinu á lóð nr. 18B við Laugaveg. Stærð: Stækkun 1. hæðar 37,1 ferm., minnkun 2. hæðar vegna gluggabreytinga 7,7 ferm., samtals stækkun 29,4 ferm., 87,4 rúmm. Gjald kr. 6.800 + 5.943"
36889 (01.26.130.3),http://gamli.rvk.is/vefur/owa/edutils.parse_page?nafn=BN036889,Lágmúli 9,breytingar,Samþykkt.  Samræmist ákvæðum laga nr. 73/1997. Áskilin lokaúttekt byggingarfulltrúa. Áskilið samþykki heilbrigðiseftirlits.,Sótt er um leyfi fyrir breytingum á kjallara og 1. hæð þar sem innréttuð er skrifstofa ásamt kaffihúsi með tilheyrandi starfsmannaaðstöðu og snyrtingum nýjum stiga á milli hæða og útidyrahurð á suðurhlið í verslunar- og skrifstofuhúsnæðinu á lóð nr. 9 við Lágmúla. Meðfylgjandi er samþykki meðeigenda á dagsettri teikningu 3. febrúar 2006. Brunahönnun dags. 18. september 2007 og staðfesting burðarvirkishönnuðar dags. 8. okt. 2007 fylgir erindinu. Gjald kr. 6.800
37077 (01.23.000.3),http://gamli.rvk.is/vefur/owa/edutils.parse_page?nafn=BN037077,Mánatún 1-17/Sóltún 1-3,sameining 2 íb. á 8 og 9 h,Frestað. Lagfæra skráningu.,"Sótt er um leyfi til þess að breyta geymslum í kjallara, breyta lítillega útliti og sameina íbúðir á 8. og 9. hæð í eina íbúð í húsinu Mánatún 3-5 sbr. erindi 33317 á lóð nr. 1-17 við Mánatún og 1-3 við Sóltún. Brunahönnun Línuhönnunar endurskoðuð 16. október 2007 fylgir  erindinu. Stærð: Leiðréttar stærðir geymslukjallara verða neðri kjallari 332,9 ferm. (var 342,5 ferm.), kjallari 979,5 ferm. (var 994,4 ferm.), og íbúð 8. hæð 300,2 ferm. (var 299,9 ferm.), 9.hæð 146,2 ferm. (var 149,4 ferm), samtals var hús 9055 ferm. verður 9028,1 ferm., var 29131,9 rúmm. verður 29585,9 rúmm. eða minnkun um 26,9 ferm. og aukning um 454 rúmm.  Gjald kr. 6.800 + 30.872"
37160 (01.11.630.2),http://gamli.rvk.is/vefur/owa/edutils.parse_page?nafn=BN037160,Mýrargata 10-12,Rífa tvær byggingar,Samþykkt.  Samræmist ákvæðum laga nr. 73/1997.  Áskilið samþykki heilbrigðiseftirlits.,"Faxaflóahafnir sf. sækja um leyfi til þess að rífa tvær byggingar á lóðinni Mýrargötu 10-12, annarsvegar Mh 02-0101, fastanr. 200-0200, byggingarár 1924, stærð 1536 ferm. og hinsvegar Mh. 070101, fastanr. 221-4685, byggingarár 1994, stærð 128,8 ferm. Landnúmer lóðar 100067, stgr. 1.116.302. Málinu fylgir bréf Faxaflóahafna dags. 23. október 2007."
37161 (01.11.630.8),http://gamli.rvk.is/vefur/owa/edutils.parse_page?nafn=BN037161,Mýrargata 22,Rífa byggingar Stálsmiðjunnar,Samþykkt.  Samræmist ákvæðum laga nr. 73/1997.  Áskilið samþykki heilbrigðiseftirlits.,"Faxaflóahafnir sf. sækja um leyfi til þess að rífa byggingasamstæðuna Stásmiðjan á lóð nr. 22 við Mýrargötu. Um er að ræða fjóra matshluta sem skiptast svo: Mh.              fastanr.      byggingarár     stærð 01-0101      200-0210     1935                  1260,0 ferm. 02-0101      200-0211     1946                    320,9 ferm. 03-0101      200-0212     1946                    465,1 ferm. 04-0101      200-0213     1966                  1110,0 ferm. Landnúmer lóðar 100071, stgr. 1.116.308 Málinu fylgir bréf Faxaflóahafna dags. 23. október 2007."
37047 (05.05.370.1),http://gamli.rvk.is/vefur/owa/edutils.parse_page?nafn=BN037047,Nönnubrunnur 1,fjölbýlishús,Frestað. Vísað til fyrri athugasemda á umsóknarblaði og útskrift úr gerðarbók embættisafgreiðslufundar skipulagsstjóra frá 26. október 2007.,"Sótt er um leyfi til þess að byggja þriggja hæða steinsteypt fjölbýlishús með tíu íbúðum ásamt geymslu- og bílgeymslukjallara fyrir níu bíla allt einangrað að utan og klætt með xxx klæðningu á lóð nr. 1 við Nönnubrunn. Jafnframt er erindi 35148 dregið til baka. Stærð: Íbúð kjallari 176,5 ferm., 1. hæð 413,1 ferm., 2. hæð 429,8 ferm., 3. hæð 244,2 ferm., bílgeymsla 325,2 ferm., samtals 1588,8 ferm., 5141 rúmm. Gjald kr. 6.800 + 349.588 Útskrift úr gerðarbók afgreiðslufundar embættis skipulagsstjóra 19. október 2007 fylgir erindinu. Útskrift út gerðarbók embættisafgreiðslufundar skipulagsstjóra, 26. október 2007,"
37122 (01.28.130.5),http://gamli.rvk.is/vefur/owa/edutils.parse_page?nafn=BN037122,Safamýri 25,reyndarteikningar,Frestað. Vísað til athugasemda á umsóknarblaði.,"Sótt er um samþykki fyrir breytingum á innra skipulagi,  aðallega stækkun íbúðar 1. hæðar (áður kjallari) í fjölbýlishúsinu á lóð nr. 25 við Safamýri. Samþykki meðeigenda fylgir dags. 18.okt. 2007 Gjald kr. 6.800"
37136 (01.36.600.1),http://gamli.rvk.is/vefur/owa/edutils.parse_page?nafn=BN037136,Sigtún 38,stækkun ráðstenfusal og fl.,Frestað. Vísað til athugasemda á umsóknarblaði.,"Sótt er um leyfi til þess að lengja stóra ráðstefnusal Grand Hótels til suðurs sbr. erindi BN030633 og breyta  innra skipulagi hluta kjallara viðbyggingar hótelsins sbr. erindi BN030959 á lóð nr. 38 við Sigtún. Umsögn brunahönnuðar dags. 23. október 2007 fylgir erindinu. Stærð: Stækkun xxx ferm., xxx rúmm. Gjald kr. 6.800 + xxx"
37134 (01.24.221.1),http://gamli.rvk.is/vefur/owa/edutils.parse_page?nafn=BN037134,Skipholt 15,br. innan húss,Frestað. Vísað til athugasemda á umsóknarblaði.,"Sótt er um leyfi til breytinga innanhúss sbr. erindi BN027292 í rými 0108 og að setja glugga á gluggalausan vesturvegg, sem snýr inn í port. á 1. hæð í húsi á lóð nr. 15 við Skipholt. Gjald kr. 6.800"
36933 (01.84.--9.3),http://gamli.rvk.is/vefur/owa/edutils.parse_page?nafn=BN036933,Sléttuvegur F.v.bl 28,stækka tækniálmu,Frestað. Vísað til athugasemda eldvarnaeftirlits.,"Sótt er um leyfi til þess að rífa hluta tækniálmu austur af A-álmu, tengja hana við deild A1og klæða trébygginguna með sléttri ál- og báruklæðningu á lóð Landspítalans í Fossvogi. Stærð: Niðurrif húshluta 37,8 ferm., ný tengibygging og stækkun tækniálmu (matshluti 06) samtals 86,8 ferm., 268,7 rúmm. Gjald kr. 6.800 + 6.800 + 18.272"
37111 (01.83.010.6),http://gamli.rvk.is/vefur/owa/edutils.parse_page?nafn=BN037111,Sogavegur 144,súla undir svalir og fl. 36409,Samþykkt.  Samræmist ákvæðum laga nr. 73/1997.  Áskilin lokaúttekt byggingarfulltrúa.,"Sótt er um leyfi til að setja súlu undir svalir, setja opnanlegt fag í stofuglugga og færa steypta veggi innanhúss lítillega sbr. erindi BN036409 á lóð nr. 144 við Sogaveg. Gjald kr. 6.800"
37132 (02.53.610.1),http://gamli.rvk.is/vefur/owa/edutils.parse_page?nafn=BN037132,Sóleyjarimi 1-23,hurða að bílag. og rimla í gluggagöt,Samþykkt.  Samræmist ákvæðum laga nr. 73/1997.  Áskilin lokaúttekt byggingarfulltrúa.,"Sótt er um leyfi til að breyta gluggaopum, koma fyrir gönguhurðum og koma fyrir innkeyrslu að austanverðu í bílageymslu fjölbýlishússins á lóðinni nr. 5 við Sóleyjarima. Gjald kr. 6.800"
37101 (01.24.620.8),http://gamli.rvk.is/vefur/owa/edutils.parse_page?nafn=BN037101,Stangarholt 36,endurnýjun á byggingarleyfi - bílskúr,Samþykkt.  Samræmist ákvæðum laga nr. 73/1997.  Með vísan til samþykktar borgarráðs frá 1. september 1998 skal utanhúss- og lóðarfrágangi vera lokið eigi síðar en innan tveggja ára frá útgáfu byggingarleyfis að viðlögðum dagsektarákvæðum 57. gr. skipulags- og byggingarlaga nr. 73/1997. Frágangur á lóðamörkum verði gerður í samráði við lóðarhafa aðliggjandi lóða.,"Sótt er um endurnýjun á byggingarleyfi nr. 31680 frá 25. jan. 2006 til að byggja bílskúr á lóðinni nr. 36 við Stangarholt. Stærð: Bílskúr 36 ferm., 102,6 rúmm. Gjald kr. 6.800 + 6.977"
34175 (02.38.400.2),http://gamli.rvk.is/vefur/owa/edutils.parse_page?nafn=BN034175,Starengi 6,geymsla og áhaldahús,Samþykkt.  Samræmist ákvæðum laga nr. 73/1997.  Frágangur á lóðamörkum verði gerður í samráði við lóðarhafa aðliggjandi lóða. Áskilin lokaúttekt byggingarfulltrúa. Með vísan til samþykktar borgarráðs frá 1. september 1998 skal utanhúss- og lóðarfrágangi vera lokið eigi síðar en innan tveggja ára frá útgáfu byggingarleyfis að viðlögðum dagsektarákvæðum 57. gr. skipulags- og byggingarlaga nr. 73/1997.,"Sótt er um leyfi til að byggja geymslu- og áhaldahús á lóðinni nr. 6 við Starengi. Stærð: 39,2 ferm., 63,1 rúmm. Gjald kr. 6.100 + 4.291"
37055 (05.17.--9.0),http://gamli.rvk.is/vefur/owa/edutils.parse_page?nafn=BN037055,Suðurlandsv Reynisvl. 113440,óupphitað geymslurými,Samþykkt.  Samræmist ákvæðum laga nr. 73/1997.  Með vísan til samþykktar borgarráðs frá 1. september 1998 skal utanhúss- og lóðarfrágangi vera lokið eigi síðar en innan tveggja ára frá útgáfu byggingarleyfis að viðlögðum dagsektarákvæðum 57. gr. skipulags- og byggingarlaga nr. 73/1997. Áskilin lokaúttekt byggingarfulltrúa.,Sótt er um leyfi til að byggja óupphitað geymslurými á lóðinni nr. 43 (5.17-.-90) í Reynisvatnslandi. Gjald kr. 6.800 + 6.426 Útskrift úr gerðarbók embættisafgreiðslundar skipulagsstjóra 26. október 2007 fylgir erindinu.
37142 (01.53.201.6),http://gamli.rvk.is/vefur/owa/edutils.parse_page?nafn=BN037142,Sörlaskjól 22,leiðrétt skráning,Frestað. Samræma uppdrátt og skráningartöflu.,Sótt er um leiðréttingu á skráningu þar sem rými í kjallara voru skráð á ranga eign sbr. erindi nr. BN036216 í fjölbýlishúsinu á lóð nr. 22 við Sörlaskjól. Gjald kr. 6.800
36885 (01.87.5-9.9),http://gamli.rvk.is/vefur/owa/edutils.parse_page?nafn=BN036885,Traðarland 1,gervigrasvöllur,Frestað. Gera grein fyrir timburvegg.,"Sótt er um leyfi til að byggja gervigrasvöll, til að breyta útliti lokana undir stúku og byggja nýtt tæknirými fyrir gervigrasvöllinn á lóðinni nr. 1 við Traðarland. Málinu fylgir bréf hönnuðar dags. 22. október 2007. Stækkun stúku 18 ferm. og 121,6 rúmm. Gjald kr. 6.800 + 8.269"
37167 (05.05.620.4),http://gamli.rvk.is/vefur/owa/edutils.parse_page?nafn=BN037167,Urðarbrunnur 14,einb.hús,Frestað. Vísað til athugasemda á umsóknarblaði.,"Sótt er um leyfi til að byggja einnar hæðar einbýlishús á kjallara með innbyggðri bílgeymslu á lóðinni nr. 14 við Urðarbrunn. Stærð:  1. hæð íbúð 95,7 ferm., bílgeymsla 34,2 ferm.  Kjallari íbúð 138 ferm. Samtals 267,9 ferm., 1016,2 rúmm. Gjald kr. 6.800 + 69.102"
37118 (01.33.780.1),http://gamli.rvk.is/vefur/owa/edutils.parse_page?nafn=BN037118,Vatnagarðar 10,stækkun,Frestað. Málinu vísað til umsagnar skipulagsstjóra.,"Sótt er um leyfi til að byggja steinsteypta, einnar hæðar viðbyggingu við atvinnuhúsið á lóðinni nr. 10 við Vatnagarða. Jafnframt er erindi BN 30961 dregið til baka. Stækkun vörugeymsla:  501,3 ferm., 2105,1 rúmm. Gjald kr. 6.800 + 143.140"
37147 (04.66.120.4),http://gamli.rvk.is/vefur/owa/edutils.parse_page?nafn=BN037147,Vesturberg 145-151,endurnýjað byggingarleyfi nr. 145,Frestað. Vantar samþykki meðlóðarhafa.,"Sótt er um leyfi fyrir endurnýjun á byggingaleyfi þar sem sótt er um leyfi til þess að rífa núverandi anddyri og byggja nýtt steinsteypt og stærra anddyri við suðurhlið húss nr. 145, klæða einbýlishúsið að utan með álplötuklæðningu og fá samþykki fyrir þegar byggðum geymsluskúr (matshluti 05), skjólgirðingu við verönd og fyrir uppsetningu setlaugar vestan við hús nr. 145 á lóð nr. 145-151 við Vesturberg. Jafnframt er erindi 21137 dregið til baka.  Útskrift úr gerðabók embættisafgreiðslufundar skipulagsfulltrúa frá 29. október 2004, samþykki meðlóðarhafa dags 28. nóvember 2004 og ástandskönnun útveggja dags. 4. apríl 2005 fylgja  erindinu. Stærð: Stækkun anddyris 3,9 ferm., 11,1 rúmm., geymsluskúr 5 ferm., 10,3 rúmm. Gjald kr. 6.800 + 1.455"
36550 (01.18.010.2),http://gamli.rvk.is/vefur/owa/edutils.parse_page?nafn=BN036550,Þingholtsstræti 21,viðbygging við kjallara,Samþykkt.  Samræmist ákvæðum laga nr. 73/1997.  Með vísan til samþykktar borgarráðs frá 1. september 1998 skal utanhúss- og lóðarfrágangi vera lokið eigi síðar en innan tveggja ára frá útgáfu byggingarleyfis að viðlögðum dagsektarákvæðum 57. gr. skipulags- og byggingarlaga nr. 73/1997. Frágangur á lóðamörkum verði gerður í samráði við lóðarhafa aðliggjandi lóða. Áskilin lokaúttekt byggingarfulltrúa. Vísað til athugasemda Orkuveitunnar vegna inntaka.,"Sótt er um leyfi  til að byggja við kjallara norðan og austan við hús, innrétta allan kjallara sem íbúðarhúsnæði einbýlishússins með einu nýju bílastæði frá Ingólfsstræti á  lóð nr. 21 við Þingholtsstræti. Grenndarkynningin stóð yfir frá 23. ágúst til og með 20. september 2007. Engar athugasemdir bárust.  Stærð: Stækkun 53.,5 ferm., 146 rúmm. Gjald kr. 6.800 + 6.800 + 9.928"
37154 (01.43.210.4),http://gamli.rvk.is/vefur/owa/edutils.parse_page?nafn=BN037154,Langholtsvegur 106,Breytt lóðamörk,Samþykkt.  Samræmist ákvæðum laga nr. 73/1997.  Lóðamarkabreytingin tekur gildi þegar þinglýst hefur verið yfirlýsing um breytt lóðamörk.,Sótt er um leyfi til að breyta mörkum lóðarinnar Langholtsvegar 106 eins og sýnt er á meðfylgjandi uppdrætti landupplýsingadeildar dags. 22. október 2007. Tillaga að breytingu lóðarmarka: Lóðin er 522 ferm. Bætt við lóðina úr óútvísuðu landi 115 ferm Samtals 638 ferm. Sjá samþykkt bæjarráðs frá 3. febrúar 1956
37171 (04.03.000.1),http://gamli.rvk.is/vefur/owa/edutils.parse_page?nafn=BN037171,Eirhöfði 12,Gistiaðstaða,Frestað. Málinu vísað til umsagnar skipulagsstjóra,"Lagt fam bréf Dóminíum hf., dags. 22. október 2007, með beiðni um endurskoðun á svari við fyrirspurn nr. 36834 vegna gistiaðstöðu í húsinu nr. 12 Eirhöfða."
37119 (01.16.233.8),http://gamli.rvk.is/vefur/owa/edutils.parse_page?nafn=BN037119,Brávallagata 26,(fsp) svalir 1.hæð,Frestað. Málinu vísað til umsagnar skipulagsstjóra.,Spurt er hvort koma megi fyrir svölum á götuhlið 1. hæðar fjölbýlishússins á lóðinni nr. 26 við Brávallagötu.
36859 (01.81.311.2),http://gamli.rvk.is/vefur/owa/edutils.parse_page?nafn=BN036859,Grundargerði 29,(fsp) opna úr stofu í bílsk.,Nei. Með vísan til ákvæða deiliskipulags sbr. leiðrétta bókun skipulagsstjóra frá 26. október 2007.,Spurt hvort leyfi fengist að nota bílgeymslu til íbúðar þ.e.a.s. herbergi og geymslu með því að opna á milli íbúðar og bílgeymslu einnig að setja glugga í stað bílgeymsluhurðar í einbýlishúsinu á lóð nr. 29 við Grundargerði. Útskrift úr gerðarbók afreiðslufundar skipulagsstjóra 19. október 2007 ásamt umsögn skipulagsstjóra frá 18. október 2007 fylgir erindinu. Leiðrétt bókun frá skipulagsstjóra. Útskrift úr gerðarbók embættisafgreiðslufundar skipulagsstjóra 26. október 2007.
37140 (01.19.890.1),http://gamli.rvk.is/vefur/owa/edutils.parse_page?nafn=BN037140,Hringbraut Landsp.,(fsp) ofanábygging,Frestað. Málinu vísað til umsagnar skipulagsstjóra.,"Spurt er hvort leyft yrði að byggja tvær hæðir sbr. meðfylgjandi uppdrætti, að mestu úr gleri ofaná kjallara sjúkrahússins á lóðinni við Hringbraut."
37095 (01.14.051.0),http://gamli.rvk.is/vefur/owa/edutils.parse_page?nafn=BN037095,Lækjargata 8,(fsp) breyting inni,Jákvætt. Að uppfyllum skilyrðum enda verði sótt um byggingarleyfi.,Spurt er hvort leyft yrði að breyta innra skipulagi veitingastaðarins í atvinnuhúsinu á lóðinni nr. 8 við Lækjargötu.
37105 (01.81.550.4),http://gamli.rvk.is/vefur/owa/edutils.parse_page?nafn=BN037105,Melgerði 12,(fsp) bílskúr,Jákvætt. Enda verði sótt um byggingarleyfi sem grenndarkynna verður.,"Spurt er hvort leyfi fengist fyrir bílgeymslu á norðvesturenda lóðar einbýlishússins á lóðinni nr. 12 við Melgerði. Útskrift úr gerðarbók embættisafgreiðslufundar skipulagsstjóra, 26. október 2007, fylgir erindinu."
37129 (01.18.212.5),http://gamli.rvk.is/vefur/owa/edutils.parse_page?nafn=BN037129,Njálsgata 23,"(fsp) 4. h. þak, kvistir",Frestað. Málinu vísað til umsagnar skipulagsstjóra.,Spurt er hvort leyft yrði að byggja kvist á garðhlið og byggja kvist og svalir á götuhlið fjölbýlishússins á lóðinni nr. 23 við Njálsgötu.
37098 (01.67.420.8),http://gamli.rvk.is/vefur/owa/edutils.parse_page?nafn=BN037098,Skildinganes 41,(fsp) áður gerð stækkun,Jákvætt. Enda verði sótt um byggingarleyfi í samræmi við deiliskipulag.,Ofanritaður spyr hvort leyfi fáist fyrir áður gerði stækkun á húsinu nr. 41 við Skildinganes. Staðsetning sýnd á meðfylgjandi skissu. Stærð ca. 18.m2. Útskrift úr gerðarbók embættisafgreiðslufundar  skipulagsstjóra 26. október 2007 fylgir erindinu.
37112 (01.83.000.1 03),http://gamli.rvk.is/vefur/owa/edutils.parse_page?nafn=BN037112,Sogavegur 108,(fsp) breyta hluta 2 hæða,Jákvætt. Að uppfylltum skilyrðum og með vísan til athugasemda á fyrirspurnarblaði enda verði sótt um byggingarleyfi.,Spurt er hvort leyft yrði að breyta skrifstofuhúsnæði á 2. hæð vestur í íbúð í íbúðar- og atvinnuhúsinu á lóðinni nr. 108 við Sogaveg.
37117 (52.00.009.0),http://gamli.rvk.is/vefur/owa/edutils.parse_page?nafn=BN037117,Sætún, (fsp) einbýlishús með innbyggðri vélargeymslu,Nei. Samræmist ekki skipulagi.,Spurt er hvort leyft yrði að byggja einbýlishús með innbyggðri vélageymslu skv. meðfylgjandi skissum á lóðinni sem merkt er D við Sætún á Kjalarnesi.
