nr,url,heimilisfang,tegund,nidurstada,spurning
37260 (01.11.980.1),http://gamli.rvk.is/vefur/owa/edutils.parse_page?nafn=BN037260,Austurbakki 2,spennistöð og vatnsaflstöð neðanjarðar,Frestað. Vísað til athugasemda á umsóknarblaði.,Sótt er um leyfi til að byggja spennistöð og varaflsstöð neðanjarðar á lóðinni nr. 2 við Austurbakka.
37046 (01.14.040.7),http://gamli.rvk.is/vefur/owa/edutils.parse_page?nafn=BN037046,Austurstræti 12,breytingar,Samþykkt. Samræmist ákvæðum laga nr. 73/1997. Áskilin lokaúttekt byggingarfulltrúa. Áskilið samþykki heilbrigðiseftirlits.,Sótt er um leyfi til breytinga á veitingasal á 1. hæð sbr. erindi BN0344436 hússins á lóð nr. 12 við Austurstræti. Gjald kr. 6.800 + 6.800
37279 (01.14.021.3),http://gamli.rvk.is/vefur/owa/edutils.parse_page?nafn=BN037279,Austurstræti 3,innrétta jarðhæð,Frestað. Vísað til athugasemda á umsóknarblaði.,Sótt er um leyfi til að innrétta skyndibitastað (kebabstað) sem er  minni að umfangi en áður samþykktur veitingastaður dags. 17. október 2007 í jarðhæð hússins á lóð nr. 3 við Austurstræti. Gjald kr. 6.800
37084 (01.14.040.3),http://gamli.rvk.is/vefur/owa/edutils.parse_page?nafn=BN037084,Austurstræti 6,Austurstræti 6 tengist Austurstræti 8-10,Samþykkt.  Samræmist ákvæðum laga nr. 73/1997. Áskilin lokaúttekt byggingarfulltrúa.,Sótt er um leyfi til að tengja húsið nr. 6 við Austurstræti húsinu nr. 8 - 10 við Austurstræti á 1. hæð og í kjallara og innrétta fataverslun. Sömuleiðis að breyta inngangi og útliti hússins nr. 6 við Austurstræti. Meðfylgjandi er greinargerð VSI um brunavarnir Austurstrætis 6-8 dags. 29. okt. 2007. Gjald kr. 6.800 + 6.800
37189 (01.14.040.4),http://gamli.rvk.is/vefur/owa/edutils.parse_page?nafn=BN037189,Austurstræti 8-10,tengja Austurstræti 6,Frestað. Vísað til athugasemda á umsóknarblaði.,Sótt er um tímabundna opnun milli 1. hæðar og kjallara húsanna á lóð nr. 6 og á lóð nr. 8-10 við Austurstræti með opnun á brunhólfandi vegg með EICS-60 hurðalokun á palli í stiga milli kjallara og jarðhæðar. Meðfylgjandi er í gögnum Austurstrætis 6 úttekt á brunavörnum frá VSI dags. 29. okt. 2007. Gjald kr. 6.800
37281 (01.24.120.5),http://gamli.rvk.is/vefur/owa/edutils.parse_page?nafn=BN037281,Brautarholt 8,innrétting 2 hæð,Samþykkt.  Samræmist ákvæðum laga nr. 73/1997. Áskilin lokaúttekt byggingarfulltrúa.,Sótt er um leyfi til að breyta innra skipulagi og innrétta vinnustofur listamanna á 2. hæð atvinnuhússins á lóðinni nr. 8 við Brautarholt. Gjald kr. 6.800
37141 (01.13.411.4),http://gamli.rvk.is/vefur/owa/edutils.parse_page?nafn=BN037141,Brekkustígur 6B,rífa hús og byggja tvíbýlishús,Synjað. Eins og málið liggur nú fyrir og með vísan til umsagnar skipulagsfulltrúa.,"Sótt er um leyfi til að rífa hús og til að byggja steinsteypt tvíbýlishús á lóðinni nr. 6B við Brekkustíg. Útskrifst úr gerðabók embættisafgreiðslufundar skipulagsstjóra fylgir erindinu. Niðurrif:  Fastanr. 200-0940 merkt 01 0101 íbúð 49,7 ferm. Nýbygging:  xx ferm.  xx rúmm. Gjald kr. 6.800 + xx"
37254 (01.34.331.8),http://gamli.rvk.is/vefur/owa/edutils.parse_page?nafn=BN037254,Bugðulækur 17,svalir 3.hæð,Frestað. Vísað til athugasemda á umsóknarblaði. Málinu vísað til skipulagsstjóra til ákvörðunar um grenndarkynningu. Vísað er til uppdráttar dags. 5. nóvember 2007.,Sótt er um leyfi til að byggja nýjar svalir á 3. hæð fjölbýlishússins nr. 17 við Bugðulæk. Gjald kr. 6.800
37291 (04.79.180.4),http://gamli.rvk.is/vefur/owa/edutils.parse_page?nafn=BN037291,"1"">Búðavað 13-15",parhús,Frestað. Vísað til athugasemda á umsóknarblaði.,"Sótt er um leyfi til að byggja staðsteypt parhús á tveimur hæðum með innbyggðum bílgeymslum úr á lóðinni nr. 13-15 við Búðavað. Stærðir: 1. hæð xx ferm., xx rúmm. 2. hæð xx ferm xx rúmm. bílgeymsla xx ferm., xx rúmm. Gjald kr. 6.800 + xx"
37242 (01.45.411.5),http://gamli.rvk.is/vefur/owa/edutils.parse_page?nafn=BN037242,Dugguvogur 9-11,"br. á 0201, útihurð",Frestað. Vísað til athugasemda á umsóknarblaði.,Sótt er um leyfi til að setja nýja útidyra hurð á 1. hæð á vesturhlið og að breyta eignarhaldi á fyrstu og annarri hæð atvinnuhúsnæðisins á lóð nr. 9-11 við Dugguvog. Meðfylgjandi er samþykki meðeigenda dags. 7. nóvember 2007. Gjald kr. 6.800
37253 (32.47.350.9),http://gamli.rvk.is/vefur/owa/edutils.parse_page?nafn=BN037253,Esjugrund 40,reyndarteikningar,Frestað. Vísað til athugasemda á umsóknarblaði.,"Sótt er um leyfi til að innrétta kjallararými, sem sýnt er uppfyllt á samþ. teikningum og fékk jákvæða umsögn sem útgrafið í fyrirspurn  7. feb.2006 í einbýlishúsinu nr. 40 við Esjugrund. Gjald kr. 6.800 +"
36932 (01.75.120.1),http://gamli.rvk.is/vefur/owa/edutils.parse_page?nafn=BN036932,Flugvallarv. Keiluh.,br. á innra skipulagi,Samþykkt.  Samræmist ákvæðum laga nr. 73/1997. Frágangur á lóðamörkum verði gerður í samráði við lóðarhafa aðliggjandi lóða. Áskilin lokaúttekt byggingarfulltrúa. Áskilið samþykki heilbrigðiseftirlits.,"Sótt er um leyfi fyrir matarlyftu í viðbyggingu sbr. erindi 29809, leyfi til þess að stækka millipall í viðbyggingu og breyta vegg á 1. hæð að keilusal Keiluhallarinnar í Öskjuhlíð. Umsögn brunahönnuðar dags. 16. október 2007 fylgir erindinu. Stærð: Millipallur 6,3 ferm. Gjald kr. 6.800"
37012 (02.46.740.1),http://gamli.rvk.is/vefur/owa/edutils.parse_page?nafn=BN037012,Fossaleynir 16,breytingar,Frestað. Vísað til athugasemda á umsóknarblaði.,Sótt er um leyfi til að breyta innra skipulagi í austurenda hússins ásamt breytingu á innkeyrsluhurðum í glugga á lóðinni nr. 16 við Fossaleyni. Gjald kr. 6.800
37283 (01.18.631.2),http://gamli.rvk.is/vefur/owa/edutils.parse_page?nafn=BN037283,Freyjugata 27,breyting innanhúss,Samþykkt.  Samræmist ákvæðum laga nr. 73/1997. Áskilin lokaúttekt byggingarfulltrúa.,"Sótt er um leyfi til breytinga á innra skipulagi frá áður úgefnu byggingaleyfi, BN033487 dags. 2. maí 2006, þar sem verslunarrými merkt 0101 á 1. hæð er breytt  í íbúð í nú fjölbýlishúsinu á lóðinni nr. 27 við Freyjugötu. Gjald kr. 6.800"
37284 (05.05.510.3),http://gamli.rvk.is/vefur/owa/edutils.parse_page?nafn=BN037284,Friggjarbrunnur 2-4,breyta klæðningu,Samþykkt.  Samræmist ákvæðum laga nr. 73/1997. Frágangur á lóðamörkum verði gerður í samráði við lóðarhafa aðliggjandi lóða. Áskilin lokaúttekt byggingarfulltrúa.,Sótt er um leyfi til að breyta utanhússklæðningu úr steiningu í flísar á nýsamþykktu parhúsi á lóðinni nr. 2-4 við Friggjarbrunn. Gjald kr. 6.800
37137 (02.69.380.2),http://gamli.rvk.is/vefur/owa/edutils.parse_page?nafn=BN037137,Friggjarbrunnur 3-5,fjölbýlishús,Frestað. Vísað til athugasemda á umsóknarblaði.,"Sótt er um leyfi til að byggja þriggja hæða steinsteypt fjölbýlishús, tvö hús með sex íbúðum í hvoru húsi, lyftu og innbyggðri bílgeymslu í kjallara á lóðinni nr. 3-5 við Friggjarbrunn. Stærð Mhl. 1:  Kjallari bílageymsla 246,7 ferm., sameiginleg rými 146,4 ferm., 1. og 2. hæð íbúðir 306,1 ferm., 3. hæð 185,1 ferm.  Samtals 1190,4 ferm., 3793,1 rúmm. Mhl. 2:  Kjallari bílageymsla 210,1 ferm., sameiginleg rými 106,2 ferm., 1. og 2. hæð íbúðir 291,8 ferm., 3. hæð íbúðir 185,8 ferm.  Samtals 1085,7 ferm., 3445,3 rúmm. Friggjarbrunnur 3-5 samtals 2276,1 ferm. og 7238,4 rúmm. Gjald kr. 6.800 + 492.211"
37309 (02.69.350.8),http://gamli.rvk.is/vefur/owa/edutils.parse_page?nafn=BN037309,Friggjarbrunnur 35-37,leiðrétting á skráningartöflu,Samþykkt.  Samræmist ákvæðum laga nr. 73/1997. Frágangur á lóðamörkum verði gerður í samráði við lóðarhafa aðliggjandi lóða. Áskilin lokaúttekt byggingarfulltrúa.,Sótt er um leyfi til leiðréttingar á skráningu parhússins á lóðinni nr. 35-37 við Friggjarbrunn. Gjald kr. 6.800
37276 (02.85.750.5),http://gamli.rvk.is/vefur/owa/edutils.parse_page?nafn=BN037276,Frostafold 14,loftnetabúnaður fyrir GSM,Samþykkt.  Samræmist ákvæðum laga nr. 73/1997.,Sótt er um leyfi til að setja upp loftnetabúnað fyrir GSM síma á húsinu nr. 14 við Frostafold. Meðfylgjandi er samþykki eigenda. Gjald kr. 6.800
37127 (01.80.700.1),http://gamli.rvk.is/vefur/owa/edutils.parse_page?nafn=BN037127,Furugerði 1,loftnetabúnaður,Samþykkt.  Samræmist ákvæðum laga nr. 73/1997.,Sótt er um leyfi til að setja upp loftnetsbúnað fyrir GSM síma á fjölbýlishúsinu nr. 1 við Furugerði. Samþykki Félagsbústaða dags. 12.4.2007 fylgir Gjald kr. 6.800
36901 (01.82.430.4),http://gamli.rvk.is/vefur/owa/edutils.parse_page?nafn=BN036901,Garðsendi 17,garðskúr,Samþykkt.  Samræmist ákvæðum laga nr. 73/1997.,"Sótt er um leyfi til að koma fyrir garðskúr við einbýlishúsið á lóðinni nr. 17 við Garðsenda. Samþykki lóðarhafa Garðsenda nr. 15 dags. 11. september fylgir.  Teikningar af skúr í A4 stærð eru fylgiskjöl með máli. Einnig lögð fram útskrift úr gerðabók embættisafgreiðslufundar skipulagsstjóra frá 5. október 2007. Stærð 7,2 ferm., 19.2 rúmm. Gjald kr. 6.800 + 1.306"
36990 (02.69.520.5),http://gamli.rvk.is/vefur/owa/edutils.parse_page?nafn=BN036990,Gefjunarbrunnur 11,einbýlishús,Frestað. Vantar vottun eininga.,"Sótt um leyfi til að byggja einbýlishús á tveimur hæðum úr forsteyptum einingum með innbyggðri bílgeymslu á lóðinni nr. 11 við Gefjunarbrunn Meðfylgjandi undirritað samkomulag við lóðarhafa Iðunnarbrunnur 10, meðfylgjandi einnig bréf frá Borg ehf  dags. 6. nóvember 2007 vegna vottunar eininga. Stærð: Íbúð 1. hæð 95,3 ferm., 2. hæð 114,6 ferm., bílgeymsla 24,7 ferm., samtals 234,6 ferm., 784,8 rúmmetrar. Gjald kr. 6.800 + 50.918"
36994 (01.11.510.1),http://gamli.rvk.is/vefur/owa/edutils.parse_page?nafn=BN036994,Grandagarður 8,stækk. norðurhl. 2. og 3. h,Samþykkt.  Samræmist ákvæðum laga nr. 73/1997. Frágangur á lóðamörkum verði gerður í samráði við lóðarhafa aðliggjandi lóða. Áskilin lokaúttekt byggingarfulltrúa. Áskilið samþykki heilbrigðiseftirlits.,"Sótt er um leyfi til þess að breyta innra skipulagi og stækka 2. hæð yfir áður svalir við norðurgafl sem aðstöðu Sjóminjasafnsins,  byggja 3. hæðina fyrir skrifstofur með svölum á suðausturhlið, breyta flóttastiga við norðurgafl, hætta við nýsamþykkta viðbyggingu við suðausturhlið 1. og 2. hæðar sbr. erindi 35342 og klæða allan nyrðri hluta atvinnuhússins með dökkum steinflísum og málmklæðningu á lóð nr. 8 við Grandagarð. Jafnframt er erindi 36537 dregið til baka. Ástandslýsing dags. 20. febrúar  2007, brunahönnun VSI endurskoðuð 5. október 2007 ásamt umsögn brunahönnuðar dags. 22. október 2007 og samþykki  meðeigenda (á teikningu) fylgja erindinu. Stærð: Stækkun 2. hæðar 78,1 ferm., stækkun 3. hæðar 829,7 ferm., samtals 907,8 ferm., 3931,8 rúmm. Gjald kr. 6.800 + 281.003"
37307 (01.11.510.1),http://gamli.rvk.is/vefur/owa/edutils.parse_page?nafn=BN037307,Grandagarður 8,breyting 3.hæð,Samþykkt.  Samræmist ákvæðum laga nr. 73/1997. Frágangur á lóðamörkum verði gerður í samráði við lóðarhafa aðliggjandi lóða. Áskilin lokaúttekt byggingarfulltrúa.,Sótt er um leyfi til að breyta minnháttar innra skipulagi þriðju hæðar við innganginn ásamt tilfærslu á ræstivask og breyting á stærð svala á norðurhlið 4. hæðar á lóðinni nr. 8 við Grandagarð. Meðfylgendi er bréf brunahönnuðar dags. 14. nóvember 2007. Gjald kr. 6.800
37228 (01.46.100.1),http://gamli.rvk.is/vefur/owa/edutils.parse_page?nafn=BN037228,Grensásvegur  3-7,opna milli húshluta,Samþykkt.  Samræmist ákvæðum laga nr. 73/1997. Áskilin lokaúttekt byggingarfulltrúa.,Sótt er um leyfi til að opna á 3. hæð á milli húsa nr. 5 og nr. 7 á lóðinni nr. 3-7 við Grensásveg. Meðfylgjandi er bréf frá umsækjanda og samþykki meðeiganda dags. 6. nóvember 2007. Gjald kr. 6.800
37270 (01.36.020.9),http://gamli.rvk.is/vefur/owa/edutils.parse_page?nafn=BN037270,Gullteigur 4,breyting á kvistum,Frestað. Málinu vísað til umsagnar skipulagsstjóra.,Sótt er um að breyta vesturkvisti í miðju til samræmis við austurkvist á nýsamþykktum teikningum af fjölbýlishúsi á lóð nr. 4 við Gullteig. Gjald kr. 6.800
37261 (01.14.000.5),http://gamli.rvk.is/vefur/owa/edutils.parse_page?nafn=BN037261,Hafnarstræti  1-3,endurnýjun á byggingarleyfi (BN025683/BN022776),Samþykkt.  Samræmist ákvæðum laga nr. 73/1997. Áskilin lokaúttekt byggingarfulltrúa. Áskilið samþykki heilbrigðiseftirlits.,"Sótt er um endurnýjun á  byggingarleyfi frá 16. október 2001, endurnýjað 10. október 2002,  fyrir innréttingu veitingarstaðar í austurenda Fálkahússins á lóð nr. 1-3 við Hafnarstræti. Gjald kr. 6.800"
30735 (01.13.742.0),http://gamli.rvk.is/vefur/owa/edutils.parse_page?nafn=BN030735,Hávallagata 42,bifreiðastæði,Samþykkt.  Samræmist ákvæðum laga nr. 73/1997. Frágangur á lóðamörkum verði gerður í samráði við lóðarhafa aðliggjandi lóða. Komi til breytinga á mannvirkjum borgarinnar vegna gerð bílastæða skulu þær gerðar á kostnað umsækjanda og í samráði við skrifstofu gatna- og eignaumsýslu.,Sótt er um leyfi til þess að útbúa eitt bílastæði á lóðinni nr. 42 við Hávallagötu.  Útskrift úr gerðabók embættisafgreiðslufundar skipulagsfulltrúa frá 8. mars 2002 (v. fyrirspurnar) ásamt bréfi dags. 19. febrúar 2002 (v. fyrirspurnar) fylgja erindinu. Bréf umsækjanda dags.14. desember 2004 fylgir erindinu. Samþykki nokkurra nágranna fylgir erindinu. Útskrift úr gerðabók embættisafgreiðslufundar skipulagsfulltrúa frá 28. janúar 2005 og umsögn skipulagsfulltrúa dags. 28. janúar 2005 fylgja erindinu. Útskrift úr gerðarbók skipulagsstjóra frá 16. nóvember 2007 fylgir málinu. Gjald kr. 6.800
37275 (01.36.400.3),http://gamli.rvk.is/vefur/owa/edutils.parse_page?nafn=BN037275,Hofteigur 8,3 stk. breytt skráningartafla,Frestað. Vísað til athugasemda á umsóknarblaði.,Sótt er um leyfi fyrir breyttri skráningartöflu og fasteignamerkingum í kjallara húss nr. 8 við Hofteig. Gjald kr. 6.800
36922 (01.13.340.4),http://gamli.rvk.is/vefur/owa/edutils.parse_page?nafn=BN036922,Holtsgata 41B,niðurrif,Samþykkt.  Samræmist ákvæðum laga nr. 73/1997. Áskilið samþykki heilbrigðiseftirlits.,"Sótt er um leyfi til að rífa geymsluskúr með fastanr. 200-0797  á lóðinni nr. 41 B við Holtsgötu. Stærð niðurrifs 10,6 ferm., 23,0 rúmm. Gjald kr. 6.800"
37124 (04.33.430.1),http://gamli.rvk.is/vefur/owa/edutils.parse_page?nafn=BN037124,Hraunbær  36-60,skipta upp sameign,Frestað. Lagfæra skráningartöflu.,"Sótt er um leyfi til að skipta upp sameign fjölbýlishússins 56 - 58, loka skal gangi á milli húsanna þannig að sameignir húsanna verði aðskildar. á lóð nr. 36 - 60 við Hraunbæ. Meðfylgjandi er samþykki húsfundar. Meðfylgjandi er einnig litaðar merkingar skráningartöflu. Gjald kr. 6.800"
37256 (01.15.440.6),http://gamli.rvk.is/vefur/owa/edutils.parse_page?nafn=BN037256,Hverfisgata 105,breytingar,Samþykkt.  Samræmist ákvæðum laga nr. 73/1997.,Sótt er um leyfi til að síkka glugga og gera innkeyrsluhurð í kjallara norðurhliðar atvinnuhúsnæðisins á lóð nr. 105 við Hverfisgötu. Meðfylgandi er samþykki meðeigenda dags. 8. október 2007. Gjald kr. 6.800
37232 (01.17.210.1),http://gamli.rvk.is/vefur/owa/edutils.parse_page?nafn=BN037232,Hverfisgata 52,breytingar,Frestað. Mjókka skábraut úr 1200 mm í 1100 mm samanber samþykki gatna- og eignaumsýslu.,Sótt er um leyfi fyrir skábraut og tröppum með bætt aðgengi í huga út á borgarland (gangstétt) við fjölbýlishúsið á lóð nr. 52 við Hverfisgötu. Málinu fylgir samþykki skrifstofu gatna- og eignaumsýslu dags. 14. nóvember 2007. Gjald kr. 6.800
36995 (02.69.340.6),http://gamli.rvk.is/vefur/owa/edutils.parse_page?nafn=BN036995,Iðunnarbrunnur 7,einbýlishús,Samþykkt.  Samræmist ákvæðum laga nr. 73/1997. Frágangur á lóðamörkum verði gerður í samráði við lóðarhafa aðliggjandi lóða. Áskilin lokaúttekt byggingarfulltrúa.,"Sótt er um leyfi til að byggja steinsteypt einbýlishús einangrað að utan og múrhúðað  á þrem pöllum með innbyggðri bílgeymslu á lóðinni nr. 7 við Iðunnarbrunn. Stærð:  1. hæð íbúð 135,1 ferm., bílgeymsla 28,9 ferm., 2. hæð íbúð 131,6 ferm. Samtals 266,7 ferm., 885,2 rúmm. Gjald kr. 6.800 + 60.194"
37251 (01.84.650.4),http://gamli.rvk.is/vefur/owa/edutils.parse_page?nafn=BN037251,Kjarrvegur  7-9,7 - þakgluggi,Samþykkt.  Samræmist ákvæðum laga nr. 73/1997.,Sótt er um leyfi til að setja þakglugga á austurþak á húsi nr. 7 við Kjarrveg. Samþykki eigenda Kjarrvegar nr. 9 fylgir. Gjald kr. 6.800
37210 (01.35.510.7),http://gamli.rvk.is/vefur/owa/edutils.parse_page?nafn=BN037210,Kleppsvegur 106,reyndarteikningar,Frestað. Vísað til athugasemda á umsóknarblaði.,"Sótt er um leyfi fyrir áður gerðum breytingum á innra skipulagi og fyrir áður gerðum bílskúr við fjölbýlishúsið á lóðinni nr. 106 við Kleppsveg. Útskrift úr gerðarbók embættisafgreiðslufundar skipulagsstóra. Stærð:  35,6 ferm., 190,4 rúmm. Gjald kr. 6.800 + 12.947"
37245 (01.32.230.1),http://gamli.rvk.is/vefur/owa/edutils.parse_page?nafn=BN037245,Klettagarðar 6,reyndarteikn v/lokaúttektar,Frestað. Vísað til athugasemda á umsóknarblaði þ.e. gera grein fyrir breytingum.,Sótt er um leyfi fyrir reyndarteikningum vegna lokaúttektar á atvinnuhúsnæðinu á lóð nr. 6 við Klettagarða. Gjald kr. 6.800
37280 (04.99.710.1),http://gamli.rvk.is/vefur/owa/edutils.parse_page?nafn=BN037280,Klyfjasel 12,"bílskúr, hesthús",Frestað. Vísað til athugasemda á umsóknarblaði. Málinu vísað til umsagnar skipulagsstjóra.,"Sótt er um leyfi til að byggja bílskúr og hesthús á lóð nr. 12 við Klyfjasel. Meðfylgjandi er: A) Bréf frá skipulags- og byggingarsviði dags. 10.9.07 varðandi breytingu á deiliskipulagi. B) Bréf frá skipulagsstjóra dags. 16.7.07 varðandi deiliskipulag. C) Bréf frá byggingafulltrúa dags. 19.2.07 varðandi fyrirspurn. D) Bréf frá byggingafulltrúa dags. 27.4.00 varðandi byggingarleyfi. E) Forsaga dags. 21.5.00 F) Samkomulag dags. 11.8.06 G) Tillaga að deiliskipulagsbreytingu 27.7.07 H) Samþykkt stækkað deiliskipulag Ks.18-28 dags. 8.8.86. Stærð: Bílskúr 45 ferm., hesthús, 39,5 ferm., 255,8 rúmm. Gjald kr. 6.800 + 17.394"
37249 (04.11.520.4),http://gamli.rvk.is/vefur/owa/edutils.parse_page?nafn=BN037249,Kristnibraut 73,leiðr. á byggingarlýsingu,Frestað. Gera skal reikningslega grein fyrir hljóðeinangrun loftplötunnar.,Sótt er um leiðréttingu á byggingarlýsingu á lofti bílgeymslu í fjölbýlishúsinu á lóð nr. 73 við Kristnibraut. Gjald kr. 6.800
37304 (02.64.310.1),http://gamli.rvk.is/vefur/owa/edutils.parse_page?nafn=BN037304,Lambhagavegur 2-4,Takmarkað byggingarleyfi,Samþykkt.  Samræmist ákvæðum laga nr. 73/1997. Samþykktin fellur úr gildi við útgáfu á endanlegu byggingarleyfi.  Vegna útgáfu á takmörkuðu byggingarleyfi skal umsækjandi hafa samband við yfirverkfræðing embættis byggingarfulltrúa.,"Sótt er um takmarkað byggingaleyfi fyrir jarðvinnu, girðingu byggingarsvæðis og uppsetningu á aðsöðu vegna byggingarframkvæmda á lóðinni nr. 2-4 við Lambhagaveg."
36568 (01.23.000.3),http://gamli.rvk.is/vefur/owa/edutils.parse_page?nafn=BN036568,Mánatún 1-17/Sóltún 1-3,fjölbýlish. m. 89 íb. (mhl. 02),Frestað. Vísað til athugasemda á umsóknarblaði.,"Sótt er um leyfi til þess að byggja sex til tíu hæða steinsteypt fjölbýlishús með áttatíu og níu íbúðum ásamt geymslukjallara á tveimur hæðum, allt einangrað að utan og klætt með steinflísum, álklæðningu, harðvið og zinkklæðningu, sem hús nr. 7- 17 við Mánatún sem 2.  áfanga framkvæmda sbr. BN 33317 á lóð nr. 1-17 við Mánatún og 1-3 við Sóltún. Brunahönnun Línuhönnunar dags. 10. júlí 2007 fylgir  erindinu. Stærð: Mánatún 7-17 (matshluti 02) neðrikjallari geymslur 536 ferm., kjallari geymslur 1594,9 ferm., íbúðir 1. hæð 1534,1 ferm., 2. og 3. hæð 1775,3 ferm. hvor hæð, 4.-6.  hæð 1774,4 ferm. hver hæð, 7. hæð 872,6 ferm., 8. hæð 851,5 ferm., 9. hæð 269,4 ferm., 1. hæð 160,3 ferm., samtals 14306 ferm., 46837,1 rúmm.  Gjald kr. 6.800 + 3.184.923"
37077 (01.23.000.3),http://gamli.rvk.is/vefur/owa/edutils.parse_page?nafn=BN037077,Mánatún 1-17/Sóltún 1-3,sameining 2 íb. á 8 og 9 h,Samþykkt.  Samræmist ákvæðum laga nr. 73/1997. Frágangur á lóðamörkum verði gerður í samráði við lóðarhafa aðliggjandi lóða. Áskilin lokaúttekt byggingarfulltrúa.,"Sótt er um leyfi til þess að breyta geymslum í kjallara, breyta lítillega útliti og sameina íbúðir á 8. og 9. hæð í eina íbúð í húsinu Mánatún 3-5 sbr. erindi 33317 á lóð nr. 1-17 við Mánatún og 1-3 við Sóltún. Brunahönnun Línuhönnunar endurskoðuð 16. október 2007 fylgir  erindinu. Stærð: Leiðréttar stærðir geymslukjallara verða neðri kjallari 332,9 ferm. (var 342,5 ferm.), kjallari 979,5 ferm. (var 994,4 ferm.), og íbúð 8. hæð 300,2 ferm. (var 299,9 ferm.), 9.hæð 146,2 ferm. (var 149,4 ferm), samtals var hús 9055 ferm. verður 9028,1 ferm., var 29131,9 rúmm. verður 29585,9 rúmm. eða minnkun um 26,9 ferm. og aukning um 454 rúmm.  Gjald kr. 6.800 + 30.872"
37266 (01.71.000.9),http://gamli.rvk.is/vefur/owa/edutils.parse_page?nafn=BN037266,Miklabraut 84,áðurgerð íbúð í kjallara,Frestað. Umsækjendur skulu óska íbúðarskoðunar byggingarfulltrúa vegna málsins.,"Sótt er um samþykki fyrir áður gerðri íbúð, sbr. meðfylgjandi eignaskiptasamning dags. 20.1.1958, í kjallara hússins nr. 84 við Miklubraut. Gjald kr. 6.800"
37292 (04.77.350.2),http://gamli.rvk.is/vefur/owa/edutils.parse_page?nafn=BN037292,Móvað 39,2.hæð sett á hús,Frestað. Málinu vísað til umsagnar skipulagsstjóra.,"Sótt er um leyfi til að breyta innra skipulagi og útliti og byggja ofan á að hluta og útbúa svalir í  þaki einbýlishússins á lóðinni nr. 39 við Móvað. Stækkun:  56,2 ferm., 170 rúmm. Gjald kr. 6.800 + 11.560"
37293 (01.18.660.3),http://gamli.rvk.is/vefur/owa/edutils.parse_page?nafn=BN037293,Njarðargata 49,reyndarteikningar v. eignaskiptayfirl.,Frestað. Vísað til athugasemda á umsóknarblaði.,Sótt er um samþykki fyrir skráningartöflu og reyndarteikningum hennar vegna af húsi á lóð nr. 49 við Njarðargötu. Gjald kr. 6.800
37259 (01.34.120.4),http://gamli.rvk.is/vefur/owa/edutils.parse_page?nafn=BN037259,Rauðalækur 25,reyndarteikn. v/eignaskiptasamn.,Frestað. Vísað til athugasemda á umsóknarblaði.,"Sótt er um leyfi fyrir reyndarteikningum þar sem stiga, stærð geymslu 0004 og innra fyrir komulag kjallara er breytt lítillega í þríbýlishúsinu á lóð nr. 25 við Rauðalæk. Gjald kr. 6.800"
37277 (00.00.000.0),http://gamli.rvk.is/vefur/owa/edutils.parse_page?nafn=BN037277,Réttarháls 1,loftnetabúnaður fyrir GSM,Samþykkt.  Samræmist ákvæðum laga nr. 73/1997.,Sótt er um leyfi til að setja upp loftnetsbúnað fyrir farsíma á reykháfi á húsinu nr. 1 við Réttarháls. Meðfylgjandi er samþykki eigenda Gjald kr. 6.800
37136 (01.36.600.1),http://gamli.rvk.is/vefur/owa/edutils.parse_page?nafn=BN037136,Sigtún 38,stækkun ráðstenfusal og fl.,Frestað. Vísað til athugasemda á umsóknarblaði.,"Sótt er um leyfi til þess að lengja stóra ráðstefnusal Grand Hótels til suðurs sbr. erindi BN030633 og breyta  innra skipulagi hluta kjallara viðbyggingar hótelsins sbr. erindi BN030959 á lóð nr. 38 við Sigtún. Umsögn brunahönnuðar dags. 23. október 2007 fylgir erindinu. Stærð: Stækkun 272,0 ferm., 1544,4 rúmm. Gjald kr. 6.800 + 10.519"
37169 (01.36.210.7),http://gamli.rvk.is/vefur/owa/edutils.parse_page?nafn=BN037169,Silfurteigur 1,bílageymsl.,Frestað. Umsækjendur sýni fram á byggingarrétt sinn.  Að öðru leyti vísast til athugasemda á umsóknareyðublaði.,"Sótt er um leyfi til að byggja tvær sambyggðar bílgeymslur á lóð nr. 1 við Silfurteig. Meðfylgjandi er bréf frá hönnuði með úrdrætti úr deiliskipulagi dags. 9.nóv.2007 Stærðir: 60,6 ferm., 190,9 rúmm. Gjald kr. 6.800 + 12.981"
37244 (01.80.250.8 04),http://gamli.rvk.is/vefur/owa/edutils.parse_page?nafn=BN037244,Skálagerði 4,sameina kvisti,Frestað. Vísað til athugasemda á umsóknarblaði. Að þeim uppfylltum verður málið sent skipulagsstjóra til ákvörðunar um grenndarkynningu.,"Sótt er um leyfi til að sameina tvo miðjukvisti af fjórum á parhúsinu á lóð nr. 4-6 við Skálagerði. Stærðir: xx ferm., xx rúmm. Gjald kr. 6.800 + xx"
37235 (01.67.600.5),http://gamli.rvk.is/vefur/owa/edutils.parse_page?nafn=BN037235,Skildinganes 44,innr. í kjallara,Samþykkt.  Samræmist ákvæðum laga nr. 73/1997. Frágangur á lóðamörkum verði gerður í samráði við lóðarhafa aðliggjandi lóða. Áskilin lokaúttekt byggingarfulltrúa.,"Sótt er um leyfi til að snúa stiga og gera inntaksrými og tæknirými í hluta áður óútfyllt sökkulrými ásamt því að stækka sorpgeymslu og útigeymslu í einbýlishúsinu á lóð nr. 44 við Skildinganes. Stærð: Stækkun útigeymsla 2,1 ferm., 4,6 rúmm. inntök og tæknirými 17,4 ferm., 46,0 rúmm.  Samtals 21,6 ferm., 48,6 rúmm.  Gjald kr. 6.800 + 3.305"
37272 (04.38.650.2),http://gamli.rvk.is/vefur/owa/edutils.parse_page?nafn=BN037272,Skógarás 21,"gluggar, mállína",Samþykkt.  Samræmist ákvæðum laga nr. 73/1997. Frágangur á lóðamörkum verði gerður í samráði við lóðarhafa aðliggjandi lóða. Áskilin lokaúttekt byggingarfulltrúa.,"Sótt er um að setja glugga í eftirá, í stað ísteyptra glugga í húsinu nr. 21 við Skógarás. Gjald kr. 6.800"
37273 (04.38.650.3),http://gamli.rvk.is/vefur/owa/edutils.parse_page?nafn=BN037273,Skógarás 23,"gluggar, mállína",Samþykkt.  Samræmist ákvæðum laga nr. 73/1997. Frágangur á lóðamörkum verði gerður í samráði við lóðarhafa aðliggjandi lóða. Áskilin lokaúttekt byggingarfulltrúa.,"Sótt er um að setja glugga í eftirá, í stað ísteyptra glugga í húsinu nr. 23 við Skógarás. Gjald kr. 6.800"
37172 (01.15.121.2),http://gamli.rvk.is/vefur/owa/edutils.parse_page?nafn=BN037172,"Skuggasund 1, Lindarg",breytingar,Samþykkt.  Samræmist ákvæðum laga nr. 73/1997. Áskilin lokaúttekt byggingarfulltrúa.,"Sótt er um leyfi til að hefja framkvæmdir við innréttingu salar, sem frestað var 24.8.2004 sbr. erindi BN030058 á lóð nr. 1 við Skuggasund (áður nr. 9 við Lindargötu) Stærðir: Stækkun: 5,5 ferm., 22 rúmm. Gjald kr. 6.800 + 1.496"
36933 (01.84.--9.3),http://gamli.rvk.is/vefur/owa/edutils.parse_page?nafn=BN036933,Sléttuvegur F.v.bl 28,stækka tækniálmu,Samþykkt.  Samræmist ákvæðum laga nr. 73/1997. Áskilin lokaúttekt byggingarfulltrúa. Áskilið samþykki heilbrigðiseftirlits.,"Sótt er um leyfi til þess að rífa hluta tækniálmu austur af A-álmu, tengja hana við deild A1 og klæða trébygginguna með sléttri ál- og báruklæðningu á lóð Landspítalans í Fossvogi. Stærð: Niðurrif húshluta 37,8 ferm., ný tengibygging og stækkun tækniálmu (matshluti 06) samtals 86,8 ferm., 268,7 rúmm. Gjald kr. 6.800 + 6.800 + 18.272"
37234 (04.06.110.2),http://gamli.rvk.is/vefur/owa/edutils.parse_page?nafn=BN037234,Smiðshöfði  3-54,viðbygging og breytingar,"Frestað. Með vísan til umsagnar skipulagsstjóra er ekki gerð athugasemd við að umsækjendi láti á eigin kostnað vinna tillögu að deiliskipulagi, sem grenndarkynnt verður.","Sótt er um leyfi til að byggja viðbyggingu með burðarvirki úr steypu og límtré klætt yleiningum ásamt breytingu á innra fyrirkomulagi eldra hluta og niðurrifi að hluta og er því eldri umsókn dregin til baka erindi nr. BN036878 dregið  á lóð nr. 3 við Smiðshöfða. Meðfylgjandi er vottun eininga dags.21. júní 2006 og samþykkt deili við aðliggandi lóðarmörk dags. 7. nóvember 2007. Bréf fylgir vegna loftræstingu á hleðslurými lyftara dags. 9. nóvember 2007. Málinu fylgir útskrift úr gerðabók skipulsstjóra frá 19. nóvembber 2007. Stærðir: Niðurrif 175,0 ferm., 914,3 rúmm., viðbygging 801,2 ferm., 5379,1 rúmm. Gjald kr. 6.800 + 365.778"
36561 (01.19.320.4),http://gamli.rvk.is/vefur/owa/edutils.parse_page?nafn=BN036561,Snorrabraut 56,svalarlokun,Samþykkt.  Samræmist ákvæðum laga nr. 73/1997.,"Sótt er um leyfi til þess að loka svölum á austurhlið og vesturhlið fjölbýlishússins á lóð nr. 56 við Snorrabraut. Samþykki meðeigenda ódags. fylgir erindinu. Stærð: Stækkun 5,3 ferm., 13,3 rúmm. Gjald kr. 6.800 + 904"
37295 (02.29.560.2),http://gamli.rvk.is/vefur/owa/edutils.parse_page?nafn=BN037295,Sporhamrar 5,br. á gluggum,Samþykkt.  Samræmist ákvæðum laga nr. 73/1997. Áskilin lokaúttekt byggingarfulltrúa. Frágangur á lóðamörkum verði gerður í samráði við lóðarhafa aðliggjandi lóða.,Sótt er um leyfi til að breyta gluggum í stigahúsi sambýlisins á lóðinni nr. 5 við Sporhamra. Gjald kr. 6.800
37269 (01.24.621.7),http://gamli.rvk.is/vefur/owa/edutils.parse_page?nafn=BN037269,Stórholt 47,breyting á hurð,Frestað. Vísað til athugasemda á umsóknarblaði.,Sótt er um að setja hurð  þar sem er gluggi á nýlega samþykktum teikningum af bílskúr á lóð nr. 47 við Stórholt. Gjald kr. 6.800
37176 (01.26.400.1),http://gamli.rvk.is/vefur/owa/edutils.parse_page?nafn=BN037176,Suðurlandsbraut 18,breytingar 5.hæð,Samþykkt.  Samræmist ákvæðum laga nr. 73/1997. Áskilin lokaúttekt byggingarfulltrúa.,"Sótt er um leyfi til að breyta innra skipulagi á 5. hæð  í húsinu nr.18 við Suðurlandsbraut. Eldhúsi, matsal og kennslustofu er breytt í skrifstofur, snyrting starfsfólks í mötuneyti er felld niður. Gluggum og hurð er breytt til samræmis Gjald kr. 6.800"
35940 (01.45.440.6),http://gamli.rvk.is/vefur/owa/edutils.parse_page?nafn=BN035940,Súðarvogur 50,breytingar steypt upp í gat á 1h,"Samþykkt.  Samræmist ákvæðum laga nr. 73/1997. Frágangur á lóðamörkum verði gerður í samráði við lóðarhafa aðliggjandi lóða. Áskilin lokaúttekt byggingarfulltrúa. Skilyrt er að eftirfarandi yfirlýsingu sé þinglýst. Í samþykkt byggingarfulltrúa felst ekki nein breyting á gildandi deiliskipulagi eða aðalskipulagi en samkvæmt þeim er svæðið atvinnusvæði. Íbúar í þeim íbúðum sem hér eru samþykktar geta því ekki vænst þeirrar þjónustu borgaryfirvalda sem veitt er á skipulögðum íbúðarsvæðum, né þess að njóta þeirrar kyrrðar og umhverfis sem almennt er á íbúðarsvæðum, heldur sitja hagsmunir atvinnustarfsemi í fyrirrúmi.","Sótt er um leyfi til að byggja stiga, svalir og sorpgeymslu á baklóð, breyta gluggum, gera vegg á lóðarmörkum, til að breyta innra fyrirkomulagi og til að breyta í íbúðir 2. og 3. hæð atvinnuhússins á lóðinni nr. 50 við Súðarvog. Grenndarkynning stóð frá 20. júní til og með 18. júlí 2007. Athugasemd barst frá lögmannstofu Marteins Mássonar f.h. eigenda á 1. hæð hússins að Súðarvogi 44, 46 og 48, dags. 17. júlí 2007. Einnig lagt fram svarbréf Rammaprjóns, dags. 25. júlí 2007 ásamt samþykki frá eigendum efri hæða að Súðarvogi 44, 46 og 48. Lagður fram tölvupóstur lögmannstofu Marteins Mássonar f.h. eigenda á 1. hæð hússins að Súðarvogi 44, 46 og 48, dags. 13. ágúst 2007. Málinu fylgir skilyrt samþykki meðlóðarhafa dags. 8. maí 2007.  Einnig lögð fram umsögn skipulagsstjóra dags. 17. ágúst 2007. Nýtt samþykki meðlóðahafa dags. 2. október 2007 fylgir ásamt samþykki lóðarhafa aðliggjandi lóðar ódagsett. Stækkun: 19,9 ferm. Gjald kr. 6.800 + 6.800"
37271 (04.60.420.5 04),http://gamli.rvk.is/vefur/owa/edutils.parse_page?nafn=BN037271,Urðarbakki 8,skáning lagfærð,Samþykkt.  Samræmist ákvæðum laga nr. 73/1997.,"Sótt er um samþykki á nýrri skráningartöflu, sem gerð er eftir upphaflegum teikningum samþ. 26.okt.1967, af húsinu nr. 8 við Urðarbakka. Gjald kr. 6.800"
37118 (01.33.780.1),http://gamli.rvk.is/vefur/owa/edutils.parse_page?nafn=BN037118,Vatnagarðar 10,stækkun,Samþykkt.  Samræmist ákvæðum laga nr. 73/1997. Frágangur á lóðamörkum verði gerður í samráði við lóðarhafa aðliggjandi lóða. Áskilin lokaúttekt byggingarfulltrúa.,"Sótt er um leyfi til að byggja steinsteypta, einnar hæðar viðbyggingu við atvinnuhúsið á lóðinni nr. 10 við Vatnagarða. Jafnframt er erindi BN 30961 dregið til baka. Málinu fylgir brunahönnun frá Línuhönnun dags. í júní 2005, uppfærð í nóvember 2007. Útskrift úr gerðabók embættisafgreiðslufundar skipulagsstjóra frá 2. nóvember 2007 fylgir erindinu. Stækkun vörugeymsla:  501,3 ferm., 2105,1 rúmm. Gjald kr. 6.800 + 143.140"
35040 (01.13.600.8),http://gamli.rvk.is/vefur/owa/edutils.parse_page?nafn=BN035040,Vesturgata 17,br. í gistiheimili,Samþykkt.  Samræmist ákvæðum laga nr. 73/1997. Áskilin lokaúttekt byggingarfulltrúa. Áskilið samþykki heilbrigðiseftirlits.,"Sótt er um leyfi til að innrétta 17 herbergja gistiheimili á  1., 2. og 3. hæð í stað verslunar og skrifstofurýma og rífa 15 ferm. skúrbyggingu á lóðinni nr. 17 við Vesturgötu.  Lagður fram tölvupóstur frá Bárði Halldórssyni.  Grenndarkynning stóð frá 7. júní til og með 5. júlí 2007. Athugasemdir bárust frá 9 íbúum að Vesturgötu 17A,  dags. 22. júní 2007, 10 íbúum við Ránargötu 2 og 4, dags. 27. júní 2007. Erindinu var vísað til umsagnar vesturteymis arkitekta hjá skipulagsstjóra og er nú lagt fram að nýju ásamt umsögn skipulagsstjóra dags. 25. júlí 2007. Samþykki meðeigenda dags. 24. apríl 2007 og bréf hönnuðar dags. 31.okt. 2007 fylgir erindinu. Gjald kr. 6.100 + 6.800"
37286 (01.13.021.5),http://gamli.rvk.is/vefur/owa/edutils.parse_page?nafn=BN037286,Vesturgata 54,br. í 3 íbúðir,Frestað. Vísað til athugasemda á umsóknarblaði.,"Sótt er um leyfi til breyta innra skipulagi og útliti, loka opum yfir í hús nr. 52 og innrétta 3 íbúðir í atvinnuhúsinu á lóðinni nr. 54 við Vesturgötu. Gjald kr. 6.800"
37032 (04.12.120.1),http://gamli.rvk.is/vefur/owa/edutils.parse_page?nafn=BN037032,Vínlandsleið 6-8,reyndarteikningar,Samþykkt.  Samræmist ákvæðum laga nr. 73/1997. Frágangur á lóðamörkum verði gerður í samráði við lóðarhafa aðliggjandi lóða. Áskilin lokaúttekt byggingarfulltrúa.,Sótt er um leyfi til að breyta fyrirkomulagi innanhúss í verslunar- og þjónustubyggingu á lóð nr. 6-8 við Vínlandsleið. Gjald kr. 6.800
37250 (01.18.530.5),http://gamli.rvk.is/vefur/owa/edutils.parse_page?nafn=BN037250,Bergstaðastræti 50A,(fsp) kvistur,"Jákvætt. Að uppfylltum skilyrðum, enda verði sótt um byggingarleyfi sem grenndarkynnt verður.","Spurt er hvort byggja megi kvist á norðurhlið, sambærilegan þeim sunnaná, á húsinu nr. 50A við Bergstaðastræti."
37300 (01.81.410.8),http://gamli.rvk.is/vefur/owa/edutils.parse_page?nafn=BN037300,Breiðagerði 7,(fsp) íbúð í kjallara,Nei  Kjallari er hluti aðalíbúðar.,Spurt er hvort ósamþykkt íbúð í kjallara húss nr. 7 við Breiðagerði geti fengið sérstakt fasteignatsnúmer.
37248 (01.13.700.3),http://gamli.rvk.is/vefur/owa/edutils.parse_page?nafn=BN037248,Bræðraborgarstígur 23,(fsp) færa bílskúr,Frestað. Málinu vísað til umsagnar skipulagsstjóra.,"Spurt er hvort leyft yrði að færa bílskúr, það er rífa þann sem fyrir er og byggja annan sömu stærðar,  aftar á lóð til að bæra aðgengi á lóðinni nr. 23 við Bræðraborgarstíg."
37247 (01.70.221.7),http://gamli.rvk.is/vefur/owa/edutils.parse_page?nafn=BN037247,Drápuhlíð 9,(fsp) brjóta niður veggi,"Jákvætt. Að uppfylltum skilyrðum, enda verði sótt um byggingarleyfi sem fylgi umsögn löggilts burðarvirkishönnuðar.",Spurt er hvort leyft yrði að stækka göt í burðarveggi eins og sýnt er á meðfylgjandi skissu af fjölbýlishúsinu á lóðinni nr. 9 við Drápuhlíð.
37278 (04.94.700.3),http://gamli.rvk.is/vefur/owa/edutils.parse_page?nafn=BN037278,Engjasel 71-87,(fsp) br. innanhúss,Jákvætt. Að uppfylltum skilyrðum enda verði sótt um byggingarleyfi og samþykki meðeigenda fylgi.,Spurt er hvort sameina megi íbúð á 1. hæð með stiga herbergjum í kjallara húss nr. 83 við Engjasel.
37285 (01.51.530.6),http://gamli.rvk.is/vefur/owa/edutils.parse_page?nafn=BN037285,Granaskjól 62,(fsp) geymsluskúr og setlaug,"Jákvætt. Að uppfylltum skilyrðum, enda verði sótt um byggingarleyfi er taki mið af athugasemdum eldvarnareftirlits á fyrirspurnarblaði.",Spurt er hvort byggja megi geymsluskúr og koma fyrir setlaug á lóð nr. 62 við Granaskjól.
37268 (01.72.220.3),http://gamli.rvk.is/vefur/owa/edutils.parse_page?nafn=BN037268,Hvassaleiti  18-22,(fsp) breyta jarðhæð,Nei. Samkvæmt ákv. gr. 96 í byggingarreglugerð 441/1998 má ekki gera nýja íbúð í kjallara.,Spurt er hvort breyta megi rýmum í kjallara í íbúð í fjölbýlishúsinu nr. 18 á lóð nr. 18-22 við Hvassaleiti.
37239 (01.52.700.1),http://gamli.rvk.is/vefur/owa/edutils.parse_page?nafn=BN037239,Kaplaskjólsvegur 89-93,(fsp) sameina 2 íbúðir,Jákvætt. Að uppfylltum skilyrðum enda verði sótt um byggingarleyfi og því fylgi samþykki meðeigenda.,Spurt er hvort sameina megi tvær íbúðir og sameign í eina íbúð á efstu hæð fjölbýlishússins nr. 93 á lóð nr. 89-93 við Kaplaskjólsveg.
37225 (01.18.230.1),http://gamli.rvk.is/vefur/owa/edutils.parse_page?nafn=BN037225,Kárastígur 13,(fsp) reisa þak,"Jákvætt. Samanber útskrift skipulagsstjóra hefur erindinu verið vísað til deiliskipulagsvinnu sem yfir stendur, bíða verður niðurstöðu þeirrar vinnu.",Spurt er hvort byggja megi þakhæð ofan á hús á lóð nr. 13 við Kárastíg. Meðfylgjandi er bréf fyrirspyrjanda dags. 5. nóvember 2007 og teikningar. Útskrift úr gerðarbók embættisafgreiðslufundar skipulagsstjóra fylgir málinu
37252 (01.18.213.9),http://gamli.rvk.is/vefur/owa/edutils.parse_page?nafn=BN037252,Klapparstígur 37,(fsp) br. starfsemi - kaffihús,"Jákvætt. Að uppfylltum skilyrðum, enda verði sótt um byggingarleyfi sem samþykki meðeigenda fylgir.","Spurt er hvort leyfi fengist til að stækka kaffihús 1. hæðar þannig að áður íbúð annarar hæðar til hægri verði hluti kaffihús með eldunar- og starfsmannaaðstöðu ásamt tilheyrandi stiga innan einingar, samkv. meðfylgjandi gögnum af atvinnu og íbúðarhúsinu á lóðinni nr. 37 við Klapparstíg. Útskrift úr gerðarbók skipulagsstjóra dags. 16. nóvember 2007 fylgir erindinu."
37203 (01.18.300.6 70),http://gamli.rvk.is/vefur/owa/edutils.parse_page?nafn=BN037203,Laufásvegur 2a,(fsp) rífa viðbyggingu og flytja hús frá Granda,"Nei. Samræmist ekki fyrirætlun borgaryfirvalda, sem ætla að staðsetja húsið á Hlemmi.","Spurt er hvort leyft yrði að rífa atvinnuhúsið á lóðinni nr. 2a við Laufásveg, steypa grunn og flytja þangað hús sem áður stóð á Hverfisgötu 125, Norðurpóllinn, en er nú í geymslu úti á Granda. Útskrift úr gerðarbók skipulagsstjóra frá 16. nóvember 2007 fylgir erindinu."
37255 (01.17.302.4),http://gamli.rvk.is/vefur/owa/edutils.parse_page?nafn=BN037255,Laugavegur 51,(fsp) versl.húsnæði í íbúðarhúsnæði,Jákvætt. Að uppfylltum skilyrðum enda verði sótt um byggingarleyfi.,Spurt er hvort breyta megi verslunarhúsnæði í íbúð á 2. hæð hússins nr. 51 við Laugaveg.
37274 (01.15.320.2),http://gamli.rvk.is/vefur/owa/edutils.parse_page?nafn=BN037274,Lindargata 52,(fsp) stækkun,Jákvætt. Að uppfylltum skilyrðum enda verði sótt um byggingarleyfi sem grenndarkynnt verður ef berst.,Spurt er hvort byggja megi við kjallara og 1. hæð einbýlishússins nr. 52 við Lindargötu.
37241 (02.84.830.8),http://gamli.rvk.is/vefur/owa/edutils.parse_page?nafn=BN037241,Miðhús 42,(fsp) sólpallur og skjólveggir,Jákvætt. Ekki þarf að sækja um byggingarleyfil vegna skjólveggja sem eru allt að 150 cm á hæð og innan lóðar sbr. ákv. deiliskipulags.,"Spurt er hvort sækja þurfi um byggingaleyfi vegna skjólveggja,  allt að 180 cm hárra,  á lóðinni við einbýlishúsið nr. 42 við Miðhús."
37129 (01.18.212.5),http://gamli.rvk.is/vefur/owa/edutils.parse_page?nafn=BN037129,Njálsgata 23,"(fsp) 4. h. þak, kvistir","Jákvætt. Að uppfylltum skilyrðum enda verði sótt um byggingarleyfi. Samanber útskrift skipulagsstjóra. Ekki er á þessu stigi tekin afstaða til útlits, en samþykki meðlóðarhafa fylgi.",Spurt er hvort leyft yrði að byggja kvist á garðhlið og byggja kvist og svalir á götuhlið fjölbýlishússins á lóðinni nr. 23 við Njálsgötu. Úskrift úr gerðarbók skipulagsstjóra frá 16. nóvember 2007 fylgir erindinu.
37302 (01.13.321.1),http://gamli.rvk.is/vefur/owa/edutils.parse_page?nafn=BN037302,Seljavegur 13,(íbúð í risi),Frestað. Ekki er hægt að taka afstöðu til erindisins fyrr en íbúðarskoðun byggingarfulltúra liggur fyrir.,Spurt er hvort íbúð fáist samþykkt í rishæð hússins nr. 13 við Seljaveg.
37246 (01.87.150.2),http://gamli.rvk.is/vefur/owa/edutils.parse_page?nafn=BN037246,Traðarland 10-16,(fsp) 10 - bílageymsla og sólstofa,Frestað. Málinu vísað til umsagnar skipulagsstjóra.,"Spurt er hvort byggja megi ca 27 ferm. bílageymslu og 25,5 ferm. sólstofu við einbýlishúsið nr. 10 við Traðarland."
37201 (01.18.010.2),http://gamli.rvk.is/vefur/owa/edutils.parse_page?nafn=BN037201,Þingholtsstræti 21, (fsp) sameina Þingholtsstræti 21A og Laugaveg 74,Nei.,Spurt er hvort leyfi fengist til að sameina tvö hús  þannig að hús sem áður var á Laugavegi 74 yrði sett ofaná stækkað hús á lóð nr. 21A við Þingholtststræti. Útskrift úr gerðarbók embættisafgreiðslufundar skiplagsstjóra fylgir erindinu.
