nr,url,heimilisfang,tegund,nidurstada,spurning
45322 (01.18.621.2),http://gamli.rvk.is/vefur/owa/edutils.parse_page?nafn=BN045322,Baldursgata 30,Íbúð 2. hæð,Frestað. Vísað til athugasemda á umsóknarblaði.,"Sótt er um leyfi til þess að breyta atvinnuhúsnæði á annarri hæð í íbúð, koma fyrir svölum á suðurhlið og breyta gluggum á norðurhlið hússins á lóðinni nr. 30 við Baldursgötu. Samþykki nokkurra meðeigenda dags. 15.11.2012 fylgir erindinu. Umsögn skipulagsstjóra dags. 28.09.2012 (v. fyrirspurnar) fylgir erindinu. Gjald kr. 8.500"
35236 (01.18.020.8 01),http://gamli.rvk.is/vefur/owa/edutils.parse_page?nafn=BN035236,Bergstaðastræti 10A,stækkun,Frestað. Vísað til athugasemda á umsóknarblaði.,"Sótt er um leyfi til að byggja 4. hæðina úr stáli og gleri, inndregna mót austri ásamt útkragandi svölum og inndregna að hluta mót norðri í atvinnuhúsnæðinu á lóðinni nr. 10A við Bergstaðastræti. Stærðir: 71,4 ferm., 199,9 rúmm. Gjald kr. 6.800 + 13.593"
39315 (04.06.200.1),http://gamli.rvk.is/vefur/owa/edutils.parse_page?nafn=BN039315,Bíldshöfði 9,Gaskútageymsla,Frestað. Lagfæra skráningartöflu.,"Sótt er um leyfi til að byggja geymslu til að geyma gaskúta, utan á atvinnuhúsið á lóð nr. 9 við Bíldshöfða. Bréf frá hönnuði dags. 22. nóv. 2012 og Bréf frá N1 dags. 27.jan. 2012  samþykki meðeigenda ódags. fylgja.  Stækkun: 17,9 ferm og 46,8 rúm. Gjöld kr. 7.300 + 8.500 + 3.978"
45325 (04.64.230.1),http://gamli.rvk.is/vefur/owa/edutils.parse_page?nafn=BN045325,Blikahólar  2-12,2-4 - Klæðning,Samþykkt.  Samræmist ákvæðum laga nr. 160 / 2010. Með vísan til samþykktar borgarráðs frá 1. september 1998 skal utanhúss- og lóðarfrágangi vera lokið eigi síðar en innan tveggja ára frá útgáfu byggingarleyfis að viðlögðum dagsektum sbr. greinar nr. 2.4.7 og 2.9.2 í byggingarreglugerð nr. 112/2012. Áskilin lokaúttekt byggingarfulltrúa.,Sótt er um leyfi til að klæða útveggi suð-austurhlið með sléttri álplötuklæðningu á leiðarakerfi úr áli og með 50 mm steinullareinangrun undir. Samþykki frá aðalfundi húsfélagsins Blikahólum 2-4 dags. 19 nóv. 2012 og umsögn burðarvirkishönnuðar dags. 3. des. 2012. Gjald kr. 8.500
45135 (01.22.010.7),http://gamli.rvk.is/vefur/owa/edutils.parse_page?nafn=BN045135,Borgartún 8-16,"Bílakjallari, reyndarteikning",Frestað. Vísað til athugasemda á umsóknarblaði.,Sótt er um samþykkt á reyndarteikningu af bílakjallara B1 og B2 og sótt um að bílastæðakrafa verði lækkuð úr 1/35 í 1/50 í B1 á lóð nr. 8-16 við Borgartún. Einnig er sótt um leyfi fyrir breyttu innra fyrirkomulagi í rými 0101 í sama húsi. Gjald kr. 8.500
45133 (01.22.010.7),http://gamli.rvk.is/vefur/owa/edutils.parse_page?nafn=BN045133,Borgartún 8-16,Fjölga eignum í Höfðatorgi,Frestað. Vísað til athugasemda á umsóknarblaði.,"Sótt er um að fjölga eignum á Höfðatorgi samkvæmt meðfylgjandi töflu. Eignirnar verða: Eign 01 0101 - B1 - Borgartún 12-14 Eign 03 0101 - H1 - Turninn/Höfðatún 2 Eign 04 0101 - Fyrirhuguð hótelbygging Eign 05 0101 - mhl.05 (Höfðatún 12), mhl. 06 (Höfðatún 12A) og mhl. 07 (Skúlagata 63). (Meðfylgjandi er bréf arkitekts dags. 7.11. 2012, breytt 19.11. 2012, minnisblað vegna brunahönnunar dags. 8.11. 2012 og brunah0nnun dags. des. 2012). Á lóðinni Borgartún 8-16."
45163 (01.18.310.7),http://gamli.rvk.is/vefur/owa/edutils.parse_page?nafn=BN045163,Bókhlöðustígur 2,"Stækkun kjallara, svalir",Frestað. Grenndarkynningu ólokið.,"Sótt er um leyfi til að stækka kjallara til austurs og innrétta í honum eldhús og veitingasal fyrir 40 gesti og veitingaflokk II en á hæðinni og undir risi er íbúð í húsinu sem byggt var 1882 á lóðinni nr. 2 við Bókhlöðustíg. Meðfylgjandi er umsögn Minjasafns Reykjavíkur dags. 26.10. 2012 og Húsafriðunarnefndar dags. 29.10. 2012. Stærðir: 365,4 ferm., 1.055,2 rúmm. Stækkun: 81,2 ferm., 306,2 rúmm. Gjald kr. 8.500 + 26.027"
45328 (04.79.180.5),http://gamli.rvk.is/vefur/owa/edutils.parse_page?nafn=BN045328,Búðavað 17-19,Gluggastærðum breytt,Samþykkt.  Samræmist ákvæðum laga nr. 160 / 2010. Með vísan til samþykktar borgarráðs frá 1. september 1998 skal utanhúss- og lóðarfrágangi vera lokið eigi síðar en innan tveggja ára frá útgáfu byggingarleyfis að viðlögðum dagsektum sbr. greinar nr. 2.4.7 og 2.9.2 í byggingarreglugerð nr. 112/2012. Áskilin lokaúttekt byggingarfulltrúa.,Sótt er um leyfi til að breyta áður samþykktu erindi BN036876 þannig að gluggastærðum er breytt í húsinu á lóð nr. 17-19 við Búðarvað. Gjald kr. 8.500
45256 (04.30.450.4),http://gamli.rvk.is/vefur/owa/edutils.parse_page?nafn=BN045256,Dragháls 14-16,Reyndarteikningar,Samþykkt.  Samræmist ákvæðum laga nr. 160 / 2010. Skilyrt er að eignaskiptayfirlýsingu vegna breytinga í húsinu sé þinglýst til þess að samþykktin öðlist gildi.     Áskilin lokaúttekt byggingarfulltrúa.,"Sótt er um samþykki fyrir áður gerðum breytingum á brunavörnum, gerð er grein fyrir áður gerðum millipöllum og jafnframt er sótt um að sameina mhl. 01 og 02 í nýjan mhl. 01 í húsinu Fossháls 13-15 á lóðinni 14-16 við Dragháls. Samþykki meðeigenda dags. nóv. 2012 og kaupsamningur dags. 2. apríl 2012 fylgja erindinu. Skýrsla brunahönnuðar dags. nóv. 2012 fylgir erindinu. Stækkun: Millipallar : 207,5 ferm. Gjald 8.500"
45253 (04.79.160.3),http://gamli.rvk.is/vefur/owa/edutils.parse_page?nafn=BN045253,Elliðavað 13-17,13 - Aðskilið byggingarleyfi,Samþykkt.  Samræmist ákvæðum laga nr. 160 / 2010. Áskilin lokaúttekt byggingarfulltrúa.,"Sótt er um aðskilið byggingarleyfi, sjá BN036526, vegna byggingastjóraskipta á húsi nr. 13 á lóð nr. 13-17 við Elliðavað. Samþykki eigenda dags. 30. okt. 2012. Gjald kr. 8.500"
45239 (01.37.730.1),http://gamli.rvk.is/vefur/owa/edutils.parse_page?nafn=BN045239,Engjavegur 6,Lagfæringar á reyndarteikningum,Samþykkt.  Samræmist ákvæðum laga nr. 160 / 2010. Skilyrt er að eignaskiptayfirlýsingu vegna breytinga í húsinu sé þinglýst til þess að samþykktin öðlist gildi.     Áskilin lokaúttekt byggingarfulltrúa. Áskilið samþykki heilbrigðiseftirlits.,"Sótt er um samþykki á reyndarteikningum nýs stigahúss sbr. BN043957 sem felast í tilfærslu á sorpgeymslu, EICS-30 hurð bætt við í kjallara, salerni 2. hæðar færð í sameign og uppfærslu á skráningartöflu í húsi á lóð nr. 6 við Engjaveg. Gjald kr. 8.500"
45316 (01.11.150.2),http://gamli.rvk.is/vefur/owa/edutils.parse_page?nafn=BN045316,Eyjarslóð 1,Breyting inni,Frestað. Vísað til athugasemda á umsóknarblaði.,"Sótt er um leyfi til að breyta innra fyrirkomulagi í sjávaréttaframleiðslu þannig að komið verður fyrir eldhúsi, frysti og vinnslusal í mhl. 02 rými 0101 í húsinu á lóð nr. 1 við Eyjarslóð. Gjald kr. 8.500"
45264 (01.08.660.3),http://gamli.rvk.is/vefur/owa/edutils.parse_page?nafn=BN045264,Fiskislóð 43,Skrifstofuhúsnæði,Frestað. Vísað til athugasemda á umsóknarblaði.,"Sótt er um leyfi til að byggja skrifstofuhús, 2 hæðir og 3 hæðir að hluta úr forsteyptum einingum á lóð nr. 43 við Fiskislóð. Jafnframt er erindi BN037690 fellt úr gildi. Erindi fylgir kaupsamningur dags. 20. nóvember 2012 og minnisblað um brunavarnir dags. 4. desember 2012. Stærðir:  1. hæð 918.1 ferm., 2. hæð 905,3 ferm., 3. hæð 449,9 ferm. Samtals:  2.273,3 ferm., 7.697,6 rúmm. Gjald kr. 8.500 + 664.063"
45282 (05.05.370.3),http://gamli.rvk.is/vefur/owa/edutils.parse_page?nafn=BN045282,Friggjarbrunnur 14-16,Fjölbýlishús,Samþykkt.  Samræmist ákvæðum laga nr. 160 / 2010. Frágangur á lóðamörkum verði gerður í samráði við lóðarhafa aðliggjandi lóða. Í samræmi við 1. tölulið ákvæðis til bráðabirgða í byggingarreglugerð nr. 112/2012 er byggingin undanþegin ákvæðum í 6. - 16. hluta reglugerðarinnar. Áskilin lokaúttekt byggingarfulltrúa.,"Sótt er um leyfi til að byggja steinsteypt 2-3 hæða fjölbýlishús með 12 íbúðum og bílakjallara fyrir 12 bíla á lóð nr. 14-16 við Friggjarbrunn. Einnig er óskað eftir leyfi til að nota undanþáguákvæði í grein 17.1.2 í nýrri byggingareglugerð og  fylgir greinargerð þar um  dags. 26. nóvember 2012. Jafnframt er erindi BN037671 fellt úr gildi. Stærð:  Kjallari:  Bílgeymsla 349,2 ferm., geymslur 337,1 ferm., 1. hæð 568,3 ferm., 2. hæð 594,6 ferm., 3. hæð 385,6 ferm. Samtals 2.234,8 ferm., 6.994,5 rúmm. Gjald kr. 8.500 + 594.353"
45278 (01.51.700.9),http://gamli.rvk.is/vefur/owa/edutils.parse_page?nafn=BN045278,Granaskjól 13,Áður gerðar breytingar,Samþykkt.  Samræmist ákvæðum laga nr. 160 / 2010. Áskilin lokaúttekt byggingarfulltrúa.,Sótt er um samþykki fyrir núverandi fyrirkomulagi í tvíbýlishúsinu á lóðinni nr. 13 við Granaskjól. Gjald kr. 8.500
45297 (01.52.040.2),http://gamli.rvk.is/vefur/owa/edutils.parse_page?nafn=BN045297,Grandavegur 44,Fjölbýlishús,Frestað. Vísað til athugasemda á umsóknarblaði.,"Sótt er um leyfi til að byggja staðsteypt fjölbýlishús, einangrað að utan og klætt flísum og málmplötum, með 99 íbúðum, tíu hæðir og bílakjallara fyrir 73 bíla á lóð nr. 44 við Grandaveg. Stærðir: Mhl. 01:  4.340,4 ferm., 12.853,5 rúmm. Mhl. 02:  4.387,5 ferm., 13.003,8 rúmm. Mhl. 03:  4.388,4 ferm., 13.130,6 rúmm. Gjald kr. 8.500 + xxx"
45334 (01.54.140.1),http://gamli.rvk.is/vefur/owa/edutils.parse_page?nafn=BN045334,Grenimelur 9,Stöðuleyfi fyri vinnuskúr,Frestað. Samkvæmt gögnum embættisins er lágmarksgjald ógreitt.,Sótt er um stöðuleyfi í fjórar vikur fyrir skúr fyrir framan bílskúr á lóð nr. 9 við Grenimel. Gjald kr. 8.500
45324 (01.18.211.0),http://gamli.rvk.is/vefur/owa/edutils.parse_page?nafn=BN045324,Grettisgata 16,Hækka rishæð,Frestað. Vísað til athugasemda á umsóknarblaði.,"Sótt er um leyfi til að hækka ris að garði, byggja svalir í þak og innrétta nýja íbúð í risi fjölbýlishúss á lóð nr. 16 við Grettisgötu. Erindi fylgir bréf hönnuðar dags. 4. desember 2012 og samþykki meðeigenda með skilyrði dags. í maí 2007 og 7. og 10 júlí 2007. Stækkun:  xx rúmm. Gjald kr. 8.500 + xx"
45301 (04.30.400.1),http://gamli.rvk.is/vefur/owa/edutils.parse_page?nafn=BN045301,Grjótháls 7-11,Mælibrunnur - frárennslislagnir,Samþykkt.  Samræmist ákvæðum laga nr. 160 / 2010. Áskilin lokaúttekt byggingarfulltrúa. Áskilið samþykki heilbrigðiseftirlits.,Sótt er um leyfi til að breyta frárennslislögn þannig að settir eru upp tveir brunnar utanhús  þar sem stöðug mæling á hita- og sýrustigi og rennslismælingar fara fram og nýjar lagnir lagðar inn í hús til sýnatöku í verksmiðjuhúsi á lóð nr. 7-9 við Grjótháls. Gjald kr. 8.500
45309 (01.18.330.8),http://gamli.rvk.is/vefur/owa/edutils.parse_page?nafn=BN045309,Grundarstígur 10,Kaffi/veitingahús fl.1,Frestað. Vísað til athugasemda á umsóknarblaði.,Sótt er um leyfi fyrir kaffihúsi í flokki I á 1. hæð  í húsinu á lóð nr. 10 við Grundarstíg. Gjald kr. 8.500
45137 (05.11.330.5),http://gamli.rvk.is/vefur/owa/edutils.parse_page?nafn=BN045137,Haukdælabraut 11-15,Raðhús,Frestað. Málinu vísað til umsagnar skipulagsstjóra.,"Sótt er um leyfi til að byggja raðhús, þrjá matshluta, á einni hæð með kjallara undir vesturhluta (mhl. 03) úr steinsteyptum samlokueiningum á lóð nr. 11-15 við Haukdælabraut. Stærð:  Mhl. 01:  Íbúð 162,9 ferm., bílgeymsla 26 ferm.  Samtals 188,9 ferm., 642,4 rúmm. Mhl. 02:  Íbúð 163 ferm., bílgeymsla 26 ferm.  Samtals 189 ferm., 642,6 rúmm. Mhl. 03:  1. hæð íbúð 89,2 ferm., 2. hæð íbúð 125,1 ferm., bílgeymsla 26 ferm.  Samtals 233,7 ferm., 936,7 rúmm. Mhl. 01, 02, 03:  612,6 ferm., 2.222 rúmm. Gjald kr. 8.500 + 188.845"
45210 (01.24.530.7),http://gamli.rvk.is/vefur/owa/edutils.parse_page?nafn=BN045210,Háteigsvegur 34,Reyndarteikningar,Samþykkt.  Samræmist ákvæðum laga nr. 160 / 2010. Skilyrt er að eignaskiptayfirlýsingu vegna breytinga í húsinu sé þinglýst til þess að samþykktin öðlist gildi.     Áskilin lokaúttekt byggingarfulltrúa.,Sótt er um samþykki á reyndarteikningum þar sem breyting er á rýmum og eignarhaldi í húsinu á lóð nr. 34 við Háteigsveg. Gjald kr. 8.500
45312 (04.73.350.2),http://gamli.rvk.is/vefur/owa/edutils.parse_page?nafn=BN045312,Hestavað 5-7,"Br. á innra skipulagi - reyndarteikningar
",Frestað. Vísað til athugasemda á umsóknarblaði.,"Sótt er um samþykki á reyndarteikningum sbr. BN044697 þar sem kemur fram breyting á innra skipulag kjallarahæðar, skyggnum og sorp og breytingu á íbúð fatlaðra 0207 í fjölbýlishúsinu á lóð nr. 5-7 við Hestavað. Gjald kr. 8.500"
44741 (04.93.730.1 05),http://gamli.rvk.is/vefur/owa/edutils.parse_page?nafn=BN044741,Hjallasel 12,Stækka svalir,Samþykkt.  Samræmist ákvæðum laga nr. 160 / 2010. Með vísan til samþykktar borgarráðs frá 1. september 1998 skal utanhúss- og lóðarfrágangi vera lokið eigi síðar en innan tveggja ára frá útgáfu byggingarleyfis að viðlögðum dagsektum sbr. greinar nr. 2.4.7 og 2.9.2 í byggingarreglugerð nr. 112/2012. Áskilin lokaúttekt byggingarfulltrúa.,Sótt er um leyfi til þess að stækka svalir á vesturhlið hússins nr. 12 í parhúsi nr. 12-14 við Hjallasel á lóðinni nr. 5-13 við Hagasel. Samþykki eigenda Hálsasels 21 og Hjallasels 10 og 14 dags. 5. júlí 2012 fylgir erindinu. Ný skráningartafla fylgir erindinu. Gjald kr. 8.500
45306 (01.13.340.8),http://gamli.rvk.is/vefur/owa/edutils.parse_page?nafn=BN045306,Holtsgata 35,Salernisaðstaða í bílskúr,Frestað. Vísað til athugasemda á umsóknarblaði.,"Sótt er um leyfi til þess að koma fyrir vatnslögnum og salernisaðstöðu í bílskúr á lóðinni nr. 35 við Holtsgötu. Samþykki eins nágranna, Holtsgötu 37 og eins meðeigenda (á teikn.) fylgir erindinu. Gjald kr. 8.500"
45279 (01.11.050.2),http://gamli.rvk.is/vefur/owa/edutils.parse_page?nafn=BN045279,Hólmaslóð 10,Gryfja felld út,Frestað. Samkvæmt gögnum embættisins er lágmarksgjald ógreitt.,"Sótt er um leyfi til að breyta áður samþykktu erindi BN043780 þannig að hurð milli 0102 og 0103 er fjarlægð og gryfja felld út, settur er upp nýr hlaupaköttur og brunamerkingum breytt í húsinu á lóð nr. 10 við Hólmaslóð. Gjald kr. 8.500"
45260 (02.64.310.1),http://gamli.rvk.is/vefur/owa/edutils.parse_page?nafn=BN045260,Lambhagavegur 2-4,Reyndarteikningar,Samþykkt.  Samræmist ákvæðum laga nr. 160 / 2010. Áskilin lokaúttekt byggingarfulltrúa. Áskilið samþykki heilbrigðiseftirlits. Áskilið samþykki Vinnueftirlits ríkisins.,Sótt er um leyfi fyrir breytingum á áður  samþykktum teikningum sbr. erindum BN037315 dags 12.2.2008 og BN039295 dags. 16.12.2008 sem felast í breytingu í veitingasölu  í verslunarhúsi á lóð nr. 2-4 við Lambhagaveg. Gjald kr. 8.500
45311 (01.34.920.5),http://gamli.rvk.is/vefur/owa/edutils.parse_page?nafn=BN045311,Laugarnesvegur 59,Stækka fyrstu hæð,Frestað. Vísað til athugasemda á umsóknarblaði.,Sótt er um leyfi til þess að byggja viðbyggingu úr timbri að suðurhlið fyrstu hæðar einbýlishúss á lóðinni nr. 59 við Laugarnesveg. Stærð: Viðbygging xx ferm. og xx rúmm. Gjald kr. 8.500 + xx
45333 (01.36.430.6),http://gamli.rvk.is/vefur/owa/edutils.parse_page?nafn=BN045333,Laugateigur 24,Endurnýjun - BN039474,Frestað. Vísað til athugasemda á umsóknarblaði.,"Sótt er um leyfi til að endurnýja erindið BN039474 þar sem sótt var um leyfi til að grafa frá kjallara að hluta, til að lækka gólf í kjallara að hluta, til að grafa ljósagryfjur og koma fyrir nýjum gluggum og hurðum á kjallara, til að breyta innra fyrirkomulagi og innrétta sem íbúð 1. hæð og kjallara verslunar- og íbúðarhússins nr. 24 við Laugateig. Gjald kr. 8.500"
45126 (01.17.220.6),http://gamli.rvk.is/vefur/owa/edutils.parse_page?nafn=BN045126,Laugavegur 28,Veitingastaður kjallara,Samþykkt.  Samræmist ákvæðum laga nr. 160 / 2010. Áskilin lokaúttekt byggingarfulltrúa. Áskilið samþykki heilbrigðiseftirlits. Áskilið samþykki Vinnueftirlits ríkisins.,Sótt er um leyfi til að innrétta veitingasal í kjallara og á 1. hæð fyrir 160 gesti í farfuglaheimili á lóð nr. 28 við Laugaveg. Erindi fylgir brunahönnun frá verkfræðistofunni EFLA síðast endurskoðuð 6. nóvember 2012. Gjald kr. 8.500 + 8.500
45234 (01.79.460.6),http://gamli.rvk.is/vefur/owa/edutils.parse_page?nafn=BN045234,Lautarvegur 30,Raðhús,Samþykkt.  Samræmist ákvæðum laga nr. 160 / 2010. Frágangur á lóðamörkum verði gerður í samráði við lóðarhafa aðliggjandi lóða. Í samræmi við 1. tölulið ákvæðis til bráðabirgða í byggingarreglugerð nr. 112/2012 er byggingin undanþegin ákvæðum í 6. - 16. hluta reglugerðarinnar. Áskilin lokaúttekt byggingarfulltrúa.,"Sótt er um leyfi til að byggja staðsteypt raðhús á þremur hæðum, með innbyggðri bílgeymslu á lóð nr. 30 við Lautarveg. Sótt er um undanþágu frá nýrri byggingarreglugerð sbr. gr. 17.1.2, ákvæði til bráðabirgða, í bréfi arkitekts. Útskrift úr gerðabók embættisafgreiðslufundar skipulagsstjóra frá 23. nóvember 2012 fylgir erindinu ásamt umsögn skipulagsstjóra dags. 23. nóvember 2012. Kjallari 97,1 ferm., 1. hæð 93,1 ferm., bílgeymsla 42 ferm., 2. hæð 89 ferm. Samtals 321,2 ferm., 1.039,1 rúmm. B-rými 11,2 ferm. og 63,8 rúmm. Gjald kr. 8.500 + 88.324"
45173 (02.87.700.9),http://gamli.rvk.is/vefur/owa/edutils.parse_page?nafn=BN045173,Logafold 68,Reyndarteikningar,Samþykkt.  Samræmist ákvæðum laga nr. 160 / 2010. Skilyrt er að eignaskiptayfirlýsingu vegna breytinga í húsinu sé þinglýst til þess að samþykktin öðlist gildi.     Áskilin lokaúttekt byggingarfulltrúa.,"Sótt er um samþykkt á reyndarteikningu, þar sem gerð er grein fyrir áður gerðum breytingum og stækkunum í tvíbýlishúsi á lóð nr. 68 við Logafold. Áður gerð stækkun:  85 ferm., 212,5 rúmm. Gjald kr. 8.500 + 18.063"
45304 (01.18.110.1),http://gamli.rvk.is/vefur/owa/edutils.parse_page?nafn=BN045304,Lokastígur 2,Breyting á nýtingu húss,Frestað. Vísað til athugasemda á umsóknarblaði.,"Sótt er um leyfi til að opna tímabundið yfir lóðamörk Þórsgötu 1 (Týsgötu 5) og Lokastígs 2 með tengibyggingu og stækka með endurinnréttingu og breytingum hótel Óðinsvé á lóð nr. 1 við Þórsgötu og 2 við Lokastíg. Sjá bókun skipulagsráðs frá 11.7. 2012. Stækkun 25 ferm., 66,3 rúmm. Gjald kr. 8.500 + 5.636"
39312 (01.19.610.7),http://gamli.rvk.is/vefur/owa/edutils.parse_page?nafn=BN039312,Mímisvegur 2-2A,"breytingar utanhúss, gluggar og klæðning","Samþykkt.  Samræmist ákvæðum laga nr. 160 / 2010. Með vísan til samþykktar borgarráðs frá 1. september 1998 skal utanhúss- og lóðarfrágangi vera lokið eigi síðar en innan tveggja ára frá útgáfu byggingarleyfis að viðlögðum dagsektum sbr. greinar nr. 2.4.7 og 2.9.2 í byggingarreglugerð nr. 112/2012. Skilyrt er að ný eignaskiptayfirlýsing sé samþykkt fyrir útgáfu byggingarleyfis, henni verður þinglýst eigi síðar en við fokheldi. Áskilin lokaúttekt byggingarfulltrúa.","Sótt er um leyfi til breytinga á erindi BN036053, dags. 20. maí 2008, m. a. að loka stigagati, breyta innra skipulagi,  bæta 5 gluggum á þakrými og á kvist og hann stækkaður í fjölbýlishúsi á lóð nr. 2-2A við Mímisveg.  Samþykki eigenda á Mímisvegi 2-2A fylgir erindinu. Stækkun: 21,9 ferm., 58,6 rúmm. Gjöld kr. 7.300 + 4.981"
45329 (01.61.960.1),http://gamli.rvk.is/vefur/owa/edutils.parse_page?nafn=BN045329,Nauthólsvegur 50,Breyting inni af áður samþ. BN044056,Frestað. Vísað til athugasemda á umsóknarblaði.,Sótt er um leyfi til að breyta áður samþykktu erindi BN044056 þar sem breytingar eru í brunahönnun aðalstigahúss í hótelinu á lóð nr. 50 við Nauthólsveg. Gjald kr. 8.500
45326 (01.54.221.2),http://gamli.rvk.is/vefur/owa/edutils.parse_page?nafn=BN045326,Neshagi 16,Breyting inni - 1. og 3. hæð,Frestað. Vísað til athugasemda á umsóknarblaði.,Sótt er um leyfi til að breyta innra skipulagi á 1 og 3. hæð í húsinu á lóð nr. 16 við Neshaga. Gjald kr. 8.500
45335 (05.84.410.1),http://gamli.rvk.is/vefur/owa/edutils.parse_page?nafn=BN045335,Nesjavallaleið 9,Fangelsi á Hólmsheiði,Frestað. Vísað til athugasemda á umsóknarblaði.,Sótt er um leyfi til að byggja úr steinsteypu fangelsi á einni hæð á Hólmsheiði við Nesjavallaleið nr. 9 . Skráningu á stærðum og gjöldum er ekki lokið
45332 (01.11.2-9.5 01),http://gamli.rvk.is/vefur/owa/edutils.parse_page?nafn=BN045332,Norðurgarður 1,Spennistöð,Frestað. Vísað til athugasemda á umsóknarblaði.,"Sótt er um leyfi til að byggja spennistöð úr.................... fyrir OR, upp að norð-vestur hluta byggingar á lóð nr. 1 við Norðurgarð. Stærðir xx ferm., xx rúmm. Gjald kr. 8.500 + xx"
45176 (01.44.120.1),http://gamli.rvk.is/vefur/owa/edutils.parse_page?nafn=BN045176,Nökkvavogur 22,Rishæð - breyting,"Frestað. Málinu vísað til skipulagsstjóra til ákvörðunar um grenndarkynningu. Vísað er til uppdrátta 1-2, 2-1, 3-0, 4-1 dags. 30. 10. 2012.","Sótt er um leyfi til að innrétta fataherbergi og herbergi í rishæð, koma fyrir kvist á norðurhlið og kvist og svalalokun á vesturhlið í húsinu á lóð nr. 22 við Nökkvavog. Útskrift úr gerðabók embættisafgreiðslufundar skipulagsstjóra frá 23. nóvember 2012 fylgir erindinu ásamt umsögn skipulagsstjóra dags. 19. nóvember 2012. Stækkun: 10,2 rúmm.  Gjald kr. 8.500 + 867"
45323 (01.18.100.3),http://gamli.rvk.is/vefur/owa/edutils.parse_page?nafn=BN045323,Óðinsgata 1,Innrétta matvöruverslun,Samþykkt.  Samræmist ákvæðum laga nr. 160 / 2010. Áskilin lokaúttekt byggingarfulltrúa. Áskilið samþykki heilbrigðiseftirlits.,Sótt er um leyfi til að innrétta matvöruverslun í verslunarhúsnæðinu á 1. hæð í húsi á lóð nr. 1 við Óðinsgötu. Gjald kr. 8.500
45255 (01.18.451.9),http://gamli.rvk.is/vefur/owa/edutils.parse_page?nafn=BN045255,Óðinsgata 15,Bílastæði á lóð,Samþykkt.  Samræmist ákvæðum laga nr. 160 / 2010. Áskilin lokaúttekt byggingarfulltrúa.,Sótt er um samþykki fyrir núverandi fyrirkomulagi bílastæða á lóð fjölbýlishúss nr. 15 við Óðinsgötu. Útskrift úr gerðabók embættisafgreiðslufundar skipulagsstjóra frá 7. desember 2012 fylgir erindinu ásamt umsögn skipulagsstjóra dags. 6. desember 2012. Gjald kr. 8.500
45310 (01.46.200.1),http://gamli.rvk.is/vefur/owa/edutils.parse_page?nafn=BN045310,Skeifan 11,Skeifan 11D - Breytingar innanhúss,Frestað. Vísað til athugasemda á umsóknarblaði.,Sótt er um leyfi til að breyta innra rými ? í mhl. 04 til að koma fyrir nýrri verslun í húsinu á lóð nr. 11 við Skeifuna . Gjald kr. 8.500
45271 (01.63.630.4),http://gamli.rvk.is/vefur/owa/edutils.parse_page?nafn=BN045271,Skerplugata 4,"Breyting - BN044224
",Samþykkt.  Samræmist ákvæðum laga nr. 160 / 2010. Frágangur á lóðamörkum verði gerður í samráði við lóðarhafa aðliggjandi lóða. Með vísan til samþykktar borgarráðs frá 1. september 1998 skal utanhúss- og lóðarfrágangi vera lokið eigi síðar en innan tveggja ára frá útgáfu byggingarleyfis að viðlögðum dagsektum sbr. greinar nr. 2.4.7 og 2.9.2 í byggingarreglugerð nr. 112/2012. Áskilin lokaúttekt byggingarfulltrúa.,Sótt er um leyfi til að breyta áður samþykktu erindi BN044224 þannig að hætt verður við að hafa tvöfaldan vegg á milli bílskúra nr. 4 og nr. 6 og veggurinn gerður einfaldur á lóð nr. 4 við Skerplugötu. Samþykki eigendum á Skerplugötu 6 dags. 8. ágúst. 2012 fylgir. Gjald kr. 8.500
45272 (01.63.630.6),http://gamli.rvk.is/vefur/owa/edutils.parse_page?nafn=BN045272,Skerplugata 6,Br.á áður samþ. erindi BN044223,Samþykkt.  Samræmist ákvæðum laga nr. 160 / 2010. Frágangur á lóðamörkum verði gerður í samráði við lóðarhafa aðliggjandi lóða. Með vísan til samþykktar borgarráðs frá 1. september 1998 skal utanhúss- og lóðarfrágangi vera lokið eigi síðar en innan tveggja ára frá útgáfu byggingarleyfis að viðlögðum dagsektum sbr. greinar nr. 2.4.7 og 2.9.2 í byggingarreglugerð nr. 112/2012. Áskilin lokaúttekt byggingarfulltrúa.,Sótt er um leyfi til að breyta áður samþykktu erindi BN044223 þannig að hætt verður við að hafa tvöfaldan vegg á milli bílskúra nr. 4 og nr. 6 og veggurinn gerður einfaldur á lóð nr. 6 við Skerplugötu. Samþykki eigendum á Skerplugötu 4 dags. 8. ágúst. 2012 fylgir. Gjald kr. 8.500
45313 (01.35.710.9),http://gamli.rvk.is/vefur/owa/edutils.parse_page?nafn=BN045313,Skipasund 38,Reyndarteikningar,Frestað. Vísað til athugasemda á umsóknarblaði.,"Sótt er um samþykki á reyndarteikningu þar sem gert er grein fyrir skiptingu sérnotaflötum, stækkun svala og þar myndast garðáhaldaskúr og áður gerðar breytingar á mhl. 02 þar sem milliveggur og útihurð, sem sýnd voru á eldri teikningum voru ekki gerðar á húsinu og bílskúr á lóð nr. 38 við Skipasund. Stækkun garðskýli 6,5 ferm., 10,7 rúmm. Gjald kr. 8.500 + 909"
45321 (01.17.020.2),http://gamli.rvk.is/vefur/owa/edutils.parse_page?nafn=BN045321,Skólastræti 3,Byggja svalir og geymslu,Frestað. Vísað til athugasemda á umsóknarblaði. Málinu vísað til umsagnar skipulagsstjóra.,"Sótt er um leyfi til að byggja svalir með steyptu handriði við suðausturhorn 2. hæðar, geymslu undir svalir með inngangi af lóð og til að breyta innra skipulagi einbýlishúss á lóð nr. 3 við Skólastræti. Umsögn Húsafriðunarnefndar dags. 13 nóv. 2012, bréf frá hönnuði dags. 4. des. 2012 og samþykki eigenda Skólastrætis nr. 1, 3B og 5 fylgja erindinu. Stækkun:  xx ferm., xx rúmm. Gjald kr. 8.500 + xx"
45330 (01.16.021.2),http://gamli.rvk.is/vefur/owa/edutils.parse_page?nafn=BN045330,Sólvallagata 18,Áður gerð viðbygging,Frestað. Vísað til athugasemda á umsóknarblaði.,Vegna eignaskiptayfirlýsingar er sótt um samþykki fyrir áður gerðri viðbyggingu (kolageymslu) að norðausturhlið hússins á lóðinni nr. 18 við Sólvallagötu. Samþykki meðeigenda (á teikn.) fylgir erindinu. Stærð: Stækkun xx. Gjald kr. 8.500 + xx
45197 (01.24.110.3),http://gamli.rvk.is/vefur/owa/edutils.parse_page?nafn=BN045197,Stakkholt 2-4,Fjölbýlishús,Frestað. Vísað til athugasemda á umsóknarblaði.,"Sótt er um leyfi til að byggja staðsteypt íbúðar- og atvinnuhús einangrað að utan og klætt áli.  Húsið skiptist í sex matshluta, fimm mishá stigahús með 139 2-4 herbergja íbúðum, verslunar- og þjónusturýmum og bílakjallara fyrir 144 bíla og verður nr. 2A, 2B, 4A, 4B og 3A og 3B á lóð nr. 2-4 við Stakkholt. Stærðir: Mhl.01, bílakjallari:  4500 ferm. Mhl.02, íbúðir:  4415,7 ferm. Mhl.03, íbúðir:  2.338,3 ferm. Mhl.04, íbúðir:  3.795,3 ferm. Mhl.05, íbúðir:  1.573,8 ferm. Mhl.06, íbúðir:  2.227 ferm. Samtals 12.120 ferm., 41.430 rúmm. Gjöld kr. 8.500 + 3.521.550"
45327 (01.16.120.7),http://gamli.rvk.is/vefur/owa/edutils.parse_page?nafn=BN045327,Suðurgata 26,Fella út björgunarop á 1.hæð,Frestað. Samkvæmt gögnum embættisins er lágmarksgjald ógreitt.,Sótt er um leyfi til að fella út björgunarop á 1. hæð í húsinu á lóð nr. 26 við Suðurgötu. Gjald kr. 8.500
45290 (01.26.300.4),http://gamli.rvk.is/vefur/owa/edutils.parse_page?nafn=BN045290,Suðurlandsbraut 12,Breyta í hótel,"Samþykkt.  Samræmist ákvæðum laga nr. 160 / 2010. Með vísan til samþykktar borgarráðs frá 1. september 1998 skal utanhúss- og lóðarfrágangi vera lokið eigi síðar en innan tveggja ára frá útgáfu byggingarleyfis að viðlögðum dagsektum sbr. greinar nr. 2.4.7 og 2.9.2 í byggingarreglugerð nr. 112/2012. Í samræmi við 1. tölulið ákvæðis til bráðabirgða í byggingarreglugerð nr. 112/2012 er byggingin undanþegin ákvæðum í 6. - 16. hluta reglugerðarinnar. Skilyrt er að ný eignaskiptayfirlýsing sé samþykkt fyrir útgáfu byggingarleyfis, henni verður þinglýst eigi síðar en við lokaúttekt. Áskilin lokaúttekt byggingarfulltrúa. Áskilið samþykki heilbrigðiseftirlits. Áskilið samþykki Vinnueftirlits ríkisins.","Sótt er um leyfi til þess að breyta núverandi skrifstofum á 2. til 7. hæð í hótel í flokki V sem verður með 95 herbergi og veitingastað fyrir 108 gesti, útlit breytist þar sem hurðir verða settar á suðurhlið og gluggar á vesturhlið bakhúss verða síkkaðir í húsinu á lóð nr. 12 við Suðurlandsbraut.  Bréf hönnuðar um undanþágu frá byggingareglugerð nr. 112/2012 dags. 27. nóv. 2012 og bréf þar sem óskað er eftir leyfi til að hefja framkvæmdir á niðurrifi innanhús. 27. nóv. 2012 fylgir erindinu.  Umsögn burðarvirkishönnuðar dags.6. des. 2012 og bréf frá hönnuði um nánari undanþágu frá byggingareglugerð nr. 112/2012 Fylgja erindinu. Samþykki meðeigenda dags. 7. des. 2012 og skýrsla brunahönnuðar dags. 10. des. 2012. fylgja erindinu. Gjald kr. 8.500"
44991 (01.53.101.9),http://gamli.rvk.is/vefur/owa/edutils.parse_page?nafn=BN044991,Sörlaskjól 78,"kvistur, svalir, hjólaskýli",Frestað. Vísað til athugasemda á umsóknarblaði.,"Sótt er um leyfi til að byggja kvist á norðurhlið, svalir á suðurhlið 1. hæðar, verönd og hurð út í garð úr kjallara og til að byggja hjólaskýli við norðurhlið bílskúrs við parhús á lóð nr. 78 við Sörlaskjól. Útskrift úr gerðabók embættisafgreiðslufundar skipulagsstjóra frá 12. október 2012 fylgir erindinu ásamt umsögn skipulagsstjóra dags. 10. október 2012. Kvistur:  xx rúmm. Hjólageymsla xx ferm., xx rúmm. Stækkun:  xx ferm., xx rúmm. Gjald kr. 8.500 + xx"
45026 (01.14.200.1),http://gamli.rvk.is/vefur/owa/edutils.parse_page?nafn=BN045026,Tjarnargata 30,Breyta fjölbýli í einbýli,Frestað. Vísað til athugasemda á umsóknarblaði.,"Sótt er um leyfi til að breyta innra skipulagi, koma fyrir þakgluggum á vesturhlið og inngangi í kjallara, setja útihurð á sólstofu og hlið á innkeyrslu, byggja sólpall m/setlaug í garði, færa glugga og skrautlista til upprunalegs horfs, útbúa geymslu fyrir reiðhjól undir verönd og breyta í einbýli,  fjölbýlishúsi á lóð nr. 30 við Tjarnargötu. Stækkun:  xx ferm., xx rúmm. Gjald kr. 8.500 + xx"
45302 (04.71.200.1),http://gamli.rvk.is/vefur/owa/edutils.parse_page?nafn=BN045302,Vatnsveituv. Fákur,breytt teikning frá BN044227,Samþykkt.  Samræmist ákvæðum laga nr. 160 / 2010. Áskilin lokaúttekt byggingarfulltrúa.,"Sótt er um samþykkt á reyndarteikningu v/lokaúttektar, þar sem gerð er grein fyrir breyttri staðsetningu frá erindi BN044227 á svölum og snyrtingu í rými 0201 í hesthúsi við Faxaból 9 á lóð við Vatnsveituveg. Gjald kr. 8.500"
45252 (02.84.350.1),http://gamli.rvk.is/vefur/owa/edutils.parse_page?nafn=BN045252,Veghús  7-17,9 - Hurð á milli íbúðar og bílskúrs,Samþykkt.  Samræmist ákvæðum laga nr. 160 / 2010. Áskilin lokaúttekt byggingarfulltrúa.,Sótt er um leyfi til að opna á milli íbúðar 0102 yfir í bílskúr 0104 í mhl. 02 í fjölbýlishúsinu nr. 9 á lóð 7-17 við Veghús. Umsögn burðarvirkshönnuðar dags. 3. des. 2012 fylgir. Gjald kr. 8.500
45226 (04.38.780.2),http://gamli.rvk.is/vefur/owa/edutils.parse_page?nafn=BN045226,Viðarás 91-101,91 - Viðbygging,Samþykkt.  Samræmist ákvæðum laga nr. 160 / 2010. Frágangur á lóðamörkum verði gerður í samráði við lóðarhafa aðliggjandi lóða. Með vísan til samþykktar borgarráðs frá 1. september 1998 skal utanhúss- og lóðarfrágangi vera lokið eigi síðar en innan tveggja ára frá útgáfu byggingarleyfis að viðlögðum dagsektum sbr. greinar nr. 2.4.7 og 2.9.2 í byggingarreglugerð nr. 112/2012. Áskilin lokaúttekt byggingarfulltrúa.,"Sótt er um leyfi til að byggja viðbyggingu við austurhlið raðhúss nr. 91 á lóð nr. 91-101 við Viðarás. Erindi fylgir jákv. fsp. dags. 8. maí 2012 og samþykki meðlóðarhafa dags. 30. nóvember 2012. Stækkun 10 ferm., 28,3 rúmm. Gjald kr. 8.500 + 2.406"
44411 (01.18.111.6),http://gamli.rvk.is/vefur/owa/edutils.parse_page?nafn=BN044411,Þórsgata 1,Tengibygging,Frestað. Vísað til athugasemda á umsóknarblaði.,"Sótt er um leyfi til að byggja tengibyggingu milli Lokastígs 2 og Týsgötu 5/Þórsgötu 1, breyta fyrirkomulagi innanhúss og sameina húsin í hótel, jafnframt eru erindi BN044183 og BN044184 dregin til baka, á lóð nr. 1 við Þórsgötu. Meðfylgjandi er loftræsihönnun fyrir kjallararými á teikningu númer A-004. Viðbygging stækkun:  39,3 ferm., 101,2 rúmm. Gjald kr. 8.500 + 8.500 + 8.602"
45341 (00.01.200.0),http://gamli.rvk.is/vefur/owa/edutils.parse_page?nafn=BN045341,Arnarholt 125651,mæliblað,Samþykkt.  Samræmist ákvæðum laga nr. 160 / 2010.,"Óskað er eftir  samþykki byggingarfulltrúans til að breyta mörkum lóðar Sjúkrastofnunarinnar í Arnarholti (staðgr. 32.161.101, landnr. 221217), eins og sýnt er á meðsendum uppdrætti landupplýsingadeildar dags. 05. 12. 2012.  Lóðin er afmörkuð eins og ákveðið var af skipulagsnefnd  Reykjavíkurborgar 19. 06. 1999, sbr. uppdrátt dagsettan 15. 07. 1999. Lóðin reynist 139741 m², teknir 2766 m² af lóðinni, sbr. bréf Fjármálaráðuneytisins, dags. 30. 05. 2012, leiðrétting vegna fermetrabrota 1 m². Lóð Sjúkrastofnunarinnar í Arnarholti (staðgr. 32.161.101, landnr. 221217), verður 136974 m². Lóðin Arnarholt 125651 (landnr. 125651) minnkar því sem því nemur eða um 136974 m²."
45344 (01.18.632.1),http://gamli.rvk.is/vefur/owa/edutils.parse_page?nafn=BN045344,Baldursgata 32,leiðrétting,Samþykkt.  Samræmist ákvæðum laga nr. 160 / 2010.,"Leiðrétting á bókun vegna BN045138, samþykkt 04.11 2012. Samþykkt var fjölbýlishús á lóð með sjö íbúðum, samtals 452,6m2. Fyrir er á lóð einbýlishús að stærð 201m2. Greiða skal fyrir bílastæðagjald í gjaldflokki III fyrir fimm stæði kr. 2.230.823 pr. stæði. Gjald samtals kr. 11.154.115"
45345 (01.18.632.2),http://gamli.rvk.is/vefur/owa/edutils.parse_page?nafn=BN045345,Baldursgata 34,leiðrétting,Samþykkt.  Samræmist ákvæðum laga nr. 160 / 2010.,"Leiðrétting á bókun vegna BN045139, samþykkt 04.11 2012. Samþykkt var fjölbýlishús á lóð með þrem íbúðum, samtals 155m2.  Fyrir á lóð er fjölbýlishús að stærð 98,7m2.  Greiða skal bílastæðagjald í gjaldflokki III fyrir eitt stæði kr. 2.230.823"
45338 (01.08.920.3),http://gamli.rvk.is/vefur/owa/edutils.parse_page?nafn=BN045338,Fiskislóð 27,Niðurfelling byggingarleyfis,Samþykkt.  Samræmist ákvæðum laga nr. 160 / 2010.,Grandasprautun ehf. óskar niðurfellingu byggingarleyfis að Fiskislóð 27 og endurgreiðslu gjalda. Vísað er til samkomulags Faxaflóahafna sf. dags. 1. nóvember sl. við Grandanes ehf. og Grandasprautun ehf. um innlausn lóðarinnar nr. 27 við Fiskislóð.
45219 (01.16.233.9),http://gamli.rvk.is/vefur/owa/edutils.parse_page?nafn=BN045219,Blómvallagata 13,(fsp) - 2 íbúðir kjallara,Jákvætt. Að uppfylltum skilyrðum enda verði sótt um byggingarleyfi.,"Spurt er hvort samþykki fengist fyrir tveimur áður gerðum ósamþykktum íbúðum, einingu 0001 og 0002, í fjölbýlishúsinu á lóðinni nr. 13 við Blómvallagötu.  Afsalsbréf dags. 02.11.1955 og 22.07.1956 fylgja erindinu. Íbúðaskoðun á einingu 0002 dags. 6. júní 2002. og á einingu 0001 dags. 14.11.2006 fylgja erindinu. Nýjar íbúðaskoðanir, báðar dags. 05.12.2012 fylgja erindinu."
45331 (04.79.160.4),http://gamli.rvk.is/vefur/owa/edutils.parse_page?nafn=BN045331,>Búðavað 18-20,(fsp) - Bílastæði,Frestað. Málinu vísað til umsagnar skipulagsstjóra.,Spurt er hvort leyfi fengist til að færa tvö samliggjandi bílastæði niður fyrir hús  nr. 20 á lóð nr. 18 til 20 við Búðavað. Bréf frá byggingastjóra dags. 3. des. 2012 ásamt teikningum og ljósmyndum fylgja erindinu..
45303 (01.14.000.5),http://gamli.rvk.is/vefur/owa/edutils.parse_page?nafn=BN045303,Hafnarstræti 1-3,(fsp) - Kvistir,Nei. Samræmist ekki deiliskipulagi.,Spurt er hvort leyft yrði að byggja tvo kvisti á suðurþekju hússins á lóðinni nr. 1-3 við Hafnarstræti.
45305 (04.33.170.2 09),http://gamli.rvk.is/vefur/owa/edutils.parse_page?nafn=BN045305,Hraunbær 67,(fsp) - Hurð á bílskúr,Jákvætt. Að uppfylltum skilyrðum enda verði sótt um byggingarleyfi.,Spurt er hvort leyft yrði að koma fyrir dyrum á suðurhlið (bakhlið) bílskúrs í eigu hússins nr. 67 á lóðinni nr. 51-67 við Hraunbæ.
45315 (01.44.121.1),http://gamli.rvk.is/vefur/owa/edutils.parse_page?nafn=BN045315,Karfavogur 25,(fsp) - Kvistir,Jákvætt. Að uppfylltum skilyrðum enda verði sótt um byggingarleyfi.,Spurt er hvort leyft yrði að byggja kvist á norðurþekju hússins nr. 25 við Karfavog.
45336 (01.19.030.5),http://gamli.rvk.is/vefur/owa/edutils.parse_page?nafn=BN045336,Njálsgata 52A,(fsp) - Svalir,Jákvætt. Að uppfylltum skilyrðum enda verði sótt um byggingarleyfi. Byggingarleyfisumsókn verður grenndarkynnt berist hún.,Spurt er hvort leyft yrði að byggja svalir á suðurhlið annarrar hæðar hússins nr. 52A við Njálsgötu.
45298 (04.38.160.1),http://gamli.rvk.is/vefur/owa/edutils.parse_page?nafn=BN045298,Rauðás  1-7,(fsp) - 1-7 og 9-17 - Endurbygging stoðveggs,Frestað. Gera betur grein fyrir erindinu.,Spurt er hvort leyft yrði að endurbyggja stoðvegg vestan við raðhús á lóðunum 1-7 og 9-17 við Rauðás.
45283 (00.06.400.0),http://gamli.rvk.is/vefur/owa/edutils.parse_page?nafn=BN045283,Saltvík 125744,(fsp) - Svínahús,Nei. Samræmist ekki deiliskipulagi.,Spurt er hvort leyfi fengist til að stækka nýlega samþykkta byggingu um 2500 ferm  og byggja aðra byggingu um 3000 ferm. samtals 5500 ferm.  fyrir 660 gyltur á lóðinni Saltvík 125744 á Kjalarnesi.  Útskrift úr gerðabók embættisafgreiðslufundar skipulagsstjóra frá 7. desember 2012 fylgir erindinu.
45199 (01.13.210.4),http://gamli.rvk.is/vefur/owa/edutils.parse_page?nafn=BN045199,Tryggvagata 16,"(fsp) - Gluggar,svalir,íbúðir",Jákvætt. Að uppfylltum skilyrðum enda verði sótt um byggingarleyfi.,"Spurt er hvort leyft yrði að síkka glugga á fjórðu og fimmtu hæð, byggja svalir á suðurhlið og innrétta tvær íbúðir, eina á fjórðu hæð og hina á fimmtu hæð fjöleignahússins á lóðinni nr. 16 við Tryggvagötu. Útskrift úr gerðabók embættisafgreiðslufundar skipulagsstjóra frá 7. desember 2012 fylgir erindinu ásamt umsögn skipulagsstjóra dags. 3. desember 2012."
