nr,url,heimilisfang,tegund,nidurstada,spurning
23620 (01.43.200.1),http://gamli.rvk.is/vefur/owa/edutils.parse_page?nafn=BN023620,Álfheimar 15,Áður gerðar br. á 2 og 3 hæð,Frestað. Vantar samþykki meðeigenda.,"Sótt er um samþykki fyrir áður gerðri stækkun 3. hæðar undir þaki á hluta svala og fyrir stækkun íbúðar 2. hæðar  út í stigahús í fjöleignahúsinu á lóð nr. 15 við Álfheima. Samþykki sumra meðeigenda dags. 22. ágúst 2001 fylgir erindinu. Stærð: Áður gerð stækkun 3. hæðar 13,5 ferm., 29,4  rúmm. Gjald kr. 4.100 + 1.411"
24459 (01.29.210.1),http://gamli.rvk.is/vefur/owa/edutils.parse_page?nafn=BN024459,Ármúli 24,viðbygging,Frestað. Vísað til athugasemda á umsóknarblaði. Að þeim uppfylltum verður málinu vísað til skipulagsfulltrúa til ákvörðunar um grenndarkynningu.,"Sótt er um leyfi til þess að byggja einnar hæða viðbyggu við lager á baklóð atvinnuhússins á lóð nr. 24 við Ármúla. Stærð: Viðbygging 33 ferm., xxx rúmm. Gjald kr. 4.800 + xxx"
24360 (01.16.233.1),http://gamli.rvk.is/vefur/owa/edutils.parse_page?nafn=BN024360,Brávallagata 14,Reyndarteikningar,Frestað. Vinnuherbergi í kjallara skulu eignatengjast eigendum hússins.,Sótt er um samþykki fyrir núverandi innra skipulagi í kjallara og á þakhæð fjöleignarhússins á lóð nr. 14 við Brávallagötu. Bréf hönnuðar dags. 14. janúar og 29. janúar 2002 ásamt samþykki meðeigenda dags. 26. janúar 2002 fylgja erindinu. Gjald kr. 4.800
24201 (01.70.221.9),http://gamli.rvk.is/vefur/owa/edutils.parse_page?nafn=BN024201,Drápuhlíð 13,reyndarteikningar,Frestað. Leiðrétta skráningartöflu.,"Sótt er um samþykki fyrir áður gerðum breytingum í  kjallara, áður gerðum breytingum á innra skipulagi 2. hæðar og samþykki fyrir teikningu að rislofti vegna gerðar eignaskiptayfirlýsingar á lóð nr. 13 við Drápuhlíð. Samþykki meðeigenda (á teikningu) fylgir erindinu. Gjald kr. 4.800"
24265 (01.35.500.9),http://gamli.rvk.is/vefur/owa/edutils.parse_page?nafn=BN024265,Efstasund 2,áður b. skúr + reyndart.,Frestað. Leiðrétta skráningartöflu.,"Sótt er um samþykki fyrir reyndarteikningum af húsi og bílskúr (matshl. 01 og 02) og áður byggðum skúr (matshl. 03) í vesturhorni lóðarinnar nr. 2 við Efstasund. Sýnd er áður gerð séreign (ósamþ. íb.) í kjallara og gluggasetningu er breytt. Útskrift úr gerðabók embættisafgreiðslufundar skipulagsfulltrúa frá 25. janúar 2002 fylgir erindinu. Stærð: Skúr 9,1 ferm. og 19,2 rúmm. Gjald kr. 4.800 + 922"
24312 (01.41.000.7),http://gamli.rvk.is/vefur/owa/edutils.parse_page?nafn=BN024312,Efstasund 78,Áður gerð íbúð í kjallara ofl.,Frestað. Vísað til athugasemda á umsóknarblaði.,"Sótt er um samþykki fyrir áður gerðri íbúð í kjallara ásamt áður gerðri stækkun kjallara undir sólstofu 1. hæðar, leyfi til þess að lækka jarðveg við suðurhlið og færa rafmagnstöflu og inntök í íbúðarhúsinu á lóð nr. 78 við Efstasund. Virðingargjörð dags. 10. október 1951, manntalsskýrsla dags. 16. október 1952 og íbúðarskoðun byggingarfulltrúa fylgja erindinu. Stækkun: Áður gerð stækkun kjallara 16,6 ferm., 40,3 rúmm. Gjald kr. 4.800 + 2.093"
24480 (01.41.011.9),http://gamli.rvk.is/vefur/owa/edutils.parse_page?nafn=BN024480,Efstasund 81,reyndarteikningar ,Frestað. Vísað til athugasemda á umsóknarblaði.,Sótt er um samþykki fyrir breyttri útfærslu á sólstofu og svölum ásamt breytingum í kjallara og 1.hæð íbúðarhússins á lóð nr. 81 við Efstasund. Samþykki meðeiganda (á teikningu) fylgir erindinu. Gjald kr. 4.800
23754 (01.46.200.1),http://gamli.rvk.is/vefur/owa/edutils.parse_page?nafn=BN023754,Faxafen 8-14,nr.12 v/ eignaskiptasamn.,Samþykkt.  Samræmist ákvæðum laga nr. 73/1997.,Sótt er um samþykki fyrir reyndarteikningum af húsinu nr. 12 á lóðinni nr. 8-14 við Faxafen vegna gerðar eignaskiptayfirlýsingar. Innra fyrirkomulagi og eignaafmörkun er breytt á öllum hæðum hússins.  Gjald kr. 4.100
24447 (01.55.301.7),http://gamli.rvk.is/vefur/owa/edutils.parse_page?nafn=BN024447,Fálkagata 32,Ofanábygging.,Frestað. Vísað til athugasemda á umsóknarblaði.,"Sótt er um leyfi til þess að lyfta þaki (4. hæð) hússins á lóðinni nr.32 við Fálkagötu. Um er að ræða stækkun á íbúð á þriðju hæð.  Samþykki meðeigenda og nokkurra nágranna (á teikn) fylgir erindinu. Umsögn Borgarskipulags dags. 16. ágúst 2001(fylgdi fyrirspurn sama erindis) fylgir erindinu. Stækkun: Ofanábygging 72,2 ferm. og 209,7 rúmm. Gjald kr. 4.800 + 10.066"
24166 (01.27.010.2),http://gamli.rvk.is/vefur/owa/edutils.parse_page?nafn=BN024166,Flókagata 56,reyndarteikningar,Samþykkt.  Samræmist ákvæðum laga nr. 73/1997.,Sótt er um samþykki fyrir reyndarteikningum af húsi og bílskúr (matshl. 01 og 02) á lóðinni nr. 56 við Flókagötu. Stærð kjallaraíbúðar og innra fyrirkomulag annarrar hæðar breytist. Jafnframt er erindi 22324 dregið til baka. Samþykki meðeigenda dags. 19. nóvember 2001 fylgir erindinu. Gjald kr. 4.100
24457 (01.66.--9.9),http://gamli.rvk.is/vefur/owa/edutils.parse_page?nafn=BN024457,Flugvöllur / Flugturn,breyting inni,Frestað. Vísað til athugasemda á umsóknarblaði.,Sótt er um leyfi til þess að breyta innra fyrirkomulagi á sjöttu og sjöundu hæð í flugturninum á Reykjavíkurflugvelli. Gjald kr. 4.800
24317 (01.19.022.9),http://gamli.rvk.is/vefur/owa/edutils.parse_page?nafn=BN024317,Frakkastígur 19,Reyndarteikningar,Frestað. Leiðrétta skráningu.,"Sótt er um samþykki fyrir reyndarteikningum af húsi og geymsluskúr á lóðinni nr. 19 við Frakkastíg. Í húsinu eru sýndar fimm íbúðir, þar af tvær ósamþykktar. Samþykki meðeigenda dags. 21. nóvember 2001 fylgir erindinu. Skoðunarskýrsla byggingarfulltrúa (v. rishæðar) dags. 11. ágúst 1999 fylgir erindinu. Virðingargjörð dags. 1. maí 1942 fylgir erindinu. Afsalsbréf dags. 29. maí 2000 (v. eignar 0001), 16. apríl 1997 (v. eignar 0101), 15. september 2000 (v. íb. 0002), 21. ágúst 1996 (v. íb. 0102) og 25. mars 1996 (v. íb. 0201) fylgja erindinu. Bréf hönnuðar dags. 25 janúar 2001 fylgir erindinu. Gjald kr. 4.800"
23401 (04.61.231.3),http://gamli.rvk.is/vefur/owa/edutils.parse_page?nafn=BN023401,Fremristekkur 10,Br. þaki í valmaþ.,Frestað. Leiðrétta skráningu.,Sótt er um leyfi til þess að setja valmaþak yfir flatt þak einbýlishúss á lóð nr. 10 við Fremristekk. Stærð : Rúmmálsaukning 75 rúmm. Gjald kr. 4.100 + 3.600
24339 (05.13.510.1),http://gamli.rvk.is/vefur/owa/edutils.parse_page?nafn=BN024339,Gvendargeisli 20-28,Fjölbýlishús m. 15 íb. og 15 bílg.,Frestað. Vísað til athugasemda á umsóknarblaði.,"Sótt er um leyfi til þess að byggja þriggja hæða steinsteypt fjölbýlishús með fimmtán íbúðum ásamt bílgeymslukjallara fyrir 15 bíla , hluti útveggja hússins verður úr timbri á lóð nr. 20-28 við Gvendargeisla. Stærð: Bílgeymslukjallari xxx ferm., Íbúð. Gjald kr. 4.800 + xxx"
24144 (05.13.430.1),http://gamli.rvk.is/vefur/owa/edutils.parse_page?nafn=BN024144,Gvendargeisli 44-52,fjölbýlishús m. 15 íb.,Frestað. Vísað til athugasemda á umsóknarblaði.,"Sótt er um leyfi til þess að byggja þriggja hæða steinsteypt fjölbýlishús með fimmtán íbúðum ásamt bílgeymslukjallara fyrir 15 bíla, hluti útveggja hússins verður úr timbri á lóð nr. 44-52 við Gvendargeisla. Stærð: Bílgeymslukjallari 736,5 ferm., íbúð 1. hæð 582,2 ferm., 2. hæð 627 ferm., 3. hæð 627 ferm., samtals xxx  ferm., xxx rúmm. Gjald kr. 4.100 + xxx"
24446 (01.86.340.1),http://gamli.rvk.is/vefur/owa/edutils.parse_page?nafn=BN024446,Haðaland 26,Endurnýjun á b.leyfi,Samþykkt.  Samræmist ákvæðum laga nr. 73/1997. Áskilið samþykki Vinnueftirlits ríkisins. Áskilin lokaúttekt byggingarfulltrúa. Áskilið samþykki heilbrigðiseftirlits.,"Sótt er um endurnýjun á byggingarleyfi nr. 20747 frá 28. mars 2000, þar sem sótt var um ""leyfi til þess að breyta innra skipulagi, aðallega í álmu B, færa lyftu  og breyta gluggum á neðri kjallara suðurhliðar álmu B Fossvogsskóla á lóðinni nr. 26 við Haðaland."" Gjald kr. 4.800"
24392 (04.06.150.2),http://gamli.rvk.is/vefur/owa/edutils.parse_page?nafn=BN024392,Hamarshöfði 4,viðbygging ofl.,Frestað. Lagfæra skráningu.,"Sótt er um samþykki fyrir núverandi innra skipulagi og gluggasetningu ásamt leyfi til þess að byggja litla útbyggingu við norðurhlið og hækka hluta norðurþekju fyrir nýja steinsög á lóð nr. 4 við Hamarshöfða. Samþykki eiganda Hamarshöfða 6 dags. 23. janúar 2002 fylgir erindinu. Stærð: Viðbygging 4,2 ferm., 11,4 rúmm., samtals rúmmálsaukning 21,4 rúmm. Gjald kr. 4.800 + 1.070"
24333 (01.24.530.5),http://gamli.rvk.is/vefur/owa/edutils.parse_page?nafn=BN024333,Háteigsvegur 30,breyting á skráningu,Frestað. Lagfæra skráningu.,Sótt er um leyfi til þess að sameina matshluta 01 og 02 (hús og bílgeymsla) á lóðinni nr. 30 við Háteigsveg. Skráning kjallara breytist og á lóðinni verður aðeins einn matshluti.  Gjald kr. 4.100
24460 (01.40.810.1),http://gamli.rvk.is/vefur/owa/edutils.parse_page?nafn=BN024460,Holtavegur 8-10,Skyggni,Samþykkt.  Samræmist ákvæðum laga nr. 73/1997.,Sótt er um leyfi til þess að stækka skyggni og breyta skiltum yfir inngangi á vesturhlið ( í suðvesturhorni) atvinnuhússins á lóðinni nr. 8-10 við Holtaveg.  Gjald kr. 4.800
23837 (01.24.720.9),http://gamli.rvk.is/vefur/owa/edutils.parse_page?nafn=BN023837,Hrefnugata 7,reyndarteikningar,Frestað. Vísað til athugasemda á umsóknarblaði.,"Sótt er um samþykki fyrir íbúð í kjallara og fyrir reyndarteikningu af staðsetningu bílskúrs og jarðvegshæð að húshlið íbúðarhúss á lóð nr. 7 við Hrefnugötu. Bréf hönnuðar dags. 26. september 2001, virðingargjörð dags. 1. apríl 1942, ljósmyndir og íbúðarskoðun byggingarfulltrúa dags. 23. janúar 2002 fylgja erindinu. Gjald kr. 4.100"
22288 (01.52.401.2),http://gamli.rvk.is/vefur/owa/edutils.parse_page?nafn=BN022288,Hringbraut 85 ,Áður gerð íbúð í kjallara,Frestað. Vísað til athugasemda á umsóknarblaði. Kynna skal aðgangskvöð fyrir eiganda þakhæðar.,"Sótt er um leyfi fyrir áður gerðri íbúð í kjallara, áður gerðum kvisti á rishæð og reyndarteikningum af húsinu á lóðinni nr. 85 við Hringbraut. Samþykki nokkurra meðeigenda dags. 4. desember 2000 fylgir erindinu. Virðingargjörð dags. 1. maí 1941 fylgir erindinu. Skoðunarskýrslur byggingarfulltrúa dags. 16. október 2000 og 14. desember 2000 fylgja erindinu. Umsögn skrifstofustjóra byggingarfulltrúa dags. 15. janúar 2001, bréf Sigríðar R. Júlíusdóttur hrl., dags. 8. maí 2001, tvö bréf skrifstofustjóra byggingarfulltrúa dags. 2. júlí 2001, bréf Maríu Thejll hdl., dags. 13. júlí 2001 fylgja erindinu. Málinu fylgir tillaga að yfirlýsingu um aðgangskvöð. Stærð: Stækkun kvistur xx Gjald kr. 4.100 + xx"
24382 (04.11.340.4),http://gamli.rvk.is/vefur/owa/edutils.parse_page?nafn=BN024382,Jónsgeisli 55,einbýlishús m. innb. bílg.,Samþykkt.  Samræmist ákvæðum laga nr. 73/1997. Frágangur á lóðamörkum verði gerður í samráði við lóðarhafa aðliggjandi lóða.,"Sótt er um leyfi til þess að byggja tvílyft steinsteypt einbýlishús með innbyggðri bílgeymslu á lóð nr. 55 við Jónsgeisla. Stærð: Íbúð 1. hæð 126,6 ferm., 2. hæð 89,4 ferm., bílgeymsla 33,1 ferm., samtals 249,1 ferm., 842,2 rúmm. Gjald kr. 4.800 + 40.426"
24048 (04.11.341.1),http://gamli.rvk.is/vefur/owa/edutils.parse_page?nafn=BN024048,Jónsgeisli 69,einbýlishús m. bílg.,Frestað. Vísað til athugasemda á umsóknarblaði.,"Sótt er um leyfi til þess að byggja tvílyft steinsteypt einbýlishús með innbyggðri bílgeymslu á lóð nr. 69 við Jónsgeisla. Stærð: Íbúð 1. hæð 35,3 ferm., 2. hæð 123,7 ferm., bílgeymsla 49,3 ferm., samtals 208,3 ferm., 660,8 rúmm. Gjald kr. 4.100 + 27.093"
24307 (04.11.330.2),http://gamli.rvk.is/vefur/owa/edutils.parse_page?nafn=BN024307,Jónsgeisli 83-87,raðhús,Samþykkt.  Samræmist ákvæðum laga nr. 73/1997. Frágangur á lóðamörkum verði gerður í samráði við lóðarhafa aðliggjandi lóða.,"Sótt er um leyfi til að byggja þrjú raðhús með þremur innbyggðum bílgeymslum á raðhúsalóðinni nr. 83-87 við Jónsgeisla. Jafnframt er sótt um leyfi til að breyta hæðarafsetningu húsanna um 60 cm til hækkunar frá gildandi mæliblaði. Stærðir: Nr. 83 (matshl. 01): Íbúð kjallari 110,6 ferm., 1. hæð 73,6 ferm., bílgeymsla 30,7 ferm., sorpg. (B) 1,6 ferm. Samtals 216,5 ferm. og 709,1 rúmm. Nr. 85 (matshl. 02): Íbúð kjallari 107,6 ferm., 1. hæð 70,6 ferm., bílgeymsla 30,7 ferm., sorpg. (B) 1,6 ferm. Samtals 210,5 ferm. og 691,1 rúmm. Nr. 87 (matshl. 03): Íbúð kjallari 110,6 ferm., 1. hæð 73,6 ferm., bílgeymsla 30,7 ferm., sorpg. (B) 1,6 ferm. Samtals 216,5 ferm. og 709,1 rúmm. Alls samtals: 643,5 ferm. og 2109,3 rúmm. Gjald kr. 4.800 + 101.246"
23906 (32.4-.--5.4),http://gamli.rvk.is/vefur/owa/edutils.parse_page?nafn=BN023906,Jörfagrund 46-52,fjölb.h. á 2 hæðum með 8 íb,Frestað. Vísað til athugasemda á umsóknarblaði.,"Sótt er um leyfi til að byggja tvílyft fjölbýlishús úr steinsteypu með svalagangi og samtals átta íbúðum á lóðinni nr. 46-52 við Jörfagrund. Stærðir: 1. hæð 372,7 ferm., 2. hæð 366,8 ferm., samtals 739 ferm. og 2320,3 rúmm. Gjald kr. 4.100 + 111.374"
24353 (01.24.740.2),http://gamli.rvk.is/vefur/owa/edutils.parse_page?nafn=BN024353,Kjartansgata 4,reyndarteikningar,Frestað. Lagfæra skráningu.,Sótt er um samþykki fyrir reyndarteikningum vegna gerðar eignaskiptayfirlýsingar á lóð nr. 4 við Kjartansgötu. Gjald kr. 4.800
24379 (01.17.223.7),http://gamli.rvk.is/vefur/owa/edutils.parse_page?nafn=BN024379,Klapparstígur 35,Opnun milli húsa o.fl.,Samþykkt.  Samræmist ákvæðum laga nr. 73/1997. Áskilin lokaúttekt byggingarfulltrúa. Áskilið samþykki heilbrigðiseftirlits.,"Sótt er um leyfi til þess að opna á 3. hæð að bakhúsi á lóð nr. 24 við Laugaveg, breyta innra skipulagi sömu hæðar og fjölga  um eitt hótelherbergi á 2. hæð á lóð nr. 35A við Klapparstíg. Gjald kr. 4.800"
24463 (04.32.340.1),http://gamli.rvk.is/vefur/owa/edutils.parse_page?nafn=BN024463,Krókháls 5F,br. 3.hæð og ris,Frestað. Vísað til athugasemda á umsóknarblaði.,"Sótt er um leyfi til þess að innrétta 3. hæð, stækka milliloft og bæta við einum hringstiga upp á risloft húss nr. 5F á lóð nr. 5-5G við Krókháls. Stærð: Milliloft var bókað 125,9 ferm. verður 194,8 ferm. Gjald kr. 4.800"
24455 (01.18.350.7),http://gamli.rvk.is/vefur/owa/edutils.parse_page?nafn=BN024455,Laufásvegur 21-23,nr.21 tengibygging,Frestað. Vísað til athugasemda á umsóknarblaði. Að þeim uppfylltum verður málið sent til skipulagsfulltrúa til ákvörðunar um grenndarkynningu.,"Sótt er um leyfi til þess að byggja tengigang úr stálgrindareiningum milli húsa sendiráðs Bandaríkjanna á lóðinni nr. 21-23 við Laufásveg. Stækkun v. tengigangs 65,7 ferm. og 172,5 rúmm. Gjald kr. 4.800 + 8.280"
24185 (01.18.550.2),http://gamli.rvk.is/vefur/owa/edutils.parse_page?nafn=BN024185,Laufásvegur 48A,Ofanábygging og breytingar,Frestað. Vísað til athugasemda á umsóknarblaði.,"Að lokinni grenndarkynningu byggingarleyfisumsóknar er lögð fram að nýju umsókn þar sem sótt er um leyfi til að byggja rishæð með tveimur kvistum ofan á húsið nr. 48A við Laufásveg. Jafnframt er sótt um leyfi til að byggja anddyri og svalir við norðvestur hlið hússins., samkv. uppdr. Teiknistofunnar Úti og inni, dags. 20.11.01. Erindinu fylgir umsögn Borgarskipulags dags. 1. ágúst s.l. og bréf hönnuða dags. 6. júlí 2001, hvorutveggja vegna fyrirspurnar. Málið var í grenndarkynningu frá 17. des. 2001 til 14. janúar 2002. Athugasemdabréf bárust frá eigendum Laufáss, Laufásvegi 48, dags. 31.12.01 og Trausta Kristinssyni, Laufásvegi 50, dags. 09.01.02. Einnig lögð fram umsögn Borgarskipulags um athugasemdir, dags. 18.01.02. Stækkun: Ofanábygging 61,3 ferm. og 216,2 rúmm. Gjald kr. 4.100 + 10.378"
24433 (01.24.210.1),http://gamli.rvk.is/vefur/owa/edutils.parse_page?nafn=BN024433,Laugavegur 164,breytingar á 3. hæð,Frestað. Vísað til athugasemda á umsóknarblaði.,Sótt er um leyfi fyrir breytingum á innra skipulagi skrifstofuhúsnæðis á þriðju hæð matshluta 01 á lóðinni nr. 164 við Laugaveg. Gjald kr. 4.800
24378 (01.17.220.3),http://gamli.rvk.is/vefur/owa/edutils.parse_page?nafn=BN024378,Laugavegur 24,Fjölga hótelíb. og opna milli húsa,Samþykkt. Samræmist ákvæðum laga nr. 73/1997. Áskilin lokaúttekt byggingarfulltrúa. Áskilið samþykki heilbrigðiseftirlits.,"Sótt er um leyfi til þess að breyta íbúð á 3. og 4. hæð bakhúss (matshl. 02) í þrjár hótelíbúðir á hvorri hæð sem samnýttar verða með rekstri á lóð nr. 35A við Klapparstíg,  opna á 3. hæð milli húsa, stækka hótelíbúð á 2. hæð, breyta innra skipulagi 1. hæðar og setja brunastiga við norðurhlið matshluta 02 á lóð nr. 24 við Laugaveg. Samþykki meðlóðarhafa (á teiknignu) og ljósrit af kaupsamningi dags. 18. júlí 2001 fylgja erindinu. Gjald kr. 4.800"
24271 (01.17.211.8 01),http://gamli.rvk.is/vefur/owa/edutils.parse_page?nafn=BN024271,Laugavegur 33,reyndarteikningar,Frestað. Vísað til athugasemda á umsóknarblaði.,Sótt er um samþykki fyrir reyndarteikningum af húsinu nr. 33 (matshl. 01) á lóðinni nr. 33 við Laugaveg. Virðingargjörð dags. 1. apríl 1943 fylgir erindinu. Samþykki meðeigenda (á teikn.) fylgir erindinu. Bréf skrásetjara dags. 21. ágúst 2001 fylgir erindinu. Gjald kr.4.800
24374 (01.17.302.7),http://gamli.rvk.is/vefur/owa/edutils.parse_page?nafn=BN024374,Laugavegur 49A,reyndarteikningar,Samþykkt.  Samræmist ákvæðum laga nr. 73/1997.,Sótt er um samþykki fyrir leiðréttum reyndarteikningum af húsinu á lóðinni nr. 49A við Laugaveg. Útliti norðurhliðar húss og rýmisskipan í íbúð 0102 er breytt. Bréf hönnuðar dags. 11. janúar 2002 fylgir erindinu. Gjald kr. 4.800
24223 (04.63.330.1),http://gamli.rvk.is/vefur/owa/edutils.parse_page?nafn=BN024223,>Leirubakki  2-16,reyndarteikningar,Frestað. Vísað til athugasemda á umsóknarblaði.,Sótt er um áður gerðar breytingar í kjallara og á 1. hæð í matshluta 03 og 07 á lóðinni nr. 2-16 við Leirubakka. Gjald kr. 4.800
24465,http://gamli.rvk.is/vefur/owa/edutils.parse_page?nafn=BN024465,Mánatún 2,br. brunamerk. á dyrum,Frestað. Vísað til athugasemda á umsóknarblaði.,Sótt er um samþykki fyrir breyttum brunamerkingum á veggjum og dyrum á öllum hæðum og leyfi til þess að stækka op að skriðrými í kjallara húss nr. 2 á lóð nr. 2-6 við Mánatún. Gjald kr. 4.800
23493,http://gamli.rvk.is/vefur/owa/edutils.parse_page?nafn=BN023493,Mánatún 4,br. í kj. og 7. h - 26 íb.,Frestað. Vísað til athugasemda á umsóknarblaði.,"Sótt er um leyfi til þess að breyta bílastæðum og sorpskýlum, breyta hluta skriðrýmis í fullgild kjallararými, breyta innra skipulagi kjallara, breyta brunamerkingum á veggjum og dyrum á öllum hæðum, stækka op að skriðrými, stækka 7. hæð, breyta útliti allra hliða 7. hæðar og skipta íbúð 7. hæðar í tvær íbúðir þannig  að íbúðir verði tuttugu og sex í fjölbýlishúsi nr. 4 á lóð nr. 2-6 við Mánatún. Stærð: Stækkun kjallara 64,3 ferm., 7. hæð 12,9 ferm., samtals 77,2 ferm., 175,5 rúmm. Gjald kr. 4.100 + 8.424"
24466,http://gamli.rvk.is/vefur/owa/edutils.parse_page?nafn=BN024466,Mánatún 6,br. þakíbúð í tvær íbúðir,Frestað. Vísað til athugasemda á umsóknarblaði.,"Sótt er um samþykki fyrir breyttum brunamerkingum á veggjum og dyrum á öllum hæðum, leyfi til þess að stækka op að skriðrými ásamt leyfi til þess að skipta íbúð 7. hæðar í tvær íbúðir þannig að íbúðir verði tuttugu og sex í fjölbýlishúsi nr. 6 á lóð nr. 2-6 við Mánatún. Gjald kr. 4.800"
24225 (01.71.012.0),http://gamli.rvk.is/vefur/owa/edutils.parse_page?nafn=BN024225,Mávahlíð 39,"Reyndarteikningar,  ",Frestað. Vísað til athugasemda á umsóknarblaði.,"Sótt er um leyfi fyrir áður gerðri stækkun kjallara og bílskúrs og fyrir núverandi innra skipulagi í kjallara hússins nr. 39 við Mávahlíð. Stærð: Áður gerð stækkun kjallari 9,4 ferm., 15,9 rúmm., áður gerð stækkun bílskúrs 18,1 ferm., 43,3 rúmm. Gjald kr. 4.800 + 2.842"
24120,http://gamli.rvk.is/vefur/owa/edutils.parse_page?nafn=BN024120,Mávahlíð 48,reyndarteikningar,Frestað. Vísað til athugasemda á umsóknarblaði.,"Sótt er um samþykki fyrir áður gerðum breytingum í kjallara húss og í bílskúr á lóðinni nr. 48 við Mávahlíð. Sólpalli við kjallaraíbúð og innra fyrirkomulagi kjallara er breytt og sýndur er veggur milli bílgeymsla í bílskúr. Kaupsamningar dags. 23. janúar 1997, 9. desember 1997 og 16. nóvember 2000 fylgja erindinu. Gjald kr. 4.100"
24371 (01.19.611.0),http://gamli.rvk.is/vefur/owa/edutils.parse_page?nafn=BN024371,Mímisvegur 6,Raunteikningar,Frestað. Vísað til athugasemda á umsóknarblaði.,"Sótt er um samþykki fyrir áður gerðum breytingum á innra skipulagi kjallara, breytingum á stigahúsi 1. hæð, fyrir áður gerðri stækkun skála 1. og 2. hæðar og fyrir áður gerðri svalahurð á 2. hæð fjöleignarhússins á lóð nr. 6 við Mímisveg. Stærð: Áður gerð stækkun 1. og 2. hæðar samtals 4,8 ferm., 13 rúmm. Hætt er við byggingu anddyris sem var hluti byggingarleyfis 24. nóv 1955 stærð 5,2 ferm., 14 rúmm. Gjald kr. 4.800"
23345 (01.18.220.9),http://gamli.rvk.is/vefur/owa/edutils.parse_page?nafn=BN023345,>Njálsgata 10,reyndarteikningar,Samþykkt.  Samræmist ákvæðum laga nr. 73/1997. Með vísan til ákvæða gr. 12.8 í byggingarreglugerð nr. 441/1998.,"Sótt er um samþykki fyrir reyndarteikningum og áður gerðri íbúð á þriðju hæð hússins á lóðinni nr. 10 við Njálsgötu vegna eignaskiptayfirlýsingar. Innra skipulagi er breytt á öllum hæðum, gerð er grein fyrir notkun rishæðar og útlit suðurhliðar er breytt (kvistur, gluggasetning og dyr á fyrstu hæð). Sameignarsamningur dags. 29. október 1958,  íbúðarskoðun byggingarfulltrúa dags. 26. september 2001 og bréf LAG dags. 21. nóvember 2001 fylgja erindinu. Stærð: Stækkun kvistur 1,1 rúmm. Gjald kr. 4.100 + 46"
24213 (01.74.400.1),http://gamli.rvk.is/vefur/owa/edutils.parse_page?nafn=BN024213,Ofanleiti 1,Stækkun 4 hæðar,Frestað. Málinu vísað til umsagnar skipulagsfulltrúa. Vísað til athugasemda á umsóknarblaði.,"Sótt er um leyfi til að byggja vinnustofu ofan á þriðju hæð (bókasafn) Verzlunarskólans í Reykjavík á lóðinni nr. 1 við Ofanleiti. Burðarvirki viðbyggingar verði úr stáli og timbri og útveggir klæddir að utan með álplötum.  Stækkun: Ofanábygging 353,2 ferm. og 1.387,1 rúmm. Gjald kr. 4.800 + 66.581"
24450 (01.34.201.0),http://gamli.rvk.is/vefur/owa/edutils.parse_page?nafn=BN024450,Rauðalækur 57,Reyndart. á.g. svalalokun.,Frestað. Vísað til athugasemda á umsóknarblaði.,Sótt er um samþykki fyrir reyndarteikningum og áður gerðri svalalokun á vestur- og austurhlið annarrar hæðar hússins á lóðinni nr. 57 við Rauðalæk. Samþykki nokkurra meðeigenda (á teikn.) fylgir erindinu. Stærð: Stækkun sólskáli xx Gjald kr. 4.800 + xx
24440 (01.54.012.1),http://gamli.rvk.is/vefur/owa/edutils.parse_page?nafn=BN024440,Reynimelur 38,áður gerð íbúð í kjallara,Frestað. Vísað til athugasemda á umsóknarblaði.,"Sótt er um samþykki fyrir áður gerðri íbúð í kjallara hússins nr. 38 við Reynimel.  Bréf umsækjanda dags. 19. nóvember 2001, skoðunarskýrsla byggingarfulltrúa dags. 20. nóvember 2001 og virðingargjörð dags. 21. október 1939 fylgir erindinu. Gjald kr. 4.800"
24456 (01.18.030.1),http://gamli.rvk.is/vefur/owa/edutils.parse_page?nafn=BN024456,Skólavörðustígur 12,Skipta í tvennt.,Frestað. Vísað til athugasemda á umsóknarblaði.,Sótt er um leyfi til þess að skipta verslunareiningu (eign 0103) á fyrstu hæð og í kjallara hússins nr. 12 við Skólavörðustíg í tvær verslanir. Samþykki nokkurra meðeigenda dags. 22. janúar 2002 fylgir erindinu. Gjald kr. 4.800
24311 (01.42.040.1),http://gamli.rvk.is/vefur/owa/edutils.parse_page?nafn=BN024311,Skútuvogur 6,breyting inni,Frestað. Vísað til athugasemda á umsóknarblaði.,"Sótt er um leyfi til þess að stækka milliloft og breyta innra fyrirkomulagi í notaeiningum 0101, 0102, 0103 og 0104 í húsinu nr. 6 við Skútuvog. Jafnframt er umsókn nr. 23185 dregin til baka.  Erindinu fylgir bréf hönnuðar dags. 2. jan. 2002 og bréf húseiganda dags. 3. jan. 2002. Stækkun: Milligólf 55,0 ferm. Gjald kr. 4.800"
24448 (01.23.210.1),http://gamli.rvk.is/vefur/owa/edutils.parse_page?nafn=BN024448,Sóltún 24-26,gistiheimili nr.24,Frestað. Vísað til athugasemda á umsóknarblaði.,"Sótt er um leyfi til þess að stækka kjallara, koma fyrir bílastæðum í opinni bílgeymslu, breyta innra fyrirkomulagi og innrétta gistiheimili með 9 gistirýmum í nyrsta hluta Sóltúns 24 (matshluta 02) ásamt leyfi til þess að setja nýja glugga á norður- og vesturhlið matshlutans og skábraut að hluta utan lóðar að vesturhlið kjallara á lóð nr. 24-26 við Sóltún. Umsögn Borgarskipulags dags. 23. október 2001 og umsögn gatnamálastjóra dags. 5. desember 2001 fylgja erindinu. Stækkun: Kjallari xxx ferm., xxx rúmm. Gjald kr. 4.800 + xxx"
24439 (01.78.810.1),http://gamli.rvk.is/vefur/owa/edutils.parse_page?nafn=BN024439,Suðurhlíð 35,gluggabr. + br. inni,Frestað. Vísað til athugasemda á umsóknarblaði.,"Sótt er um leyfi til þess að breyta innra skipulagi 1. hæðar , breyta gluggum norðurhliðar og endurnýja klæðningu norðurhliðar matshluta 04 á lóð nr. 35 við Suðurhlíðar. Gjald kr. 4.800"
24377 (01.26.500.1),http://gamli.rvk.is/vefur/owa/edutils.parse_page?nafn=BN024377,Suðurlandsb.28 Árm25- 27,"br. inni, nýtt andd., skilti",Frestað. Vísað til athugasemda á umsóknarblaði.,"Sótt er um leyfi til þess að breyta innra skipulagi 1. og 2. hæðar, setja skilti á skyggni að Ármúla og suðausturhúshorn 2. hæðar (samtals 11,7 ferm.) ásamt leyfi til þess að byggja anddyrisviðbyggingu  við húsið Ármúla 27 á lóð nr. 28 við Suðurlandsbraut og nr. 25 og 27 við Ármúla. Bréf hönnuðar dags. 29. janúar 2002 fylgir erindinu. Stærð: 26,7 ferm., 102 rúmm. Gjald kr. 4.800 + 4.896"
24444 (01.26.510.1 01),http://gamli.rvk.is/vefur/owa/edutils.parse_page?nafn=BN024444,Suðurlandsbr. 32,breyting inni á 1. h,Samþykkt.  Samræmist ákvæðum laga nr. 73/1997. Áskilin lokaúttekt byggingarfulltrúa.,Sótt er um leyfi til þess að færa millivegg í einingu 0102 og breyta eignamörkum milli 0101 og 0102 á 1. hæð atvinnuhússins á lóð nr. 32 við Suðurlandsbraut. Gjald kr. 4.800
24340 (01.21.610.1),http://gamli.rvk.is/vefur/owa/edutils.parse_page?nafn=BN024340,Sætún 1,breyting inni og úti,Samþykkt.  Samræmist ákvæðum laga nr. 73/1997. Áskilin lokaúttekt byggingarfulltrúa.,Sótt er um leyfi til þess að breyta innra skipulagi 1. hæðar og fjölga um einn glugga á suðurhlið sömu hæðar skrifstofuhússins á lóð nr. 1 við Sætún. Samþykki meðeigenda dags. 22. janúar 2002 fylgir erindinu. Gjald kr. 4.800
22861 (01.55.322.1),http://gamli.rvk.is/vefur/owa/edutils.parse_page?nafn=BN022861,Tómasarhagi 16B,Viðbygging.,Frestað. Lagfæra skráningu. Mæliblað vantar sbr. athugasemd dags. 23. júlí 2001.,"Að lokinni grenndarkynningu á óverulegri breytingu á deiliskipulagi frá 21. júní til 20 júli 2001 og afgreiðslu skipulags- og byggingarnefndar 25. júlí 2001, er sótt um leyfi til þess að byggja einnar hæðar timburviðbyggingu að austurhlið hússins á lóðinni nr. 16B við Tómasarhaga. Einnig er sótt um leyfi til þess að rífa að hluta gamalt hesthús á lóðinni. Umsögn Húsafriðunarnefndar ríkisins dags. 11. apríl 2001, umsögn Árbæjarsafns dags. 11. apríl 2001 og útskrift úr gerðabók skipulags- og umferðarnefndar frá 25. júlí 2001 fylgja erindinu. Bréf hönnuðar dags. 29. janúar 2002 fylgir erindinu. Stærð: Viðbygging 40,4 ferm. og 132,5 rúmm. Niðurrif á hluta hesthúss 20,0 ferm. og 45,0 rúmm. Gjald kr. 4.100 + 6.360"
24431 (01.33.960.1),http://gamli.rvk.is/vefur/owa/edutils.parse_page?nafn=BN024431,Vatnagarðar 22,reyndateikningar,Samþykkt.  Samræmist ákvæðum laga nr. 73/1997. Áskilið samþykki Vinnueftirlits ríkisins. Áskilin lokaúttekt byggingarfulltrúa.,Sótt er um leyfi til þess að færa lyftarahleðslu á afmarkað svæði í vörugeymslu í suðuenda á lóð nr. 22 við Vatnagaða. Bréf frá Slökkviliði höfuðborgarsvæðisins dags. 29. janúar 2002 og bréf frá Vinnueftirliti ríkisins dags. 24. janúar 2002 fylgja erindinu. Gjald kr. 4.800
24113 (01.24.312.7),http://gamli.rvk.is/vefur/owa/edutils.parse_page?nafn=BN024113,Vífilsgata 21,reyndarteikningar,Frestað. Vísað til athugasemda á umsóknarblaði.,"Sótt er um leyfi til þess að setja útitröppur og inngangsdyr á norðurhlið kjallara, breyta innra fyrirkomulagi kjallara,  lækka jarðveg við suðurhlið húss og samþykki fyrir áður gerðri íbúð í kjallara hússins á lóðinni nr. 21 við Vífilsgötu. Skoðunarskýrsla byggingarfulltrúa dags. 18. júlí 2001 fylgir erindinu. Virðingargjörð dags. 21. nóvember 1936 fylgir erindinu. Bréf f.h. umsækjenda dags. 23. ágúst 2001 fylgir erindinu. Gjald kr. 4.100"
23958 (00.00.000.0 06),http://gamli.rvk.is/vefur/owa/edutils.parse_page?nafn=BN023958,Þönglabakki 1,Læknastofur og brú,Samþykkt.  Samræmist ákvæðum laga nr. 73/1997. Áskilin lokaúttekt byggingarfulltrúa. Áskilið samþykki heilbrigðiseftirlits.,"Sótt er um leyfi til að innrétta aðgerða- og skoðunarstofur fyrir lækna ásamt tilheyrandi fylgirýmum á þriðju (efstu) hæð hússins nr. 1 við Þönglabakka. Jafnframt verði byggð yfirbyggð göngubrú milli hæðarinnar og stigagangs hússins  nr. 6 við Þönglabakka sem þjóni sem flóttaleið fyrir læknastofur. Erindinu fylgir bréf Læknasetursins sf., dags. 5. okt. 2001 og samþykki allra lóðarhafa nema eins, greinargerð um brunavarnir endurskoðuð 14. okt. 2001, bréf Borgarskipulags  vegna fyrirspurnar dags. 9. ágúst 2001. Stærð göngubrúar: 17,5 ferm. og 53,4 rúmm. Gjald kr. 4.100 + 2.563"
24451 (04.60.310.3),http://gamli.rvk.is/vefur/owa/edutils.parse_page?nafn=BN024451,Þönglabakki 4,Breytingar,Frestað. Vísað til athugasemda á umsóknarblaði.,Sótt er um leyfi til þess að breyta innra fyrirkomulagi á báðum hæðum hússins á lóðinni nr. 4 við Þönglabakka. Gjald kr. 4.800
24486 (01.11.150.2),http://gamli.rvk.is/vefur/owa/edutils.parse_page?nafn=BN024486,Eyjarslóð 1,Mæliblað,Samþykkt.  Samræmist ákvæðum laga nr. 73/1997.,"Sótt er um breytingar á mæliblaði lóðarinnar nr. 1 við Eyjarslóð. Breytingar á skipulagi lóðar og umferð að og frá lóð. Árið 1961 var lóðin reiknuð 3323,5 ferm. Lóðin er nú hnitsett og reiknuð 3327 ferm. Kvaðir á lóð eru endurskilgreindar."
24479 (01.24.210.2),http://gamli.rvk.is/vefur/owa/edutils.parse_page?nafn=BN024479,Laugavegur 166,Mæliblað,Samþykkt.  Samræmist ákvæðum laga nr. 73/1997.,"Óskað er eftir samþykkt á meðfylgjandi mæliblaði mælingadeildar, dag.s 31. janúar 2002, vegna lóðarinnar nr. 166 við Laugaveg. Lóðin er 2621 ferm., sbr. yfirlýsingu Litra Q36 nr. 170 dags. 25. janúar 1978. Bætt við lóðina 21 ferm. Lóðin verður 2642 ferm. Sjá samþykkt skipulags- og byggingarnefndar frá 21. nóvemver 2001."
24470 (04.92.340.6),http://gamli.rvk.is/vefur/owa/edutils.parse_page?nafn=BN024470,Stuðlasel 31,Fella tré,Samþykkt. Með vísan til umsagnar garðyrkjustjóra.,Sótt er um leyfi til þess að fella tré á lóðinni nr. 31 við Stuðlasel. Umsögn garðyrkjustjóra dags. 28. janúar 2002 fylgir erindinu.
24471 (01.54.520.4),http://gamli.rvk.is/vefur/owa/edutils.parse_page?nafn=BN024471,Tómasarhagi 43,Fella tré,Samþykkt. Með vísan til umsagnar garðyrkjustjóra.,Sótt er um leyfi til þess að fella tré á lóðinni nr. 43 við Tómasarhaga. Umsögn garðyrkjustjóra dags. 23. janúar 2002 fylgir erindinu.
24348 (01.84.170.1 01),http://gamli.rvk.is/vefur/owa/edutils.parse_page?nafn=BN024348,Akraland 1,(fsp) bílskúr,Jákvætt. Með vísan til umsagnar skipulagsfulltrúa.,Spurt hvort leyft yrði að byggja bílskúr sem fimmta bílskúrinn í röð við fjöleignarhúsið nr. 1 á lóð nr. 1-3 við Akraland. Útskrift úr gerðabók embættisafgreiðslufundar skipulagsfulltrúa frá 25. janúar 2002 fylgir erindinu.
24458 (01.24.710.4),http://gamli.rvk.is/vefur/owa/edutils.parse_page?nafn=BN024458,Auðarstræti 9,(fsp) íbúð í kjallara,Jákvætt. Enda verði framvísað afriti af þinglýstu afsali og með vísan til 15. gr. reglugerðar nr. 910/2000.,Spurt er hvort samþykki fengist fyrir afmörkun á áður gerðri íbúð í kjallara hússins á lóðinni nr. 9 við Auðarstræti.
24432 (01.13.100.5),http://gamli.rvk.is/vefur/owa/edutils.parse_page?nafn=BN024432,Brunnstígur 5,(fsp) vinnustofa listmálara,Frestað. Málinu vísað til umsagnar skipulagsfulltrúa.,Spurt er hvort leyft yrði að byggja vinnustofu á noðvesturlóðamörkum þannig að hún myndi hljóðskerm við Mýrargötu í líkingu við fyrirliggjandi teikningar á lóð nr. 5 við Brunnstíg. Bréf hönnuðar dags. 21. janúar 2002 fylgir erindinu.
24454 (01.36.400.3),http://gamli.rvk.is/vefur/owa/edutils.parse_page?nafn=BN024454,Hofteigur 8,(fsp) áður gerð íbúð í kjallara,Frestað. Gera skal grein fyrir notkun kjallara í heild. Óleyfisframkvæmdir á burðarvirki hússins skulu þegar stöðvaðar.,Spurt er hvort samþykki fengist fyrir áður gerðri íbúð í húsinu nr. 8 við Hofteig.  Virðingargjörð dags. 9. marz 1950 og skoðunarskýrsla byggingarfulltrúa dags. 29. janúar 2002 fylgja erindinu.
24435 (04.97.530.4),http://gamli.rvk.is/vefur/owa/edutils.parse_page?nafn=BN024435,Jöklasel 21-23,(fsp) 21 - stækkun í risi,Neikvætt. Miðað við framlögð gögn. Ekki kemur til greina að leyfa svefnherbergi í viðkomandi rými.,"Spurt er hvort leyft yrði að nýta rishæð sem hluta íbúðanna á þriðju hæð hússins nr. 21 á lóðinni nr. 21-23 við Jöklasel. Jafnframt myndi útliti hússins verða breytt, settur yrði gluggi á suðausturgafl og þakgluggum yrði komið fyrir á suðvestur- og norðausturhlið."
24369 (01.17.150.1),http://gamli.rvk.is/vefur/owa/edutils.parse_page?nafn=BN024369,Laugavegur 18,(fsp) breyting inni,Jákvætt. Með vísan til virðingagjörðar frá 31. janúar 1962.,Spurt er hvort samþykkt yrði íbúð á 5. hæð hússins á lóð nr. 18 við Laugaveg. Jafnframt lögð fram virðingagjörð frá 31. janúar 1962.
24452 (01.19.530.4),http://gamli.rvk.is/vefur/owa/edutils.parse_page?nafn=BN024452,Leifsgata 30,fsp. Kvistir,Frestað. Málinu vísað til umsagnar skipulagsfulltrúa.,Spurt er hvort leyft yrði að fjölga kvistum á norðuraustur- og suðurvesturhlið hússins nr. 30 við Leifsgötu.
24485 (01.15.320.5),http://gamli.rvk.is/vefur/owa/edutils.parse_page?nafn=BN024485,Lindargata 58,(fsp)  atvinnuhúsnæði,Frestað. Svo taka megi afstöðu til erindisins skal skila inn þinglýstum pappírum sem sýna eignarhald í húsinu.,Spurt er hvort leyft yrði að afmarka séreign undir atvinnuhúsnæði í kjallara og á fyrstu hæð hússins á lóðinni nr. 58 við Lindargötu.
24430 (01.23.500.4),http://gamli.rvk.is/vefur/owa/edutils.parse_page?nafn=BN024430,Miðtún 44,(fsp) í búð í kjallara,Neikvætt. Of mikið niðurgrafið.,"Spurt er hvort samþykki fengist fyrir áður gerðri íbúð í kjallara hússins nr. 44 við Miðtún. Bréf umsækjenda dags. 14. janúar 2002, skoðunarskýrsla byggingarfulltrúa dags. 12. desember 2001 og virðingargjörð dags. 1. júní 1943 fylgja erindinu."
24445 (01.19.020.1),http://gamli.rvk.is/vefur/owa/edutils.parse_page?nafn=BN024445,Njálsgata 26,br. vinnust. í íbúð.,Nei. Með vísan til skoðunarskýrslu dags. 17. nóvember 1999.,Spurt er hvort leyft yrði að breyta vinnustofu í íbúð á jarðhæð hússins á lóðinni nr. 26 við Njálsgötu. Skoðunarskýrsla byggingarfulltrúa dags. 17. nóvember 1999 fylgir erindinu.
24453 (01.13.451.2),http://gamli.rvk.is/vefur/owa/edutils.parse_page?nafn=BN024453,Sólvallagata 72,Áðurgerð íbúð,Nei. Með vísan til skoðunarskýrslu byggingarfulltrúa dags. 23. janúar 2002.,"Spurt er hvort samþykki fengist fyrir áður gerðri íbúð á rishæð hússins nr. 72 við Sólvallagötu. Skoðunarskýrsla byggingarfulltrúa dags. 23 janúar 2002, bréf umsækjanda dags. 29. janúar 2002 og virðingargjörð dags. 23. febrúar 1923 fylgir erindinu."
