nr,url,heimilisfang,tegund,nidurstada,spurning
23620 (01.43.200.1),http://gamli.rvk.is/vefur/owa/edutils.parse_page?nafn=BN023620,Álfheimar 15,Áður gerðar br. á 2 og 3 hæð,Samþykkt.  Samræmist ákvæðum laga nr. 73/1997.,"Sótt er um samþykki fyrir áður gerðri stækkun 3. hæðar undir þaki á hluta svala og fyrir stækkun íbúðar 2. hæðar  út í stigahús í fjöleignahúsinu á lóð nr. 15 við Álfheima. Samþykki sumra meðeigenda dags. 22. ágúst 2001 ásamt samþykki meðeigenda (á teikningu) fylgja  erindinu. Stærð: Áður gerð stækkun 3. hæðar 13,5 ferm., 29,4  rúmm. Gjald kr. 4.100 + 1.411"
24534 (01.43.430.1),http://gamli.rvk.is/vefur/owa/edutils.parse_page?nafn=BN024534,Álfheimar 74,nýbygging og breytingar,Frestað. Vísað til athugasemda á umsóknarblaði.,"Sótt er um leyfi til þess að breyta og byggja við 1. hæð verslunar- og þjónustumiðstöðvarinnar Glæsibæjar í norður og vestur, byggja léttbyggða inndregna hæð ofan á núverandi 2. hæð,  þriggja  hæða opna bifreiðageymslu fyrir 365 bíla við vesturhlið og þriggja til átta hæða nýbyggingu úr steinsteypu einnangraða að utan og klædda með álplötum og sedrusvið vestast á lóðinni nr. 74 við Álfheima. Ljósrit af samþykki meðeigenda innfært 28. nóvember 2000, bréf hönnuðar dags. 12. febrúar 2002, brunahönnun VSI dags. 7. febrúar 2002 , byggingarlýsingu hönnuðar og lagnahönnuðar (VGK), lýsing á burðarkerfi verkfræðistofu (VST) ásamt bréfi vegna bráðaaðgerða brunavarna (VSI) dags. 9. apríl 2002 fylgja erindinu. Stærð: Stækkun 1. hæðar núverandi húss 661,7 ferm., 3. hæðin 661,7 ferm., samtals 1323,4 ferm., 5824 rúmm. Nýbygging kjallari 301 ferm., 2. hæð 1012,5 ferm. 2. hæð 958,2 ferm., 3. hæð 1441,7 ferm., 4. hæð 1182,7 ferm., 5. hæð 1166,8 ferm., 6. hæð 869,5 ferm., 7. hæð 827,5 ferm., 8. hæð 566,8 ferm., samtals 8326,7 ferm., 29845,4 rúmm. Bifreiðageymsla, tæknirými 93,4 ferm., 342,4 rúmm., (bílastæði 10944,1 ferm., 22653,6 rúmm.) Gjald kr. 4.800 + 2.815.939"
23342 (01.29.000.1),http://gamli.rvk.is/vefur/owa/edutils.parse_page?nafn=BN023342,Ármúli 4,"Tengibygg, lóðasameining","Frestað. Vísað til athugasemda á umsóknarblaði. Málinu vísað til skipulagsfulltrúa til ákvörðunar um grenndarkynningu. Vísað er til uppdrátta 1.00C, 1.01C og 1.02C dags. 19. júlí 01.","Sótt er um leyfi til að sameina lóðirnar Ármúla 4 og Ármúla 6.  Jafnframt er sótt um leyfi til að byggja steinsteypta tengibyggingu einangraða að utan og klædda múrkerfi á hinni sameinuðu lóð. Umsögn Borgarskipulags dags. 10. júlí 2001, bréf hönnuðar dags. 17. júlí 2001, bréf meðeigenda dags. 3. september 2001 fylgir erindinu.  Samþykki meðeigenda dags. 19. febrúar 2002 fylgir erindinu. Stærð: Tengibygging 113,3 ferm. og 512,6 rúmm. Gjald kr. 4.100 + 2.101"
24791 (01.70.421.3),http://gamli.rvk.is/vefur/owa/edutils.parse_page?nafn=BN024791,Blönduhlíð 3,Svalahurð á 1. hæð,Samþykkt.  Samræmist ákvæðum laga nr. 73/1997.,Sótt er um leyfi til þess að setja aðra svalahurð að austursvölum fyrstu hæðar hússins á lóðinni nr. 3 við Blönduhlíð. Samþykki meðeigenda dags. 3. apríl 2002 fylgir erindinu. Gjald kr. 4.800
24832 (01.25.120.3),http://gamli.rvk.is/vefur/owa/edutils.parse_page?nafn=BN024832,Bolholt 6-8,"breyting inni, 3. h",Samþykkt.  Samræmist ákvæðum laga nr. 73/1997. Áskilin lokaúttekt byggingarfulltrúa.,Sótt er um leyfi til þess að skipta eign 3. hæðar í tvær eignir (skrifstofur) ásamt sameign sumra í húsi nr. 8 (matshluti 02) á lóð nr. 6-8 við Bolholt. Samþykki eigenda (matshluta 02) dags. 15. mars 2002 og umboð eigenda dags.19. mars 2002 fylgja erindinu. Gjald kr. 4.800
24815 (01.18.621.7),http://gamli.rvk.is/vefur/owa/edutils.parse_page?nafn=BN024815,Bragagata 31,reyndarteikningar,Frestað. Vísað til athugasemda á umsóknarblaði.,"Sótt er um samþykki fyrir áður gerðum kvistum á norðvesturþekju, fyrir áður gerðum geymsluskúr á baklóð og áður gerðum innri breytingum t.d. afmörkun séreignar á þakhæð fjöleignarhússins á lóð nr. 32 við Bragagötu. Íbúðarskoðun byggingarfulltrú dags. 27. október 2000 fylgir erindinu. Stærð: Áður gerð stækkun 2. h xxx ferm., þakhæðar xxx ferm., samtals xxx ferm., xxx rúmm., áður gerður geymsluskúr 7,6 ferm., xxx rúmm. Gjald kr. 4.800 + xxx"
24826 (04.02.840.2),http://gamli.rvk.is/vefur/owa/edutils.parse_page?nafn=BN024826,Breiðhöfði 11A,breyting úti,Samþykkt.  Samræmist ákvæðum laga nr. 73/1997.,Sótt er um leyfi til þess að klæða með sléttri álklæðningu langhliðar hússins á lóðinni nr. 11A við Breiðhöfða. Gjald kr. 4.800
24400 (02.34.480.4),http://gamli.rvk.is/vefur/owa/edutils.parse_page?nafn=BN024400,Dofraborgir 7,"stækkun inni, 1.h",Frestað. Lagfæra skráningartöflu.,"Sótt er um leyfi til þess að stækka aukaíbúð á 1. hæð yfir í óuppfyllt sökkulrými og fjölga gluggum á norðurhlið 1. hæðar íbúðarhússins á lóð nr. 7 við Dofraborgir. Útskrift úr gerðabók embættisafgreiðslufundar skipulagsfulltrúa frá 8. febrúar 2002 fylgir erindinu. Samþykki meðeigenda dags. 7. janúar 2002 fylgir erindinu. Stærð: Stækkun íbúð 1. hæð 34,9 ferm., 94,2 rúmm. Gjald kr. 4.800 + 4.857"
24819 (01.70.420.1),http://gamli.rvk.is/vefur/owa/edutils.parse_page?nafn=BN024819,Drápuhlíð 2,reyndarteikning,Frestað. Vísað til athugasemda á umsóknarblaði.,"Sótt er um samþykki fyrir smávægilegum breytingum á innra skipulagi allra hæða og fyrir afmörkun séreignar á rishæð húss á lóð nr. 2 við Drápuhlíð. Bréf fyrrverandi eiganda rishæðar dags. 9. apríl 2002, samþykki meðeigenda dags. 9. apríl 2002, íbúðarskoðun byggingarfulltrúa dags. 13. desember 2001, afsal eignar á 3. hæð innfært 2. október 1962 og 15. janúar 1999 ásamt tengipappírum vegna rishæðar (3.h) dags 11. september 1947 fylgja erindinu. Gjald kr. 4.800"
24816 (01.35.500.9),http://gamli.rvk.is/vefur/owa/edutils.parse_page?nafn=BN024816,Efstasund 2,svalir stækkaðar,Synjað. Fer húsi illa og er of nálægt lóðarmörkum.,Sótt er um leyfi til þess að breikka svalir á rishæð hússins á lóðinni nr. 2 við Efstasund. Samþykki meðeigenda dags. 9. apríl 2002 fylgir erindinu. Gjald kr. 4.800
24308 (01.35.510.6),http://gamli.rvk.is/vefur/owa/edutils.parse_page?nafn=BN024308,Efstasund 3,Reyndarteikningar,Samþykkt.  Samræmist ákvæðum laga nr. 73/1997.,"Sótt er um samþykki fyrir reyndarteikningum af húsinu á lóðinni nr. 3 við Efstasund vegna gerðar eignaskiptayfirlýsingar. Sýndar eru tvær íbúðir í húsinu og gert hefur verið anddyri við inngang jarðhæðar og skyggni við inngang annarrar hæðar á austurhlið hússins. Virðingargjörð dags. 1. október 1943 fylgir erindinu. Stærð: Stækkun, anddyri 1,4 ferm. og 3,4 rúmm. Gjald kr. 4.800 + 163"
24312 (01.41.000.7),http://gamli.rvk.is/vefur/owa/edutils.parse_page?nafn=BN024312,Efstasund 78,Áður gerð íbúð í kjallara ofl.,Frestað. Vísað til athugasemda á umsóknarblaði.,"Sótt er um samþykki fyrir áður gerðri íbúð í kjallara ásamt áður gerðri stækkun kjallara undir sólstofu 1. hæðar, leyfi til þess að lækka jarðveg við suðurhlið og færa rafmagnstöflu og inntök í íbúðarhúsinu á lóð nr. 78 við Efstasund. Virðingargjörð dags. 10. október 1951, manntalsskýrsla dags. 16. október 1952 og íbúðarskoðun byggingarfulltrúa fylgja erindinu. Stækkun: Áður gerð stækkun kjallara 16,6 ferm., 40,3 rúmm. Gjald kr. 4.800 + 2.093"
24786 (01.11.140.3),http://gamli.rvk.is/vefur/owa/edutils.parse_page?nafn=BN024786,Eyjarslóð 5,breyting inni og úti,Frestað. Vísað til athugasemda á umsóknarblaði.,Sótt er um leyfi til þess að fjölga eignarhlutum úr tveimur í fjóra í húsinu á lóðinni nr. 5 við Eyjarslóð. Gjald kr. 4.800
24624 (01.46.330.3),http://gamli.rvk.is/vefur/owa/edutils.parse_page?nafn=BN024624,Faxafen 9,viðbygging,Frestað. Vísað til athugasemda á umsóknarblaði.,"Sótt er um leyfi til þess að byggja einnar hæðar viðbyggingu úr stáli, timbri og gleri að austurhlið hússins á lóðinni nr. 9 við Faxafen. Útskrift úr gerðabók embættisafgreiðslufundar skipulagsfulltrúa frá 5. apríl 2002 fylgir erindinu. Samþykki meðeigenda (á teikn.) fylgir erindinu. Stærð: Viðbygging 160,3 ferm. og 578,7 rúmm.  Gjald kr. 4.800 + 27.778"
24716 (02.45.610.1),http://gamli.rvk.is/vefur/owa/edutils.parse_page?nafn=BN024716,Fossaleynir 1,íþróttamiðstöð - 2.áfangi,Samþykkt.  Samræmist ákvæðum laga nr. 73/1997. Frágangur á lóðamörkum verði gerður í samráði við lóðarhafa aðliggjandi lóða. Áskilin lokaúttekt byggingarfulltrúa. Áskilið samþykki heilbrigðiseftirlits. Áskilið samþykki Vinnueftirlits ríkisins.,"Sótt er um leyfi til þess að byggja annan áfanga (vesturhluta) íþróttamiðstöðvarinnar á lóðinni nr. 1 við Fossaleyni. Þessi hluti byggingarinnar er steinsteyptur, þrjár hæðir og kjallari  og hýsir, auk skautahallar, ýmsa starfsemi tengda íþróttum. Breytingar hafa orðið á útliti og innra fyrirkomulagi frá fyrri samþykkt, kjallari og fyrsta hæð eru stækkuð til vesturs, byggingin er þrjár hæðir í stað fjögurra áður og hefur verið lækkuð um 90 cm.  Ennfremur eru sýndar nokkrar minniháttar breytingar sem orðið hafa á byggingartíma fyrsta áfanga.  Bréf hönnuðar dags. 18. og 22. mars 2002 fylgja erindinu. Stærð: Íþróttahús 2. áfangi 10468 ferm. og 54216 rúmm. Gjald kr. 4.800 + 260.237"
24602 (04.93.370.1 03),http://gamli.rvk.is/vefur/owa/edutils.parse_page?nafn=BN024602,Grjótasel 2,viðbygging ofl.,Samþykkt.  Samræmist ákvæðum laga nr. 73/1997.,"Sótt er um leyfi til þess að nýta áður sökkulrými fyrir vinnuherbergi, fjarlægja útitröppur breyta gluggum, inngangi og innra skipulagi í húsi nr. 2 á lóð nr. 2 við Grjótasel og 1 við Gljúfrasel. Útskrift úr gerðabók embættisafgreiðslufundar skipulagsfulltrúa frá 8. mars 2002 fylgir erindinu. Samþykki meðlóðarhafa dags. 17. mars 2002 fylgir erindinu. Stærð: Stækkun samtals 39 ferm., 106 rúmm. Gjald kr. 4.800 + 5.088"
24814 (01.18.330.4),http://gamli.rvk.is/vefur/owa/edutils.parse_page?nafn=BN024814,Grundarstígur 2A,reyndarteikningar,Frestað. Vísað til athugasemda á umsóknarblaði.,Sótt er um samþykki fyrir áður gerðum breytingum á innra skipulagi vegna gerðar eignaskiptayrfirlýsingar á lóð nr. 2A við Grundarstíg. Gjald kr. 4.800
24645,http://gamli.rvk.is/vefur/owa/edutils.parse_page?nafn=BN024645,Gvendargeisli 13A,Dreifistöð,Samþykkt.  Samræmist ákvæðum laga nr. 73/1997. Frágangur á lóðamörkum verði gerður í samráði við lóðarhafa aðliggjandi lóða. Helga Guðmundsdóttir vék af fundi við afgreiðslu málsins.,"Sótt er um leyfi til þess að byggja dreifistöð Orkuveitu Reykjavíkur á horni Gvendargeisla og Þórðarsveigs. Byggingarfulltrúi leggur til að lóðin verði tölusett nr. 13A við Gvendargeisla. Stærð: Dreifistöð 15,3 ferm. og 55,1 rúmm. Gjald kr. 4.100 + 2645"
24735 (05.13.360.1),http://gamli.rvk.is/vefur/owa/edutils.parse_page?nafn=BN024735,Gvendargeisli 2-12,fjölbýlishús m. 18 íb.,Samþykkt.  Samræmist ákvæðum laga nr. 73/1997. Frágangur á lóðamörkum verði gerður í samráði við lóðarhafa aðliggjandi lóða. Áskilin lokaúttekt byggingarfulltrúa.,"Sótt er um leyfi til þess að byggja steinsteypt þriggja hæða fjölbýlishús með átján íbúðum á lóðinni nr. 2-12 við Gvendargeisla. Á lóðinni er gert ráð fyrir niðurgrafinni bílageymslu fyrir átján bíla. Bréf skipulagsfulltrúa dags. 2. janúar 2002 fylgir erindinu. Stærð: Gvendargeisli 2-4 (matshl. 01), 1. hæð íbúðir 194,6 ferm., geymslur o.fl. 27,8 ferm., 2. hæð íbúðir 222,9 ferm., 3. hæð íbúðir 222,9 ferm. Gvendargeisli 6-8 (matshl. 02), 1. hæð íbúðir 194,6 ferm., geymslur o.fl. 27,8 ferm., 2. hæð íbúðir 222,9 ferm., 3. hæð íbúðir 222,9 ferm. Gvendargeisli 10-12 (matshl. 03), 1. hæð íbúðir 194,6 ferm., geymslur o.fl. 27,8 ferm., 2. hæð íbúðir 222,9 ferm., 3. hæð íbúðir 222,9 ferm. Bílgeymsla (matshl. 04), kjallari 395,4 ferm. og 1146,7 rúmm. B-rými (svalagangar) samtals 322,8 ferm.  Samtals 2722,8 ferm. og 6994 rúmm. Gjald kr. 4.800 + 335.698"
24824 (05.13.620.1),http://gamli.rvk.is/vefur/owa/edutils.parse_page?nafn=BN024824,Gvendargeisli 38,einbýlishús m. bílg. (aðflutt)),Frestað. Vísað til athugasemda á umsóknarblaði.,"Sótt er um leyfi til þess að byggja tvílyft einbýlishús með innbyggðri bílgeymslu þar sem 1. hæð yrði úr forsteyptum einingum og 2. hæð úr timbri á lóð nr. 38 við Gvendargeisla. Stærð: Íbúð 1. hæð 99,7 ferm., 2. hæð 148,7 ferm., bílgeymsla 45,6 ferm., samtals 294 ferm., 966,2 rúmm. Gjald kr. 4.800 + 46.378"
24830 (05.13.560.3),http://gamli.rvk.is/vefur/owa/edutils.parse_page?nafn=BN024830,Gvendargeisli 58,br. byggingaraðferð,Frestað. Framvísa vottun á einingum.,Sótt er um leyfi til þess að breyta um aðalbyggingarefni í nýsamþykktu einbýlishúsi í forsteyptar einingar og að hluta timburveggi á lóð nr. 58 við Gvendargeisla. Gjald kr. 4.800
24829 (05.13.580.3),http://gamli.rvk.is/vefur/owa/edutils.parse_page?nafn=BN024829,Gvendargeisli 62,einbýlishús,Samþykkt.  Samræmist ákvæðum laga nr. 73/1997. Frágangur á lóðamörkum verði gerður í samráði við lóðarhafa aðliggjandi lóða. Skila skal vottun á einingum fyrir úttekt á botnplötu.,"Sótt er um leyfi til þess að byggja einnar hæðar einbýlishús með innbyggðri bílgeymslu að hluta byggt úr forsteyptum einingum og að hluta úr timbri á lóðinni nr. 62 við Gvendargeisla. Stærð: 1. hæð, íbúð 157,4 ferm., sólstofa 18,0 ferm., bílgeymsla 30,9 ferm. Samtals 206,3 ferm. og 715,3 rúmm. Gjald kr. 4.800 +  34.334"
24734 (02.57.510.3),http://gamli.rvk.is/vefur/owa/edutils.parse_page?nafn=BN024734,Gylfaflöt 5,Veitingahús 1. hæð.,Frestað. Vísað til athugasemda á umsóknarblaði. Málið er til umfjöllunar hjá skipulagsfulltrúa.,Sótt er um leyfi til þess að starfrækja sportbar í rými 0101 á fyrstu hæð hússins á lóðinni nr. 5 við Gylfaflöt. Jafnframt lagt fram bréf Logos dags. 27. febrúar 2002. Samþykki eiganda dags. 19. mars 2002 fylgir erindinu. Gjald kr. 4.800
24834 (02.35.160.3),http://gamli.rvk.is/vefur/owa/edutils.parse_page?nafn=BN024834,Hamravík 44-52,breytingar í nr. 48 og 50,Frestað. Vísað til athugasemda á umsóknarblaði.,"Sótt er um leyfi til þess að koma fyrir millilofti í húsi nr. 48 og lokuðu eldstæði í húsi nr. 50 á lóðinni nr. 44-52 við Hamravík. Stærð: Milliloft í nr. 48 30,1 ferm. Gjald kr. 4.800"
24636 (01.81.571.4),http://gamli.rvk.is/vefur/owa/edutils.parse_page?nafn=BN024636,Háagerði 67,risíbúð,Frestað. Vísað til athugasemda á umsóknarblaði.,Sótt er um samþykki fyrir áður gerðri íbúð á rishæð hússins á lóðinni nr. 67 við Háagerði. Bréf umsækjanda dags. 4. mars 2002 fylgir erindinu. Matsvottorð Fasteignamats dags. 11. september 2001 fylgir erindinu. Virðingargjörð dags. 7. nóvember 1955 fylgir erindinu. Gjald kr. 4.800
24831 (01.38.610.1),http://gamli.rvk.is/vefur/owa/edutils.parse_page?nafn=BN024831,Holtavegur 28,stækka leikskóla,Samþykkt.  Samræmist ákvæðum laga nr. 73/1997. Frágangur á lóðamörkum verði gerður í samráði við lóðarhafa aðliggjandi lóða. Áskilin lokaúttekt byggingarfulltrúa. Áskilið samþykki heilbrigðiseftirlits.,"Sótt er um leyfi til þess að stækka leikskóla KFUM og KFUK um eina leikskóladeild á lóð nr. 28 við Holtaveg. Stærð: Stækkun leikskóla 80,3 ferm., 280,7 rúmm. Gjald kr. 4.800 + 13.474"
24813 (01.52.020.2),http://gamli.rvk.is/vefur/owa/edutils.parse_page?nafn=BN024813,Hringbraut 121,Br. bakhúsi í 12 íb.,"Frestað. Vísað til athugasemda á umsóknarblaði. Málinu vísað til skipulagsfulltrúa til ákvörðunar um grenndarkynningu. Vísað er til uppdrátta nr. 100, 101, 102 og 103 dags. 8. apríl 2002.","Sótt er um leyfi til þess að breyta bakhúsi í tólf studióíbúðir, breyta norðurhlið verulega t.d. með nýjum svölum, setja nýja lyftu og klæða norður-, vestur og suðurhlið með xxx klæðningu þar sem ekki verður  glersteinn á lóð nr. 121 við Hringbraut. Gjald kr. 4.800"
24821 (01.16.240.1),http://gamli.rvk.is/vefur/owa/edutils.parse_page?nafn=BN024821,Hringbraut 50,göngubrú,Frestað. Vísað til athugasemda á umsóknarblaði. Að þeim uppfylltum verður málið sent skipulagsfulltrúa til ákvörðunar um grenndarkynningu.,"Sótt er um leyfi til þess að byggja léttbyggðan tengigang milli 2. hæðar Grundar og Litlu Grundar með steinsteyptum turn með geymslu á 1. hæð og hvíldarpalli á 2. hæð á lóð nr. 50 við Hringbraut. Stærð: Tengigangur 1. hæð 22,9 ferm., 2. hæð 92,4 ferm., samtals 115,3 ferm., 349,1 rúmm. Gjald kr. 4.800 + 16.757"
24163 (01.22.211.7),http://gamli.rvk.is/vefur/owa/edutils.parse_page?nafn=BN024163,Hverfisgata 123,breyting inni og úti,Frestað. Ganga verður frá samkomulagi við Orkuveitu Reykjavíkur vegna hitaveituæðar.,"Sótt er um leyfi til að breyta íbúð á annarri og þriðju hæð (þakhæð) hússins nr. 123 við Hverfisgötu í tvær sjálfstæðar íbúðir eins og var fyrir samþykkt byggingarnefndar frá 11. júlí 1996. Jafnframt verði undirgangi breytt í anddyri og geymslu og komið fyrir sjálfstæðri íbúð á fyrstu hæð.  Samþykki meðeigenda ódags., virðingargjörð dags. 1. apríl 1942, umsögn skipulagsfulltrúa dags. 8. janúar 2001 og umsögn forstöðumanns stjórnsýslu- og lögfræðisviðs fylgja erindinu. Gjald kr. 4.100"
24717 (04.99.310.3),http://gamli.rvk.is/vefur/owa/edutils.parse_page?nafn=BN024717,Jafnasel 6,breyting inni,Frestað. Vísað til athugasemda á umsóknarblaði.,Sótt er um leyfi til þess að breyta innra fyrirkomulagi veitingastaðar á annarri hæð hússins á lóðinni nr. 6 við Jafnasel. Samþykki f.h. Þjóðleikhúskjallarans dags. 19. mars 2002 fylgir erindinu. Gjald kr. 4.800
24849 (04.11.350.7),http://gamli.rvk.is/vefur/owa/edutils.parse_page?nafn=BN024849,Jónsgeisli 23,nýbygging,Frestað. Vísað til athugasemda á umsóknarblaði.,"Sótt er um leyfi til þess að byggja tvílyft einbýlishús með innbyggðri bílgeymslu á lóðinni nr. 23 við Jónsgeisla. Húsið er steypt í mót úr ""Argisol"" plasteiningum og steinað að utan með ljósu kvarsi. Gjald kr. 4.800"
24715 (04.11.370.5),http://gamli.rvk.is/vefur/owa/edutils.parse_page?nafn=BN024715,Jónsgeisli 45,einbýlishús m. innb. bílg.,Frestað. Vísað til athugasemda á umsóknarblaði.,"Sótt er um leyfi til að byggja tvílyft steinsteypt einbýlishús með innbyggðri bílgeymslu á lóð nr. 45 við Jónsgeisla. Stærð: Íbúð 1. hæð 100,2 ferm., 2. hæð 125,3 ferm., bílgeymsla 30,6 ferm., samtals 256,1 ferm., 860,7 rúmm. Gjald kr. 4.800 + 41.314"
24048 (04.11.341.1),http://gamli.rvk.is/vefur/owa/edutils.parse_page?nafn=BN024048,Jónsgeisli 69,einbýlishús m. bílg.,Samþykkt.  Samræmist ákvæðum laga nr. 73/1997. Frágangur á lóðamörkum verði gerður í samráði við lóðarhafa aðliggjandi lóða.,"Sótt er um leyfi til þess að byggja tvílyft steinsteypt einbýlishús með innbyggðri bílgeymslu á lóð nr. 69 við Jónsgeisla. Stærð: Íbúð 1. hæð 35,3 ferm., 2. hæð 123,7 ferm., bílgeymsla 49,3 ferm., samtals 208,3 ferm., 685,9 rúmm. Gjald kr. 4.100 + 32.923"
24828 (01.35.100.1 20),http://gamli.rvk.is/vefur/owa/edutils.parse_page?nafn=BN024828,Kleppsvegur 64,bílskúr,Frestað. Vísað til athugasemda á umsóknarblaði. Málinu vísað til umsagnar skipulagsfulltrúa.,"Sótt er um leyfi til þess að byggja steinsteyptan bílskúr með þakpalli sem nýttur er sem torg við Hjúkrunarheimilið Skjól, Kleppsvegi 64, á lóð Hrafnistu við Brúnaveg. Stærð: Bílskúr 64,4 ferm., 193,2 rúmm.  Gjald kr. 4.800 + 9.274"
24779 (04.11.440.2),http://gamli.rvk.is/vefur/owa/edutils.parse_page?nafn=BN024779,Kristnibraut 49-53,Fjölb. m. 22 íb og 12 bílg.,Frestað. Lagfæra skráningu.,"Sótt er um leyfi til þess að byggja tvö þriggja hæða steinsteypt fjölbýlishús með samtals tuttugu og tveimur íbúðum auk geymslu- og bílgeymslukjallara fyrir tólf bíla á lóð nr. 49- 53 við Kristnibraut. Stærð: Hús nr. 49 og 51(matshluti 01) íbúð kjallari 334,2 ferm., 1. hæð 624 ferm., 2. hæð 619,7 ferm., 3. hæð 560 ferm., bílgeymslur 241,4 ferm., samtals 2379,3 ferm., 7531,9 rúmm. Hús nr. 53 (matshluti 02) íbúð kjallari 115 ferm., 1. hæð 209,2 ferm., 2. hæð 211 ferm., 3. hæð 211 ferm., bílgeymslur 89,1 ferm., samtals 835,3 ferm., 686,8 rúmm. Gjald kr. 4.800 + 394.498"
24796 (01.43.612.9 03),http://gamli.rvk.is/vefur/owa/edutils.parse_page?nafn=BN024796,Langholtsvegur 130,br. inni (skrautfiskeldi),Frestað. Vísað til athugasemda á umsóknarblaði.,Sótt er um leyfi til þess að breyta innra skipulagi kjallara undir verslun í húsi nr. 130 á lóð nr. 126-130 við Langholtsveg. Gjald kr. 4.800
24833 (01.22.211.9),http://gamli.rvk.is/vefur/owa/edutils.parse_page?nafn=BN024833,Laugavegur 133,breyta verslun í íbúðir,Frestað. Vísað til athugasemda á umsóknarblaði.,Sótt er um leyfi til þess að breyta verslunarhúsnæði á fyrstu hæð í tvær íbúðir í húsinu á lóðinni nr. 133 við Laugaveg. Gjald kr. 4.800
24664 (01.17.302.7),http://gamli.rvk.is/vefur/owa/edutils.parse_page?nafn=BN024664,Laugavegur 49A,reyndarteikningar,Samþykkt.  Samræmist ákvæðum laga nr. 73/1997. Með skilyrði um uppsetningu á brunastiga.,Sótt er um leyfi fyrir reyndarteikningum af húsinu á lóðinni nr. 49A við Laugaveg vegna gerðar eignaskiptayfirlýsingar. Samþykki meðeiganda (á teikn.) fylgir erindinu. Gjald kr. 4.800
24835 (01.19.530.4),http://gamli.rvk.is/vefur/owa/edutils.parse_page?nafn=BN024835,Leifsgata 30,breytingar,Frestað. Vísað til athugasemda á umsóknarblaði.,"Sótt er um leyfi til þess að breyta svalahurðum á annarri og þriðju hæð, koma fyrir opnu eldstæði í stofu á þriðju hæð, breyta innra fyrirkomulagi á þriðju og fjórðu hæð (rishæð) og koma fyrir tveimur kvistum og þakgluggum á rishæð hússins á lóðinni nr. 30 við Leifsgötu. Stærð: Stækkun kvistir xx Gjald kr. 4.800 + xx"
24842 (01.15.230.4),http://gamli.rvk.is/vefur/owa/edutils.parse_page?nafn=BN024842,Lindargata 49,Niðurrif,Samþykkt.  Samræmist ákvæðum laga nr. 73/1997.,"Sótt er um leyfi til þess að rífa íbúðarhús byggt úr timbri 1898 og stækkað 1936 þá tveggja hæða og kjallari á lóð nr. 49 við Lindargötu. Umsögn Árbæjarsafns dags. 28. febrúar 2002 og umsögn Húsfriðunarnefndar ríkisins dags. 27. mars fylgja erindinu. Landnúmer 101038, fastanúmer 200-3197 Stærð: Hús samkvæmt FM samtals 111,6 ferm."
24825 (01.14.030.9),http://gamli.rvk.is/vefur/owa/edutils.parse_page?nafn=BN024825,"5"">Lækjartorg 1",breyting inni,Samþykkt.  Samræmist ákvæðum laga nr. 73/1997. Áskilin lokaúttekt byggingarfulltrúa. Áskilið samþykki heilbrigðiseftirlits.,Sótt er um leyfi til þess að breyta innra fyrirkomulagi á fimmtu hæð og á rislofti norðurálmu húss Héraðsdóms Reykjavíkur á lóðinni nr. 1 við Lækjartorg. Eldhús er minnkað og komið er fyrir hvíldarherbergi og fundarherbergi á fimmtu hæð. Á rislofti er komið fyrir nýrri loftræstisamstæðu. Gjald kr. 4.800
24762 (04.37.640.1),http://gamli.rvk.is/vefur/owa/edutils.parse_page?nafn=BN024762,Malarás 2,viðbygging ofl.,Frestað. Vísað til athugasemda á umsóknarblaði.,Sótt er um leyfi til þess að rífa sólskála og byggja í hans stað steinsteypta viðbyggingu að suðurhlið hússins á lóðinni nr. 2 við Malarás.  Einnig er sótt um leyfi til þess að byggja verönd og skjólveggi við viðbygginguna. Útskrift úr gerðabók embættisafgreiðslufundar skipulagsfulltrúa frá 12. apríl 2002 fylgir erindinu. Stærð: Stækkun xx Gjald kr. 4.800 + xx
24755 (04.12.330.1),http://gamli.rvk.is/vefur/owa/edutils.parse_page?nafn=BN024755,Maríubaugur 63-67,br. inni (67) og br. aðkoma að lóð.,Frestað. Lagfæra skráningu.,Sótt er um leyfi til þess að breyta lítillega innra skipulagi í húsi nr. 67 og færa aðkomu að lóð sunnar á lóð nr. 63-67 við Maríubaug. Gjald kr. 4.800
24703 (00.05.800.0),http://gamli.rvk.is/vefur/owa/edutils.parse_page?nafn=BN024703,Naustanes,vélageymsla,Frestað. Vísað til athugasemda á umsóknarblaði.,"Sótt er um leyfi til þess að byggja véla- og tækjageymslu  úr timbri klæddu bárujárni við býlið Naustanes í Kollafirði. Bréf hönnuðar dags. 12. mars 2002 fylgir erindinu. Stærð: Tækjageymsla 1. hæð 314,7 ferm. og 1229,2 rúmm.  Gjald kr. 4.800 + 59.002"
24759 (04.23.280.2),http://gamli.rvk.is/vefur/owa/edutils.parse_page?nafn=BN024759,Nethylur 2,breyting inni,Samþykkt 15. apríl 2002. Samræmist ákvæðum laga nr. 73/1997. Áskilin lokaúttekt byggingarfulltrúa. Áskilið samþykki heilbrigðiseftirlits.,Sótt er um leyfi til að breyta innréttingum vegna breytinga á veitingarekstri í matshl. 2 í húsinu nr. 2 við Nethyl. Gjald kr. 4.800
24818 (01.44.111.5),http://gamli.rvk.is/vefur/owa/edutils.parse_page?nafn=BN024818,Nökkvavogur 7,rishæð og kjallari,Frestað. Vísað til athugasemda á umsóknarblaði.,"Sótt er um samþykki fyrir áður gerðri íbúð í kjallara og áður gerðri séreign (ósamþ. íbúð) á rishæð hússins á lóðinni nr. 7 við Nökkvavog. Greinargerð fyrirspyrjanda dags. 15. febrúar 2002,  íbúðaskoðun byggingarfulltrúa dags. 15. febrúar 2002, virðingargjörð dags. 25. nóvember 1949, afsal dags. 2. desember 1949 og afsal dags. 5. júní 1997 fylgja erindinu."
24808 (04.12.340.1),http://gamli.rvk.is/vefur/owa/edutils.parse_page?nafn=BN024808,Ólafsgeisli 1-11,hringstigi frá svölum.,Samþykkt.  Samræmist ákvæðum laga nr. 73/1997. Frágangur á lóðamörkum verði gerður í samráði við lóðarhafa aðliggjandi lóða.,Sótt er um leyfi til þess að koma fyrir hringstigum úr galvanaseruðu stáli frá svölum niður á lóð á vesturhlið raðhúsanna nr. 1-11 á lóðinni nr. 1-11 við Ólafsgeisla. Bréf f.h. lóðarhafa dags. 26. mars 2002 fylgir erindinu. Gjald kr. 4.800
24675 (01.52.420.3 01),http://gamli.rvk.is/vefur/owa/edutils.parse_page?nafn=BN024675,Reynimelur 72,Áður gerð íb. í kjallara,Samþykkt.  Samræmist ákvæðum laga nr. 73/1997.,Sótt er um leyfi fyrir áður gerðri íbúð í suðurhluta kjallara ásamt afmörkun séreignar á sama stað í húsi nr. 72 á lóðinni nr. 72-78 við Reynimel.  Samþykki flestra meðeigenda dags. 28. ágúst 2001og þinglýst afsal ósamþykktrar eignar í kjallara fylgja erindinu ásamt skoðunarskýrslu dags. 20. júní 2001. Gjald kr. 4.800
24793 (01.29.520.1),http://gamli.rvk.is/vefur/owa/edutils.parse_page?nafn=BN024793,Síðumúli 34,"Br. á innr., stækkun á kjötvinnslu",Frestað. Vísað til athugasemda á umsóknarblaði.,Sótt er um samþykki fyrir breyttu innra fyrirkomulagi á fyrstu hæð hússins á lóðinni nr. 34 við Síðumúla. Jafnframt er erindi 17994 dregið til baka. Samþykki f.h. eigenda dags. 5. apríl 2002 fylgir erindinu.
19705 (04.06.130.5),http://gamli.rvk.is/vefur/owa/edutils.parse_page?nafn=BN019705,Smiðshöfði 14,"Loftræsing, skráning og innra frkl.",Frestað. Vísað til athugasemda á umsóknarblaði. Umsókn um lóðarstækkun vísað til umfjöllunar  skipulagsfulltrúa.,"Sótt er um leyfi fyrir loftræsistokkum við suðurhorn austurhliðar, áður gerðum breytingum á innra fyrirkomulagi og skráningu hússins nr. 14 við Smiðshöfða. Jafnframt er sótt um stækkun lóðarinnar sbr. bréf lóðarhafa dags. 3. apríl 2002. Bréf hönnuðar dags. 28. desember 1999 fylgir erindinu. Gjald kr. 2.500"
24352 (01.80.310.1),http://gamli.rvk.is/vefur/owa/edutils.parse_page?nafn=BN024352,Stóragerði 42-44,Dreifistöð ( lóð nr. 46),Samþykkt.  Samræmist ákvæðum laga nr. 73/1997. Frágangur á lóðamörkum verði gerður í samráði við lóðarhafa aðliggjandi lóða. Áskilin lokaúttekt byggingarfulltrúa. Helga Guðmundsdóttir vék af fundi við afgreiðslu málsins.,"Sótt er um leyfi til þess að byggja dælu- og dreifistöð Orkuveitu Reykjavíkur á lóðinni nr. 46 við Stóragerði (sbr. samþykki Skipulags- og byggingarnefndar frá 13. mars 2002 um skiptingu lóðarinnar nr. 42-44 við Stóragerði). Stærð: Dælu- og dreifistöð, 36,4 ferm. og 139,4 rúmm. Gjald kr. 4.800 + 6.691"
24804 (04.32.540.1),http://gamli.rvk.is/vefur/owa/edutils.parse_page?nafn=BN024804,Stuðlaháls 2,vindfang,Frestað. Lagfæra skráningu.,"Sótt er um leyfi til þess að byggja vindfang við suðurhlið vöruhúss (matshluta 05) á lóð nr. 2 við Stuðlaháls. Stærð: Vindfang 5,5 ferm., 16,4 rúmm. Gjald kr. 4.800 + 787"
24254 (01.78.860.1),http://gamli.rvk.is/vefur/owa/edutils.parse_page?nafn=BN024254,Suðurhlíð 38,Fjölbýlishús m. 46 íb.,Frestað. Höfundur hafi samband við embættið.,"Sótt er um leyfi til þess að byggja fjögurra hæða  fjölbýlishús með fjörutíu og sex íbúðum og bílageymslukjallara fyrir sjötíu og níu bíla á lóðinni nr. 38 við Suðurhlíð. Húsið er steinsteypt, einangrað utan og klætt með múrkerfi og álklæðningu. Skýrsla um brunahönnun dags. 27. nóvember 2001 fylgir erindinu. Samkomulag undirritað af eigendum Suðurhliðar 36 og Suðurhlíðar 38 dags. 15. febrúar 2002 fylgir erindinu. Stærð: Kjallari bílgeymsla 2059,8 ferm. geymslur o.fl. 409.8 ferm., 1. hæð íbúðir 1673,4 ferm., 2. hæð íbúðir 1436,0 ferm., 3. hæð íbúðir 1109,2 ferm., 4. hæð íbúðir 813,0 ferm. Samtals 7501,2 ferm. og 23350,5 rúmm. Gjald kr. 4.800  + 112.082"
24840 (01.33.460.1),http://gamli.rvk.is/vefur/owa/edutils.parse_page?nafn=BN024840,Sægarðar 5,bráðabirgðabygging,Frestað. Vísað til athugasemda eldvarnaeftirlits.,"Sótt er um leyfi til þess að reisa bráðabirgðageymslu úr límtré og eldvörðum dúk sem vörugeymslu á svæði Eimskips að mestu á lóð nr. 5 við Sægarða. Stærð: Bráðabirgðageymsla 1503,5 ferm., 8896 rúmm. Gjald kr. 4.800 + 427.008"
23138 (02.3-.--9.9),http://gamli.rvk.is/vefur/owa/edutils.parse_page?nafn=BN023138,Thorsvegur 1,Breytingar,Samþykkt.  Samræmist ákvæðum laga nr. 73/1997. Áskilin lokaúttekt byggingarfulltrúa. Áskilið samþykki heilbrigðiseftirlits.,"Sótt er um leyfi til þess að taka í notkun og innrétta ónotað þakrými í skólahluta byggingarinnar að Korpúlfsstöðum, einnig er sótt um leyfi til þess að fjölga þakgluggum og breyta handriðum skábrauta. Komið er fyrir lyftu í húsinu og lofthæð hússins er aukin yfir henni. Jafnframt er erindi 21637 dregið til baka. Greinargerð um hönnun brunavarna dags. 21. mars. 2001 fylgir erindinu. Stærð: Stækkun v. lyftuturns 14,0 rúmm. Gjald kr. 4.100 + 574"
24817 (04.13.580.1),http://gamli.rvk.is/vefur/owa/edutils.parse_page?nafn=BN024817,Þorláksgeisli 114,einbýlishús,Frestað. Vísað til athugasemda á umsóknarblaði. Helga Guðmundsdóttir vék af fundi við afgreiðslu málsins.,"Sótt er um leyfi til þess að byggja tvílyft einbýlishús með innbyggðri bílgeymslu á lóðinni nr. 114 við Þorláksgeisla. Húsið er steinsteypt að hluta en að hluta byggt úr stálgrind sem klædd er álplötum. Stærð: Íbúð 1. hæð 129,0 ferm., 2. hæð 84,9 ferm., bílgeymsla 36,4 ferm. Samtals 250,3 ferm. og 830,7 rúmm. Gjald kr. 4.800 + 39.874"
24794 (04.13.570.1),http://gamli.rvk.is/vefur/owa/edutils.parse_page?nafn=BN024794,Þorláksgeisli 68,breyting úti,Samþykkt.  Samræmist ákvæðum laga nr. 73/1997.,Sótt er um leyfi til þess að breyta glugga á austurhlið bílgeymslu hússins á lóðinni nr. 68 við Þorláksgeisla. Gjald kr. 4.800
24788 (04.92.010.5),http://gamli.rvk.is/vefur/owa/edutils.parse_page?nafn=BN024788,Þúfusel 2,dyr úr eldhúsi,Frestað. Vísað til athugasemda á umsóknarblaði.,Sótt er um leyfi til þess að koma fyrir dyrum úr eldhúsi út í garð á jarðhæð tvíbýlishússins á lóðinni nr. 2 við Þúfusel. Gjald kr. 4.800
24860 (01.43.430.1),http://gamli.rvk.is/vefur/owa/edutils.parse_page?nafn=BN024860,Álfheimar 74,Lóðarmarkabreyting,Samþykkt.  Samræmist ákvæðum laga nr. 73/1997.,"Óskað er eftir breytingu á lóðamörkum lóðarinnar nr. 74 við Álfheima samkvæmt meðfylgjandi mæliblaði mælingadeildar dags. 9. apríl 2002. Tillaga að breytingu lóðarmarka; Lóðin er 13472 ferm., sbr. yfirlýsingu nr. 04824 / 97 dags. 3. mars 1997. Viðbót úr óútvísuðu landi 979 ferm. Lóðin verður 14451 ferm. Sjá samþykkt skipulags- og byggingarnefndar 13. júní 2001."
24846 (01.13.540.2),http://gamli.rvk.is/vefur/owa/edutils.parse_page?nafn=BN024846,Bárugata 35,niðurrif á bílskúr,Samþykkt.  Samræmist ákvæðum laga nr. 73/1997.,"Sótt er um leyfi til þess að rífa og fjarlægja steinsteyptan bílskúr (matshl.02) á lóðinni nr. 35 við Bárugötu, landnúmer 100480, fastanúmer 200-1517 Stærð bílskúrs er 18 ferm., og 54 rúmm. Bréf umsækjanda dags. 12. apríl 2002 fylgir erindinu."
24843,http://gamli.rvk.is/vefur/owa/edutils.parse_page?nafn=BN024843,Drekavogur 4A,Leiðrétting á stærðabókun,Samþykkt.  Samræmist ákvæðum laga nr. 73/1997.,"Leiðréttist hér með stærðarbókun vegna erindis 24697, Drekavogur 4A, sem samþykkt var 9. apríl 2002. Eftirfarandi var bókað: ""Sótt er um leyfi til þess að byggja sex íbúða fjölbýlishús sem er kjallari og þrjár hæðir úr steinsteypu, einangrað að utan og klætt álplötum. Húsið er nr. 4A á lóðinni nr. 4, 4A og 4B við Drekavog. Stærð: Kjallari, geymslur 76,4 ferm., 1. hæð íbúðir 156,1 ferm., 2. hæð íbúðir 149,0 ferm., 3. hæð íbúðir 149,0 ferm.  Samtals 530,5 ferm. og 1.561,2 rúmm. Rétt stærð hússins er: Kjallari, geymslur 76,4 ferm., 1. hæð íbúðir 156,1 ferm., 2. hæð íbúðir 149,4 ferm., 3. hæð íbúðir 149,4 ferm.  Samtals 531,3 ferm. og 1.561,8 rúmm."
24844,http://gamli.rvk.is/vefur/owa/edutils.parse_page?nafn=BN024844,Drekavogur 4B,Leiðr. stærðarbókun,Samþykkt.  Samræmist ákvæðum laga nr. 73/1997.,"Leiðréttist hér með stærðarbókun vegna erindis 24697, Drekavogur 4B, sem samþykkt var 9. apríl 2002. Eftirfarandi var bókað: ""Sótt er um leyfi til þess að byggja sex íbúða fjölbýlishús sem er kjallari og þrjár hæðir úr steinsteypu, einangrað að utan og klætt álplötum. Húsið er nr. 4B á lóðinni nr. 4, 4A og 4B við Drekavog. Stærð: Kjallari geymslurými o.fl. 76,8 ferm., íbúðarherb. 72,2 ferm., 1. hæð íbúðir 153,7 ferm., 2. hæð íbúðir 149,0 ferm., 3. hæð íbúðir 149,0 ferm. Samtals 600,7 ferm. og 1755,4 rúmm. Rétt stærð hússins er: Kjallari, geymslurými o. fl 76,8 ferm., íbúðarherb. 72,2 ferm., 1. hæð íbúðir 153,7 ferm., 2. hæð íbúðir 149,4 ferm., 3. hæð íbúðir 149,4 ferm.  Samtals 601,5 ferm. og 1.757,8 rúmm."
24862 (00.05.800.0 06),http://gamli.rvk.is/vefur/owa/edutils.parse_page?nafn=BN024862,Naustanes 125737,Niðurrif - gróðurhús,Samþykkt.  Samræmist ákvæðum laga nr. 73/1997.,"Sótt er um að afskráð verði úr fasteignaskrá matshluti 06 sem var gróðurhús á býlinu Naustanesi í Kollafirði. Landnr. 125737, fastanr. 208-5391,  stærð 32,5 ferm. og 80 rúmm. Gróðurhúsið hefur þegar verið fjarlægt."
24787 (01.37.--9.9 15),http://gamli.rvk.is/vefur/owa/edutils.parse_page?nafn=BN024787,Sundlaugavegur 30,Leiðrétt á umsækjanda,,"Þann 26. mars 2002 var samþykkt umsókn Fasteignastofu kt: 480190-1069 og Þreks ehf., kt: 620785-0169 þar sem sótt var um leyfi til þess að byggja innisundlaug með áhorfendasvæðum og veitingaaðstöðu ásamt heilsuræktarhúsi með veitingaaðstöðu og útleigurými fyrir skylda starfsemi sunnan og vestanvert á lóð Laugardalslaugar nr. 30 við Sundlaugaveg. Síðar barst ósk um að umsækjandi í stað Þreks ehf., yrði Laugar ehf., kt: 631098-2079, við afgreiðslu á þessari breytingu féll niður að hinn umsækjandinn er eftir sem áður Fasteingastofa kt: 480190-1069 sem hér með er staðfest."
24806 (01.14.021.3),http://gamli.rvk.is/vefur/owa/edutils.parse_page?nafn=BN024806,Austurstræti 3,(fsp) kaffistofa,Jákvætt. Að uppfylltum skilyrðum.,Spurt er hvort leyft yrði að breyta verslunarhúsnæði á fyrstu hæð í kaffistofu í húsinu nr. 3 við Austurstræti. Umsögn skipulagsfulltrúa dags. 16. apríl 2002 fylgir erindinu.
24827 (01.71.010.5),http://gamli.rvk.is/vefur/owa/edutils.parse_page?nafn=BN024827,Barmahlíð 42,(fsp) samþykktar íb.  nr 42-44,Jákvætt. Að uppfylltum skilyrðum.,"Spurt er hvort samþykktar yrðu áður gerðar íbúðir á þakhæð fjöleignarhúss á lóðum nr. 42 og 44 við Barmahlíð. Virðingargjörð dags. 1. apríl 1951, samþykki meðeigenda á báðum lóðum dags. 2. apríl 2002, ljósrit af þinglesnu samþykki eigenda fyrir sameiningu á háalofti við þakíbúð Barmahlíð 42 dags. 5. maí 1998 og ljósrit af afsali fyrir geymsluris sem hluta þakíbúðar Barmahlíð 44 dags. 11. desember 1997 ásamt íbúðarskoðun byggingarfulltrúa dags. 10. apríl 2002 fylgja erindinu."
24789 (01.82.401.6),http://gamli.rvk.is/vefur/owa/edutils.parse_page?nafn=BN024789,Básendi 14,"(fsp) anddyri, svalir","Jákvætt. Að uppfylltum skilyrðum, þ.m.t. samþykki meðeigenda. Þegar fullnægjandi byggingarleyfisumsókn hefur borist verður málið sent skipulagsfulltrúa til ákvörðunar um grenndarkynningu.",Spurt er hvort leyft yrði að byggja anddyrisviðbyggingu við 1. hæð suðurhliðar og svalir og tröppum niður í garð við norðurhlið sömu hæðar íbúðarhúss á lóð nr. 14 við Básenda.
24617 (01.18.222.4),http://gamli.rvk.is/vefur/owa/edutils.parse_page?nafn=BN024617,Bjarnarstígur 3,(fsp) viðbygging 2.hæð,Jákvætt. Að uppfylltum skilyrðum. Þegar fullnægjandi byggingarleyfisumsókn hefur borist verður málið sent skipulagsfulltrúa til ákvörðunar um grenndarkynningu.,"Spurt er hvort leyft yrði að byggja við efri hæð við norðausturenda  og breyta innra fyrirkomulagi í húsinu nr. 3 við Bjarnarstíg. Útskrift úr gerðabók embættisafgreiðslufundar skipulagsfulltrúa frá 12. apríl 2002 fylgir erindinu. Viðbygging: Stærð: 13,3 ferm. og 29 rúmm. Samþykki eigenda á aðliggjandi lóðum fylgir erindinu."
24822 (01.88.540.7),http://gamli.rvk.is/vefur/owa/edutils.parse_page?nafn=BN024822,Blesugróf 13,breytingar,Nei. Samræmist ekki skipulagi.,"Spurt er hvort leyft yrði að byggja 35-40 ferm., bílskúr við norðausturhlið, byggja 15-20 ferm., viðbyggingu við anddyri á norðausturhlið, byggja kvisti á suðvesturhlið, og skipta í tvær íbúðir einbýlishúsinu á lóðinni nr. 13 við Blesugróf."
24728 (01.35.421.0 02),http://gamli.rvk.is/vefur/owa/edutils.parse_page?nafn=BN024728,Hjallavegur 34,fsp. breytingar,Jákvætt. Að uppfylltum skilyrðum og með vísan til umsagnar skipulagsfulltrúa.,Spurt er hvort leyft yrði að gera tvær íbúðir í húsinu á lóðinni nr. 34-36 við Hjallaveg. Útskrift úr gerðabók embættisafgreiðslufundar skipulagsfulltrúa frá 12. apríl 2002 og umsögn skipulagsfulltrúa dags. 10. apríl 2002 fylgja erindinu.
24773 (01.72.510.3 04),http://gamli.rvk.is/vefur/owa/edutils.parse_page?nafn=BN024773,Hvassaleiti 31,(fsp) sólstofa,Jákvætt. Með vísan til umsagnar skipulagsfulltrúa.,Spurt er hvort leyft yrði að byggja sólstofu að austurhlið raðhússins nr. 31 á lóðinni nr. 25-31 við Hvassaleiti. Sams konar bygging hefur verið samþykkt við húsið nr. 29 á sömu lóð. Útskrift úr gerðabók embættisafgreiðslufundar skipulagsfulltrúa frá 12. apríl 2002 fylgir erindinu. Bréf umsækjanda dags. 2. apríl 2002 fylgir erindinu.
24820 (01.18.213.9),http://gamli.rvk.is/vefur/owa/edutils.parse_page?nafn=BN024820,Klapparstígur 37,fsp.tvær íbúðir á 2. hæð,Ekki er hægt að taka afstöðu til erindisins þar sem upplýsingar eru ófullnægjandi.,Spurt er hvort leyft yrði að skipta íbúð á 2. hæð í tvær fullgildar íbúðir.
24500 (01.19.710.9),http://gamli.rvk.is/vefur/owa/edutils.parse_page?nafn=BN024500,Laufásvegur 77,(fsp)stærri bílsk. o.fl.,Jákvætt. Að uppfylltum skilyrðum og með vísan til athugasemda á umsóknarblaði.,"Spurt er hvort leyft yrði að byggja tvöfalda bílgeymslu að húshlið í stað lítils bílskúrs nær götu, hafa innangengt í kjallara og nota þak sem verönd ásamt leyfi til þess að setja svalir í þakflöt rislofts einbýlishússins á lóð nr. 77 við Laufásveg. Útskrift úr gerðabók embættisafgreiðslufundar skipulagsfulltrúa frá 5. apríl 2002 fylgir erindinu."
24838 (01.17.140.1),http://gamli.rvk.is/vefur/owa/edutils.parse_page?nafn=BN024838,Laugavegur 12,fsp.kaffihús á 1. hæð,Frestað. Málinu vísað til umsagnar skipulagsfulltrúa.,Spurt er hvort leyft yrði að starfrækja kaffihús í verslunarhúsnæði á fyrstu hæð hússins á lóðinni nr. 12 við Laugaveg.
24792 (01.70.211.3),http://gamli.rvk.is/vefur/owa/edutils.parse_page?nafn=BN024792,Mávahlíð 1,fsp.risíbúð,Nei. Ekki hefur verið sýnt fram á að íbúðin uppfylli ákvæði reglugerðar.,Spurt er hvort leyft yrði að breyta séreign í íbúð (sbr. samþykkt frá 26.10.1978)  á rishæð hússins á lóðinni nr. 1 við Mávahlíð.
24700 (01.81.531.0),http://gamli.rvk.is/vefur/owa/edutils.parse_page?nafn=BN024700,Melgerði 13,(fsp) bílskúr,Jákvætt. Að uppfylltum skilyrðum. Timburskúr ekki leyfður í lóðarmörkum.,Spurt er hvort leyft yrði að byggja bílskúr úr timburgrind klæddan með hraunuðu Steni á lóðinni nr.13 við Melgerði. Umsögn skipulagsfulltrúa dags. 9. apríl 2002 og útskrift úr gerðabók embættisafgreiðslufundar skipulagsfulltrúa frá 5. apríl 2002 fylgir erindinu.
24823 (01.70.120.5),http://gamli.rvk.is/vefur/owa/edutils.parse_page?nafn=BN024823,Mjóahlíð 10,(fsp) stigi,Jákvætt. Að uppfylltum skilyrðum sbr. athugasemdir á umsóknareyðublaði.,Spurt er hvort leyft yrði að koma fyrir stiga frá svölum á fyrstu hæð og niður í garð á suðurhlið hússins á lóðinni nr. 10 við Mjóuhlíð.
24708 (01.13.652.9),http://gamli.rvk.is/vefur/owa/edutils.parse_page?nafn=BN024708,Mjóstræti 2,fsp. laufskáli,Jákvætt. Með vísan til útskriftar úr gerðabók embættisafgreiðslufundar skipulagsfulltrúa.,"Spurt er hvort leyft yrði að byggja laufskála úr gleri, steini og málmi á lóðinni nr. 2 við Mjóstræti. Útskrift úr gerðabók embættisafgreiðslufundar skipulagsfulltrúa frá 5. apríl 2002 fylgir erindinu. Ljósmynd fylgir erindinu."
24836 (01.24.230.1 01),http://gamli.rvk.is/vefur/owa/edutils.parse_page?nafn=BN024836,Skipholt 11-13,(fsp) vörumóttökudyr,Jákvætt. Enda verði greitt fyrir eitt bílastæði og samþykki meðlóðarhafa fylgi.,Surt er hvort leyft yrði að setja vörumóttökudyr á austurgafl frá palli sem er til staðar (áður undirstöður undir mjölgeymir) og með aðkeyrslu frá lóð við hús nr. 11-13 við Skipholt. Bréf hönnuðar dags. 9. apríl 2002 fylgir erindinu.
24807 (01.25.500.6),http://gamli.rvk.is/vefur/owa/edutils.parse_page?nafn=BN024807,Skipholt 52,viðbótarbílastæði,Frestað. Málinu vísað til umsagnar skipulagsfulltrúa og gatnamálastjóra.,Spurt er hvort samþykki fengist fyrir tveimur viðbótarbílastæðum á lóðinni nr. 52 við Skipholt. Bílastæði á lóðinni yrðu þá alls fjögur.
24711 (01.18.120.5 02),http://gamli.rvk.is/vefur/owa/edutils.parse_page?nafn=BN024711,Skólavörðustígur 22B,(fsp) Geymsluskúr,Jákvætt. Að uppfylltum skilyrðum þar með talið samþykki lóðarhafa aðliggjandi lóðar.,Spurt er hvort leyft yrði að einangra og klæða að utan geymsluskúr á baklóð nr. 22B við Skólavörðustíg. Ljósrit af afsölum frá 1984 - 2001 fylgja erindinu.
24837 (01.17.120.6),http://gamli.rvk.is/vefur/owa/edutils.parse_page?nafn=BN024837,Skólavörðustígur 8,fsp.kaffihús á 1.hæð,Frestað. Málinu vísað til umsagar skipulagsfulltrúa.,Spurt er hvort leyft yrði að breyta verslunarhúsnæði (rými 0101) í kaffihús á fyrstu hæð hússins á lóðinni nr. 8 við Skólavörðustíg.
24798 (04.08.180.1),http://gamli.rvk.is/vefur/owa/edutils.parse_page?nafn=BN024798,Stórhöfði 17,fjölgun bílastæða og fl.,"Frestað. Fyrirspurnin tekur til svæðis sem er utan lóðarmarka. Sé ætlunin að sækja um lóðarstækkun, skal leggja fram umsókn með samþykkt allra lóðarhafa í Stórhöfða 17.",Spurt er hvort leyft yrði að breyta fyrirkomulagi á lóð og fjölga bílastæðum á norðausturhluta lóðarinnar nr. 17 við Stórhöfða.
24852 (01.53.102.4),http://gamli.rvk.is/vefur/owa/edutils.parse_page?nafn=BN024852,Sörlaskjól 68,Viðbygging o.fl.,Frestað. Málinu vísað til umsagnar skipulagsfulltrúa. Vísað til athugasemda á umsóknarblaði.,"Spurt er hvort leyft yrði að að byggja tveggja hæða viðbyggingu við norðurhlið, breyta kvist á suðurþekju í tvo kvisti, setja svalahurð á austurgafl 1. hæðar og tröppur niður á lóð og breyta innra skipulagi í líkingu við fyrirliggjandi uppdrætti, einnig er spurt hvort samþykkt  yrði áður gerð klæðning á húsi og stækkun bílskúrs á lóð nr. 68 við Sörlaskjól."
