nr,url,heimilisfang,tegund,nidurstada,spurning
25170 (05.13.140.1),http://gamli.rvk.is/vefur/owa/edutils.parse_page?nafn=BN025170,Andrésbrunnur 1-7,fjölbýlish. 28 íb. á 4. h,Frestað. Vísað til athugasemda á umsóknarblaði. Skipulagsferli ólokið.,"Sótt er um leyfi til þess að breyta nýsamþykktu fjögurra hæða steinsteyptu fjölbýlishúsi þannig að íbúðum fjölgi úr 24 í 28 ásamt breyttu útliti og stærðum á lóð nr. 1-7 við Andrésbrunn. Stærð: Hús nr. 1 (matshluti 01) verður íbúð kjallari 90,3 ferm., 1. hæð 268 ferm., 2. hæð 268 ferm., 3. hæð 255,6 ferm., bílgeymsla 191,4 ferm., samtals 1073,3 ferm., 3183,3 rúmm.  Hús nr. 3 (matshluti 02) verður íbúð 108,7 ferm., 1. hæð 267,1 ferm., 2. hæð 267,1 ferm., 3. hæð 254,7 ferm., bílgeymsla 172,6 ferm., samtals 1070,2 ferm., 3181,1 rúmm.  Hús nr. 5 (matshluti 03) verður sömu stærðar og hús nr. 3 eða samtals 1070,2 ferm., 3181,1 rúmm.   Hús nr. 7 (matshluti 04) verður sömu stærðar og hús nr. 1 eða samtals 1073,3 ferm., 3183,3 rúmm. Samtals var fjölbýlishúsið 4295,2 ferm. verður 4287 ferm., var 12659,4 rúmm. verður 12728,8 rúmm.    Gjald kr. 4.800 + 3.331"
25316 (01.55.329.4),http://gamli.rvk.is/vefur/owa/edutils.parse_page?nafn=BN025316,Arnargata 4,viðb. og br. inni,Frestað. Vísað til athugasemda á umsóknarblaði. Málinu vísað til skipulagsfulltrúa til ákvörðunar um grenndarkynningu. Vísað er til uppdrátta nr. 1-1 og 1-2  dags. 14. maí 2002.,"Sótt er um leyfi til þess að byggja við suðausturhlið einbýlishússins steinsteyptan kjallara og timburhæð ásamt leyfi til þess að breyta vinnustofu í eldhús og borðstofu og endurbyggja útiskúr á lóð nr. 4 við Arnargötu. Stærð: Viðbygging 89,9 ferm., 325,8 rúmm., útiskúr var 11,6 ferm. óbreyttir ferm., var 62 rúmm. verður 24,5 rúmm. Gjald kr. 4.800 + 13.838"
25307 (01.55.322.2),http://gamli.rvk.is/vefur/owa/edutils.parse_page?nafn=BN025307,Arnargata 8,bílskúr,Frestað. Vísað til athugasemda á umsóknarblaði. Málinu vísað til skipulagsfulltrúa til ákvörðunar um grenndarkynningu. Vísað er til uppdrátta 01 og 02 dags. 24. júní 2002.,"Sótt er um leyfi til þess að byggja bílskúr á lóð nr.8 við Arnargötu. Stærð: Bílskúr 31,5 ferm., 100 rúmm.  Gjald kr. 4.800 + 4.800"
25159 (01.24.710.4),http://gamli.rvk.is/vefur/owa/edutils.parse_page?nafn=BN025159,Auðarstræti 9,Breyting ,Frestað. Vísað til athugasemda á umsóknarblaði.,Sótt er um samþykki fyrir áður gerðri íbúð og reyndarteikningum af kjallara hússins á lóðinni nr. 9 við Auðarstræti. Skiptasamningur dags. 30. júlí 1976 fylgir erindinu. Samþykki eigenda dags. 5. maí 2002 fylgir erindinu. Skoðunarskýrsla byggingarfulltrúa dags. 21. júní 2002 fylgir erindinu. Gjald kr. 4.800
24585 (01.14.050.4),http://gamli.rvk.is/vefur/owa/edutils.parse_page?nafn=BN024585,Austurstræti 22,"br. inni, flóttal.",Samþykkt.  Samræmist ákvæðum laga nr. 73/1997. Áskilið samþykki heilbrigðiseftirlits.,"Sótt er um leyfi til þess að breyta flóttaleið, brunahólfun og leyfi til þess að hafa flóttasvalir áfram án svalahandriða á 2. hæð veitingastaðarins Astró á lóð nr. 22 við Austurstræti. Gjald kr. 4.800"
25306 (01.14.021.3),http://gamli.rvk.is/vefur/owa/edutils.parse_page?nafn=BN025306,Austurstræti 3,breyting,Samþykkt.  Samræmist ákvæðum laga nr. 73/1997. Áskilin lokaúttekt byggingarfulltrúa. Áskilið samþykki heilbrigðiseftirlits.,Sótt er um samþykki fyrir breytingu á texta um brunavarnir  í húsinu nr. 3 við Austurstræti. Gjald kr. 4.100
25287 (01.70.211.2),http://gamli.rvk.is/vefur/owa/edutils.parse_page?nafn=BN025287,Barmahlíð 32,samþykki á íbúð,Samþykkt.  Samræmist ákvæðum laga nr. 73/1997. Samþykktin öðlast gildi þegar staðfest hefur verið að eldvarnarhurð sé að sameign.,"Sótt er um samþykki á áður skráðri ósamþykktri íbúð í kjallara (0001) hússins á lóð nr. 32 við Barmahlíð. Samþykki meðeigenda (á teikningu), afsal dags. 15. október 1954 og íbúðarskoðun byggingarfulltrúa dags.5. apríl 2002 fylgja erindinu. Gjald kr. 4.800"
25297 (01.18.030.9),http://gamli.rvk.is/vefur/owa/edutils.parse_page?nafn=BN025297,Bergstaðastræti 13,br. á geymslum,Frestað. Vísað til athugasemda á umsóknarblaði.,Sótt er um leyfi til þess að breyta innra skipulagi á 1. hæð hússins á lóð nr. 13 við Bergstaðastræti. Gjald kr. 4.800
25205 (01.88.540.6),http://gamli.rvk.is/vefur/owa/edutils.parse_page?nafn=BN025205,Blesugróf 11,viðbygging,Frestað. Vísað til athugasemda á umsóknarblaði. Málinu vísað til skipulagsfulltrúa til ákvörðunar um grenndarkynningu. Vísað er til uppdrátta nr. 1 og 2 dags. 25. maí 2002.,"Sótt er um samþykki fyrir áður gerðri viðbyggingu við vesturhlið íbúðarhúss og leyfi til þess að byggja einlyfta viðbyggingu á milli íbúðarhúss og bílskúrs á lóð nr. 11 við Blesugróf. Samþykki eigenda af Blesugróf 9 og 13 dags. 3. júní 2002 fylgja erindinu. Stærð: Áður gerð viðbygging 14,6 ferm., viðbygging 13,4 ferm., samtals 31 ferm., 79,3 rúmm. Gjald kr. 4.800+ 3.806"
25135 (01.81.822.1),http://gamli.rvk.is/vefur/owa/edutils.parse_page?nafn=BN025135,Bústaðavegur 65,áður gerðar breytingar,Frestað. Vísað er til athugasemda eldvarnareftirlits.,"Sótt er um samþykki fyrir reyndarteikningum og áður gerðum breytingum á húsinu á lóðinni nr. 65 við Bústaðaveg. Húsið hefur verið klætt með bárustáli, byggt hefur verið anddyri að norðurhlið og útigeymslur á lóð. Samþykki meðeigenda dags. 14. maí 2002 fylgir erindinu. Bréf f.h. eigenda húsanna nr. 65 og 67 dags. 10. júní 2002 fylgir erindinu. Stærð: Stækkun 20,7 ferm. og 50,6 rúmm. Gjald kr. 4.800 + 2429"
25136 (01.81.822.2),http://gamli.rvk.is/vefur/owa/edutils.parse_page?nafn=BN025136,Bústaðavegur 67,áður gerðar breytingar,Frestað. Vísað er til athugasemda eldvarnareftirlits.,"Sótt er um samþykki fyrir reyndarteikningum og áður gerðum breytingum á húsinu á lóðinni nr. 67 við Bústaðaveg. Húsið hefur verið klætt með bárustáli, byggt hefur verið anddyri að norðurhlið og útigeymslur á lóð. Samþykki meðeigenda dags. 14. maí 2002 fylgir erindinu. Bréf f.h. eigenda húsanna nr. 65 og 67 dags. 10. júní 2002 fylgir erindinu. Stærð: Stækkun 17,0 ferm. og 42,2 rúmm. Gjald kr. 4.800 + 2026"
25312 (01.35.521.3),http://gamli.rvk.is/vefur/owa/edutils.parse_page?nafn=BN025312,Efstasund 12,Viðbygging og bílskúr,Frestað. Vísað til athugasemda á umsóknarblaði. Málinu vísað til umsagnar skipulagsfulltrúa.,"Sótt er um leyfi til þess að byggja viðbyggingu úr timbri að suður- og vesturhlið húss og byggja steinsteyptan bílskúr á lóðinni nr. 12 við Efstasund. Samþykki nokkurra nágranna fylgir erindinu. Stærð: Stækkun húss 83,3 ferm. og 346,0 rúmm. Bílskúr 42,0 ferm. og 146,4 rúmm. Gjald kr. 4.800 + 23.635"
25039 (01.19.340.4),http://gamli.rvk.is/vefur/owa/edutils.parse_page?nafn=BN025039,Egilsgata 3,Klæðning,Samþykkt.  Samræmist ákvæðum laga nr. 73/1997.,Sótt er um leyfi til þess að einangra og klæða með hvítum álplötum lágbyggingu hússins á lóðinni nr. 3 við Egilsgötu. Samþykki f.h. húsfélags Domus Medica og eigenda hússins (á teikn.) fylgir erindinu. Fundargerð af fundi húsfélags dags. 24. maí 2002 fylgir erindinu. Umsögn burðarvirkishönnuðar dags. 3. maí 2001 fylgir erindinu. Gjald kr. 4.800
25161 (01.55.301.6),http://gamli.rvk.is/vefur/owa/edutils.parse_page?nafn=BN025161,Fálkagata 30,Breyting,Frestað. Vísað til athugasemda á umsóknarblaði.,Sótt er um samþykki fyrir áður gerðri séreign (afmörkun séreignar) í kjallara hússins nr. 30 við Fálkagötu. Íbúðarskoðun byggingarfulltrúa dags. 31. október 1980 og 26. september 1991 fylgja erindinu. Samþykki meðeigenda í húsi dags. 5. maí 2002 fylgir erindinu. Gjald kr. 4.800
23008 (01.19.620.9),http://gamli.rvk.is/vefur/owa/edutils.parse_page?nafn=BN023008,Fjölnisvegur 13 ,Svalir,Frestað. Lagfæra skráningu.,"Að lokinni grenndarkynningu byggingarleyfisumsóknar er lagt fram að nýju bréf skrifstofustjóra  byggingarfulltrúa dags. 20.06.01 ásamt uppdr. Halldóru Bragadóttur arkitekts dags. 25.03.2001. Sótt er um leyfi fyrir áður gerðum breytingum á gluggum og til þess að byggja svalir á annarri hæð hússins á lóðinni nr. 13 við Fjölnisveg. Samþykki meðeigenda (á teikn. og í bréfi dags. 23. maí 2001 fylgir erindinu. Einnig lögð fram umsögn Árbæjarsafns, dags. 25.06.01. Málið var í kynningu frá 4. júlí til 2. ágúst 2001. Engar athugasemdir bárust. Gjald kr. 4.100"
25339 (01.51.6-9.9),http://gamli.rvk.is/vefur/owa/edutils.parse_page?nafn=BN025339,Frostaskjól 2,"Reyndarteikn, erindi 20913",Samþykkt.  Samræmist ákvæðum laga nr. 73/1997. Áskilin lokaúttekt byggingarfulltrúa. Áskilið samþykki heilbrigðiseftirlits.,Sótt er um samþykki fyrir breytingum á innra skipulagi og fyrir mögulegri innkeyrsluhurð við suðausturhorn ásamt breyttri staðsetningu flóttahurðar í sal A í íþróttahúsi KR (erindi 20913) á lóð nr. 2 við Frostaskjól.
25253 (01.16.121.5),http://gamli.rvk.is/vefur/owa/edutils.parse_page?nafn=BN025253,Garðastræti 41,reyndarteikningar o.fl.,Frestað. Lagfæra skráningu.,Sótt er um leyfi til þess að breyta innra skipulagi nyrðri og eldri hluta hússins í tvær íbúðir og samþykki fyrir áður gerðu uppstóluðu þaki yfir sama húshluta á lóð nr. 41 við Garðastræti. Ljósrit til staðfestingar á eignahaldi dags. 12. apríl 2002 fylgir erindinu. Gjald kr. 4.800
25107 (04.67.430.2),http://gamli.rvk.is/vefur/owa/edutils.parse_page?nafn=BN025107,Gerðuberg 3-5,"br. gluggar, húsvarðarherbergi.",Samþykkt.  Samræmist ákvæðum laga nr. 73/1997.,Sótt er um leyfi til þess að breyta gluggasetningu á vesturhlið fyrstu hæðar og að bæta við glugga á norðurhlið annarrar hæðar. Einnig er sótt um samþykki fyrir reyndarteikningu af annarri hæð menningarmiðstöðvarinnar Gerðubergs á lóðinni nr. 3-5 við Gerðuberg. Gerð er grein fyrir herbergi húsvarðar á annarri hæð. Gjald kr. 4.800
25234 (01.54.031.3),http://gamli.rvk.is/vefur/owa/edutils.parse_page?nafn=BN025234,Grenimelur 11,áður gerð íb. í kj.,Frestað. Vísað til athugasemda á umsóknarblaði.,"Sótt er um samþykki fyrir áður gerðri íbúð í kjallara hússins á lóð nr. 11 við Grenimel. Lýsing íbúðar frá Fasteignamati dags. 17. nóvember 1965, eigna og eigendaskrá dags. 25. nóvember 1979, tengipappírar Rafmagnsstjórnar dags. 17. og 18. nóvember 1967 og 18. nóvember og íbúðarskoðun byggingarfulltrúa dags. 7. maí 2002 fylgja erindinu. Gjald kr. 4.800"
24285 (01.46.500.1),http://gamli.rvk.is/vefur/owa/edutils.parse_page?nafn=BN024285,Grensásvegur 13,Viðbygging og lyftuturn,Samþykkt.  Samræmist ákvæðum laga nr. 73/1997. Áskilin lokaúttekt byggingarfulltrúa.,"Sótt er um leyfi til þess að byggja viðbyggingu og lyftuturn að austurhlið hússins á lóðinni nr. 13 við Grensásveg. Bréf umsækjanda dags. 19. febrúar 2002 og útskrift úr gerðabók embættisafgreiðslufundar skipulagsfulltrúa frá 1. mars 2002 fylgir erindinu. Útskrift úr gerðabók embættisafgreiðslufundar skipulagsfulltrúa frá 29. maí fylgir erindinu. Stærð: Stækkun alls 19,8 ferm. og 65,1 rúmm. Gjald kr. 4.800 + 3.125"
25321 (01.46.500.2),http://gamli.rvk.is/vefur/owa/edutils.parse_page?nafn=BN025321,Grensásvegur 15,loftmælingastöð,Samþykkt.  Samræmist ákvæðum laga nr. 73/1997.,Sótt er um leyfi til þess að staðsetja gám fyrir loftmælingar á vegum Umhverfis- og heilbrigðisstofu á lóð nr.15 við Grensásveg. Gjald kr.4.800
25309 (01.18.430.9),http://gamli.rvk.is/vefur/owa/edutils.parse_page?nafn=BN025309,Grundarstígur 11,Br. á þakíbúð,Frestað. Vísað til athugasemda á umsóknarblaði.,"Sótt er um leyfi til þess að stækka kvist yfir stigahúsi og setja þakglugga á suður- og vesturþekju fjöleignarhússins á lóð nr. 11 við Grundarstíg. Stærð: Stækkun kvists 1,5 rúmm. Gjald kr. 4.800 + 72"
24885 (02.57.610.2),http://gamli.rvk.is/vefur/owa/edutils.parse_page?nafn=BN024885,Gylfaflöt 32,breytingar,Frestað. Vísað til athugasemda á umsóknarblaði.,"Sótt er um leyfi til þess að breyta byggingaraðferð, útliti og innra fyrirkomulagi hússins á lóðinni nr. 32 við Gylfaflöt.  Húsið verði steinsteypt klætt prófíljárni. Þakformi er breytt. Mænishæð er lækkuð og flatarmál og rúmmál hússins breytist. Afrit af afsalsbréfi dags. 19, apríl 2002 fylgir erindinu. Stærð: Húsið var áður skráð samtals 883,8 ferm., 4800,8 rúmm. en verður nú 884,0 ferm. og 4793,5 rúmm. Gjald kr. 4.800"
24734 (02.57.510.3),http://gamli.rvk.is/vefur/owa/edutils.parse_page?nafn=BN024734,Gylfaflöt 5,Veitingahús 1. hæð.,Frestað. Vísað til athugasemda á umsóknarblaði.,Sótt er um leyfi til þess að starfrækja sportbar í rými 0101 á fyrstu hæð hússins á lóðinni nr. 5 við Gylfaflöt. Jafnframt lagt fram bréf Logos dags. 27. febrúar 2002. Umsögn forstöðumanns stjórnsýslu- og lögfræði dags. 21. maí 2002 fylgir erindinu. Samþykki eiganda dags. 19. mars 2002 fylgir erindinu. Gjald kr. 4.800
25318 (01.18.020.5),http://gamli.rvk.is/vefur/owa/edutils.parse_page?nafn=BN025318,Hallveigarstígur 8,reyndart. áðurgerð íb.,Frestað. Vísað til athugasemda á umsóknarblaði.,"Sótt er um samþykki fyrir áður gerðri íbúð í kjallara og reyndarteikningum af húsinu á lóðinni nr. 8 við Hallveigarstíg. Byggð hefur verið viðbygging að suðurhlið húss, gluggapóstum hefur verið breytt og settir þakgluggar, kvistur á suðurhlið hefur verið stækkaður. Virðingargjörð dags. 21. september 1927 fylgir erindinu. Samþykki meðeigenda (á teikn.) fylgir erindinu. Bréf hönnuðar dags. 25. júní 2002 fylgir erindinu. Gjald kr. 4.800"
25237 (01.22.320.2),http://gamli.rvk.is/vefur/owa/edutils.parse_page?nafn=BN025237,Hátún 2B,reyndarteikningar,Frestað. Lagfæra skráningu.,Sótt er um samþykki (uppfærðar teikningar) vegna breytinga á eignum á lóð nr. 2B við Hátún. Gjald kr. 4.800
25323 (01.80.100.8),http://gamli.rvk.is/vefur/owa/edutils.parse_page?nafn=BN025323,Heiðargerði 15,yfirb. svalir og br. á bílskúr,Frestað. Vísað til athugasemda á umsóknarblaði. Málinu vísað til umsagnar skipulagsfulltrúa.,"Sótt er um samþykki fyrir áður gerðri yfirbyggingu yfir svalir, fyrir svölum yfir bílskúr, stækkun bílskúrs og breytingum á gluggum íbúðarhússins á lóð nr. 15 við Heiðargerði. Samþykki eigenda Heiðargerðis 13 og 17 (á teikningu) fylgir erindinu. Stærð: Áður gerð stækkun íbúðarhúss xxx ferm., xxx rúmm., áður gerð stækkun bílskúrs xxx ferm., xxx rúmm. Gjald kr. 4.800 + xxx"
25010 (01.81.530.5),http://gamli.rvk.is/vefur/owa/edutils.parse_page?nafn=BN025010,Hlíðargerði 10,endurnýjun á byggingarleyfi,Samþykkt.  Samræmist ákvæðum laga nr. 73/1997.,"Sótt er um samþykki fyrir endurnýjun á byggingarleyfi frá 14. júlí 1994 þar sem sótt var um "" leyfi til að breyta þaki á bílskúr á lóðinni nr. 10 við Hlíðargerði."" Stærð: Rúmmálsaukning 33 rúmm. Gjald kr. 4.800 + 1.584"
25352 (01.81.530.6),http://gamli.rvk.is/vefur/owa/edutils.parse_page?nafn=BN025352,Hlíðargerði 12,Endurnýja leyfi f. bílskúrsþaki.,Samþykkt.  Samræmist ákvæðum laga nr. 73/1997.,"Sótt er um samþykki fyrir endurnýjun á byggingarleyfi frá 14. júlí 1994 þar sem sótt var um ""leyfi til að breyta þaki á bílskúr á lóðinni nr. 12 við Hlíðargerði."" Samþykki lóðarhafa aðlægra lóða (á teikninu) fylgir erindinu. Stærð: Rúmmálsaukning 33 rúmm. Gjald kr. 1.584"
25246 (00.00.000.0),http://gamli.rvk.is/vefur/owa/edutils.parse_page?nafn=BN025246,Hlíðarhús 7,Viðbygging,Samþykkt.  Samræmist ákvæðum laga nr. 73/1997. Skila skal vottun á holplötum fyrir úttekt á botnplötu. Áskilin lokaúttekt byggingarfulltrúa. Áskilið samþykki heilbrigðiseftirlits. Frágangur á lóðamörkum verði gerður í samráði við lóðarhafa aðliggjandi lóða.,"Sótt er um leyfi til þess að byggja fjögurra hæða steinsteypta byggingu, einangraða að utan og klædda  með álklæðningu og liggjandi bárujárni, þar sem 1. og 2. hæð er fyrir vistmenn, 3. hæð dagdeild og bílakjallari undir, auk einnar hæða glertengibyggingar við norðvesturhlið Hjúkrunarheimilisins Eir á lóð nr. 3-7 við Hlíðarhús. Útskrift úr gerðabók skipulags- og byggingarnefndar frá 5. júní 2002 fylgir erindinu. Stærð: Kjallari 168 ferm., 1. hæð 1353,5 ferm., 2. hæð 1224,9 ferm., 3. hæð 867 ferm., samtals 3613,4 ferm., 12171 rúmm. (opinn bílgeymsla 1037,8 ferm., 3321 rúmm.) Gjald kr. 4.800 + 743.616"
25336 (01.36.500.7),http://gamli.rvk.is/vefur/owa/edutils.parse_page?nafn=BN025336,Hofteigur 36,Pallur og tröppur.,Frestað. Vísað til athugasemda á umsóknarblaði. Málinu vísað til skipulagsfulltrúa til ákvörðunar um grenndarkynningu. Vísað er til uppdráttar nr. 01 dags. 25. maí 2001.,Sótt er um leyfi til þess að byggja pall og tröppur að austurhlið hússins á lóðinni nr. 36 við Hofteig. Samþykki meðeigenda og samþykki nokkurra nágranna dags. 9. júní 2002 fylgir erindinu. Gjald kr. 4.800
24896 (04.67.400.2),http://gamli.rvk.is/vefur/owa/edutils.parse_page?nafn=BN024896,Hraunberg 4,reyndarteikningar,Frestað. Vísað til athugasemda á umsóknarblaði.,"Sótt er um samþykki fyrir reyndarteikningum af húsinu nr. 4 við Hraunberg. Gerð er grein fyrir eignarhaldi í húsinu. Bréf Húsfélagsins Hraunbergi 4 dags. 10. júní 2002 fylgir erindinu, Gjald kr. 4.800"
24857 (04.34.330.1),http://gamli.rvk.is/vefur/owa/edutils.parse_page?nafn=BN024857,Hraunbær 102,(Skalli) veitingahús,Samþykkt.  Samræmist ákvæðum laga nr. 73/1997. Áskilin lokaúttekt byggingarfulltrúa. Áskilið samþykki heilbrigðiseftirlits.,Sótt er um leyfi til þess að breyta innra skipulagi í rými 0102 og jafnframt koma fyrir loftræstitúðum á norðurhlið hússins nr. 102A (matshl. 01) á lóðinni nr. 102 við Hraunbæ. Samþykki f.h. húsfélags Hraunbæjar 102A dags. 21. maí 2002 fylgir erindinu. Samþykki nokkurra meðeigenda dags. 21. maí 2002 fylgir erindinu. Bréf umsækjanda dags. 31. maí 2002 fylgir erindinu. Gjald kr. 4.800
24506 (01.72.430.6),http://gamli.rvk.is/vefur/owa/edutils.parse_page?nafn=BN024506,Hvassaleiti 34,Ýmsar breytingar,Frestað. Vísað til athugasemda á umsóknarblaði.,Sótt er um samþykki fyrir reyndarteikningum af húsinu á lóðinni nr. 34 við Hvassaleiti. Sýnd er áður gerð séreign (ósamþ. íbúð) á fyrstu hæð hússins. Gjald kr. 4.800
25242 (00.00.000.0),http://gamli.rvk.is/vefur/owa/edutils.parse_page?nafn=BN025242,Hverfisgata 6A,br. á gluggum og fl.,Samþykkt.  Samræmist ákvæðum laga nr. 73/1997.,"Sótt er um leyfi til þess að fjarlægja uppkeyrslu og vörudyr á 1. hæð, breyta útliti til samræmis við fyrri breytingar og ljúka framkvæmdum innan dyra í bakhúsi nr. 6A á lóð nr. 6 við Hverfisgötu. Bréf hönnuðar dags. 2. júní 2002 fylgir erindinu. Gjald kr. 4.800"
25304 (01.24.321.4),http://gamli.rvk.is/vefur/owa/edutils.parse_page?nafn=BN025304,Karlagata 13,ósamþ. íb. í kj.,Frestað. Vísað til athugasemda á umsóknarblaði. Skoðist á staðnum.,"Sótt er um afmörkun séreignar í kjallara hússins  á lóð nr. 13 við Karlagötu. Ljósrit af afsali innf.10 maí 1995, ljósrit af greiðslukvittun dags. 15 júlí 1996 og ljósrit af veðbókaryfirliti fylgja erindinu. Gjald kr.4.800"
25325 (01.72.100.1),http://gamli.rvk.is/vefur/owa/edutils.parse_page?nafn=BN025325,Kringlan  4-12,br. innra skipulagi s-361,Samþykkt.  Samræmist ákvæðum laga nr. 73/1997. Áskilin lokaúttekt byggingarfulltrúa.,Sótt er um leyfi til þess að innrétta nýja verslun í einingu S-361 (áður Úrval Útsýn) á 3. hæð Kringlunnar á lóð nr. 4-12 við Kringluna. Samantekt vegna brunamála dags. 25. júní 2002 fylgir erindinu. Gjald kr. 4.800
25326 (01.72.100.1),http://gamli.rvk.is/vefur/owa/edutils.parse_page?nafn=BN025326,Kringlan  4-12,br. á rými nr. 216 og 218,Samþykkt.  Samræmist ákvæðum laga nr. 73/1997. Áskilin lokaúttekt byggingarfulltrúa.,Sótt er um leyfi til þess að sameina rými 216 og 218 fyrir Búnaðarbanka Íslands á 2. hæð Kringlunnar á lóð nr. 4-12 við Kringluna. Samantekt vegna brunamála dag. 25. júní 2002 fylgja erindinu. Gjald kr. 4.800
25284 (04.11.540.2),http://gamli.rvk.is/vefur/owa/edutils.parse_page?nafn=BN025284,Kristnibraut 65-67,breytingar,Frestað. Vísað til athugasemda á umsóknarblaði.,"Sótt er um leyfi til þess að fella út glugga á stigahúsi á 1. hæð, breyta baði á 2. hæð (0206) og breyta landaðlögun við suðvesturhorn fjölbýlishússins á lóð nr. 65-67 við Kristnibraut. Gjald kr. 4.800"
25322 (01.27.300.1),http://gamli.rvk.is/vefur/owa/edutils.parse_page?nafn=BN025322,Langahlíð 13-17,reyndarteikningar,Frestað. Vísað til athugasemda á umsóknarblaði.,Sótt er um samþykki fyrir núverandi innra skipulagi á öllum hæðum fjölbýlishússins vegna gerðar eignaskiptayfirlýsingar á lóð nr. 13-17 við Lönguhlíð. Gjald kr. 4.800
25315 (01.43.310.1 04),http://gamli.rvk.is/vefur/owa/edutils.parse_page?nafn=BN025315,Langholtsvegur 112A,Viðbygging,Frestað. Lagfæra skráningu.,"Sótt er um leyfi til þess að byggja viðbyggingu við suðvesturhlið 2. hæð, áður svalir, húss nr. 112A á lóð nr. 110-112 við Langholtsveg. Samþykki meðlóðarhafa dags. 11. júní 2002 fylgir erindinu.  Stærð: Viðbygging 17 ferm., 53,6 rúmm. Gjald kr. 4.800 + 2.573"
25067 (01.44.510.1),http://gamli.rvk.is/vefur/owa/edutils.parse_page?nafn=BN025067,Langholtsvegur 176,reyndarteikn. v/eignask.,Frestað. Vísað til athugasemda á umsóknarblaði.,Sótt er um samþykki fyrir reyndarteikningum af húsinu á lóðinni nr. 176 við Langholtsveg vegna gerðar eignaskiptayfirlýsingar. Gerð er grein fyrir eignarhaldi í kjallara hússins. Bréf hönnuðar dags. 24. júní 2002 fylgir erindinu. Gjald kr. 4.800
25025 (01.18.340.6),http://gamli.rvk.is/vefur/owa/edutils.parse_page?nafn=BN025025,Laufásvegur 18A,breyting úti og inni,Frestað. Vísað til athugasemda á umsóknarblaði. Málinu vísað til skipulagsfulltrúa til ákvörðunar um grenndarkynningu. Vísað er til uppdrátta nr. 0001 og 0002 dags. 6. maí 2002.,"Sótt er um leyfi til þess að sameina matshluta, breyta innra fyrirkomulagi kjallara og innrétta þar geymslur og þvottahús, breyta atvinnuhúsnæði á fyrstu hæð í íbúð, breyta innra fyrirkomulagi og útliti eldra íbúðarhúsnæðis á baklóð, breyta innra fyrirkomulagi íbúða á öllum hæðum framhúss og breyta útliti götuhliðar á annarri hæð framhúss á lóðinni nr. 18A við Laufásveg. Útskrift úr gerðabók embættisafgreiðslufundar skipulagsfulltrúa frá 28. júní 2002 fylgir erindinu. Gjald kr. 4.800"
25186 (01.18.550.2),http://gamli.rvk.is/vefur/owa/edutils.parse_page?nafn=BN025186,Laufásvegur 48A,viðbygging,Frestað. Lagfæra skráningu.,"Sótt er um leyfi til þess að klæða eldra hús með múrkerfi og breyta gluggasetningu á suðvesturhlið og byggja steinsteypta viðbyggingu að norðvesturhlið hússins á lóðinni nr. 48a við Laufásveg. Bréf burðarvirkishönnuðar dags. 30. maí 2002 og útskrift úr gerðabók embættisafgreiðslufundar s kipulagsfulltrúa frá 28. júní 2002 fylgja erindinu. Stærð: Stækkun viðbygging 11,7 ferm. og 37,4 rúmm. Gjald kr. 4.800 + 1.795"
25328 (01.24.010.3),http://gamli.rvk.is/vefur/owa/edutils.parse_page?nafn=BN025328,Laugavegur 118,Viðb. Rauðarárstíg 10,Frestað. Vísað til athugasemda á umsóknarblaði. Málinu vísað til umsagnar skipulagsfulltrúa.,"Sótt er um leyfi til þess að byggja loftræstiklefa upp úr þaki húss nr. 10 við Rauðarárstíg á lóð nr. 118 við Laugaveg. Bréf hönnuðar dags. 26. júní 2002 fylgir erindinu. Stærð: Loftræstiklefi 25,5 ferm., 53,6 rúmm. Gjald kr. 4.800 + 2.573"
24833 (01.22.211.9),http://gamli.rvk.is/vefur/owa/edutils.parse_page?nafn=BN024833,Laugavegur 133,breyta verslun í íbúðir,Frestað. Lagfæra skráningu.,"Sótt er um leyfi til þess að breyta verslunarhúsnæði á fyrstu hæð í tvær íbúðir og breyta framhlið hússins lóðinni nr. 133 við Laugaveg. Einnig er sótt um samþykki fyrir áður gerðri séreign í kjallara hússins. Samþykki meðeigenda (á teikn.) fylgir erindinu. Afsal dags. 5. september 1984 fylgir erindinu. Bréf hönnuðar (ódags.) fylgir erindinu. Stærð: Stækkun við framhlið húss 2,1 ferm. og 6,7 rúmm.  Gjald kr. 4.800 + 322"
23530 (01.22.212.2),http://gamli.rvk.is/vefur/owa/edutils.parse_page?nafn=BN023530,Laugavegur 139,breyting v/hljóðeinangrandi glers,Frestað. Vísað til athugasemda á umsóknarblaði.,Sótt er um leyfi til þess að breyta gluggapóstum á báðum hliðum húss og setja hljóðeinangrandi gler í glugga götuhliðar hússins á lóðinni nr. 139 við Laugaveg. Gjald kr. 4.100
24770 (02.29.280.1),http://gamli.rvk.is/vefur/owa/edutils.parse_page?nafn=BN024770,Leiðhamrar 1,"viðbygging, sólstofa","Frestað. Lagfæra skráningu. Málinu vísað til skipulagsfulltrúa til ákvörðunar um grenndarkynningu. Vísað er til uppdrátta nr. 1.001, 1.002 og 1.004 dags. frá apríl til maí 2002.","Sótt er um leyfi til þess að byggja sólstofuviðbyggingu við austurhlið og setja valmaþak yfir flatt þak bílgeymslu einbýlishússins á lóð nr. 1 við Leiðhamra. Samþykki hönnuðar húss dags. apríl 2002 fylgir erindinu. Stærð: Viðbygging 18 ferm., 61,6 rúmm., rúmmálsaukning vegna þaks bílgeymslu 18 rúmm. Gjald kr. 4.800 + 3.821"
25300 (02.87.120.9),http://gamli.rvk.is/vefur/owa/edutils.parse_page?nafn=BN025300,Logafold 178,"br.svalir, stigi",Frestað. Vísað til athugasemda á umsóknarblaði.,Sótt er um leyfi til þess að breyta svölum og útitröppum upp á 2. hæð íbúðarhússins á lóð nr. 178 við Logafold. Gjald kr. 4.800
25320 (01.19.110.3),http://gamli.rvk.is/vefur/owa/edutils.parse_page?nafn=BN025320,Njálsgata 74,breytingar í kjallara og 1.hæð,Frestað. Vísað til athugasemda eldvarnareftirlits.,Sótt er um leyfi til þess breyta innra skipulagi  í kjallara og  á fyrstu hæð gistiheimilis á lóð nr.74 við Njálsgötu. Gjald kr.4.800
25335 (01.41.300.2),http://gamli.rvk.is/vefur/owa/edutils.parse_page?nafn=BN025335,Njörvasund 14,útiskýli,Samþykkt.  Samræmist ákvæðum laga nr. 73/1997.,Sótt er um leyfi til þess að byggja opið skýli við vesturhlið 1. hæðar íbúðarhússins á lóð nr. 14 við Njörvasund. Samþykki meðeigenda dags. 13. nóvember 2001 fylgir erindinu. Gjald kr. 4.800
25311 (04.66.680.1),http://gamli.rvk.is/vefur/owa/edutils.parse_page?nafn=BN025311,Norðurfell 17-19,klæðning og skábraut,Frestað. Vísað til athugasemda á umsóknarblaði.,Sótt er um leyfi til þess að einangra og klæða þrjár hliðar unglingaálmu Fellaskóla að utan með álklæðningu (norðurhlið lokið) ásamt leyfi til þess að setja skábraut við aðalinngang (suðurhlið) á lóð nr. 17-19 við Norðurfell. Ástandskönnun útveggja dags. 24. júní 2002 fylgir erindinu. Gjald kr. 4.800
24818 (01.44.111.5),http://gamli.rvk.is/vefur/owa/edutils.parse_page?nafn=BN024818,Nökkvavogur 7,rishæð og kjallari,Samþykkt.  Samræmist ákvæðum laga nr. 73/1997. Afmörkun eignar á rishæð er gerð með vísan til 15. gr. reglugerðar nr. 910/2000.,"Sótt er um samþykki fyrir áður gerðri íbúð í kjallara og áður gerðri séreign (ósamþ. íbúð) á rishæð hússins á lóðinni nr. 7 við Nökkvavog. Greinargerð fyrirspyrjanda dags. 15. febrúar 2002,  íbúðaskoðun byggingarfulltrúa dags. 15. febrúar 2002, virðingargjörð dags. 25. nóvember 1949, afsal dags. 2. desember 1949 og afsal dags. 5. júní 1997 fylgja erindinu. Afsal dags. 31. ágúst 2001 (rishæð) fylgir erindinu. Samþykki meðeigenda (á teikn.) fylgir erindinu. Gjald kr. 4.800"
24908 (04.12.310.2),http://gamli.rvk.is/vefur/owa/edutils.parse_page?nafn=BN024908,Ólafsgeisli 13-23,br. hús nr. 13 og 19,Samþykkt.  Samræmist ákvæðum laga nr. 73/1997. Frágangur á lóðamörkum verði gerður í samráði við lóðarhafa aðliggjandi lóða.,Sótt er um leyfi til þess að fjölga gluggum á suðurgafli húss nr. 13 og færa eldhús í húsi nr. 13 og 19 á lóð nr. 13-23 við Ólafsgeisla. Gjald kr. 4.800
25290 (01.34.410.4),http://gamli.rvk.is/vefur/owa/edutils.parse_page?nafn=BN025290,Rauðalækur 38,áður gerð íb. í kj.,"Frestað. Vísað til athugasemda á umsóknarblaði. Málinu vísað til umsagnar gatnamálastjóra, vegna bílastæða á lóð.",Sótt er um samþykki fyrir áður gerðri íbúð í kjallara hússins á lóð nr. 38 við Rauðalæk. Samþykki meðeigenda dags. 5. júní 2002 og íbúðarskoðun byggingarfulltrúa dags. 26. júní 2002 fylgja erindinu. Gjald kr. 4.800
25099 (02.54.600.1),http://gamli.rvk.is/vefur/owa/edutils.parse_page?nafn=BN025099,Rósarimi 11,færanlegar kennslustofur,Samþykkt.  Samræmist ákvæðum laga nr. 73/1997. Áskilin lokaúttekt byggingarfulltrúa. Áskilið samþykki heilbrigðiseftirlits.,Sótt er um leyfi til þess að koma fyrir tveimur færanlegum kennslustofum vestan við Rimaskóla  á lóðinni nr. 11 við Rósarima. Alls eru þá tíu færanlegar kennslustofur á lóðinni. Gjald kr. 4.800
25327 (01.13.010.5),http://gamli.rvk.is/vefur/owa/edutils.parse_page?nafn=BN025327,Seljavegur 2,breytingar,Frestað. Vísað til athugasemda á umsóknarblaði.,"Sótt er um leyfi til þess að breyta innra skipulagi í fleiri vinnusali, lækka hluta þaks og útbúa þar verönd, setja nýjar innkeyrsludyr á norðurhlið og glugga á vesturhlið matshluta 04 á lóð nr. 2 við Seljaveg. Gjald kr. 4.800"
24070 (01.67.600.3),http://gamli.rvk.is/vefur/owa/edutils.parse_page?nafn=BN024070,Skildinganes 40,"Br. hæð, gluggum o.fl. ",Samþykkt.  Samræmist ákvæðum laga nr. 73/1997. Frágangur á lóðamörkum verði gerður í samráði við lóðarhafa aðliggjandi lóða.,"Sótt er um leyfi til þess að hækka vegg á mörkum byggingareits að götu, hækka lítillega gólfkóta, breyta gluggum og leiðrétta stærðir nýsamþykkts einbýlishúss á lóð nr. 40 við Skildinganes. Stærð: Samtals var hús 306,6 ferm. verður 311,5 ferm., var 970,8 rúmm. verður 968,3 rúmm. Gjald kr. 4.100"
25173 (01.25.011.1),http://gamli.rvk.is/vefur/owa/edutils.parse_page?nafn=BN025173,Skipholt 27,"reyndarteikningar,eldvarnir",Frestað. Lagfæra skráningu.,Sótt er um samþykki fyrir reyndarteikningum af húsi Byggingarfélags námsmanna á lóðinni nr. 27 við Skipholt. Herbergjaskipan er breytt á öllum hæðum og gerð er grein fyrir eldvörnum. Í húsinu er rekið gistiheimili. Leyfisbréf  heilbrigðiseftirlits Reykjavíkur dags. 12. júní 2001 og leyfisbréf lögreglustjóra dags. 13. september 2001 fylgja erindinu. Gjald kr. 4.800
25331 (01.17.120.6),http://gamli.rvk.is/vefur/owa/edutils.parse_page?nafn=BN025331,Skólavörðustígur 8,hárgreiðslustofa,Frestað. Vísað til athugasemda á umsóknarblaði.,Sótt er um leyfi til þess að innrétta hárgreiðslustofu í rými 0101 syðst á 1. hæð hússins á lóð nr. 8 við Skólavörðustíg. Gjald kr. 4.800
22364 (01.42.000.1),http://gamli.rvk.is/vefur/owa/edutils.parse_page?nafn=BN022364,Skútuvogur 2 ,Endurskoðaðar teikningar,Samþykkt.  Samræmist ákvæðum laga nr. 73/1997. Frágangur á lóðamörkum verði gerður í samráði við lóðarhafa aðliggjandi lóða. Áskilin lokaúttekt byggingarfulltrúa. Áskilið samþykki heilbrigðiseftirlits.,"Sótt er um samþykki fyrir endurskoðuðum og leiðréttum teikningum af húsinu á lóðinni nr. 2 við Skútuvog. Grunnteikningar fyrstu og annarrar hæðar eru leiðréttar og innra skipulagi breytt. Klæðningu og gluggasetningu er breytt á öllum hliðum húss. Gólfkóti annarrar hæðar er hækkaður um 8 cm. og efsti hluti þakglugga hækkar um 35 cm. Einnig er sótt um leyfi til þess að koma fyrir milliloftum í húsinu.  Bréf hönnuðar (ódags.) fylgir erindinu. Samkomulag dags. 25. júlí 2001 fylgir erindinu. Leigusamningur um spildu úr borgarlandi dags. 9. október 2000 fylgir erindinu. Stærð: Stækkun milliloft 338,8 ferm.  Gjald kr. 4.100"
25147 (01.81.301.2),http://gamli.rvk.is/vefur/owa/edutils.parse_page?nafn=BN025147,Sogavegur 28,"Viðbygging, bílskúr. ",Frestað. Lagfæra skráningu.,"Sótt er um leyfi til þess að byggja steinsteyptan bílskúr og viðbyggingu við húsið á lóðinni nr. 28 við Sogaveg. Jafnframt er sótt um samþykki fyrir áður gerðri breytingu á gluggum hússins. Útskrift úr gerðabók embættisafgreiðslufundar skipulagsfulltrúa frá 14. júní 2002 fylgir erindinu. Samþykki nágranna Sogavegi 30 dags. 10. júní 2002 fylgir erindinu. Stærð: Viðbygging 14,0 ferm. og 40,6 rúmm. Bílgeymsla 33,2 ferm. og 86,3 rúmm. Gjald kr. 4.800 + 6.091"
25085 (02.38.450.5),http://gamli.rvk.is/vefur/owa/edutils.parse_page?nafn=BN025085,Starengi 86,breytingar á bílskúr,Frestað. Lagfæra skráningu.,Sótt er um leyfi til þess að breyta gluggasetningu bílskúrs á lóðinni nr. 86 við Starengi. Gjald kr. 4.800
25127 (04.03.880.1),http://gamli.rvk.is/vefur/owa/edutils.parse_page?nafn=BN025127,Stórhöfði 15,br. á lóð +reyndarteikn.,Samþykkt.  Samræmist ákvæðum laga nr. 73/1997. Frágangur á lóðamörkum verði gerður í samráði við lóðarhafa aðliggjandi lóða. Áskilin lokaúttekt byggingarfulltrúa. Áskilið samþykki heilbrigðiseftirlits.,"Sótt er um samþykki fyrir niðurfellingu stiga og vörulyftu milli 1. og 2. hæðar, breyttu innra skipulagi á 2. og 3. hæð, breyttum stiga á 3. hæð, breyttum gluggum og þaki ásamt leyfi til þess að breyta bílastæðum með tilheyrandi stoðveggjum á lóð nr. 15 við Stórhöfða. Bréf hönnuðar dags. 22. maí 2002 fylgja erindinu. Gjald kr. 4.800"
25209 (04.07.730.1),http://gamli.rvk.is/vefur/owa/edutils.parse_page?nafn=BN025209,Stórhöfði 42,tvær eignir,Samþykkt 26. júní 2002. Samræmist ákvæðum laga nr. 73/1997.,Sótt er um leyfi til þess að breyta skráningu og skrá sem tvær eignir atvinnuhúsnæði á lóðinni nr. 42 við Stórhöfða. Gjald kr. 4.800
25302 (01.60.--9.9),http://gamli.rvk.is/vefur/owa/edutils.parse_page?nafn=BN025302,Suðurgata Háskóli Ísl ,"fjarl.svalir,br.glugga.",Frestað. Vísað til athugasemda eldvarnaeftirlits.,Sótt er um leyfi til þess að fjarlægja svalir af annari og þriðju hæð og að setja glugga í stað svalarhurða í samræmi við þá sem fyrir eru á Nýja Garði á lóð Háskóla Íslands við Suðurgötu. Gjald kr.4.800
25303 (01.60.--9.9),http://gamli.rvk.is/vefur/owa/edutils.parse_page?nafn=BN025303,Suðurgata Háskóli Ísl ,neyðarútgangur kjallara,Samþykkt.  Samræmist ákvæðum laga nr. 73/1997. Áskilin lokaúttekt byggingarfulltrúa.,Sótt er um leyfi til þess að breyta neyðarútgangi frá kjallara á austurhlið íþróttahúss Háskóla Íslands á lóð við Suðurgötu. Gjald kr.4.800
22562 (14.63.101 03),http://gamli.rvk.is/vefur/owa/edutils.parse_page?nafn=BN022562,Suðurlandsbr. 50 ,Hárgr.st. á 1. hæð,Frestað. Lagfæra skráningu.,Sótt er um leyfi til að koma fyrir hárgreiðslustofu á fyrstu hæð hússins nr. 50 (matshl. 03) á lóðinni nr. 46-54 við Suðurlandsbraut. Samþykki meðeigenda (á skráningartöflu) fylgir erindinu. Gjald kr. 4.100
25064 (01.33.670.1),http://gamli.rvk.is/vefur/owa/edutils.parse_page?nafn=BN025064,Sundaborg 1-15,(3-5) breytingar,Samþykkt.  Samræmist ákvæðum laga nr. 73/1997. Áskilin lokaúttekt byggingarfulltrúa.,Sótt er um leyfi til þess að breyta innra fyrirkomulagi og eignahlutum (rými 0108 og 0240) í húsinu nr. 3-5 á lóðinni nr. 1-15 við Sundaborg. Gjald kr. 4.800
25329 (01.21.610.1),http://gamli.rvk.is/vefur/owa/edutils.parse_page?nafn=BN025329,Sætún 1,breyting í  anddyri,Frestað. Vísað til athugasemda eldvarnaeftirlits.,"Sótt er um leyfi til þess að fjarlægja hringhurð á norðurhlið 1. hæðar og byggja í stað hennar anddyrisviðbyggingu á lóð nr. 1 við Sætún. Samþykki meðeigenda (á teikningu) fylgir erindinu. Stærð: Stækkun 1. hæðar 26 ferm., 91 rúmm. Gjald kr. 4.800 + 4.368"
25063 (04.93.400.1),http://gamli.rvk.is/vefur/owa/edutils.parse_page?nafn=BN025063,Teigasel 1-11,(1-7) klæðning gafla,Frestað. Vísað til athugasemda á umsóknarblaði.,"Sótt er um leyfi til þess að klæða með ljósri ""Steni"" klæðningu gafla hússins nr. 1-7 á lóðinni nr. 1-11 við Teigasel. Umsögn burðarvirkishönnuðar dags. 1. mars 2002 fylgir erindinu. Samþykki húsfélaga hússins (ódags.) fylgir erindinu. Bréf fulltrúa húsfélaga hússins dags. 20. júní 2002 fylgir erindinu. Gjald kr. 4.800"
25299 (01.17.403.1),http://gamli.rvk.is/vefur/owa/edutils.parse_page?nafn=BN025299,Vitastígur 7,br. tröppur o.fl.,Frestað. Vísað til athugasemda á umsóknarblaði.,Sótt er um samþykki fyrir áður gerðum breytingum á tröppum og smávægilegum breytingum á innra skipulagi vegna gerðar eignaskiptayfirlýsingar á lóð nr. 7 við Vitasíg. Gjald kr. 4.800
25334 (01.54.110.3),http://gamli.rvk.is/vefur/owa/edutils.parse_page?nafn=BN025334,Víðimelur 25,íbúð í kjallara,Frestað. Vísað til athugasemda á umsóknarblaði.,Sótt er um að fá áður gerða íbúð í kjallara samþykkta á lóð nr. 25 við Víðimel. Virðingagjörð dags. 26. nóvember 1946 og íbúðarskoðun byggingarfulltrúa dags. 4. mars 2002 fylgja erindinu. Gjald kr.4.800
25319 (01.24.331.1),http://gamli.rvk.is/vefur/owa/edutils.parse_page?nafn=BN025319,Vífilsgata 7,áður gerð íb. í kj. o.fl.,Samþykkt.  Samræmist ákvæðum laga nr. 73/1997.,"Sótt er um samþykki fyrir núverandi innra skipulagi sem  sýnir m.a. áður gerða íbúð í kjallara húss á lóð nr. 7 við Vífilsgötu. Virðingargjörð dags. 21. apríl 1943, afsal dags. 17. mars 1956 og 13. mars 1988, kaupsamningur innfærður 23. mars 1987, bréf hönnuðar dags. 16. febrúar 2000 og 27. september 2001, íbúðarskoðun byggingarfulltrúa dags. 20. nóvember 2000 ásamt bréfi frá lögmannsstofu dags. 5. apríl 2002 fylgja erindinu. Gjald kr. 4.800"
25133 (04.72.130.6),http://gamli.rvk.is/vefur/owa/edutils.parse_page?nafn=BN025133,Þingás 46,Br. sólstofa,Samþykkt.  Samræmist ákvæðum laga nr. 73/1997.,Sótt er um leyfi fyrir lítilsháttar breytingu á útliti sólstofu í húsinu á lóðinni nr. 46 við Þingás. Jafnframt er sótt um leyfi til þess að sameina matshluta 01 og 02 á lóðinni. Bréf hönnuðar dags. 21. júní 2002 fylgir erindinu. Gjald kr. 4.800
25097 (04.93.600.1),http://gamli.rvk.is/vefur/owa/edutils.parse_page?nafn=BN025097,Öldusel 17,færanlegar kennslustofur,Samþykkt.  Samræmist ákvæðum laga nr. 73/1997. Áskilin lokaúttekt byggingarfulltrúa. Áskilið samþykki heilbrigðiseftirlits.,Sótt er um leyfi til þess að koma fyrir tveimur færanlegum kennslustofum norðan við Ölduselsskóla á lóðinni nr. 17 við Öldusel. Alls verða þá sex færanlegar kennslustofur á lóðinni. Gjald kr. 4.800
25363 (02.42.540.2),http://gamli.rvk.is/vefur/owa/edutils.parse_page?nafn=BN025363,Brúnastaðir 9-13,lóðarstækkun,Samþykkt.  Samræmist ákvæðum laga nr. 73/1997.,"Óskað er eftir stækkun lóðarinnar nr. 9-13 við Brúnastaði samkvæmt meðfylgjandi mæliblaði mælingadeildar dags. 25. júní 2002. Lóðin er 1427 ferm., sbr. lóðarsamning nr. A-6338/98, A-6339/98 dags. 23. mars 1998 (eitt skjal). Bætt við lóðina 184 ferm. Lóðin verður 1611 ferm. Sjá samþykkt skipulags- og byggingarnefndar 30. maí 2001."
25361 (01.18.511.6),http://gamli.rvk.is/vefur/owa/edutils.parse_page?nafn=BN025361,Fjólugata 1,leiðrétting-stærðir,Samþykkt.  Samræmist ákvæðum laga nr. 73/1997.,"Á fundi skipulags- og byggingarnefndar 24. júní var samþykkt (erindi 24936) umsókn um leyfi til þess að byggja viðbyggingu að austurhlið (bakhlið) húss, breyta innra fyrirkomulagi á öllum hæðum, breyta tröppum við hús, stækka bílskúr og koma fyrir setlaug í suðausturhorni lóðar hússins á lóð nr. 1 við Fjólugötu og láðist að bóka stærðir sem áttu að vera viðbygging 11,1 ferm., 30 rúmm., stækkun bílskúrs 223,7 ferm., 110,1 rúmm. og gjald kr. 6.725."
25364 (01.34.830.1),http://gamli.rvk.is/vefur/owa/edutils.parse_page?nafn=BN025364,Leirulækur ,lóðarmarkabreyting,Samþykkt.  Samræmist ákvæðum laga nr. 73/1997.,"Óskað er eftir breytingu á lóðarmörkum Laugalækjarskóla og Dalbrautar 14, sem er ný lóð. Lóð Laugalækjarskóla:  Lóðin er 17.684 ferm. sbr. útgefið mæliblað dags. 02.02.1987. Tekið af lóðinni og bætt við Dalbraut 14    241 fm. Tekið af lóðinni undir stíga ofl.                       421 fm. Viðbót ( leiðrétting lóðamarka)                         79 fm. Lóðin verður                                                    17.101 fm. Dalbraut 14 ( ný lóð, stgr.1.348.501): Úr óútvísuðu landi Reykjavíkurborgar      3.448 fm. Viðbót frá lóð Laugalækjarskóla                    241 fm. Lóðin verður                                                        3.689 fm. Sjá samþykkt skipulags- og byggingarnefndar 14.04.2002 og samþykkt borgarráðs 16.04.2002."
25357,http://gamli.rvk.is/vefur/owa/edutils.parse_page?nafn=BN025357,Meistari - Húsasmíðameistari,,Samþykkt.  Samræmist ákvæðum laga nr. 73/1997.,Ofanritaður sækir um leyfi til þess að starfa sem húsasmíðameistari í lögsögu Reykjavíkur sbr. ákvæði gr. 37.2 í byggingarreglugerð nr. 441/1998.
25239 (01.24.440.9),http://gamli.rvk.is/vefur/owa/edutils.parse_page?nafn=BN025239,Flókagata 19,(fsp) áður gerð íb.í kj.,Jákvætt. Að uppfylltum skilyrðum.,"Spurt er hvort leyft yrði að fella úr gildi breytingar sem sótt var um 24. september 1987 og fá samþykkta áður gerða íbúð í kjallara íbúðarhússins á lóð nr. 19 við Flókagötu. Bréf fyrirspyrjanda dags. 11. júní 2002, virðingargjörð dags. 6. júní 1944 og íbúðarskoðun byggingarfulltrúa dags. 3. maí 2002 fylgja erindinu."
25283 (02.42.740.1),http://gamli.rvk.is/vefur/owa/edutils.parse_page?nafn=BN025283,Garðsstaðir 47,Br. á óuppfylltu rými.,Frestað. Vísað til athugasemda á umsóknarblaði.,"Spurt er hvort leyft yrði að stækka aukaíbúð á neðri hæð um áður óuppfyllt lagnarými (97 ferm.), setja nýja glugga á norðaustur- og norðvesturhlið og nýja hurð á norðausturhlið einbýlishússins á lóð nr. 47 við Garðsstaði. Bréf fyrirspyrjanda dags. 17. júní 2002 og bréf verkefnastjóra byggingarfulltrúa dags. 4. júní 2002 fylgja erindinu."
25310 (04.67.300.7 02),http://gamli.rvk.is/vefur/owa/edutils.parse_page?nafn=BN025310,Hamraberg 38,sólstofa,Frestað. Málinu vísað til umsagnar skipulagsfulltrúa.,Spurt er hvort leyft yrði að byggja sólstofu við austurhlið raðhúss nr.38 á lóð nr.36-42.
25288 (01.86.020.1 19),http://gamli.rvk.is/vefur/owa/edutils.parse_page?nafn=BN025288,Hulduland 26,gluggar,Frestað. Málinu vísað til umsagnar skipulagsfulltrúa.,Spurt er hvort leyft yrði að stækka glugga á norðurhlið og gera þrjá glugga á vesturhlið raðhúss nr.26 á lóð nr.26-36.
25226 (04.99.700.1),http://gamli.rvk.is/vefur/owa/edutils.parse_page?nafn=BN025226,Klyfjasel 7,(fsp) bílastæði,Jákvætt. Að uppfylltum skilyrðum.,Spurt er hvort leyft yrði að útbúa aukabílastæði austan við bílskúr og að lóðamörkum á lóð nr. 7 við Klyfjasel. Útskrift úr gerðabók embættisafgreiðslufundar skipulagsfulltrúa frá 28. júní 2002 fylgir erindinu.
25233 (01.17.302.1),http://gamli.rvk.is/vefur/owa/edutils.parse_page?nafn=BN025233,Laugavegur 53B,Fsp. matsölustaður 2. hæð,Jákvætt. Að uppfylltum skilyrðum. Komi til umsóknar skal gera nákvæma grein fyrir loftræsingu og hljóðvist.,Spurt er hvort leyft yrði að starfrækja matsölustað á annarri hæð hússins á lóðinni nr. 53B við Laugaveg. Útskrift úr gerðabók embættisafgreiðslufundar skipulagsfulltrúa dags. 28. júní 2002 fylgir erindinu.
25358 (01.17.101.2),http://gamli.rvk.is/vefur/owa/edutils.parse_page?nafn=BN025358,Laugavegur 7,breyta skifstofu í veitingastarfsemi,Jákvætt. Með vísan til umsagnar skipulagsfulltrúa dags. 1. júlí 2002 og að uppfylltum skilyrðum.,Spurt er hvort heimilað yrði að breyta skrifstofurými í rými fyrir veitingastarfsemi á 1. hæð hússins nr. 7 við Laugaveg. Málinu fylgir afrit af áliti kærunefndar fjöleignarhúsa í máli nr. 5/2002. Jafnframt lögð fram umsögn skipulagsfulltrúa dags. 1. júlí 2002.
25289 (01.22.310.6),http://gamli.rvk.is/vefur/owa/edutils.parse_page?nafn=BN025289,Miðtún 30,fsp.kjallaraíbúð,Neikvætt. Miðað við fyrirliggjandi gögn.,Spurt er hvort áður gerð íbúð í kjallara fengist samþykkt á lóð nr.30 við Miðtún. Ljósrit af brunavirðingu dags. 2 janúar 1943 og íbúðarskoðun dags.18 júní 2002 fylgja erindinu.
25038 (01.87.120.3),http://gamli.rvk.is/vefur/owa/edutils.parse_page?nafn=BN025038,Snæland 1-7,fsp. (7) einstaklingsíbúð,"Jákvætt. Með vísan til fyrri samþykkta í húsinu, enda verði við umsókn sýnt fram á hlutdeild í þvottahúsi.",Spurt er hvort samþykki fengist fyrir áður gerðri íbúð í kjallara hússins nr. 7 á lóðinni nr. 5-7 við Snæland.
25367 (00.07.600.0),http://gamli.rvk.is/vefur/owa/edutils.parse_page?nafn=BN025367,Útkot ,Íbúðarhús,Frestað. Málinu vísað til umsagnar skipulagsfulltrúa þar sem svæðið er skilgreint sem landbúnaðarsvæði.,"Lagt fram bréf Hafsteins Alfreðssonar, dags. 19. júní 2002, þar sem spurt er hvort leyft verði að byggja íbúðarhús í landi Útkots á Kjalarnesi."
25291 (04.38.840.5),http://gamli.rvk.is/vefur/owa/edutils.parse_page?nafn=BN025291,Þingás 9,fsp.viðbyggingar,Frestað. Málinu vísað til umsagnar skipulagsfulltrúa.,"Spurt er hvort leyft yrði að byggja tvær viðbyggingar, aðra milli bílskúrs og húss og hina að vesturhlið hússins á lóðinni nr. 9 við Þingás."
25332 (01.63.670.4),http://gamli.rvk.is/vefur/owa/edutils.parse_page?nafn=BN025332,Þjórsárgata 7,"fsp.viðbygging, svalir",Frestað. Málinu vísað til umsagnar skipulagsfulltrúa.,Spurt er hvort leyft yrði að byggja viðbyggingu með svölum yfir að suðvesturhlið hússins á lóðinni nr. 7 við Þjórsárgötu.
