nr,url,heimilisfang,tegund,nidurstada,spurning
25757 (05.13.110.1),http://gamli.rvk.is/vefur/owa/edutils.parse_page?nafn=BN025757,Andrésbrunnur 9-17,"fjölbýlishús, 4.h, 35 íb.",Frestað. Vísað til athugasemda á umsóknarblaði.,Sótt er um leyfi til þess að byggja fjögurra hæða steinsteypt fjölbýlishús með samtals þrjátíu og fimm íbúðum í fimm stigahúsum og 30 innbyggðum bílgeymslum á lóð nr. 9-17 við Andrésbrunn. Stærð: Hús nr. 9 (matshluti 01) íbúð 1. hæð xx Gjald kr. 4.800
25737 (01.14.040.8),http://gamli.rvk.is/vefur/owa/edutils.parse_page?nafn=BN025737,Austurstræti 12A,breytingar,Frestað. Vísað til athugasemda á umsóknarblaði.,Sótt er um leyfi til þess að breyta innra fyrirkomulagi á öllum hæðum hússins á lóðinni nr. 12A við Austurstræti. Gjald kr. 4.800
25503 (01.14.041.8),http://gamli.rvk.is/vefur/owa/edutils.parse_page?nafn=BN025503,Austurv Póstur og Sím ,breyting inni,Samþykkt.  Samræmist ákvæðum laga nr. 73/1997. Áskilin lokaúttekt byggingarfulltrúa. Áskilið samþykki heilbrigðiseftirlits.,"Sótt er um leyfi til þess að setja stiga á milli fyrstu og annarrar hæðar í norðurenda húss og innrétta bar á annarri hæð. Yfirlýsing burðarvirkishönnuðar dags. 23. júlí 2002, umsögn Árbæjarsafns dags. 4. september 2002, bréf hönnuðar dags. 5. september 2002 fylgja erindinu. Gjald kr. 4.800"
25483 (01.16.201.1),http://gamli.rvk.is/vefur/owa/edutils.parse_page?nafn=BN025483,Ásvallagata 16A,2.íbúðir sameinaðar,Frestað. Lagfæra skráningu.,Sótt er um leyfi til þess að sameina íbúðir á fyrstu og annarri hæð í eina íbúð og stækka kjallaraíbúð yfir í sameignarrými í fjölbýlishúsi á lóð nr. 16A við Ásvallagötu. Bréf umsækjanda dags.17. júlí 2002 fylgir erindinu. Gjald kr. 4.800
25688 (02.40.410.2),http://gamli.rvk.is/vefur/owa/edutils.parse_page?nafn=BN025688,Barðastaðir 71,Br. inngh. að bílg.,Samþykkt.  Samræmist ákvæðum laga nr. 73/1997. Frágangur á lóðamörkum verði gerður í samráði við lóðarhafa aðliggjandi lóða.,Sótt er um leyfi til þess að opna milli bílgeymslu og forstofu og færa göngudyr á innbyggðri bílgeymslu frá suðurhlið á norðurhlið einbýlishúss á lóð nr. 71 við Barðastaði. Bréf hönnuðar dags. 21. ágúst 2002 fylgir erindinu. Gjald kr. 4.800
25707 (02.42.240.1),http://gamli.rvk.is/vefur/owa/edutils.parse_page?nafn=BN025707,Barðastaðir 7-11,nr. 11 símaloftnet,Frestað. Vísað til athugasemda á umsóknarblaði.,Sótt er um leyfi til þess að setja upp loftnet á þak og  koma fyrir tengistöðvarskáp í rými fyrir lyftuvél í þakrými húss nr. 9 á lóð nr. 7-11 við Barðastaði. Samþykki fyrir hönd húsfélags. dags. 22. ágúst 2002 fylgir erindinu. Gjald kr. 4.800
25711 (01.71.010.7),http://gamli.rvk.is/vefur/owa/edutils.parse_page?nafn=BN025711,Barmahlíð 46,Risíbúð,Frestað. Lagfæra skráningu.,"Sótt er um samþykki fyrir áður gerðri íbúð á þakhæð fjöleignarhúss á lóð nr. 46 við Barmahlíð. Íbúðarskoðun byggingarfulltrúa dags. 22. ágúst 2002, samþykki meðeiganda að stigahúsi ódags. og álit Kærunefndar Fjöleignarhúsamála dags. 23. júlí 2002 fylgja erindinu. Gjald kr. 4.800"
25592 (01.82.420.4),http://gamli.rvk.is/vefur/owa/edutils.parse_page?nafn=BN025592,Básendi 7,Útigeymsla og bílskýli,Frestað. Málinu vísað skipulagsfulltrúa til ákvörðunar um grenndarkynningu. Vísað er til uppdrátta 01- 03 dags. 21. ágúst 2002. Umsókn um tráfellingu vísað til umsagnar umhverfis- og heilbrigðisstofu.,"Sótt er um leyfi til þess að byggja opið bílskýli ásamt áfastri áhaldageymslu úr timbri norðan við húsið á lóðinni nr. 7 við Básenda.  Jafnframt er sótt um leyfi til þess að fella grenitré á lóðinni. Samþykki nágranna Básenda 5 (á teikn.) fylgir erindinu. Stærð: Útigeymsla 16.0 ferm. og 51,9 rúmm. Gjald kr. 4.800 + 2.491"
25735 (04.06.510.1),http://gamli.rvk.is/vefur/owa/edutils.parse_page?nafn=BN025735,Bíldshöfði 20,viðb.-áfangi,Frestað. Hönnuður gefi upp breyttar stærðir vegna áfangaskipta. Hönnuður hafi samband við heilbrigðiseftirlit.,Sótt er um leyfi til þess að áfangaskipta framkvæmd viðbyggingar við atvinnuhúsið á lóð nr. 20 við Bíldshöfða. Gjald kr. 4.800
25748 (01.18.401.5),http://gamli.rvk.is/vefur/owa/edutils.parse_page?nafn=BN025748,Bjargarstígur 3,íbúð í kjallara,Samþykkt. Með vísan til samþykktar frá 19. júlí 1918.,"Sótt er um samþykki fyrir áður gerðri íbúð í kjallara íbúðarhúss á lóð nr. 3 við Bjargarstíg. Bréf umsækjand dags. 1. september 2002, ljósrit af bréfi Markúsar Jónssonar til bæjarstjórnar dags. 12. júlí 1918, ljósrit af bréfi bæjarstjórnar vegna byggingarleyfis á Bjargarstíg 3 dags. 19. júlí 1918 og brunavirðing dags. 30. desember 1918 fylgja erindinu. Gjald kr. 4.800"
25749 (01.24.780.4),http://gamli.rvk.is/vefur/owa/edutils.parse_page?nafn=BN025749,Bollagata 12,reyndarteikningar,Frestað. Vísað til athugasemda á umsóknarblaði.,Sótt er um samþykki fyrir reyndarteikningum af húsinu á lóðinni nr. 12 vi Bollagötu. Innra skipulagi er lítillega breytt á öllum hæðum hússins. Samþykki meðeigenda (á teikn.) fylgir erindinu. Gjald kr. 4.800
25348 (01.21.900.1),http://gamli.rvk.is/vefur/owa/edutils.parse_page?nafn=BN025348,Borgartún 31,Nýbygging,Frestað. Vísað til athugasemda á umsóknarblaði.,"Sótt er um leyfi til þess að byggja átta hæða skrifstofuhúsnæði með bílageymslu fyrir 54 bíla í kjallara. Húsið er steinsteypt, einangrað utan og klætt með náttúrusteini og gleri. Skýrsla um brunahönnun dags. 21. ágúst 2002 fylgir erindinu. Stærð: Kjallari bílageymsla 1388,2 ferm, geymslur o.fl. 655,2 ferm., 1. hæð skrifstofur 868,0 ferm., 2. hæð skrifstofur 809,6 ferm., 3. hæð skrifstofur 859,5 ferm., 4. hæð skrifstofur 859,5 ferm., 5. hæð skrifstofur 859,5 ferm., 6. hæð skrifstofur 859,5 ferm., 7. hæð skrifstofur 859,5 ferm., 8. hæð matsalur o.fl. 495,6 ferm. Samtals 7125,9 ferm. og 25026,6 rúmm. Gjald kr. 4.800 + 1.201.277"
25538 (01.27.400.6),http://gamli.rvk.is/vefur/owa/edutils.parse_page?nafn=BN025538,Bólstaðarhlíð 32,Reyndarteikningar,Frestað. Vísað til athugasemda á umsóknarblaði.,Sótt er um samþykki fyrir reyndarteikningum húss á lóð nr. 32 við Bólstaðarhlíð. Samykki meðeigenda ódags. fylgir erindinu. Gjald kr. 4.800
25563 (01.13.653.6),http://gamli.rvk.is/vefur/owa/edutils.parse_page?nafn=BN025563,Brattagata 3A,Íbúð á rishæð.,Frestað. Vísað til athugasemda á umsóknarblaði.,"Sótt er um leyfi til þess að breyta vinnuskúr í sérgeymslur, stækka kvisti á norðurþekju, byggja svalir og nýjan kvist á suðurþekju og innrétta nýja íbúð á þakhæð hússins á lóð nr. 3A við Bröttugötu. Brunatæknileg úttekt VSI dags. 28. júní 2002 fylgir erindinu. Umsögn Árbæjarsafns dags.8. júlí 2002 og umsögn Húsafriðunarnefndar ríkisins dags. 8. júlí 2002 fylgja erindinu. Virðingargjörð dags. 1. nóvember 1941 fylgir erindinu. Skoðunarskýrsla byggingarfulltrúa dags. 20. ágúst 2002 fylgir erindinu. Stærð: Stækkun kvistir 3,6 ferm., 13,5 rúmm. Gjald kr. 4.800 + 648"
25598 (01.25.010.1),http://gamli.rvk.is/vefur/owa/edutils.parse_page?nafn=BN025598,Brautarholt 22,breytingar,Samþykkt.  Samræmist ákvæðum laga nr. 73/1997. Áskilin lokaúttekt byggingarfulltrúa. Áskilið samþykki Vinnueftirlits ríkisins. Áskilið samþykki heilbrigðiseftirlits.,Sótt er um leyfi til þess að fjarlægja þrjár innihurðir á gangi við snyrtingu í húsi og byggja geymslu fyrir gas á lóð hússins á lóðinni nr. 22 við Brautarholt. Samþykki lóðarhafa aðlægrar lóðar (á teikningu) fylgir erindinu. Gjald kr. 4.800
25614 (01.16.233.2),http://gamli.rvk.is/vefur/owa/edutils.parse_page?nafn=BN025614,Brávallagata 16,reyndarteikningar,Frestað. Vísað til athugasemda á umsóknarblaði.,Sótt er um samþykki fyrir reyndarteikningum af þakhæð (4.hæð) og kjallara hússins á lóðinni nr. 16 við Brávallagötu. Gjald kr. 4.800
25681 (02.42.540.1),http://gamli.rvk.is/vefur/owa/edutils.parse_page?nafn=BN025681,Brúnastaðir 1-7,br. inni í nr. 7,Samþykkt.  Samræmist ákvæðum laga nr. 73/1997.,Sótt er um leyfi til þess að breyta innra skipulagi húss nr. 7 á lóð nr. 1-7 við Brúnastaði. Gjald kr. 4.800
25667,http://gamli.rvk.is/vefur/owa/edutils.parse_page?nafn=BN025667,Brúnavegur Hrafnista,Sólskáli á 3.h,Frestað. Vantar skráningartöflu.,"Sótt er um leyfi til þess að byggja sólskála á svölum á 3. hæð á milli A- og C- álmu Hrafnistu á lóð við Brúnaveg. Útskrift úr gerðabók embættisafgreiðslufundar skipulagsfulltrúa frá 30. ágúst 2002 fylgir erindinu. Stærð: Sólskáli 38,1 ferm., 135,2 rúmm. Gjald kr. 4.800 + 6.490"
25488 (02.57.520.1),http://gamli.rvk.is/vefur/owa/edutils.parse_page?nafn=BN025488,Bæjarflöt 2,breytingar,Frestað. Vísað til athugasemda eldvarnaeftirlits.,"Sótt er um leyfi til þess að breyta innra skipulagi fyrstu hæðar og millilofta (rými 0101, 0104 og 0105) í iðnaðarhúsi á lóðinni nr. 2 við Bæjarflöt. Gjald kr. 4.800"
25710 (01.71.300.9),http://gamli.rvk.is/vefur/owa/edutils.parse_page?nafn=BN025710,Drápuhlíð 42,Kvistir á 42-44,Frestað. Vísað til athugasemda á umsóknarblaði. Málinu vísað til umsagnar skipulagsfulltrúa vegna svala.,Sótt er um leyfi til þess að breyta kvistum og byggja svalir á suðurhlið rishæðar hússins nr. 42-44 við Drápuhlíð. Samþykki meðeigenda (ódags.) fylgir erindinu. Gjald kr. 4.800
25101,http://gamli.rvk.is/vefur/owa/edutils.parse_page?nafn=BN025101,Efstasund 100,reyndarteikningar,Frestað. Vísað til athugasemda á umsóknarblaði.,Sótt er um samþykki fyrir reyndarteikningum af húsinu á lóðinni nr. 100 við Efstasund.  Gerð er grein fyrir áður gerði séreign (rými 0001-geymsla) í kjallara hússins. Gjald kr. 4.800
25312 (01.35.521.3),http://gamli.rvk.is/vefur/owa/edutils.parse_page?nafn=BN025312,Efstasund 12,Viðbygging og bílskúr,Frestað. Lagfæra skráningu. Vísað til athugasemda Orkuveitu. Grenndarkynningu ólokið.,"Sótt er um leyfi til þess að byggja viðbyggingu úr timbri að suður- og vesturhlið húss og byggja steinsteyptan bílskúr á lóðinni nr. 12 við Efstasund. Samþykki nágranna (m.a. samþykki eigenda Langholtsvegar 13 og Efstasunds 14) dags. 20. júní og 5. júlí 2002 fylgir erindinu. Stærð: Stækkun húss 72,3 ferm. og 300,3 rúmm. Bílskúr 42,0 ferm. og 121,8 rúmm. Gjald kr. 4.800 + 20.261"
25355 (01.35.500.9),http://gamli.rvk.is/vefur/owa/edutils.parse_page?nafn=BN025355,Efstasund 2,Geymsluskúr,Frestað. Vísað til fyrri athugasemda.,"Sótt er um leyfi til þess að stækka svalir á annarri hæð húss (matshl 01) og einnig er sótt um samþykki fyrir áður gerðum geymsluskúr (matshl. 03) í vesturhorni lóðarinnar nr. 2 við Efstasund. Samþykki eins eiganda Efstasunds 4 dags. 10. júlí 2002 fylgir erindinu. Stærð: Geymsluskúr 9,1 ferm. og 22,1 rúmm. Gjald kr. 4.800 + 1.061"
25461 (04.03.520.4),http://gamli.rvk.is/vefur/owa/edutils.parse_page?nafn=BN025461,Eldshöfði 7,endurnýjun á byggingarl.,Frestað. Lagfæra skráningu.,"Sótt er um leyfi til þess að byggja steinsteypt atvinnuhús svipað og samþykkt var þann 26. október 1999 á lóð nr. 7 við Eldshöfða. Samþykkt eigenda aðliggjandi húss, Eldshöfða 17, dags. 6. ágúst 2002 fylgir erindinu. Stærð: Atvinnuhús 423,8 ferm., 2057,1 rúmm., Gjald kr. 4.800 + 98.741"
22449 (04.63.110.1),http://gamli.rvk.is/vefur/owa/edutils.parse_page?nafn=BN022449,Eyjabakki  1-15,leiðr. á veggjum v/eignaskipta,Frestað. Lagfæra skráningu.,Sótt er um samþykki fyrir reyndarteikningum af kjallara hússins á lóðinni nr. 1-15 við Eyjabakka vegna gerðar eignaskiptayfirlýsingar. Geymslur í húsum nr. 13 og 15 (matshl. 07 og 08) hafa breyst. Gjald kr. 4.100
25698 (01.46.330.3),http://gamli.rvk.is/vefur/owa/edutils.parse_page?nafn=BN025698,Faxafen 9,veitingahús,Frestað. Vísað til athugasemda á umsóknarblaði.,Sótt er um leyfi til þess að innrétta veitingastað í norðurenda 1. hæðar atvinnuhússins á lóð nr. 9 við  Faxafen. Samþykki meðeigenda dags. 27. ágúst 2002 fylgir erindinu. Gjald kr. 4800
25481 (01.27.001.3),http://gamli.rvk.is/vefur/owa/edutils.parse_page?nafn=BN025481,Flókagata 57,reyndarteikningar,Frestað. Vísað til athugasemda á umsóknarblaði.,Sótt er um samþykki fyrir núverandi innra fyrirkomulagi  íbúðar í kjallara fjölbýlishúss á lóð nr. 57 við Flókagötu. Samþykki meðeigenda (á teikningu) fylgir erindinu. Gjald kr. 4.800
24872 (02.46.810.2),http://gamli.rvk.is/vefur/owa/edutils.parse_page?nafn=BN024872,Fossaleynir 19-21,br. inni og skipul. lóðar,Frestað. Vísað til athugasemda á umsóknarblaði.,"Sótt er um leyfi til þessa breyta innra skipulagi á báðum hæðum, breyta skipulagi lóðar, samþykki fyrir breyttum gluggum og leiðréttri stærð atvinnuhúss á lóð nr. 19-21 við Fossaleyni. Bréf hönnuðar dags. 15. apríl 2002 og brunahönnun VSI dags. 16. apríl 2002 fylgja erindinu. Stærð: Hús var 16534,4 rúmm., verður 16584,2 rúmm. Gjald kr. 4.800 + 2.390"
25653 (01.78.--9.9 14),http://gamli.rvk.is/vefur/owa/edutils.parse_page?nafn=BN025653,Fossvogskirkja ,br. geymsl. f. sjúkraskrár LHS. ,Frestað. Lagfæra skráningartöflu.,Sótt er um leyfi til þess að breyta notkun á rými sem áður var notað fyrir smíði á líkkistum í geymslu fyrir sjúkraskrár LHS í húsinu nr. 2 við Vesturhlíð á lóð Fossvogskirkju. Gjald kr. 4.800
25513 (01.18.631.1),http://gamli.rvk.is/vefur/owa/edutils.parse_page?nafn=BN025513,Freyjugata 27A,Stækkun gistiheim.,Frestað. Vísað til athugasemda á umsóknarblaði.,"Sótt er um leyfi til þess að stækka gistiheimili við Þórsgötu 24-26 yfir í húsið nr. 27A við Freyjugötu, byggja við það stigahús, og hækka upp í fjögurra hæða byggingu úr steinsteypu klædda með steniplötum. Jafnframt er lagt til að húsið verði framvegis nr. 24-28 við Þórsgötu. Bréf hönnuðar dags. 27. ágúst 2002, bréf burðavirkishönnuðar dags. 26. ágúst 2002 og samþykki eigenda Freyjugötu 27 (á teikningu) fylgja erindinu. Stærð: Stækkun xxx ferm., 387,2 rúmm. Gjald kr. 4.800 + 18.586"
25705 (01.17.312.5),http://gamli.rvk.is/vefur/owa/edutils.parse_page?nafn=BN025705,Grettisgata 39,viðbygging o.fl.,Frestað. Málinu vísað til skipulagsfulltrúa til ákvörðunar um grenndarkynningu. Vísað er til uppdráttar dags. 21. ágúst 2002.,"Sótt er um leyfi til þess að byggja við vesturhlið og breyta lágreistu þaki í nýtanlega þakhæð yfir elsta hluta íbúðarhúss á lóð nr. 39 við Grettisgötu. Umsögn Árbæjarsafns dags. 24. júní 2002 og umsögn Húsafriðunarnefndar ríkisins dags. 4. september 2002 fylgja erindinu.  Stærð: Viðbygging 1. hæð 4,1 ferm., þakhæð 34,7 ferm., samtals stækkun 38,8 ferm., xxx rúmm. Gjald kr. 4.800 + xxx"
25662 (01.17.423.1),http://gamli.rvk.is/vefur/owa/edutils.parse_page?nafn=BN025662,Grettisgata 47A,Niðurrif og viðbygging,Frestað. Með vísan til bréfs skipulagsfulltrúa dags. 9. september 2002. Vísað til athugasemda á umsóknarblaði.,"Sótt er um leyfi til þess að byggja tröppur og viðbyggingu á norðuhlið húss og breyta innra fyrirkomulagi á báðum hæðum hússins á lóðinni nr. 47A við Grettisgötu. Jafnframt er sótt um leyfi til þess að rífa geymsluskúr á norðanverðri lóðinni. (matshl. 70, landnr. 101633, fastanr. 200-5474 stærð 15,5 ferm. og 35 rúmm.). Útskrift úr gerðabók embættisafgreiðslufundar skipulagsfulltrúa frá 6. september 2002 fylgir erindinu. Stærð: Viðbygging xx ferm. og xx rúmm. Gjald kr. 4.800"
25425 (01.17.150.6),http://gamli.rvk.is/vefur/owa/edutils.parse_page?nafn=BN025425,Grettisgata 5,"fjölga íbúðum,viðb.",Samþykkt.  Samræmist ákvæðum laga nr. 73/1997. Áskilin lokaúttekt byggingarfulltrúa. Með vísan til samþykktar borgarráðs frá 1. september 1998 skal utanhúss- og lóðarfrágangi vera lokið eigi síðar en innan tveggja ára frá útgáfu byggingarleyfis að viðlögðum dagsektarákvæðum 57. gr. skipulags- og byggingarlaga nr. 73/1997.,"Sótt er um leyfi til þess að byggja viðbyggingu við suðurhlið þriðju hæðar, fjölga íbúðum á annarri og þriðju hæð úr einni í samtals þrjár íbúðir ásamt því að breyta vörugeymslu í bílageymslu á fyrstu hæð byggingar á lóð nr. 5 við Grettisgötu. Samþykki eigenda Grettisgötu 3 og 3A ódags. fylgir erindinu Stærð: Viðbygging 87,4 ferm., 219,1 rúmm. Gjald kr. 4.800 + 10.517"
25716 (04.30.120.1),http://gamli.rvk.is/vefur/owa/edutils.parse_page?nafn=BN025716,Grjótháls 8,vetnisstöð,Frestað. Vísað til athugasemda á umsóknarblaði. Málinu vísað til umsagnar skipulagsfulltrúa.,"Sótt er um leyfi til þess að byggja afgreiðslustöð fyrir vetni á lóðinni nr. 8 við Grjótháls. Bréf hönnuðar dags. 26. ágúst 2002 fylgir erindinu. Stærð: Tækjaeining 1 (matshl. 04) 25,0 ferm. og 75,0 rúmm. Tækjaeining 2 ( matshl. 05) 14,6 ferm. og 37,8 rúmm. Gjald kr. 4.800 + 5.414"
25615 (01.18.400.4),http://gamli.rvk.is/vefur/owa/edutils.parse_page?nafn=BN025615,Grundarstígur 5,reyndarteikningar,Frestað. Lagfæra skráningu.,Sótt er um samþykki fyrir reyndarteikningum af framhúsi (matshl. 01) á lóðinni nr.5 við Grundarstíg. Sýnt er innra skipulag á öllum hæðum hússins. Skoðunarskýrsla byggingarfulltrúa dags. 24. ágúst 2002 og bréf hönnuðar dags. 24. ágúst 2002 fylgja erindinu. Virðingargjörð dags. 1. febrúar 1943 fylgir erindinu. Gjald kr. 4.800
25717 (01.36.020.8),http://gamli.rvk.is/vefur/owa/edutils.parse_page?nafn=BN025717,Gullteigur 6,íb.á jarðh. + geymsluskúr,Frestað. Vísað til athugasemda á umsóknarblaði.,"Sótt er um samþykki fyrir innréttingu tveggja íbúða á 1. hæð og fyrir endurbyggingu ósamþykkts skúrs á baklóð hússins á lóð nr. 6 við Gullteig. Stærð: Geymsluskúrsviðbygging 52,3 ferm., 140,7 rúmm. Gjald kr. 4.800 + 7.256"
25604 (05.13.570.5),http://gamli.rvk.is/vefur/owa/edutils.parse_page?nafn=BN025604,"4"">Gvendargeisli 106",Einbýlishús,Frestað. Vísað til athugasemda á umsóknarblaði.,"Sótt er um leyfi til þess að byggja einlyft steinsteypt einbýlishús með innbyggðri bílgeymslu á lóðinni nr. 106 við Gvendargeisla. Stærð: Íbúð 1. hæð 134,5 ferm., bílgeymsla 29,3 ferm.  Samtals 163,8 ferm. og 596,7 rúmm. Gjald kr. 4.800 + 28.642"
25515 (05.13.550.6),http://gamli.rvk.is/vefur/owa/edutils.parse_page?nafn=BN025515,Gvendargeisli 116,Einbýlish. m. innb. bílg.,Frestað. Lagfæra skráningu.,"Sótt er um leyfi til þess að byggja einlyft einbýlishús með innbyggðri bílgeymlu allt úr steinsteyptum einingum á lóð nr. 116 við Gvendargeisla. Stærð: Íbúð 183,3 ferm., bílgeymsla 39 ferm., samtals 222,3 ferm, 764,1 rúmm. Gjald kr. 4.800 + 36.677"
25699 (05.13.440.1),http://gamli.rvk.is/vefur/owa/edutils.parse_page?nafn=BN025699,Gvendargeisli 76,breytt byggingaraðf.,Samþykkt.  Samræmist ákvæðum laga nr. 73/1997. Skila skal vottun á einingar fyrir úttekt á botnplötu. Frágangur á lóðamörkum verði gerður í samráði við lóðarhafa aðliggjandi lóða.,"Sótt er um leyfi til þess að breyta um byggingaraðferð á áður samþykktu einbýlishúsi, úr steinsteypu í steinsteyptar einingar, á lóð nr. 76 við Gvendargeisla. Gjald kr. 4.800"
25750 (02.57.630.4),http://gamli.rvk.is/vefur/owa/edutils.parse_page?nafn=BN025750,Gylfaflöt 22,endurnýjun á byggingarleyfi,Frestað. Málinu vísað til umsagnar skristofustjóra borgarverkfræðings vegna tímamarka á úthlutun lóðar.,"Sótt er um endurnýjun á byggingarleyfi frá 8. júní 2000 fyrir byggingu hjólbarðaverkstæðis úr límtré og Yleiningum á lóð nr. 22 við Gylfaflöt. Stærð: 1. hæð 500 ferm., 2. hæð 85,2 ferm., samtals 585,2 ferm., 2925 rúmm. Gjald kr. 4.800 + 140.400"
25683 (01.14.000.5),http://gamli.rvk.is/vefur/owa/edutils.parse_page?nafn=BN025683,Hafnarstræti  1-3,endursþ. á bl. f. veitingast.,Samþykkt.  Samræmist ákvæðum laga nr. 73/1997. Áskilin lokaúttekt byggingarfulltrúa. Áskilið samþykki heilbrigðiseftirlits.,Sótt er um endurnýjun á  byggingarleyfi frá 16. október 2001 fyrir innréttingu veitingarstaðar í austurenda Fálkahússins á lóð nr. 1-3 við Hafnarstræti. Gjald kr. 4.800
25511 (01.72.730.1),http://gamli.rvk.is/vefur/owa/edutils.parse_page?nafn=BN025511,Háaleitisbraut 68,Breyting,Frestað. Lagfæra skráningu.,Sótt er um leyfi til þess að breyta aðkomu að Landsvirkjun í áður verslunarrými 01-03 á fyrstu hæð byggingar við austurhlið og að setja hringhurð á fyrstu hæð atvinnuhússins á lóð nr. 67 við Háaleitisbraut. Samþykki meðeigenda dags. 1. mars 2002 fylgir erindinu. Gjald kr. 4.800
25637 (01.24.441.1),http://gamli.rvk.is/vefur/owa/edutils.parse_page?nafn=BN025637,Háteigsvegur 20,leiðrétta teikningar. Hurð í kjallara.,Samþykkt.  Samræmist ákvæðum laga nr. 73/1997.,Sótt er um samþykki fyrir leiðréttum teikningum af kjallara hússins á lóðinni nr. 20 við Háteigsveg. Inngangur að verkstæði (rými 0003) í kjallara er leiðréttur. Gjald kr. 4.800
25601 (02.29.730.2 01),http://gamli.rvk.is/vefur/owa/edutils.parse_page?nafn=BN025601,Hesthamrar 16,sólstofuviðb.,Frestað. Lagfæra skráningu.,"Sótt er um leyfi til þess að byggja viðbyggingu við vesturhlið húss á lóð nr.16 við Hesthamra. Samþykki meðeiganda og nágranna dags. 28. janúar 2002 fylgir erindinu. Stærð: Viðbygging 17,7 ferm., 48,7 rúmm. Gjald kr. 4.800 + 2.338"
24896 (04.67.400.2),http://gamli.rvk.is/vefur/owa/edutils.parse_page?nafn=BN024896,Hraunberg 4,reyndarteikningar,Frestað. Vísað til athugasemda á umsóknarblaði.,Sótt er um samþykki fyrir reyndarteikningum af húsinu nr. 4 við Hraunberg. Gerð er grein fyrir eignarhaldi í húsinu. Bréf Húsfélagsins Hraunbergi 4 dags. 10. júní 2002 fylgir erindinu. Gjald kr. 4.800
24049 (04.33.420.1),http://gamli.rvk.is/vefur/owa/edutils.parse_page?nafn=BN024049,Hraunbær   2-34,nr. 26 reyndarteikningar,Samþykkt.  Samræmist ákvæðum laga nr. 73/1997.,Sótt er um samþykki fyrir reyndarteikningum af kjallara hússins nr. 26 (matshl. 14) í húsinu nr. 8-34 á lóðinni nr. 2-34 við Hraunbæ vegna gerðar eignaskiptayfirlýsingar. Sýndar eru tvær áður gerðar séreignir (ósamþ. íbúðir) í kjallara hússins. Bréf hönnuðar dags. 20. mars 2002 fylgir erindinu. Afsalsbréf dags. 21 febrúar 1994 (eign 0001) og 30. desember 1998 (eign 0002) fylgja erindinu. Gjald kr. 4.100
22750 (01.36.101.2),http://gamli.rvk.is/vefur/owa/edutils.parse_page?nafn=BN022750,Hraunteigur 13 ,tvöfaldur bílskúr,Samþykkt.  Samræmist ákvæðum laga nr. 73/1997. Frágangur á lóðamörkum verði gerður í samráði við lóðarhafa aðliggjandi lóða. Með vísan til samþykktar borgarráðs frá 1. september 1998 skal utanhúss- og lóðarfrágangi vera lokið eigi síðar en innan tveggja ára frá útgáfu byggingarleyfis að viðlögðum dagsektarákvæðum 57. gr. skipulags- og byggingarlaga nr. 73/1997. Magnús Sædal Svavarsson vék af fundi við afgreiðslu málsins.,"Sótt er um leyfi til þess að byggja steinsteyptann tvöfaldann bílskúr með torfi á þaki í norðvesturhorni lóðar nr. 13 við Hraunteig. Skilyrt samþykki meðlóðarhafa (á teikningu) fylgir erindinu. Stærð: Bílskúr 55 ferm., 170,4 rúmm. Gjald kr. 4.800 + 8.179"
25701 (01.86.020.1 19),http://gamli.rvk.is/vefur/owa/edutils.parse_page?nafn=BN025701,Hulduland 26,Gluggi og handrið,Frestað. Vísað til athugasemda á umsóknarblaði.,Sótt er um leyfi til þess setja handrið við inngang og stækka glugga á norðurhlið neðri hæðar raðhúss nr. 26 á lóð nr. 26-36 við Hulduland. Samþykki meðeigenda dags. 16. ágúst 2002 fylgir erindinu. Gjald kr. 4.800
24506 (01.72.430.6),http://gamli.rvk.is/vefur/owa/edutils.parse_page?nafn=BN024506,Hvassaleiti 34,Ýmsar breytingar,Frestað. Lagfæra skráningu.,"Sótt er um samþykki fyrir reyndarteikningum af húsinu á lóðinni nr. 34 við Hvassaleiti. Sýnd er áður gerð séreign (ósamþ. íbúð, eign 0102) á fyrstu hæð hússins. Samþykki meðeigenda (á teikn.) fylgir erindinu. Gjald kr. 4.800"
25702 (01.17.100.5),http://gamli.rvk.is/vefur/owa/edutils.parse_page?nafn=BN025702,Hverfisgata 18,reyndarteikningar,Frestað. Vísað til athugasemda á umsóknarblaði.,"Sótt er um samþykki fyrir áður gerðum breytingum á innra skipulagi, fyrir loftræstitúðu að suðurhlið og stækkun verandar við suðurhlið Alþjóðahússins á lóð nr. 18 við Hverfisgötu. Gjald kr. 4.800"
25740 (04.07.500.1),http://gamli.rvk.is/vefur/owa/edutils.parse_page?nafn=BN025740,Höfðabakki 9,skilti ÍAV,Samþykkt.  Samræmist ákvæðum laga nr. 73/1997.,"Sótt er um leyfi til þess að setja nýtt skilti á suðurgafl (um 8,2 ferm.) og annað á þakkant vesturhliðar (um 8,1 ferm.) skrifstofuhúss á lóð nr. 9 við Höfðabakka. Bréf hönnuðar dags. 2. september 2002 fylgir erindinu. Gjald kr. 4.800"
25577 (04.11.350.3),http://gamli.rvk.is/vefur/owa/edutils.parse_page?nafn=BN025577,Jónsgeisli 15,Einbýlishús,Frestað. Lagfæra skráningartöflu.,"Sótt er um leyfi til þess að byggja tvílyft, steinsteypt einbýlishús með innbyggðri bílgeymslu á lóðinni nr. 15 við Jónsgeisla. Stærð: Íbúð 1. hæð 59,8 ferm., 2. hæð 118,9 ferm., bílgeymsla 1. hæð 32,2 ferm.  Samtals 210,9 ferm. og 774,6 rúmm. Gjald kr. 4.800 + 37.181"
25613 (04.11.340.5),http://gamli.rvk.is/vefur/owa/edutils.parse_page?nafn=BN025613,Jónsgeisli 57,einbýlishús,Samþykkt.  Samræmist ákvæðum laga nr. 73/1997. Frágangur á lóðamörkum verði gerður í samráði við lóðarhafa aðliggjandi lóða.,"Sótt er um leyfi til þess að byggja tvílyft steinsteypt einbýlishús með innbyggðri bílgeymslu á lóð nr. 53 við Jónsgeisla. Stærð: Íbúð 1. hæð 136,9 ferm., 2. hæð 105,1 ferm., bílgeymsla 27,4 ferm., samtals 269,4 ferm., 881 rúmm. Gjald kr. 4.800 + 42.288"
25451 (04.11.340.8),http://gamli.rvk.is/vefur/owa/edutils.parse_page?nafn=BN025451,Jónsgeisli 63,Einbýlish. 2.h og innb. bílg.,Samþykkt.  Samræmist ákvæðum laga nr. 73/1997. Frágangur á lóðamörkum verði gerður í samráði við lóðarhafa aðliggjandi lóða.,"Sótt er um leyfi til þess að byggja tvílyft steinsteypt einbýlishús með innbyggðri bílgeymslu allt einangrað að utan og klætt með múrkerfi og að hluta harðviðarklæðningu á lóð nr. 63 við Jónsgeisla. Stærð: Íbúð 1. hæð 80,8 ferm., 2. hæð 93,8 ferm., bílgeymsla 37,9 ferm., samtals 212,5 ferm., 685,1 rúmm. Gjald kr. 4.800 + 32.885"
24898 (02.34.130.7),http://gamli.rvk.is/vefur/owa/edutils.parse_page?nafn=BN024898,Jötnaborgir 9-11,(11) bygging undir svalir,Frestað. Vísað til athugasemda á umsóknarblaði. Málinu vísað til umsagnar skipulagsfulltrúa.,"Sótt er um leyfi til þess að byggja viðbyggingu undir svölum á austurhlið hússins nr. 11 á lóðinni nr. 9-11 við Jötnaborgir. Samþykki meðeigenda í húsi (á teikn.) fylgir erindinu. Stærð: Viðbygging 16,5 ferm. og  47,8 rúmm. Gjald kr. 4.800 + 2.294"
25691 (01.35.400.9),http://gamli.rvk.is/vefur/owa/edutils.parse_page?nafn=BN025691,Kambsvegur 16,Lokun svala,Frestað. Vísað til athugasemda á umsóknarblaði.,Sótt er um leyfi til þess að setja upp hálfþétta glerlokun á svalir íbúðar á 2. hæð til vinstri í fjölbýlishúsi á lóð nr. 16 við Kambsveg. Samþykki meðeigenda (á teikningu) og ódags. fylgja erindinu. Gjald kr. 4.800
25500 (01.35.420.5),http://gamli.rvk.is/vefur/owa/edutils.parse_page?nafn=BN025500,Kambsvegur 19,kvistir - svalir,Frestað. Málinu vísað til skipulagsfulltrúa til ákvörðunar um grenndarkynningu. Vísað er til uppdrátta 247-001 247-002 dags. 12. ágúst 2002.,"Sótt er um leyfi til þess að afmarka séreign í kjallara og byggja fimm kvisti og svalir á þakhæð húss á lóð nr. 19 við Kambsveg Íbúðarskoðun dags. 20. janúar 1999, afsal vegna eignar  í kjallara dags. 17. ágúst 1999 og samþykki meðeigenda ódags. fylgja erindinu. Stærð: Stækkun 2. hæð 17,2 ferm., 38,4 rúmm. Gjald kr. 4.800 + 1.843"
24351 (01.18.230.1),http://gamli.rvk.is/vefur/owa/edutils.parse_page?nafn=BN024351,Kárastígur 13,áður gerðar íb. o.fl.,Samþykkt.  Samræmist ákvæðum laga nr. 73/1997.,"Sótt er um samþykki fyrir áður gerðri íbúð í kjallara og á 2. hæð, þ.e. tveim íbúðum, ásamt breytingum á innra skipulagi 1. hæðar og fyrir breyttu útliti íbúðarhússins á lóð nr. 13 við Kárastíg. Umsögn Árbæjarsafns dags. 8. febrúar 2002,  virðingargjörð dags. 22. september 1923, íbúðarskoðun byggingarfulltrúa dags. 16. apríl 2002 og samþykki meðlóðarhafa dags. 8. febrúar 2002 fylgja erindinu. Gjald kr. 4.800"
25639 (04.13.220.1),http://gamli.rvk.is/vefur/owa/edutils.parse_page?nafn=BN025639,Kirkjustétt 2-6,Br. verslunarhúsn.,Samþykkt.  Samræmist ákvæðum laga nr. 73/1997. Frágangur á lóðamörkum verði gerður í samráði við lóðarhafa aðliggjandi lóða. Áskilin lokaúttekt byggingarfulltrúa. Áskilið samþykki heilbrigðiseftirlits.,"Sótt er um leyfi til þess að breyta nýsamþykktu verslunarhúsi þannig að í stað eins matshluta verði þrír, hætt verði við yfirbyggingu göngugötu og byggingaraðferð breytt úr forsteyptrum einingum í  staðsteypt hús, einangrað að utan og klætt með liggjandi aluzinkklæðningu á lóð nr. 2-6 við Kirkjustétt. Bréf frá brunaverkfræðingi VSI dags. 5. september 2002 fylgir erindinu. Stærð: Matshluti 01 verður 636,3 ferm., 2322,5 rúmm., matshluti 02 verður 1. hæð 793,8 ferm., 2. hæð 782,1 ferm., samtals 1575,9 ferm., 5945,6 rúmm., matshluti 03 verður 793,8 ferm., 2897,4 rúmm., verslunarhús var samtals 3010,8 ferm., 11244,3 rúmm. verður 3006  ferm., 11165,5 rúmm. (án botnplötu) Gjald kr. 4.800"
25754 (00.00.000.0),http://gamli.rvk.is/vefur/owa/edutils.parse_page?nafn=BN025754,Kirkjustræti 14,hætt við lyftu á 1.h o.fl. ,Samþykkt.  Samræmist ákvæðum laga nr. 73/1997. Áskilin lokaúttekt byggingarfulltrúa.,Sótt er um leyfi til þess að hætta við lyftutengingu  milli 1. og 2. hæðar í Alþingishúsi og breyta lítilega innra skipulagi 1. hæðar á lóð nr. 14 við Kirkjustræti. Afrit af bréfi hönnuðar dags. 3. september og 15. ágúst 2002 ásamt umsögn Húsfriðunarnefndar dags. 28. maí 2002 fylgja erindinu. Gjald kr. 4.800
25421 (04.96.340.2 01),http://gamli.rvk.is/vefur/owa/edutils.parse_page?nafn=BN025421,Kleifarsel 28,"br. á anddyri, aðg. fatl.",Frestað. Vísað til athugasemda á umsóknarblaði.,"Sótt er um leyfi til þess að stækka anddyri og bæta aðgengi fatlaðra við íþróttahús Seljaskóla á lóð nr. 28 við Kleifarsel. Stærð: Stækkun anddyris 15,7 ferm., 50,6 rúmm. Gjald kr.4.800 + 2.429"
23344 (04.34.230.1),http://gamli.rvk.is/vefur/owa/edutils.parse_page?nafn=BN023344,Klettháls 3,atvinnuhúsnæði,Samþykkt 28. ágúst 2002. Samræmist ákvæðum laga nr. 73/1997. Frágangur á lóðamörkum verði gerður í samráði við lóðarhafa aðliggjandi lóða. Áskilin lokaúttekt byggingarfulltrúa. Áskilið samþykki Vinnueftirlits ríkisins.,"Sótt er um leyfi til þess að byggja atvinnuhús úr stálgrind og einingum frá Astron byggingarkerfum að mestu á einni hæð á lóð nr. 3 við Klettháls. Brunahönnun VSI dags. 6. ágúst 2002, samþykki eiganda Tunguháls 4 dags. 19. ágúst 2002 og samkomulag um frágang á lóðamörkum við eiganda Klettháls 1A fylgja erindinu. Stærð: Atvinnuhús 1. hæð 2609,8 ferm., 2. hæð 355,3 ferm., samtals 2965,1 ferm., 24.198,8 rúmm. Gjald kr. 4.100 + 1.161.542"
25467 (01.72.100.1),http://gamli.rvk.is/vefur/owa/edutils.parse_page?nafn=BN025467,Kringlan  4-12,fjarlægja rúllustiga ,Frestað. Með vísan til umsagnar borgarlögmanns.,Sótt er um leyfi til þess að fjarlægja rúllustiga milli 1. og 2. hæðar í norðurhúsi Kringlunnar á lóð nr. 4-12 við Krigluna. Ljósrit af fundargerð félagsfundar Rekstrarfélags Kringlunnar frá 19. júní 2002 og umsögn borgarlögmanns dags. 29. ágúst 2002 fylgja erindinu. Gjald kr. 4.800
25617 (04.32.420.1),http://gamli.rvk.is/vefur/owa/edutils.parse_page?nafn=BN025617,Krókháls 10,breytingar.,Frestað. Vísað til athugasemda á umsóknarblaði.,"Sótt er um leyfi til þess að byggja milliloft yfir hluta fyrstu hæðar, breyta útliti á vestur- og norðurhlið fyrstu hæðar og breyta innra skipulagi á öllum hæðum iðnaðarhússins á lóðinni nr. 10 við Krókháls. Gjald kr. 4.800"
24796 (01.43.612.9 03),http://gamli.rvk.is/vefur/owa/edutils.parse_page?nafn=BN024796,Langholtsvegur 130,br. inni (skrautfiskeldi),Samþykkt.  Samræmist ákvæðum laga nr. 73/1997. Áskilið samþykki heilbrigðiseftirlits.,Sótt er um leyfi til þess að breyta innra skipulagi kjallara undir verslun í húsi nr. 130 á lóð nr. 126-130 við Langholtsveg. Gjald kr. 4.800
25747 (01.19.711.1),http://gamli.rvk.is/vefur/owa/edutils.parse_page?nafn=BN025747,Laufásvegur 73,bílskúr,Frestað. Vísað til athugasemda á umsóknarblaði. Málinu vísað til umsagnar skipulagsfulltrúa og gatnamálastjóra vegna fjölgunar bílastæða.,"Sótt er um leyfi til þess að byggja steinsteyptan bílskúr fyrir tvo bíla og koma fyrir heitum potti á lóðinni nr. 73 við Laufásveg. Jafnframt er sótt um leyfi til þess að rífa eldri bílskúr á lóðinni. (Landnúmer 102713, fastanúmer 2009217 stærð 24,0 ferm. og 40,0 rúmm.) Stærð: Bílskúr xx ferm. og xx rúmm.   Gjald kr. 4.800 + xx"
24828 (01.35.1 20),http://gamli.rvk.is/vefur/owa/edutils.parse_page?nafn=BN024828,"Laugarás, Hrafnista",bílskúr,Samþykkt.  Samræmist ákvæðum laga nr. 73/1997. Frágangur á lóðamörkum verði gerður í samráði við lóðarhafa aðliggjandi lóða.,"Sótt er um leyfi til þess að byggja steinsteyptan bílskúr með þakpalli sem nýttur er sem torg við Hjúkrunarheimilið Skjól, Kleppsvegi 64, á lóð Hrafnistu við Brúnaveg. Stærð: Bílskúr 64,4 ferm., 193,2 rúmm.  Gjald kr. 4.800 + 9.274"
25751 (01.34.600.3),http://gamli.rvk.is/vefur/owa/edutils.parse_page?nafn=BN025751,Laugarnesvegur 68,"fjölbýlish., 3.h., 3 íb.",Frestað. Málinu vísað til umsagnar skipulagsfulltrúa.,"Sótt er um leyfi til þess rífa einnar hæðar steinsteypt íbúðarhús, byggja þrílyft steinsteypt íbúðarhús með þremur íbúðum og stytta og breyta bílskúr á lóð nr. 68 við Laugarnesveg. Stærð: Niðurrif íbúðarhús (fastanr. 201-6865) 86,4 ferm., 233 rúmm. Fjölbýlishús kjallari 37,4 ferm., 1.-3. hæð 112,3 ferm. hver hæð, samtals 374,3 ferm., 1073,7 rúmm. Bílskúr var 40 ferm., verður 35,1 ferm. Gjald kr. 4.800 + 53.953"
25703 (01.36.510.8),http://gamli.rvk.is/vefur/owa/edutils.parse_page?nafn=BN025703,Laugateigur 38,Viðbygging (sólstofa),Frestað. Vísað til athugasemda á umsóknarblaði.,"Sótt er um leyfi til þess að byggja viðbyggingu og verönd við vesturhlið hússins á lóðinni nr. 38 við Laugateig. Útskrift úr gerðabók embættisafgreiðslufundar skipulagsstjóra frá 21. desember 2001 fylgir erindinu. Stækkun viðbygging 15,9 ferm. og 40,6 rúmm. Gjald kr. 4.800 + 1.949"
25328 (01.24.010.3),http://gamli.rvk.is/vefur/owa/edutils.parse_page?nafn=BN025328,Laugavegur 118,Viðb. Rauðarárstíg 10,Frestað. Vísað til athugasemda eldvarnaeftirlits.,"Sótt er um leyfi til þess að byggja loftræstiklefa upp úr þaki húss nr. 10 við Rauðarárstíg á lóð nr. 118 við Laugaveg. Bréf hönnuðar dags. 26. júní 2002 og útskrift úr gerðabók embættisafgreiðslufundar skipulagsfulltrúa dags.16. júlí 2002 fylgja erindinu. Stærð: Loftræstiklefi 25,5 ferm., 53,6 rúmm. Gjald kr. 4.800 + 2.573"
23530 (01.22.212.2),http://gamli.rvk.is/vefur/owa/edutils.parse_page?nafn=BN023530,Laugavegur 139,breyting v/hljóðeinangrandi glers,Frestað. Fella niður bílastæði á lóð.,Sótt er um leyfi til þess að breyta gluggapóstum á báðum hliðum húss og setja hljóðeinangrandi gler í glugga götuhliðar hússins á lóðinni nr. 139 við Laugaveg. Samþykki f.h. eiganda (ódags.) fylgir erindinu. Gjald kr. 4.100
25510 (01.22.220.7),http://gamli.rvk.is/vefur/owa/edutils.parse_page?nafn=BN025510,Laugavegur 157,Reyndareikningar,Samþykkt.  Samræmist ákvæðum laga nr. 73/1997.,Sótt er um samþykki fyrir núverandi innra skipulagi húsa á lóð nr. 157 við Laugaveg Gjald kr. 4.800
25676 (01.25.200.1),http://gamli.rvk.is/vefur/owa/edutils.parse_page?nafn=BN025676,Laugavegur 180,innréttingar á 5.h,Samþykkt.  Samræmist ákvæðum laga nr. 73/1997. Áskilin lokaúttekt byggingarfulltrúa.,Sótt er um leyfi til þess að breyta innra skipulagi 5. hæðar húss nr. 182 á lóð nr. 180-182 við Laugaveg.  Gjald kr. 4.800
25523 (01.17.301.9),http://gamli.rvk.is/vefur/owa/edutils.parse_page?nafn=BN025523,Laugavegur 59,endurn. á byggingarl.- 17198,Frestað. Vísað til athugasemda á umsóknarblaði.,Sótt er um endurnýjað byggingarleyfi frá 11. ágúst 1998 til þess að klæða 3. og 4. hæð suðurhliðar Kjörgarðs með alucobond-plötum á lóð nr. 59 við Laugaveg. Gjald kr. 4.800
25619 (04.92.840.8),http://gamli.rvk.is/vefur/owa/edutils.parse_page?nafn=BN025619,Látrasel 7,aukaíbúð á neðri hæð.,Frestað. Vísað til athugasemda á umsóknarblaði. Málinu vísað til umsagnar gatnamálastjóra vegna fjölgunar á bílastæðum.,"Sótt er um leyfi til þess að taka í notkun óútfyllt rými á neðri hæð, koma fyrir gluggum á norðvestur- og suðausturhlið neðri hæðar, innrétta aukaíbúð á neðri hæð húss og fjölga bílastæðum úr tveimur í fjögur á lóðinni nr. 7 við Látrasel.  Útskrift úr gerðabók embættis afgreiðslufundar skipulagsfulltrúa frá 14. júní 2002 fylgir erindinu. Bréf hönnuðar dags. 13. ágúst 2002 fylgir erindinu. Stækkun: 1. hæð xx Gjald kr. 4.800 + xx"
25616 (04.32.640.2),http://gamli.rvk.is/vefur/owa/edutils.parse_page?nafn=BN025616,Lyngháls 4,salatbar á 1.hæð,Frestað. Vísað til athugasemda á umsóknarblaði.,Sótt er um leyfi til þess að innrétta salatbar á fyrstu hæð og koma fyrir millilofti með aðstöðu starfsólks í rými 0102 í hússinu á lóðinni nr. 4 við Lyngháls. Útskrift úr gerðabók embættisafgreiðslufundar skipulagsfulltrúa frá 6. september 2002 fylgir erindinu. Stærð: Stækkun milliloft xx ferm. Gjald kr. 4.800
25712 (04.37.550.5),http://gamli.rvk.is/vefur/owa/edutils.parse_page?nafn=BN025712,Lækjarás 1,Sólstofa,Frestað. Vísað til athugasemda á umsóknarblaði. Málinu vísað til skipulagsfulltrúa til ákvörðunar um grenndarkynningu. Vísað er til uppdrátta nr. 1-3 ódags.,"Sótt er um leyfi til þess að byggja sólstofu á svölum á vesturhlið hússins á lóðinni nr. 1 við Lækjarás. Samþykki nágranna, Kleifarási 2, Lækjarási 3 og Vesturási 53 (ódags.) fylgir erindinu. Stærð: Stækkun, sólstofa xx.  Gjald kr. 4.800 + xx"
25753 (02.84.820.2),http://gamli.rvk.is/vefur/owa/edutils.parse_page?nafn=BN025753,Miðhús 32,svalir,Samþykkt.  Samræmist ákvæðum laga nr. 73/1997.,Sótt er um leyfi til þess að breyttar útliti svala (sem enn eru óbyggðar) við vesturhlið einbýlishúss á lóð nr. 32 við Miðhús. Gjald kr. 4.800
25392 (01.11.530.3),http://gamli.rvk.is/vefur/owa/edutils.parse_page?nafn=BN025392,Mýrargata 26,br. í vinnust.,Samþykkt.  Samræmist ákvæðum laga nr. 73/1997. Áskilin lokaúttekt byggingarfulltrúa.,"Sótt er um leyfi til þess að breyta innra fyrirkomulagi og útliti og innrétta vinnustofur í  iðnaðarhúsi á lóðinni nr. 26 við Mýrargötu. Samkomulag Reykjavíkurhafnar og umsækjanda, samþykki eiganda dags. 5. júlí 2002, brunahönnun VSI endurskoðuð 12. ágúst 2002, yfirlýsing burðarvirkishönnuðar dags. 29. júlí 2002 og bréf Reykjavíkurhafnar dags. 15. ágúst 2002 fylgja erindinu. Gjald kr. 4.800"
25693 (01.18.212.5),http://gamli.rvk.is/vefur/owa/edutils.parse_page?nafn=BN025693,Njálsgata 23,Matsala,Frestað. Vísað til athugasemda á umsóknarblaði.,Sótt er um leyfi til þess að innrétta eldhús og hafa matsölu í áður verslunarrými á 1. hæð matshluta 02 á lóð nr. 23 við Njálsgötu. Gjald kr. 4.800
25544 (01.19.020.7),http://gamli.rvk.is/vefur/owa/edutils.parse_page?nafn=BN025544,Njálsgata 34,Reyndarteikningar,Frestað. Vísað til athugasemda á umsóknarblaði.,Sótt er um samþykki fyrir reyndarteikningum hússins á lóðinni nr. 34 við Njálsgötu.  Sýnd er séreign (ósamþ. íb.) í kjallara hússins. Virðingargjörð dags. 1. september 1942 fylgir erindinu. Gjald kr. 4.800
25726,http://gamli.rvk.is/vefur/owa/edutils.parse_page?nafn=BN025726,Njörvasund 2A,Dreifistöð,Frestað. Vísað til athugasemda á umsóknarblaði. Málinu vísað til skipulagsfulltrúa til ákvörðunar um grenndarkynningu. Vísað er til uppdráttar nr. 1 dags. september 2000. Helga Guðmundsdóttir vék af fundi við afgreiðslu málsins.,"Sótt er um leyfi til þess að byggja dreifistöð Orkuveitu Reykjavíkur á lóðinni nr 2A við Njörvasund. Stærð: Dreifistöð 15,3 ferm. og 41,4 rúmm. Gjald kr. 4.800 + 1.987"
25252 (01.23.520.1),http://gamli.rvk.is/vefur/owa/edutils.parse_page?nafn=BN025252,Nóatún 17,"viðbygging, breyting úti",Frestað. Vísað til athugasemda á umsóknarblaði.,"Sótt er um leyfi til þess að endurnýja byggingarleyfi fyrir 4. hæð norðurhúss, breyta innra skipulagi verslunar 0101, breyta stærðum verslana 0101, 0102 og 0105, stækka anddyri og gera skyggni yfir inngang við verslun 0101 í suðurálmu hússins á lóðinni nr. 17 við Nóatún. Útskrift úr gerðabók embættisafgreiðslufundar skipulagsfulltrúa frá 2. ágúst 2002 fylgir erindinu. Stærð: Ofanábygging 4.  hæð norðurhúss 103,3 ferm. og 330,6 rúmm., stækkun anddyris 30,9 ferm., 94,2 rúmm.,  Gjald kr. 4.800 + 20.390"
25118 (04.12.640.1),http://gamli.rvk.is/vefur/owa/edutils.parse_page?nafn=BN025118,Ólafsgeisli 95,Einbýlishús,Samþykkt.  Samræmist ákvæðum laga nr. 73/1997. Frágangur á lóðamörkum verði gerður í samráði við lóðarhafa aðliggjandi lóða.,"Sótt er um leyfi til þess að byggja tvílyft einbýlishús með innbyggðri bílgeymslu klætt timbri, málmplötum og steinflísum á lóðinni nr. 95 við Ólafsgeisla. Bréf hönnuðar dags. 21. maí 2002 fylgir erindinu. Stærð: Íbúð 1. hæð 90 ferm., 2. hæð 113,8 ferm., bílgeymsla 30 ferm., samtals 233,8 ferm., 840 rúmm. Gjald kr. 4.800 + 40.320"
25734 (04.13.330.1),http://gamli.rvk.is/vefur/owa/edutils.parse_page?nafn=BN025734,Prestastígur 6-8,(nr. 6)  loftnet,Samþykkt.  Samræmist ákvæðum laga nr. 73/1997.,Sótt er um leyfi til þess að koma fyrir mastri með loftnetssendum á þaki hússins nr. 6 á lóðinni nr. 6-8 við Prestastíg. Gjald kr. 4.800
25744 (04.38.860.2),http://gamli.rvk.is/vefur/owa/edutils.parse_page?nafn=BN025744,Selásbraut 109,reyndarteikningar,Frestað. Vísað til athugasemda á umsóknarblaði.,Sótt er um samþykki fyrir reyndarteikningum af Selásskóla á lóðinni nr. 109 við Selásbraut. Gjald kr. 4.800
25697 (01.13.010.5),http://gamli.rvk.is/vefur/owa/edutils.parse_page?nafn=BN025697,Seljavegur 2,Yogastöð á 5. hæð,Frestað. Vísað til athugasemda á umsóknarblaði.,Sótt er um leyfi til þess að innrétta yogastöð á 5. hæð matshluta 01 á lóð nr. 2 við Seljaveg. Bréf rekstraraðila dags. 26. ágúst 2002 fylgir erindinu. Gjald kr. 4.800
25317 (01.13.010.5),http://gamli.rvk.is/vefur/owa/edutils.parse_page?nafn=BN025317,Seljavegur 2,reyndarteikningar,Samþykkt.  Samræmist ákvæðum laga nr. 73/1997. Áskilin lokaúttekt byggingarfulltrúa.,"Sótt er um samþykki fyrir núverandi innra skipulagi á öllum hæðum skrifstofu- og verslunarhúss, matshluta 01,  á lóð nr. 2 við Seljaveg. Umboð til hönnuðar dags. 25. júní 2002, ljósrit af bréfi til leigutaka 5. hæðar dags. 11. júní 2002 og bréf hönnuðar dags. 15. júlí 2002 fylgja erindinu. Gjald 4.800"
25663 (01.80.620.1),http://gamli.rvk.is/vefur/owa/edutils.parse_page?nafn=BN025663,Seljugerði 1,"stækka 1.hæð, óuppfyllt rými og setja tvo glugga á austurhlið fyrstu hæðar.",Frestað. Vísað til athugasemda á umsóknarblaði.,"Sótt er um leyfi til þess að taka í notkun óuppfyllt sökkulrými á fyrstu hæð og setja tvo glugga á austurhlið fyrstu hæðar í húsinu á lóðinni nr. 1 við Seljugerði. Stærð: Stækkun samtals 33,1 ferm. og 89,4 rúmm.  Gjald kr. 4.800 + 4.291"
22583 (01.36.430.9),http://gamli.rvk.is/vefur/owa/edutils.parse_page?nafn=BN022583,Sigtún 31 ,Áður gerðar íbúðir,Frestað. Vísað til athugasemda á umsóknarblaði.,"Sótt er um samþykki fyrir áður gerðri íbúð í kjallara (íb. 0002) og afmörkun rishæðar (íb. 0301) hússins nr. 31 við Sigtún.  Virðingargjörð dags. 29. maí 1948 fylgir erindinu. Skoðunarskýrsla byggingarfulltrúa dags. 9. febrúar 2001 (risíbúð), 5. júlí 2001 (risíbúð) og 22. desember 2000 (kjallari) fylgir erindinu. Samþykki meðeigenda (ódags.) fylgir erindinu. Gjald kr. 4.100"
25732 (01.29.510.5),http://gamli.rvk.is/vefur/owa/edutils.parse_page?nafn=BN025732,Síðumúli 23,opna milli matshluta,Frestað. Vísað til athugasemda eldvarnaeftirlits.,Sótt er um leyfi til þess að opna milli matshluta og breyta innra skipulagi á hluta 1. hæðar atvinnuhúss á lóð nr. 23 við Síðumúla. Béf buðavirkishönnuðar dags. 20. ágúst 2002 fylgir erindinu. Gjald kr. 4.800
25626 (01.29.210.5),http://gamli.rvk.is/vefur/owa/edutils.parse_page?nafn=BN025626,Síðumúli 7-9,"Klæðning, endurn. byggingaleyfis",Samþykkt.  Samræmist ákvæðum laga nr. 73/1997.,"Sótt er um endurnýjun á byggingarleyfi frá 24. ágúst 1999 þar sem sótt var um ""leyfi til þess að klæða útveggi framhússins með sléttri plötuklæðningu (alucubond) og breyta skyggni á lóðinni nr. 7-9 við Síðumúla."" Samþykki meðeiganda dags. 2. september 2002 fylgir erindinu. Gjald kr. 4.800"
25762 (04.92.530.7),http://gamli.rvk.is/vefur/owa/edutils.parse_page?nafn=BN025762,Skagasel 9,br. f. sambýli,Frestað. Vísað til athugasemda á umsóknarblaði.,"Sótt er um leyfi til þess að breyta einbýlishúsi fyrir sambýli fatlaðra, bæta við herbergi, breikka dyraop og breyta herbergjastærðum í húsinu á lóð nr. 9 við Skagasel. Gjald kr. 4.800"
25708 (01.15.310.2),http://gamli.rvk.is/vefur/owa/edutils.parse_page?nafn=BN025708,Skúlagata 20,lokun á svölum,Frestað. Vísað til athugasemda á umsóknarblaði.,Sótt er um leyfi til þess að útbúa sólstofur á svölum nokkurra íbúða hússins á lóðinni nr. 20 við Skúlagötu. Samþykki meðeigenda (ódags.) fylgir erindinu. Stærð: Sólstofur xx Gjald kr. 4.800 + xx
25122 (01.22.000.6),http://gamli.rvk.is/vefur/owa/edutils.parse_page?nafn=BN025122,Skúlagata 57,Byggja ofan á svalir.,Frestað. Vísað til athugasemda á umsóknarblaði.,Að lokinni grenndarkynningu er lögð fram að nýju umsókn þar sem sótt er um leyfi til þess að byggja ofan á hluta svala á fjórðu hæð húsanna á lóðinni nr. 57 við Skúlagötu og nr. 6 við Skúlatún. Málið var í kynningu frá 3. júlí til 1. ágúst 2002. Engar athugasemdir bárust. Bréf umsækjanda dags. 21. maí 2002 fylgir erindinu. Stærð: Stækkun viðbygging xx Gjald kr. 4.800 + xx
25121 (01.22.000.5),http://gamli.rvk.is/vefur/owa/edutils.parse_page?nafn=BN025121,Skúlatún 6,Byggja í skarð,Frestað. Vísað til athugasemda á umsóknarblaði.,Að lokinni grenndarkynningu er lögð fram að nýju umsókn þar sem sótt er um leyfi til þess að byggja tvær hæðir ofan á aðra hæð suðurhluta hússins nr. 6 við Skúlatún. Málið var í kynningu frá 3. júlí til 1. ágúst 2002. Engar athugasemdir bárust. Bréf umsækjanda dags. 21. maí 2002 og bréf hönnuða dags. 18. júní 2002 fylgja erindinu. Samþykki meðeigenda (á teikn.) fylgir erindinu. Stærð: Stækkun xx Gjald kr. 4.800 + xx
25216 (01.42.100.1),http://gamli.rvk.is/vefur/owa/edutils.parse_page?nafn=BN025216,Skútuvogur 1,Br. inni á 1. og 2. h,Frestað. Vísað til athugasemda eldvarnaeftirlits.,"Sótt er um leyfi til þess að breyta innra skipulagi á 1. og 2. hæð í stigahúsi 1G í klifuræfingasal í atvinnuhúsinu á lóð nr. 1 við Skútuvog. Bréf eiganda dags. 27. ágúst 2002 fylgir erindinu. Stærð: Stækkun 2. hæð, millihæð, 103,1 ferm.  Gjald kr. 4.800"
25660 (01.23.210.1),http://gamli.rvk.is/vefur/owa/edutils.parse_page?nafn=BN025660,"0"">Sóltún 24-26","reyndarteikn., hús nr. 24",Frestað. Vísað til athugasemda á umsóknarblaði.,Sótt er um samþykki fyrir núverandi innraskipulagi í kjallara og breytingum á handriðum við hús nr. 24 á lóð nr. 24-26 við Sóltún. Gjald kr. 4.800
21816 (04.92.400.7),http://gamli.rvk.is/vefur/owa/edutils.parse_page?nafn=BN021816,Staðarsel 8 ,Reyndarteikningar,Samþykkt þann 4. september 2002. Samræmist ákvæðum laga nr. 73/1997.,"Sótt er um samþykki fyrir reyndarteikningum af húsinu á lóðinni nr. 8 við Staðarsel vegna gerðar eignaskiptayfirlýsingar. Útliti norður- og austurhliðar hefur verið breytt og í kjallara hefur óuppfyllt rými verið tekið í notkun. Stærð: Stækkun kjallari 68,3 ferm. og 166,0 rúmm. Gjald kr. 4.100 + 7.968"
23969 (01.71.400.2),http://gamli.rvk.is/vefur/owa/edutils.parse_page?nafn=BN023969,Stakkahlíð 17,"Niðurrif, nýbygging, 10 íbúðir.",Frestað. Lagfæra skráningartöflu.,"Sótt er um leyfi til þess að rífa verslunarhúsnæði og byggja í þess stað tvílyft steinsteypt fjölbýlishús með tíu íbúðum á lóðinni nr. 17 við Stakkahlíð.  Bílakjallari með tíu bílastæðum er undir húsinu. Stærð: Verslunarhús sem verður rifið (matshl. 01, landnr. 107251, fastanr. 203-1320) skráð 339,0 ferm. og 1406 rúmm. Nýbygging: Kjallari, bílgeymsla 463,5 ferm., geymslur o.fl 220,2 ferm. 1. hæð íbúðir 526,9 ferm. 2. hæð 496,0 ferm. Samtals 1706,6 ferm. og 5113,1 rúmm. Gjald kr. 4.800 + 245.506"
25043 (01.24.600.4),http://gamli.rvk.is/vefur/owa/edutils.parse_page?nafn=BN025043,Stangarholt 8,reyndarteikningar,Frestað. Vantar samþykki meðeigenda.,Sótt er um samþykki fyrir reyndarteikningum af húsinu á lóðinni nr. 8 við Stangarholt vegna gerðar eignaskiptayfirlýsingar. Gerð er grein fyrir notkun rishæðar og eignarhaldi kjallararýma. Gjald kr. 4.800
23215 (04.08.580.2),http://gamli.rvk.is/vefur/owa/edutils.parse_page?nafn=BN023215,Stórhöfði 37,skrifstofu og þjónustubygging,Frestað. Vantar hæðar og mæliblað. Lagfæra skráningu.,Sótt er um leyfi til þess að byggja þriggja hæða skrifstofu- og þjónustubyggingu úr steinsteypu á lóðinni nr. 37 við Stórhöfða.  Bréf hönnuðar dags. 20. ágúst 2002 og skýrsla um brunahönnun dags. 20. ágúst 2002 fylgja erindinu. Stærð xx Gjald kr. 4.100 + xx
25763 (04.92.310.1),http://gamli.rvk.is/vefur/owa/edutils.parse_page?nafn=BN025763,Stuðlasel 2,br. stofu í herb.,Frestað. Vísað til athugasemda á umsóknarblaði.,Sótt er um leyfi til þess að fjölga um tvö herbergi og setja nýjan glugga á norðurhlið sambýlis á lóð nr. 2 við Stuðlasel. Gjald kr. 4.800
25559 (01.26.110.1),http://gamli.rvk.is/vefur/owa/edutils.parse_page?nafn=BN025559,Suðurlandsbr. 2,Reyndarteikningar,Frestað. Málinu vísað til umsagnar skipulagsfulltrúa. Vísað til athugasemda á umsóknarblaði.,"Sótt er um samþykki fyrir leiðréttum uppdráttum af Hótel Esju, fyrir breyttu útliti, breyttu innra skipulagi, breyttum stærðum húss og breyttum lóðarfrágangi þar sem hætt er við að byggja opna bílgeymslu vestan við hótelið  á lóð nr. 2 við Suðurlandsbraut. Stærð: Samtals var stækkun húss 6677,7 ferm. verður 6353,5 ferm., var 23202,4 rúmm. verður 22479,2 rúmm. Opin bílgeymsla var 626,2 ferm. Gjald kr. 4.800"
25721 (01.26.200.1),http://gamli.rvk.is/vefur/owa/edutils.parse_page?nafn=BN025721,Suðurlandsbr. 4-4A,br. á 1. hæð ,Frestað. Vísað til athugasemda á umsóknarblaði.,Sótt er um leyfi til þess að fella niður brunakröfu á lokun milli vinnsluhluta og verslunar - kaffihúss á 1. hæð húss nr. 4A á lóð nr. 4-4A við Suðurlandsbraut. Gjald kr. 4.800
25379 (01.26.210.2),http://gamli.rvk.is/vefur/owa/edutils.parse_page?nafn=BN025379,Suðurlandsbr. 6,stækkun veitingasalar,Samþykkt.  Samræmist ákvæðum laga nr. 73/1997. Áskilið samþykki heilbrigðiseftirlits. Áskilin lokaúttekt byggingarfulltrúa.,Sótt er um leyfi til þess að breyta innra fyrirkomulagi og stækka veitingasal á fyrstu hæð matshluta 03 á lóðinni nr. 6 við Suðurlandsbraut. Jafnframt er erindi 25217 dregið til baka. Samþykki meðeigenda (á teikn.) fylgir erindinu.  Gjald kr. 4.800
25729 (01.36.100.5),http://gamli.rvk.is/vefur/owa/edutils.parse_page?nafn=BN025729,Sundlaugavegur 20,íbúð í kjallara,Frestað. Vísað til athugasemda á umsóknarblaði. Málinu vísað til umsagnar skipulagsfulltrúa og gatnamálastjóra vegna bílastæða á lóð.,Sótt er um samþykki fyrir áður gerðri stækkun kjallaraíbúðar og smávægilegri breytingu á stærð sameiginlegs þvottahúss í kjallara fjölbýlishúss á lóð nr. 20 við Sundlaugarveg. Gjald kr. 4.800
25700 (01.45.440.1),http://gamli.rvk.is/vefur/owa/edutils.parse_page?nafn=BN025700,Súðarvogur 36,reyndarteikningar,Frestað. Vísað til athugasemda á umsóknarblaði. Málinu vísað til umsagnar skipulagsfulltrúa vegna eignatengsla íbúðar við atvinnuhúsnæði.,Sótt er um samþykki fyrir reyndarteikningum af húsinu á lóðinni nr. 36 við Súðarvog. Gert er grein fyrir íbúð og vinnustofu á annarri hæð hússins. Gjald kr. 4.800
25725 (01.21.630.3),http://gamli.rvk.is/vefur/owa/edutils.parse_page?nafn=BN025725,Sætún 8,breyting á eignaskiptingu,Samþykkt.  Samræmist ákvæðum laga nr. 73/1997.,"Sótt er um leyfi til þess að fjölga eignum og breyta matshlutaskiptingu vegna gerðar eignaskiptayfirlýsingar á lóð nr. 8 við Sætún. Skráning hússins verður eftirfarandi: Matshluti 01: Matshlutanum er skipt í 3 eignir. Skil milli eigna er ávallt í hæðarskilum. Áður var matshlutinn ein eign.  Matshlutinn var áður nefndur G-hús. Matshluti 02: Matshlutum sem áður hétu 02, 08 og 09 er slegið saman í einn matshluta sem er 02. Skil milli eigna er eingöngu í hæðarskilum, nema á 2. hæð þar sem er steyptur órofinn veggur milli eigna. Matshlutanum er skipt í sjö eignir en var áður fjórar skv. FMR.  Matshlutar 02, 08 og 09 voru áður nefndir A-, C- og B-hús. Matshluti 03: Matshluti 03 verður sérstök eign. Áður voru matshlutar 03, 04 og 05 taldir ein eign. Matshlutinn var áður nefndur D-hús. Matshluti 04: Matshluti 04 verður sérstök eign. Áður voru matshlutar 03, 04 og 05 taldir ein eign. Matshlutinn var áður nefndur E-hús. Matshluti 05: Matshlutinn verður sérstök eign. Áður voru matshlutar 03, 04 og 05 taldir ein eign. Matshlutinn var áður nefndur F-hús. Aðaluppdráttur af matshlutanum hefur verið lagður inn hjá byggingarfulltrúa til samþykktar. Matshluti 06: Óbreytt ástand, þ.e. matshlutinn er áfram ein eign. Matshluti 07: Matshlutinn verður sérstök eign. Ekki er vitað hvar hann var skráður hjá FMR. Aðaluppdráttur af matshlutanum hefur verið lagður inn hjá byggingarfulltrúa til samþykktar. Gjald kr. 4.800"
25714 (02.34.000.4),http://gamli.rvk.is/vefur/owa/edutils.parse_page?nafn=BN025714,Tröllaborgir 18,Breyting,Samþykkt.  Samræmist ákvæðum laga nr. 73/1997.,"Sótt er um leyfi til þess að breyta hluta óuppfyllts sökkulrýmis í geymslu í íbúðarhúsi á lóð nr. 18 við Tröllaborgir. Stærð: Geymsla á 1. hæð 51,2 ferm., 148,4 rúmm. Gjald kr. 4.800 + 7.125"
25602 (04.32.920.1),http://gamli.rvk.is/vefur/owa/edutils.parse_page?nafn=BN025602,Tunguháls 10,stækka 1. h.-fjölga eignum.,Frestað. Leiðrétta skráningu. Vantar samþykki meðeigenda.,"Sótt er um leyfi til þess að fjölga eignarhlutum úr sjö í níu og stækka verkstæði og vörugeymslur með því að loka opinni innkeyrslu undir bílastæðapöllum á vestur- og austurhlið fyrstu hæðar iðnaðarhússins á lóðinni nr. 10 við Tunguháls.  Bréf verkfræðistofunnar Línuhönnunar varðandi eldvarnir dags. 8. ágúst 2002 fylgir erindinu. Samþykki meðeigenda (á teikn.) fylgir erindinu. Stærð: Stækkun 1. hæð 461,6 ferm. og 2013,2 rúmm. Gjald kr. 4.800 + 96.634"
17434 (04.06.320.4),http://gamli.rvk.is/vefur/owa/edutils.parse_page?nafn=BN017434,Vagnhöfði 29,Birgðaskemma,Samþykkt.  Samræmist ákvæðum laga nr. 73/1997. Frágangur á lóðamörkum verði gerður í samráði við lóðarhafa aðliggjandi lóða. Áskilin lokaúttekt byggingarfulltrúa.,"Sótt er um leyfi til að byggja birgðaskemmu með stálgrindarveggjum að hluta annars steinsteypu einangrað að utan eða innan og allt klætt með álklæðningu norðurlóðamörkum á lóð nr. 29 við Vagnhöfða. Meðfylgjandi er bréf hönnuðar dags. 19. ágúst 1998 og ljósrit af bréfi hönnuðar dags. 20. maí 1998, umsögn Skipulagsstofnunar dags. 24. júlí 1998 og greinargerð byggingarfulltrúa dags. 28. júlí 1998. Einnig fylgir ljósrit af samningi Reykjavíkurborgar, Vegagerðarinnar og Málmtækni sf. dags. 3.október 1995 og útskrift úr gerðabók embættisafgreiðslufundar skipulagsfulltrúa frá 24. maí 2002. Stærð: Birgðarskemma 277,2 ferm., tengibygging 22,8 ferm., samtals 300 ferm. 1642,5 rúmm. Gjald kr. 2.500 + 78.840"
23248 (00.08.000.1),http://gamli.rvk.is/vefur/owa/edutils.parse_page?nafn=BN023248,Varmidalur 125766,viðbygging,Samþykkt.  Samræmist ákvæðum laga nr. 73/1997.,"Sótt er um leyfi til þess að byggja steinsteypta viðbyggingu að vesturhlið einbýlishússins á lóðinni nr. 1 við Varmadal á Kjalarnesi. Viðbyggingin rúmar tvöfalda bílageymslu og stækkun á stofu hússins. Stærð: Stækkun v. bílageymslu 55,8 ferm, stækkun hússins 61,2 ferm. Samtals stækkun 117,0 ferm. og  349,7 rúmm. Gjald kr. 4.100 +16.786"
25519 (01.13.600.5),http://gamli.rvk.is/vefur/owa/edutils.parse_page?nafn=BN025519,Vesturgata 21,sameina lóðir - byggja íbúðir,Synjað. Með vísan til umsagnar og afgreiðslu skipulagsfulltrúa þann 6. september 2002.,"Sótt er um leyfi til þess að sameina lóðir nr. 21, 21B við Vesturgötu og hluta lóða 8A og 10 við Ránargötu, leyfi til þess að rífa hús nr. 21B við Vesturgötu ásamt bakhúsi og bílskúr við hús nr. 21 við Vesturgötu og byggja fjögurra hæða steinsteypt fjölbýlishús með sjö íbúðum að Vesturgötu auk tveggja steinsteyptra bakhúsa með þremur íbúðum í öðru og  fjórum íbúðum í hinu allt einangrað að utan og klætt með bárujárni og múrsteini eða samtals fjórtán nýjar íbúðir á lóð nr. 21 við Vesturgötu. Útskrift úr gerðabók embættisafgreiðslufundar skipulagsfulltrúa frá 6. september 2002 og umsögn skipulagsfulltrúa dags. 5. september 2002 fylgja erindinu. Stærð: Framhús (matshluti 02) íbúð kjallari 175,4 ferm., 1. hæð 175,5 ferm., 2. hæð 162,5 ferm., 3. hæð 109,8 ferm., 4. hæð 94,8 ferm., samtals 718 ferm., 1756,3 rúmm., bakhús (matshluti 03) íbúð 1. hæð 92,8 ferm., 2. hæð 92,8 ferm., samtals 185,6 ferm., 543 rúmm., (matshluti 04) íbúð 1. hæð 89,6 ferm., 2. hæð 78,7 ferm., samtals 168,3 ferm., 492 rúmm. Gjald kr. 4.800 + 133.982"
25539 (02.84.850.3),http://gamli.rvk.is/vefur/owa/edutils.parse_page?nafn=BN025539,Vesturhús 9,skipta eigninni í tvær íbúðir,Frestað. Lagfæra skráningartöflu.,Sótt er um leyfi til þess að breyta einbýlishúsi í tvíbýlishús og að fjölga bílastæðum úr tveimur í þrjú bílastæði á lóð nr. 9 við Vesturhús. Gjald kr. 4.800
25730 (01.19.001.8 02),http://gamli.rvk.is/vefur/owa/edutils.parse_page?nafn=BN025730,Vitastígur 14A,Reyndarteikning,Frestað. Vísað til athugasemda á umsóknarblaði.,"Sótt er um samþykki fyrir afmörkun tveggja séreigna á 1. hæð, áður gerðum kvistum á vesturþekju, áður gerðri íbúð á rishæð og breyttu innra skipulagi íbúðar á 2. hæð húss nr. 14A á lóð nr. 14 við Vitastíg. Gjald kr. 4.800"
25738 (01.54.001.9),http://gamli.rvk.is/vefur/owa/edutils.parse_page?nafn=BN025738,Víðimelur 48,bað í kj. af sameign.,Frestað. Vísað til athugasemda á umsóknarblaði.,Sótt er um leyfi til þess að minnka þvottahús og innrétta bað fyrir kjallaraíbúð í fjölbýlishúsi á lóð nr. 48 við Víðimel. Samþykki meðeigenda (á  teikningu) fylgir erindinu. Gjald kr. 4.800
25706 (04.13.570.3),http://gamli.rvk.is/vefur/owa/edutils.parse_page?nafn=BN025706,Þorláksgeisli 72,breytt byggingaraðferð,Frestað. Lagfæra skráningu.,"Sótt er um leyfi til þess að breyta byggingaraðferð hússins á lóðinni nr. 72 við Þorláksgeisla. Í stað þess að vera einangrað að innan á hefðbundinn hátt verður húsið einangrað og klætt utan með múrkerfi og steinflísum. Bréf hönnuðar dags. 22. ágúst 2002 fylgir erindinu. Stærð: Stækkun: Húsið var áður skráð samtals 226,7 ferm. og 857,0 rúmm en verður nú 233,8 ferm og 892,4 rúmm. Stækkun 7,1 ferm. og 35,4 rúmm. Gjald kr. 4.800 + 1.699"
25414 (05.13.170.1),http://gamli.rvk.is/vefur/owa/edutils.parse_page?nafn=BN025414,Þórðarsveigur 1-9,Fjölb. m. 48 íb. og bílg.,Frestað. Lagfæra skráningu.,"Sótt er um leyfi til þess að byggja steinsteypt fjölbýlishús frá þriggja upp í fimm hæða með samtals fjörutíu og átta íbúðum, allt einangrað að utan og klætt með báraðri og sléttri álklæðningu, ásamt neðanjarðar bílgeymslu fyrir 43 bíla á lóð nr. 1-9 við Þórðarsveig. Jafnframt er lagt til að hús verði framvegis nr. 1-5 við Þórðarsveig. Bréf hönnuðar dags. 22. júlí 2002 fylgir erindinu. Stærð: Fjölbýlishús (matshluti 01), Kjallari geymslur o.fl. 84,9 ferm., 1. hæð íbúðir, geymslur o.fl. 1210,5 ferm., 2. hæð íbúðir 1106,5 ferm., 3. hæð íbúðir 1106,5 ferm., 4. hæð 641,3 ferm., 5. hæð 332,3 ferm. Samtals 4482 ferm. og 12899,6 rúmm. Bílageymsla (matshl. 02) Kjallari bílageymslur o.fl. (A-rými) 1100,5 ferm. og 3077,9 rúmm. Gjald kr. 4.800 + 766.920"
25330 (05.13.350.1),http://gamli.rvk.is/vefur/owa/edutils.parse_page?nafn=BN025330,Þórðarsveigur 2-12,fjölbýlish. m. 61 íb.+ bílg.,Samþykkt.  Samræmist ákvæðum laga nr. 73/1997. Frágangur á lóðamörkum verði gerður í samráði við lóðarhafa aðliggjandi lóða. Áskilin lokaúttekt byggingarfulltrúa.,"Sótt er um leyfi til þess að byggja fjögurra til fimm hæða steinsteypt fjölbýlishús með sextíu og einni íbúð auk þjónustuhúsnæðis og neðanjarðarbílgeymslu fyrir 55 bíla á lóð nr. 2-12 við Þórðarsveig. Jafnframt er lagt til að lóð verði framvegis nr. 2-6 við Þórðarsveig. Bréf hönnuðar dags. 25. júní 2002 fylgir erindinu. Stærð: Hús nr. 2 (matshluti 01) Íbúð kjallari 279,9 ferm., 1.-4. hæð 407,6 ferm., samtals 1910,3 ferm., 5736,1 rúmm. Hús nr. 4 (matshluti 02) Íbúð kjallari 222,1 ferm., 1. hæð 395,3 ferm., 2.-4. hæð 405,6 ferm., samtals 1834,2 ferm., 5521,1 rúmm. Hús nr. 6 (matshluti 03) Íbúð kjallari 48,8 ferm., 1. hæð 279,6 ferm., 2.-5. hæð 466,6 ferm., verslun 1. hæð 200,6 ferm., samtals 2395,4 ferm., 7265,3 rúmm. Bílgeymsla (matshluti 04)  1271,2 ferm., sprinklerklefi 9,7 ferm., samtals 1280,9 ferm., 3699,6 rúmm. Gjald kr. 4.800 + 1.181.511"
25745 (01.24.430.1 04),http://gamli.rvk.is/vefur/owa/edutils.parse_page?nafn=BN025745,Þverholt 19,húsvarðaríbúð - 2.hæð,Synjað. Uppfyllir ekki ákvæði byggingarreglugerðar nr. 441/1998.,Sótt er um leyfi til þess að innrétta húsvarðaríbúð til bráðabirgða í atvinnuhúsnæði á lóðinni nr. 19 við Þverholt. Ráðgert er að rífa húsið að ári. Gjald kr. 4.800
25761 (04.30.120.1),http://gamli.rvk.is/vefur/owa/edutils.parse_page?nafn=BN025761,Grjótháls 8,Lóðarmarkabreyting,Samþykkt.  Samræmist ákvæðum laga nr. 73/1997.,"Óskað er eftir samþykkt byggingarfulltrúa á meðfylgjandi mæliblaði mælingadeildar borgarverkfræðings dags. 28. ágúst 2002, vegna lóðarinnar nr. 8 við Grjótháls. Lóðin er 7942 ferm., sbr. yfirlýsing nr. A-25867/96, dags. 20. nóvember 1996. Tekið af lóðinni að austanverðu 1820 ferm. Viðbót við lóðina til vesturs 1820 ferm. Lóðin verður 7942 ferm. Sjá samþykkt skipulagsnefndar 18. september 2000 og samþykkt borgarráðs 26. september 2000."
25785 (01.32.860.1),http://gamli.rvk.is/vefur/owa/edutils.parse_page?nafn=BN025785,Köllunarklettsvegur 3-5,Vöruflutningamiðstöð,Samþykkt.  Samræmist ákvæðum laga nr. 73/1997. Ekki er um breytingu á innréttingu húsnæðisins að ræða.,"Lögð fram bréf Aðalflutninga ehf., dags. 31. maí 2002 og 3. september 2002 þar sem óskað er eftir leyfi til þess að reka vöruflutningamiðstöð í húsinu á lóðinni nr. 3-5 við Köllunarklettsveg. Jafnframt lögð fram samþykki hafnarstjórnar frá 26. ágúst 2002 og samþykki Kassagerðar Reykjvíkur dags, 13. ágúst 2002."
25781 (04.06.130.5),http://gamli.rvk.is/vefur/owa/edutils.parse_page?nafn=BN025781,Smiðshöfði 14,Lóðarmarkabreyting,Samþykkt.  Samræmist ákvæðum laga nr. 73/1997.,"Óskað er eftir breytingu á lóðarmörkum samkvæmt meðfylgjandi mæliblaði mælingadeildar borgarverkfræðings dags. 6. september 2002. Smiðshöfði 4: Lóðin er 625 ferm., sbr. lóðarsamnign nr. 7851/79 dags. 17. apríl 1979. Viðbót úr óútvísuðu landi 50 ferm. Lóðin verður 675 ferm. Sjá samþykkt skipulags- og byggingarnefndar 24. júní 2002."
25736 (01.13.610.1),http://gamli.rvk.is/vefur/owa/edutils.parse_page?nafn=BN025736,Aðalstræti 2,(fsp) tengibygging ofl.,Frestað. Málinu vísað til umsagnar skipulagsfulltrúa.,"Spurt er hvor leyft yrði að breyta tengibyggingu, milli endursmíðaðs framhúss að Aðalstræti og fyrrverandi vöruskemmu að Vesturgötu, í glerskála í líkingu við fyrirliggjandi uppdrætti á lóð nr. 2 við Aðalstræti. Bréf hönnuðar dags. 30. ágúst 2002 fylgir erindinu."
25658 (01.38.160.2),http://gamli.rvk.is/vefur/owa/edutils.parse_page?nafn=BN025658,Austurbrún 10,(fsp) viðbygging,Nei. Samræmist ekki skipulagsskilmálum.,Spurt er hvort leyft yrði að byggja geymslu sem viðbyggingu við bílskúr í líkingu við fyrirliggjandi riss á lóð nr. 10 við Austurbrún. Útskrift úr gerðabók embætttisafgreiðslufundar skipulagsfulltrúa frá 30. ágúst 2002 fylgir erindinu.
25783 (01.82.410.8),http://gamli.rvk.is/vefur/owa/edutils.parse_page?nafn=BN025783,Ásendi 15,(fsp) br. í tvíbýli,Frestað. Málinu vísað til umsagnar skipulagsfulltrúa.,Spurt er hvort leyft yrði að breyta einbýlishúsi í tvíbýlishús þannig að neðri hæð yrði um 100 ferm. íbúð og efri hæð um 150 ferm. íbúð ásamt bílgeymslu á lóð nr. 15 við Ásenda. Bréf fyrirspyrjanda dags. 4. september 2002 fylgir erindinu.
25673 (01.85.010.2),http://gamli.rvk.is/vefur/owa/edutils.parse_page?nafn=BN025673,Efstaland 26,(fsp) byggja hæð ofaná hús o.fl.,Nei. Samræmist ekki skipulagsskilmálum.,Spurt er hvort leyft yrði að byggja smá viðbyggingu við austurhlið 1. hæðar og 3. hæðina ofaná húsið ásamt svölum og flóttastiga við suðurhlið í líkingu við fyrirliggjandi uppdrætti á lóð nr. 26 við Efstaland. Útskrift úr gerðabók embættisafgreiðslufundar skipulagsfulltrúa frá 30. ágúst 2002 fylgir erindinu. Bréf hönnuðar dags. 20. ágúst 2002 fylgir erindinu.
25742,http://gamli.rvk.is/vefur/owa/edutils.parse_page?nafn=BN025742,Eskihlíð 23,(fsp) íbúð í risi,Nei. Lofthæð of lítil.,Spurt er hvort samþykki fengist fyrir íbúð á rishæð hússins nr. 23 við Eskihlíð.
25722 (02.85.541.1),http://gamli.rvk.is/vefur/owa/edutils.parse_page?nafn=BN025722,Fannafold 31,(fsp) bílskúr ofl.,Jákvætt. Að uppfylltum skilyrðum. Þegar og ef byggingarleyfisumsókn berst verður málið sent í grenndarkynningu. Ath. sólstofa fer út fyrir byggingarreit.,"Spurt er hvort leyft yrði að byggja bílgeymslu, sólstofu og anddyri við húsið á lóðinni nr. 31 við Fannafold."
25689 (01.63.660.8),http://gamli.rvk.is/vefur/owa/edutils.parse_page?nafn=BN025689,Fossagata 13,fsp. Fjölga eignum í tvær.,Jákvætt. Að uppfylltum skilyrðum.,Spurt er hvort leyft yrði að skipta húsi í tvær íbúðir með sameiginlegu stigahúsi og sameign í hluta kjallara íbúðarhúss á lóð nr. 13 við Fossagötu. Útskrift úr gerðabók embættisafgreiðslufundar skipulagsfulltrúa frá 6. september 2002 fylgir erindinu.
25599 (01.43.510.4),http://gamli.rvk.is/vefur/owa/edutils.parse_page?nafn=BN025599,Glaðheimar 24,fsp. viðbygging rishæð,Jákvætt. Að uppfylltum skilyrðum og með vísan til umsagnar skipulagsfulltrúa.,Spurt er hvort leyft yrði að byggja viðbyggingu yfir hluta af svölum á suðvesturhlið rishæðar hússins á lóðinni nr. 24 við Glaðheima. Útskrift úr gerðabók embættisafgreiðslufundar skipulagsfulltrúa frá 30. ágúst 2002 fylgir erindinu. Gjald kr. 4.800
25541 (02.34.420.7),http://gamli.rvk.is/vefur/owa/edutils.parse_page?nafn=BN025541,Goðaborgir 8,(fsp) þakgluggi,Jákvætt. Að uppfylltum skilyrðum.,Spurt er hvort leyft yrði að setja þakglugga yfir geymslu á fjórðu hæð fjölbýlishúss á lóð nr. 8 við Goðaborgir.
25443 (01.19.000.1),http://gamli.rvk.is/vefur/owa/edutils.parse_page?nafn=BN025443,Grettisgata 26,fsp. grindverk,Jákvætt. Að uppfylltum skilyrðum.,"Spurt er hvort leyft yrði að reisa grindverk allt að 1,8 m hátt á lóðamökum að gangstétt á lóð nr. 26 við Grettisgötu. Umsögn gatnamálastjóra dags. 27. ágúst 2002 fylgir erinidnu. Bréf fyrirspyrjanda dags. 28. júní 2002 fylgir erindinu."
25408,http://gamli.rvk.is/vefur/owa/edutils.parse_page?nafn=BN025408,Grjótháls v/Vesturlandsv.,(fsp) bílaþvottastöð,Nei. Með vísan til umsagnar verkfræðistofu.,Spurt er hvort leyft yrði að byggja þvottastöð fyrir bíla við Grjótháls. Útskrift úr gerðabók embættisafgreiðslufundar skipulagsfulltrúa frá 30. ágúst 2002 fylgir erindinu. Bréf hönnuða dags. 3. júlí 2002 fylgir erindinu
25759 (04.68.470.1 07),http://gamli.rvk.is/vefur/owa/edutils.parse_page?nafn=BN025759,Gyðufell 14,(fsp) br. innr. í íb. 3. hv,Jákvætt. Miðað við tillögu B enda komi til samþykki meðeigenda í húsinu.,Spurt er hvort leyft yrði að fjölga svefnherbergjum í íbúð á 3. hæð með því að (tillaga A) færa eldhús inn í stofu eða (tillaga B) færa eldhús inn í stækkaða stofu eftir að bað hefur verið fært í húsinu nr. 14 á lóð nr. 2-16 við Gyðufell. Bréf fyrirspyrjanda dags. 3. september 2002 fylgir erindinu
25520 (01.83.001.2),http://gamli.rvk.is/vefur/owa/edutils.parse_page?nafn=BN025520,Hamarsgerði 2,(fsp) bílskúr,Jákvætt. Að uppfylltum skilyrðum.,Spurt er hvort leyfi fengist fyrir bílskúr á lóð nr. 2 við Hamarsgerði. Útskrift úr gerðabók embættisafgreiðslufundar skipulagsfulltrúa frá 30. ágúst 2002 fylgir erindinu.
25535 (01.11.150.1),http://gamli.rvk.is/vefur/owa/edutils.parse_page?nafn=BN025535,Hólmaslóð 2,fsp. Æfingaaðstaða,"Jákvætt. Að uppfylltum skilyrðum, sbr. bréf Reykjavíkurhafnar.",Spurt er hvort leyft yrði að breyta innra skipulagi byggingar á annarri hæð í æfingaaðstöðu fyrir hljómsveitir og einstaklinga sem sinna listsköpun á lóð nr. 2 við Hólmaslóð. Bréf umsækjanda ódags. og bréf Reykjavíkurhafnar dags. 14. ágúst 2002 fylgja erindinu
25755 (01.15.242.6),http://gamli.rvk.is/vefur/owa/edutils.parse_page?nafn=BN025755,Hverfisgata 45,fsp. gistiheimili,Frestað. Málinu vísað til umsagnar skipulagsfulltrúa.,Spurt er hvort leyft yrði að starfrækja gistiheimili í húsinu á lóðinni nr. 45 við Hverfisgötu.
25746 (04.11.370.4),http://gamli.rvk.is/vefur/owa/edutils.parse_page?nafn=BN025746,Jónsgeisli 43,(fsp) br. einbýli í tvíbýli,Nei. Samræmist ekki skipulagsskilmálum.,Spurt er hvort leyft yrði að breyta í tvær sjálfstæðar íbúðir einbýlishúsi á lóðinni nr. 43 við Jónsgeisla. Bréf umsækjenda dags. 2. september 2002 fylgir erindinu.
25704 (32.47.250.1),http://gamli.rvk.is/vefur/owa/edutils.parse_page?nafn=BN025704,Jörfagrund 2,fsp. raðhús og parhús,Frestað. Málinu vísað til umsagnar skipulagsfulltrúa.,"Spurt er hvort leyft yrði að breyta skipulagi og byggja tvö raðhús og eitt parhús eða samtals tíu íbúðir á einbýlishúsalóðunum nr. 2, 4, 6, 8 og 10 við Jörfagrund á Kjalarnesi. Bréf hönnuðar dags. 10. apríl 2001 fylgir erindinu."
25719 (01.15.221.2),http://gamli.rvk.is/vefur/owa/edutils.parse_page?nafn=BN025719,Klapparstígur 11,(fsp) íbúð á jarðhæð,Nei. Ekki er leyft að gera nýjar íbúðir í kjallara.,Spurt er hvort samþykki fengist fyrir íbúð í skráðu iðnaðarhúsnæði á jarðhæð hússins nr. 11 við Klapparstíg.
25696 (01.44.510.7),http://gamli.rvk.is/vefur/owa/edutils.parse_page?nafn=BN025696,Langholtsvegur 188,(fsp) áður gerður skúr.,Frestað. Málinu vísað til umsagnar skipulagsfulltrúa.,Spurt er hvort samþykki fengist fyrir áður gerðum geymsluskúr á lóðinni nr. 188 við Langholtsveg.
25728 (01.70.110.4),http://gamli.rvk.is/vefur/owa/edutils.parse_page?nafn=BN025728,Miklabraut 46,(fsp.) svalir á ris,Frestað. Málinu vísað til umsagnar skipulagsfulltrúa.,Spurt er hvort leyft yrði að setja svalir á rishæð á útbyggingu við suðurhlið fjölbýlishússins á lóð nr. 46 við Miklubraut.
25784 (04.68.550.1),http://gamli.rvk.is/vefur/owa/edutils.parse_page?nafn=BN025784,Möðrufell 1-15,Gestabílastæði,Umsókn um breytingu á skipulagi lóðar verður að berast frá húseigenda.,Spurt er hvenær gerð verði gestabílastæði á lóðinni nr. 1-15 við Möðrufell.
25724 (01.18.222.7),http://gamli.rvk.is/vefur/owa/edutils.parse_page?nafn=BN025724,Njálsgata 20,(fsp) samþykkt íbúð,Frestað. Vantar íbúðarskoðun byggingarfulltrúa.,Spurt er hvort samþykki fengist fyrir áður gerðri íbúð á jarðhæð hússins á lóðinni nr. 20 við Njálsgötu. Virðingargjörð dags. 24. nóvember 1917 fylgir erindinu. Endurrit úr uppboðsbók Reykjavíkur dags. 13. marz 1959 fylgir erindinu.
25741 (04.60.820.3),http://gamli.rvk.is/vefur/owa/edutils.parse_page?nafn=BN025741,Ósabakki 1-7,(fsp)  nr.7  þak,Jákvætt. Að uppfylltum skilyrðum þ.m.t. samþykki meðeigenda.,Spurt er hvort leyft yrði að byggja skyggni yfir svalir á annarri hæð hússins nr. 7 við Ósabakka. Bréf umsækjanda dags. 2. september 2002 fylgir erindinu.
25618 (01.82.230.8),http://gamli.rvk.is/vefur/owa/edutils.parse_page?nafn=BN025618,Rauðagerði 61,fsp. bílskúr ,Jákvætt. Með vísan til umsagnar skipulagsfulltrúa dags. 27. ágúst 2002.,Spurt er hvort: 1. Samþykki fengist nú fyrir bílskúr sem samþykktur var 1983 en aldrei byggður. 2. Samþykki fengist fyrir stærri bílskúr en samþykktur var 1983. 3. Samþykki fengist fyrir viðbyggingu að vesturhlið íbúðarhússins á lóðinni nr. 61 við Rauðagerði. Útskrift úr gerðabók embættisafgreiðslufundar skipulagsfulltrúa frá 30. ágúst 2002 og umsögn skipulagsfulltrúa dags. 27. ágúst 2002 fylgir erindinu.
25764 (04.38.360.1),http://gamli.rvk.is/vefur/owa/edutils.parse_page?nafn=BN025764,Reykás 39-43,(fsp) nr. 41 geymsl. í risi,Ekki er að sjá annað en að hér sé um sameignarými að ræða og ber að haga umsókn í samræmi við ákvæði fjöleignarhúsalaga og skipulags- og byggingarlaga.,Spurt er hvort leyft yrði að setja stiga upp á loft og nýta það fyrir geymslu íbúðar 0302 í húsi nr. 41 á lóð nr. 39-43 við Reykás.
25731 (01.13.210.3),http://gamli.rvk.is/vefur/owa/edutils.parse_page?nafn=BN025731,Tryggvagata 14,fsp. útigeymsla,Frestað. Málinu vísað til umsagnar skipulagsfulltrúa.,Spurt er hvort leyft yrði að byggja óupphitaðan geymsluskúr á lóðinni nr. 14 við Tryggvagötu.
25727 (01.24.340.7),http://gamli.rvk.is/vefur/owa/edutils.parse_page?nafn=BN025727,Vífilsgata 16,(fsp) íbúð í kjallara,Jákvætt. Að uppfylltum skilyrðum.,"Spurt er hvort samþykkt yrði áður gerð íbúð í kjallara að uppfylltum endurbótum í líkingu við fyrirliggjandi grunnmynd í húsi á lóð nr. 16 við Vífilsgötu. Bréf fyrirspyrjanda dags. 17. ágúst 2002, íbúðarskoðun byggingarfulltrúa dags. 7. ágúst 2002 og brunavirðing dags. 21. apríl 1943 fylgja erindinu."
25413 (04.93.010.2),http://gamli.rvk.is/vefur/owa/edutils.parse_page?nafn=BN025413,Ystasel 23,(fsp) Bílastæði,Jákvætt. Að uppfylltum skilyrðum.,Spurt er hvort leyft yrði að bæta við einu bílastæði framan við bílskúr á lóð nr. 23 við Ystasel. Umsögn gatnamálastjóra dags. 27. ágúst 2002 fylgir erindinu.
25682 (04.60.610.1),http://gamli.rvk.is/vefur/owa/edutils.parse_page?nafn=BN025682,Þangbakki 8-10,(fsp)bílastæði,Nei. Samræmist ekki skipulagi.,Spurt er hvort leyft yrði að koma fyrir bílastæði sunnan hússins nr. 8-10 við Þangbakka.
