nr,url,heimilisfang,tegund,nidurstada,spurning
23200 (01.52.210.8),http://gamli.rvk.is/vefur/owa/edutils.parse_page?nafn=BN023200,Aflagrandi 20-26,"Br. gróðurskála (22, 26)",Frestað. Vísað til athugasemda á umsóknarblaði.,"Sótt er um leyfi til þess að byggja yfir svalir við norðurhlið gróðurskála á 2. hæð húss nr. 22 og 26 á lóð nr. 20-26 við Aflagranda. Samþykki meðlóðarhafa dags. 22. og 27. september 2002 fylgja erindinu. Stærð: Hús nr. 22 stækkun rúmm. geymslu á 1. hæð 5  rúmm., hús nr. 26 stækkun á 2. hæð 5,8 ferm., 12,6 rúmm. Gjald kr. 4.100 + 845"
25159 (01.24.710.4),http://gamli.rvk.is/vefur/owa/edutils.parse_page?nafn=BN025159,Auðarstræti 9,Br. í kjallara,Frestað. Vantar samþykki meðeigenda.,Sótt er um samþykki fyrir áður gerðri íbúð og reyndarteikningum af kjallara hússins á lóðinni nr. 9 við Auðarstræti. Skiptasamningur dags. 30. júlí 1976 fylgir erindinu. Samþykki eigenda dags. 5. maí 2002 fylgir erindinu. Skoðunarskýrsla byggingarfulltrúa dags. 21. júní 2002 fylgir erindinu. Gjald kr. 4.800
25860 (01.14.040.3),http://gamli.rvk.is/vefur/owa/edutils.parse_page?nafn=BN025860,Austurstræti 6,Líkamsrækt  frá nr. 8-10,Frestað. Vísað til fyrri athugasemda.,Sótt er um leyfi til þess að opna milli kjallara og 1. hæðar frá  Austurstræti 8-10 og innrétta fyrir líkamsræktaraðstöðu eystri hluta kjallara og 1. hæðar atvinnuhússins á lóð nr. 6 við  Austurstræti.  Samþykki meðeigenda (á teikningu) dags. 20. september 2002 og samþykki eiganda Austurstrætis 8-10 (á teikningu) fylgja erindinu. Gjald kr. 4.800
25895 (01.14.040.4),http://gamli.rvk.is/vefur/owa/edutils.parse_page?nafn=BN025895,Austurstræti 8-10,"op að nr.6, eldvarnarh.",Frestað. Vísað til fyrri athugasemda.,Sótt er um leyfi til þess að opna milli kjallara og 1. hæðar frá Austurstræti 6 á lóð nr. 8-10 við Austurstræti. Gjald kr. 4.800
25949 (01.14.041.8 01),http://gamli.rvk.is/vefur/owa/edutils.parse_page?nafn=BN025949,Austurv Póstur og Sím ,br. (færa bar) 2.h veitingah.,Samþykkt.  Samræmist ákvæðum laga nr. 73/1997. Áskilið samþykki heilbrigðiseftirlits. Áskilið samþykki Vinnueftirlits ríkisins. Áskilin lokaúttekt byggingarfulltrúa.,Sótt er um leyfi til þess að færa bar á nýsamþykktum veitingastað á 2. hæð í húsi nr. 2 við Thorvaldsenstræti. Sjald kr. 4.800
25896 (01.84.750.5),http://gamli.rvk.is/vefur/owa/edutils.parse_page?nafn=BN025896,Álftaland 7,reyndarteikn. kj.,Samþykkt.  Samræmist ákvæðum laga nr. 73/1997.,Sótt er um samþykki fyrir áður gerðri breytingu á geymslum kjallara og aðkomu utanfrá að kjallara íbúðarhúss á lóð nr. 7 við Álftaland. Gjald kr. 4.800
25984 (01.28.000.1 04),http://gamli.rvk.is/vefur/owa/edutils.parse_page?nafn=BN025984,Álftamýri 14,svalaskýli,Frestað. Vísað til athugasemda á umsóknarblaði.,"Sótt er um leyfi til þess að reisa svalskýli á svölum íbúðar 0401 á 4. hæð fjölbýlishúss nr. 14 á lóð nr. 8-14 við Álftamýri. Samþykki meðeigenda í stigahúsi ódags., bréf hönnuðar dags. 4. október 2002 og úttektarskýrsla á brunavörnum íbúðar 0401 dags. 4. október 2002 fylgja  erindinu. Stærð: Stækkun 4,9 ferm., 13,5 rúmm. Gjald kr. 4.800 + 648"
25994 (01.85.430.1 03),http://gamli.rvk.is/vefur/owa/edutils.parse_page?nafn=BN025994,Árland 5,br. inni + klæðning o.fl.,Frestað. Vísað til athugasemda á umsóknarblaði.,"Sótt er um leyfi til þess að klæða útveggi með ljósum leirflísum, byggja kjallaratröppur við austurhlið, fjölga gluggum á kjallara, setja setja upp setlaug í garði og breyta innra skipulagi einbýlishúss nr. 5 á lóð nr. 1-7 við Árland. Samþykki meðlóðarhafa dags. 7. október 2002 og ástandskönnun burðarvirkihönnuðar dags. 7. október 2002 fylgja erindinu. Stærð: Áður gerður kjallari 254,7 ferm., 662,2 rúmm. Gjald kr. 4.800 + 31.786"
25458 (02.84.610.4),http://gamli.rvk.is/vefur/owa/edutils.parse_page?nafn=BN025458,Baughús 20,"reyndarteikn., stækkun",Frestað. Málinu vísað til umsagnar skipulagsfulltrúa. Vísað til athugasemda á umsóknarblaði.,"Sótt er um samþykki fyrir áður gerðri stækkun íbúðar neðri hæðar út í áður óútgrafið sökkulrými íbúðarhúss á lóð nr. 20 við Baughús. Stærð: xxx ferm., xxx rúmm. Gjald kr. 4.800 + xxx"
21940 (04.02.440.1),http://gamli.rvk.is/vefur/owa/edutils.parse_page?nafn=BN021940,Básb.1-3  Naust.2-10,Br. á steypuvirki í 2-4 (6-10),Frestað. Vísað til athugasemda á umsóknarblaði.,Sótt er um leyfi til að gera breytingar á burðarvirki húss nr. 6-10 við Naustabryggju (matshl. 16) á lóðinni nr. 1-3 við Básbryggju og 2-10 við Naustabryggju. Jafnframt er sótt um leyfi fyrir minniháttar breytingum á innra fyrirkomulagi og skráningu hússins. Byggingarfulltrúi leggur til að tölusetningu lóðarinnar verði breytt þar sem nú liggur fyrir hversu margir inngangar eru í húsið. Lóðarheiti verður: Básbryggja 1-3 og Naustabryggja 2-4. Gjald kr. 4.100
25910 (01.24.120.4),http://gamli.rvk.is/vefur/owa/edutils.parse_page?nafn=BN025910,Brautarholt 6,reyndarteikn. og br. gl.,Frestað. Lagfæra skráningu.,"Sótt er um samþykki fyrir breyttu innra skipulagi aðallega á 1. og 3. hæð og leyfi til þess að byggja lítillega út glugga við stigahús og breyta gluggum norðurhliðar atvinnuhúss á lóð nr. 6 við Brautarholt. Samþykki meðeigenda dags. 16. september 2002 og bréf hönnuðar dags. 3. október 2002 fylgja erindinu. Stærð: Stækkun vegna útbyggingar glugga 8,5 rúmm. Gjald kr. 4.800 + 408"
25802,http://gamli.rvk.is/vefur/owa/edutils.parse_page?nafn=BN025802,Brúnavegur - Hrafnista,hjúkrunarh. - heilsugæsla,Frestað. Vísað til athugasemda á umsóknarblaði.,"Sótt er um leyfi til þess að byggja heilsugæslustöð og hjúkrunarálmu með fjórum deildum, tengigang að núverandi endurhæfingamiðstöð auk kjallara og neðanjarðar tengigang að D-álmu. Byggingin er steinsteypt,  einangruð að utan og klædd með steinflísum og múrkerfi á suðurhluta lóðar Hrafnistu við Brúnaveg. Brunahönnun VSI dags. 8. október 2002 fylgir erindinu. Stærð: Hjúkrunarálma (matshluti 44) kjallari 929,9 ferm., 1. hæð 1602,5 ferm., 2. hæð 1572,3 ferm., 3. hæð 832,6 ferm. (þar af 588,9 ferm. með undir 1,8m salarh.) samtals 4937,3 ferm., 16049,7 rúmm. Heilsugæsla (matshluti 45) kjallari 36,5 ferm., 1. hæð 651,3 ferm., 2. hæð 548,1 ferm., 3. hæð 116,2 ferm. (þar af 12,8 ferm. með undir 1,8m salarh.) samtals 1352,1 ferm., 4871,8 rúmm. Gjald kr. 4.800 + 1.004.232"
25488 (02.57.520.1),http://gamli.rvk.is/vefur/owa/edutils.parse_page?nafn=BN025488,Bæjarflöt 2,breytingar,Samþykkt.  Samræmist ákvæðum laga nr. 73/1997. Áskilin lokaúttekt byggingarfulltrúa. Áskilið samþykki heilbrigðiseftirlits.,"Sótt er um leyfi til þess að breyta innra skipulagi fyrstu hæðar og millilofta (rými 0101, 0104 og 0105) í iðnaðarhúsi á lóðinni nr. 2 við Bæjarflöt. Gjald kr. 4.800"
25876 (00.02.000.0),http://gamli.rvk.is/vefur/owa/edutils.parse_page?nafn=BN025876,Dalsmynni ,br. hænsnah. í hundahús,Frestað. Vísað til athugasemda á umsóknarblaði.,Sótt er um leyfi til þess að breyta fyrrum hænsnahúsi og fjárhúsi í hunda- og kattahús áfast við áður samþykkta aðstöðu til hundaræktunar á jörðinni Dalsmynni á Kjalarnesi. Gjald kr. 4.800
25870 (01.35.730.1),http://gamli.rvk.is/vefur/owa/edutils.parse_page?nafn=BN025870,Efstasund 63,br. baðh. í kjallara,Frestað. Lagfæra skráningu.,Sótt er um leyfi til þess að stækka baðherbergi kjallaraíbúðar og minnka sameiginlegt þvottahús íbúðarhússins á lóð nr. 63 við Efstasund. Gjald kr. 4.800
25885 (01.19.500.1),http://gamli.rvk.is/vefur/owa/edutils.parse_page?nafn=BN025885,Egilsgata 10,reyndarteikning - geymsluskúr,Frestað. Vísað til athugasemda á umsóknarblaði.,Sótt er um samþykki fyrir reyndarteikningum af húsinu á lóðinni nr. 10 við Egilsgötu. Innra fyrirkomulagi kjallara er breytt og gerð er grein fyrir eignarhaldi í húsinu. Einnig er sótt um samþykki fyrir áður gerðum geymsluskúr á lóðinni.  Útskrift úr gerðabók embættisafgreiðslufundar skipulagsfulltrúa frá 10. október 2002 fylgir erindinu. Samþykki meðeigenda fylgir erindinu. Gjald kr. 4.800
25886 (01.19.500.2),http://gamli.rvk.is/vefur/owa/edutils.parse_page?nafn=BN025886,Egilsgata 12,áður gerðar br. í kj.,Frestað. Vísað til athugasemda á umsóknarblaði.,Sótt er um samþykki fyrir áður gerðum breytingum á innra skipulagi kjallara húsinu á lóðinni nr. 12 við Egilsgötu. Samþykki meðeigenda fylgir erindinu. Gjald kr. 4.800
25919 (01.19.500.3),http://gamli.rvk.is/vefur/owa/edutils.parse_page?nafn=BN025919,Egilsgata 14,Ósamþ. íb. í kj.,Frestað. Vísað til athugasemda á umsóknarblaði.,Sótt er um samþykki fyrir afmörkun séreignar í kjallara íbúðarhúss á lóð nr. 14 við Egilsgötu. Afsal dags. 1. nóvember 1956 fylgir erindinu Gjald kr. 4.800
25966 (01.46.330.3),http://gamli.rvk.is/vefur/owa/edutils.parse_page?nafn=BN025966,Faxafen 9,Veitingast. í viðb.,Frestað. Vísað til athugasemda á umsóknarblaði.,Sótt er um leyfi til þess að innrétta veitingahús í viðbyggingu á 1. hæð atvinnuhússins á lóð nr. 9 við Faxafen. Gjald kr. 4.800
25983 (01.46.330.3),http://gamli.rvk.is/vefur/owa/edutils.parse_page?nafn=BN025983,Faxafen 9,br. á veitingast. 0101,Frestað. Vísað til athugasemda á umsóknarblaði.,Sótt er um leyfi til þess að breyta innra skipulagi nýsamþykkts veitingastaðar (0101) á 1. hæð atvinnuhúss á lóð nr. 9 við Faxafen. Gjald kr. 4.800
25481 (01.27.001.3),http://gamli.rvk.is/vefur/owa/edutils.parse_page?nafn=BN025481,Flókagata 57,reyndarteikningar,Frestað. Vísað til athugasemda á umsóknarblaði.,Sótt er um samþykki fyrir núverandi innra fyrirkomulagi íbúðar í kjallara fjölbýlishúss á lóð nr. 57 við Flókagötu. Samþykki meðeigenda (á teikningu) fylgir erindinu. Gjald kr. 4.800
25938 (04.97.120.3),http://gamli.rvk.is/vefur/owa/edutils.parse_page?nafn=BN025938,Flúðasel 79-95,(93-95) áður gerðar íb. í kj.,Frestað. Vísað til athugasemda á umsóknarblaði.,"Sótt er um samþykki fyrir fjórum áður gerðum íbúðum, tveimur í húsi nr. 93 og tveimur í húsi nr. 95 á lóð nr. 79-95 við Flúðarsel. Samþykki meðeigenda ódags. fylgir erindinu. Gjald kr. 4.800"
25324 (01.13.410.1),http://gamli.rvk.is/vefur/owa/edutils.parse_page?nafn=BN025324,Framnesvegur 23,tvíbýli,Samþykkt.  Samræmist ákvæðum laga nr. 73/1997. Frágangur á lóðamörkum verði gerður í samráði við lóðarhafa aðliggjandi lóða. Áskilin lokaúttekt byggingarfulltrúa. Með vísan til samþykktar borgarráðs frá 1. september 1998 skal utanhúss- og lóðarfrágangi vera lokið eigi síðar en innan tveggja ára frá útgáfu byggingarleyfis að viðlögðum dagsektarákvæðum 57. gr. skipulags- og byggingarlaga nr. 73/1997. Þinglýsa skal kvöð er fram kemur á uppdráttum um aðgengi að lóðum nr. 54 við Öldugötu og 21 við Framnesveg.,"Að lokinni grenndarkynningu byggingarleyfisumsóknar er sótt um leyfi til þess að byggja steinsteypt tveggja íbúða hús á þremur hæðum á lóðinni nr. 23 við Framnesveg, samkv. uppdr. Þormóðs Sveinssonar arkitekts, dags. 16.07.02. Samþykki nokkurra nágranna í húsunum nr. 21 við Framnesveg og 54 við Öldugötu dags. 5. júní 2001, bréf hönnuðar dags. 11. janúar 2001 og útskrift úr gerðabók skipulags- og byggingarnefndar frá 15. ágúst 2001 fylgja erindinu. Málið var í kynningu frá 1. til 30. ágúst 2002. Engar athugasemdir bárust. Stærð: 1. hæð íbúð og geymslur 94,8 ferm., 2. hæð íbúð 118,3 ferm., 3. hæð íbúð 120,3 ferm.  Samtals 333,4 ferm. og 1016,3 rúmm. Gjald kr. 4.800 + 48.782"
24179 (01.43.810.2),http://gamli.rvk.is/vefur/owa/edutils.parse_page?nafn=BN024179,Gnoðarvogur 32-36,Klæðning,Frestað. Vísað til athugasemda eldvarnaeftirlits.,"Sótt er um leyfi til þess að klæða norður-, austur- og vesturhlið fjölbýlishússins með báruformaðri stálklæðningu á lóð nr. 32-36 við Gnoðarvog. Umboð til hönnuðar dags. 16. ágúst 2001 og ástandskönnun útveggja dags. 11. september 2001 fylgja erindinu."
25962 (01.29.530.4),http://gamli.rvk.is/vefur/owa/edutils.parse_page?nafn=BN025962,Grensásvegur 10,Breyting á innréttingum,Samþykkt.  Samræmist ákvæðum laga nr. 73/1997. Áskilin lokaúttekt byggingarfulltrúa. Áskilið samþykki heilbrigðiseftirlits.,Sótt er um leyfi til þess að breyta innra fyrirkomulagi veitingastaðar á fyrstu hæð suðurhluta hússins nr. 10 á lóðinni nr. 8-10 við Grensásveg. Afsalsbréf dags. 1. október 2002 fylgir erindinu. Gjald kr. 4.800
25716 (04.30.120.1),http://gamli.rvk.is/vefur/owa/edutils.parse_page?nafn=BN025716,Grjótháls 8,vetnisstöð,Frestað. Vísað til athugasemda á umsóknarblaði. Með vísan til bréfs skipulagsfulltrúa dags. 14. október 2002 skal umsækjandi leggja fram deiliskipulagstillögu.,"Sótt er um leyfi til þess að byggja afgreiðslustöð fyrir vetni á lóðinni nr. 8 við Grjótháls. Útskrift úr gerðabók embættisafgreiðslufundar skipulagsfulltrúa frá 10. október 2002 fylgir erindinu. Bréf hönnuðar dags. 26. ágúst 2002 fylgir erindinu. Stærð: Tækjaeining 1 (matshl. 04) 25,0 ferm. og 75,0 rúmm. Tækjaeining 2 ( matshl. 05) 14,6 ferm. og 37,8 rúmm. Gjald kr. 4.800 + 5.414"
25987 (04.30.120.1),http://gamli.rvk.is/vefur/owa/edutils.parse_page?nafn=BN025987,Grjótháls 8,niðurrif skyggnis og dælu,Samþykkt.  Samræmist ákvæðum laga nr. 73/1997.,Sótt er um leyfi til þess að rífa skyggni og eldsneytisafgreiðslu stórra bíla á austurhluta lóðar nr. 8 við Grjótháls. Gjald kr. 4.800
26009 (02.22.000.1),http://gamli.rvk.is/vefur/owa/edutils.parse_page?nafn=BN026009,Gufunes Áburðarverksm,Niðurrif,Samþykkt.  Samræmist ákvæðum laga nr. 73/1997.,"Sótt er um leyfi til niðurrifs eftirtalinna fasteigna Áburðarverksmiðjunnar í Gufunesi með landnúmeri 108955. Köfnunarefnisgeymir, fastanr. 203-8422, stærð 5354 rúmm. Ammoniaksgeymir, fastanr. 203-8422,  stærð 150 rúmm. Sýruverksmiðja, fastanr. 203-8422. Vetnisgeymir, fastanr. 203-8422, stærð 217 rúmm. Ammoníakslögn, fastanr. 203-8422. Spennistöð, fastanr. 203-8426, stærð 40 ferm., 140 rúmm.  Umsögn Árbæjarsafns dags. 2. október 2002 fylgir erindinu."
25865 (04.35.110.6),http://gamli.rvk.is/vefur/owa/edutils.parse_page?nafn=BN025865,Heiðarbær 11,br. klæðn. og hurð geymslu,Samþykkt.  Samræmist ákvæðum laga nr. 73/1997.,Sótt er um leyfi til þess að breyta útihurð og klæðningu útigeymslu á lóðinni nr. 11 við Heiðarbæ. Gjald kr. 4.800
25908 (32.47.420.4),http://gamli.rvk.is/vefur/owa/edutils.parse_page?nafn=BN025908,Helgugrund 4,breytingar,Frestað. Vísað til athugasemda á umsóknarblaði.,Sótt er um leyfi til þess að breyta innra fyrirkomulagi hússins á lóðinni nr. 4 við Helgugrund. Fyrirkomulagi geymslu og þvottaherbergis er breytt. Gjald kr. 4.800
25553 (01.35.310.8),http://gamli.rvk.is/vefur/owa/edutils.parse_page?nafn=BN025553,Hjallavegur 4,"br.í kj, kvistur, nýtt andd. og svalir.                                   ",Frestað. Vísað til athugasemda á umsóknarblaði. Málinu vísað til skipulagsfulltrúa til ákvörðunar um grenndarkynningu. Vísað er til uppdrátta A-1 og A-2 dags. 23. september 2002.,"Sótt er um leyfi til þess að byggja kvist á vesturhlið húss, svalir á suðurhlið 2. hæðar, anddyri við norðurhlið kjallara og 1. hæðar og breyta innra skipulagi íbúðarhússins á lóð nr. 4 við Hjallaveg. Umsögn gatnamálastjóra dags. 2. september 2002 fylgir erindinu. Stærð: Stækkun samtals 22 ferm., 50,1 rúmm. Gjald kr. 4.800 + 2.405"
25980 (01.13.460.5),http://gamli.rvk.is/vefur/owa/edutils.parse_page?nafn=BN025980,Holtsgata 9,Hækka ris og fl.,Frestað. Vísað til athugasemda á umsóknarblaði. Þegar orðið hefur verið við athugasemdum verður málið sent skipulagsfulltrúa til ákvörðunar um grenndarkynningu.,"Sótt er um leyfi til þess að hækka rishæð, setja sex nýja kvisti á þak og fá samþykkta áður gerða íbúð í kjallara ásamt áður gerðum geymsluskúr á baklóð við íbúðarhúsið á lóð nr. 9 við Holtsgötu. Málinu fylgir útskrift úr gerðabók skipulagsfulltrúa frá 14. október 2002. Stærð: Stækkun 2. hæðar xxx ferm., xxx rúmm. Áður gerður geymsluskúr xxx ferm., xxx rúmm. Gjald kr. 4.800 + xxx"
25850 (01.11.150.1),http://gamli.rvk.is/vefur/owa/edutils.parse_page?nafn=BN025850,Hólmaslóð 2,br. inni og úti,Frestað. Vísað til athugasemda á umsóknarblaði.,"Sótt er um leyfi til þess að breyta innra skipulagi beggja hæða, gluggum og dyraopum, leyfi til þess að setja lágt mænisþak yfir nær flatt þak og klæða hús að utan með báruðu stáli á lóð nr. 2 við Hólmaslóð. Útskrift úr gerðabók embættisafgreiðslufundar skipulagsfulltrúa frá 10. október 2002 fylgir erindinu. Ástandskönnun útveggja dags. 31. september 2002 fylgir erindinu. Stærð: Rúmmálsaukning 830,5 rúmm. Gjald kr. 4.800 + 39.864"
25649 (01.41.140.1),http://gamli.rvk.is/vefur/owa/edutils.parse_page?nafn=BN025649,Hólmasund 4-20,reyndarteikn. hljóðv. o.fl.,Samþykkt.  Samræmist ákvæðum laga nr. 73/1997. Frágangur á lóðamörkum verði gerður í samráði við lóðarhafa aðliggjandi lóða. Áskilin lokaúttekt byggingarfulltrúa.,Sótt er um samþykki fyrir reyndarteikningum af húsinu nr. 4-20 við Hólmaslóð. Svalahandriðum og frágangi franskra glugga hefur verið breytt. Bréf byggingarstjóra varðandi hljóðeinangrun frá útitröppum dags. 12. ágúst 2002 og bréf hönnuða varðandi frágang svala dags. 8. ágúst 2002 fylgja erindinu. Gjald kr. 4.800
25965 (04.67.400.2),http://gamli.rvk.is/vefur/owa/edutils.parse_page?nafn=BN025965,Hraunberg 4,frásog frá grilli,Synjað. Höfundi er leiðbeint með að kynna sér ákvæði 18. gr. byggingarreglugerðar nr. 441/1998 áður en hann leggur fram byggingarleyfisumsókn.,Sótt er um leyfi til þess að setja upp frákastsventil á suðurhlið verslunar- og þjónustuhúss á lóð nr. 4 við Hraunberg. Bréf húsfélags Hraunbergs 4 dags. 30. september 2002 fylgir erindinu. Gjald kr. 4.800
25968 (01.16.240.1),http://gamli.rvk.is/vefur/owa/edutils.parse_page?nafn=BN025968,Hringbraut 50,br. skrifst. í sjúkradeild,Frestað. Vísað til athugasemda á umsóknarblaði.,"Sótt er um leyfi til þess að breyta skrifstofum á  2. hæð, norðurenda, í sjúkradeild með 15 rúmum og leggja niður vistrými á rishæð Elli- og hjúkrunarheimilisins Grundar á lóð nr. 50 við Hringbraut. Gjald kr. 4.800"
25972 (04.11.350.2),http://gamli.rvk.is/vefur/owa/edutils.parse_page?nafn=BN025972,Jónsgeisli 13,Stoðveggir,Frestað. Vísað til athugasemda á umsóknarblaði.,"Sótt er um leyfi til þess að steypa stoðveggi, breyta landaðlögun og setja upp skólveggi á lóð nr. 13 við Jónsgeisla. Gjald kr. 4.800"
25684 (04.11.350.8),http://gamli.rvk.is/vefur/owa/edutils.parse_page?nafn=BN025684,Jónsgeisli 25,einbýlishús á tveimur hæðum.,Frestað. Lagfæra skráningu.,"Sótt er um leyfi til þess að byggja steinsteypt einbýlishús á tveimur hæðum með innbyggðri bílgeymslu á lóðinni nr. 25 við Jónsgeisla. Stærð: Íbúð 1. hæð 92,4 ferm., 2. hæð 87,9 ferm., bílgeymsla 31,4 ferm. Samtals 211,7 ferm. og 812,7 rúmm. Gjald kr. 4.800 + 39.010"
25989 (04.11.370.2),http://gamli.rvk.is/vefur/owa/edutils.parse_page?nafn=BN025989,Jónsgeisli 39,br. gluggum,Samþykkt.  Samræmist ákvæðum laga nr. 73/1997. Frágangur á lóðamörkum verði gerður í samráði við lóðarhafa aðliggjandi lóða.,Sótt er um leyfi til þess að breyta gluggum á suður- og vesturhlið 1. hæðar einbýlishússins á lóð nr. 39 við Jónsgeisla. Gjald kr. 4.800
25421 (04.96.340.2 01),http://gamli.rvk.is/vefur/owa/edutils.parse_page?nafn=BN025421,Kleifarsel 28,"br. á anddyri, aðg. fatl.",Frestað. Lagfæra skráningu.,"Sótt er um leyfi til þess að stækka anddyri og bæta aðgengi fatlaðra við íþróttahús Seljaskóla á lóð nr. 28 við Kleifarsel. Stærð: Stækkun anddyris 15,7 ferm., 50,6 rúmm. Gjald kr.4.800 + 2.429"
25946 (04.34.230.1),http://gamli.rvk.is/vefur/owa/edutils.parse_page?nafn=BN025946,Klettháls 3,innréttingabr. og fj. eigna,Frestað. Lagfæra sneiðingu.,"Sótt er um leyfi til þess að breyta innra skipulagi, fjölga eignum og leiðrétta stærðir á nýsamþykktu atvinnuhúsi á lóð nr. 3 við Klettháls. Stærð: Atvinnuhús 1. hæð verður 2575 ferm., 2. hæð  verður 335,7 ferm., samtals var hús 2965,1 ferm. verður 2910,7 ferm., var 24198,8 rúmm. verður 23679 rúmm. Gjald kr. 4.800"
26001 (01.72.100.1),http://gamli.rvk.is/vefur/owa/edutils.parse_page?nafn=BN026001,Kringlan  4-12,rými 324 v/Stjörnutorg,Samþykkt.  Samræmist ákvæðum laga nr. 73/1997. Áskilin lokaúttekt byggingarfulltrúa. Áskilið samþykki heilbrigðiseftirlits. Áskilið samþykki Vinnueftirlits ríkisins.,Sótt er um leyfi til þess að innrétta nýjan veitingastað fyrir kalda heilsurétti sem rými 324 við Stjörnutorg á 3. hæð Kringlunnar á lóð nr. 4-12 við Kringluna. Samantekt vegna brunamála dags. 8. október 2002 fylgir erindi. Gjald kr. 4.800
25899 (01.72.100.1),http://gamli.rvk.is/vefur/owa/edutils.parse_page?nafn=BN025899,Kringlan  4-12,rými S-130  Nanoq,Samþykkt.  Samræmist ákvæðum laga nr. 73/1997.  Áskilin lokaúttekt byggingarfulltrúa.,"Sótt er um leyfi til þess að fjarlægja stiga, millipall og arinn í verslunarrými Nanoq (S-130), loka opi að rými S-228 og breyta lítillega innra skipulagi í rými S-130 á 1. hæð Kringlunnar á lóð nr. 4-12 við Kringluna. Samantekt vegna brunamála ódags. fylgir erindinu. Gjald kr. 4.800"
26000 (01.72.100.1),http://gamli.rvk.is/vefur/owa/edutils.parse_page?nafn=BN026000,Kringlan  4-12,"br.inni, rými 140- Timberland",Samþykkt.  Samræmist ákvæðum laga nr. 73/1997. Áskilin lokaúttekt byggingarfulltrúa.,Sótt er um leyfi til þess að innrétta fataverslun í rými 140 og breyta verslunarglugga að sameiginlegum gangi á 1. hæð Kringlunnar á lóð nr. 4-12 við Kringluna. Samantekt vegna brunamála dags. 8. október 2002 fylgir erindi. Gjald kr. 4.800
25898 (01.72.100.1),http://gamli.rvk.is/vefur/owa/edutils.parse_page?nafn=BN025898,Kringlan  4-12,"S-228 lokað frá S-130
",Samþykkt.  Samræmist ákvæðum laga nr. 73/1997. Áskilin lokaúttekt byggingarfulltrúa.,"Sótt er um leyfi til þess að skipta núverandi verslunarrými Nanoq í tvö rými þannig að rými S-228 verði sjálfstætt verslunarrými og opum í gólfplötu verði lokað á 2. hæð í Kringlunni á lóð nr. 4-12 við Kringluna. Samantekt vegna brunamála ódags. fylgir erindinu. Stærð: Stækkun 2. hæðar (áður op) 138,8 ferm. Gjald kr. 4.800"
25617 (04.32.420.1),http://gamli.rvk.is/vefur/owa/edutils.parse_page?nafn=BN025617,Krókháls 10,br. milliloft o.fl.,Samþykkt.  Samræmist ákvæðum laga nr. 73/1997. Áskilin lokaúttekt byggingarfulltrúa.,"Sótt er um leyfi til þess að byggja milliloft yfir hluta fyrstu hæðar, breyta útliti á vestur- og norðurhlið fyrstu hæðar,  breyta innra skipulagi á öllum hæðum og fjölga um þrjú bílastæði á lóðinni nr. 10 við Krókháls. Samþykki meðeigenda (á teikn.) og bréf hönnuðar dags. 13. október 2002 fylgja erindinu. Gjald kr. 4.800"
25950 (01.86.320.1),http://gamli.rvk.is/vefur/owa/edutils.parse_page?nafn=BN025950,Kvistaland 17-23,nr.23 stækkun,Frestað. Vísað til athugasemda á umsóknarblaði. Málinu vísað til umsagnar skipulagsfulltrúa vegna hæðar á viðbyggingu.,"Sótt er um leyfi til þess að byggja viðbyggingu með kjallara undir við suðurhlið einbýlishúss nr. 23 á lóð nr. 17-23 við Kvistaland. Stærð: Viðbygging xxx ferm., xxx rúmm. Gjald kr. 4.800 + xxx"
23447 (01.36.520.8),http://gamli.rvk.is/vefur/owa/edutils.parse_page?nafn=BN023447,Laugateigur 58,Nýr kvistur og stækkun annarra,Frestað. Lagfæra skráningu.,"Sótt er um leyfi til að byggja nýjan kvist á norðurþaki og stækka þrjá kvisti sem fyrir eru á þaki hússins nr. 58 við Laugateig.  Umsögn Borgarskipulags vegna fyrirspurnar dags. 29. maí 2001 og útskrift úr gerðabók embættisafgreiðslufundar skipulagsstjóra frá 1. júní 2001, samþykki meðlóðarhafa dags. 17. des. 2001, fax meðeiganda dags. 18. des. 2001 fylgja erindinu. Stærðaraukning: 19,8 rúmm. Gjald kr. 4.100 + 950"
25611 (01.17.430.8),http://gamli.rvk.is/vefur/owa/edutils.parse_page?nafn=BN025611,Laugavegur 96,br. bíosal í stúdíoíbúð á 3.h ,Frestað. Lagfæra skráningartöflu.,Sótt er um leyfi til þess breyta bíósal í íbúð og byggja svalir á 3. hæð á suðurhliðar byggingar á lóð nr. 96 við Laugaveg. Gjald kr. 4.800
25991 (01.19.530.2),http://gamli.rvk.is/vefur/owa/edutils.parse_page?nafn=BN025991,Leifsgata 26,áður gerður vinnuskúr,Frestað. Vísað til athugasemda á umsóknarblaði. Málinu vísað til umsagnar skipulagsfulltrúa.,"Sótt er um samþykki fyrir áður gerðum vinnuskúr úr holsteini á lóð nr. 26 við Leifsgötu. Stærð: Áður gerður vinnuskúr 32,1 ferm., 78,8 rúmm. Gjald kr. 4.800 + 3.782"
25947 (04.32.640.2),http://gamli.rvk.is/vefur/owa/edutils.parse_page?nafn=BN025947,Lyngháls 4,reyndarteikningar,Frestað. Vísað til athugasemda á umsóknarblaði.,"Sótt er um samþykki fyrir núverandi innra skipulagi, breytingu á útliti, leiðréttingu stærða húss og fjölgun bílastæða á lóð nr. 4 við Lyngháls. Bréf hönnuðar dags. 30. september 2002 og brunahönnun VSI endurskoðuð 1. október 2002 fylgja erindinu.  Stærð:  Samtals var hús 6364,7 ferm. verður 6521,3 ferm., var 26108,5 rúmm. verður 26135,3 rúmm. Gjald kr. 4.800 + 1.286"
25616 (04.32.640.2),http://gamli.rvk.is/vefur/owa/edutils.parse_page?nafn=BN025616,Lyngháls 4,salatbar á 1.hæð,Samþykkt.  Samræmist ákvæðum laga nr. 73/1997. Áskilin lokaúttekt byggingarfulltrúa. Áskilið samþykki heilbrigðiseftirlits.,Sótt er um leyfi til þess að innrétta salatbar á fyrstu hæð og koma fyrir millilofti með aðstöðu starfsólks í rými 0102 í hússinu á lóðinni nr. 4 við Lyngháls. Útskrift úr gerðabók embættisafgreiðslufundar skipulagsfulltrúa frá 6. september 2002 fylgir erindinu. Stærð: Stækkun milliloft (rými 0108) 42 ferm. Gjald kr. 4.800
25382 (00.00.000.0),http://gamli.rvk.is/vefur/owa/edutils.parse_page?nafn=BN025382,Múlavegur 1,Br. þakr. í fundarr.,Frestað. Lagfæra skráningu.,Sótt er um leyfi til þess að innrétta fundarherbergi og eldhúskrók yfir búningsherbergjum með aðkomu frá áhorfendapöllum Skautahallarinnar á lóð nr. 1 við Múlaveg. Gjald kr. 4.800
24325 (01.19.110.2),http://gamli.rvk.is/vefur/owa/edutils.parse_page?nafn=BN024325,Njálsgata 72,Reyndarteikningar,Frestað. Vísað til athugasemda á umsóknarblaði.,Sótt er um samþykki fyrir áður gerðum breytingum á innra skipulagi þar sem m.a. eru sýndar níu íbúðir í stað sjö á áður samþykktum uppdráttum af fjölbýlishúsinu á lóð nr. 72 við Njálsgötu. Samþykki meðeigenda (á teikningu) fylgir erindinu. Gjald kr. 4.800
25674 (01.82.120.2),http://gamli.rvk.is/vefur/owa/edutils.parse_page?nafn=BN025674,Rauðagerði 27,viðb. við tónlistarskóla FÍH,Samþykkt.  Samræmist ákvæðum laga nr. 73/1997. Áskilið samþykki heilbrigðiseftirlits. Með vísan til samþykktar borgarráðs frá 1. september 1998 skal utanhúss- og lóðarfrágangi vera lokið eigi síðar en innan tveggja ára frá útgáfu byggingarleyfis að viðlögðum dagsektarákvæðum 57. gr. skipulags- og byggingarlaga nr. 73/1997.,"Sótt er um leyfi til þess að byggja tvílyfta steinsteypta viðbyggingu (matshl. 09) einangraða og klædda utan með múrkerfi, timbri og álplötum við tónlistarsalinn á lóðinni nr. 27 við Rauðagerði. Stærð: Viðbygging 1. hæð 287,8 ferm., 2. hæð 178,1 ferm. Samtals 1609,3 rúmm. Gjald kr. 4.800 + 77.246"
25969 (01.13.601.7),http://gamli.rvk.is/vefur/owa/edutils.parse_page?nafn=BN025969,Ránargata 8,"kvistur,svalir",Frestað. Vísað til athugasemda á umsóknarblaði. Að þeim uppfylltum verður málið sent skipulagsfulltrúa til ákvörðunar um grenndarkynningu.,"Sótt er um leyfi til þess að byggja kvist og svalir á norðurþekju rishæðar hússins á lóð nr. 8 við Ránargötu. Stærð: Stækkun 3. hæðar xxx ferm., xxx rúmm. Gjald kr. 4.800"
25892 (01.83.000.1),http://gamli.rvk.is/vefur/owa/edutils.parse_page?nafn=BN025892,Réttarholtsvegur  1-3,br. nr.3,Frestað. Vísað til fyrri athugasemda á umsóknarblaði.,Sótt er um leyfi til þess að breyta innra fyrirkomulagi og útliti vesturhliðar á fyrstu hæð hússins nr. 3 (matshl. 02) á lóðinni nr. 1-3 við Réttarholtsveg. Gjald kr. 4.800
25844 (01.13.010.5),http://gamli.rvk.is/vefur/owa/edutils.parse_page?nafn=BN025844,Seljavegur 2,"br. inni, gl. og salir á 4.h",Frestað. Samræma skráningu.,"Sótt er um leyfi til þess að innrétta vinnustofu á 4. hæð, stækka svalir við norðausturhlið vinnustofu, fjölga gluggum á norðvesturhlið og síkka glugga á suðaustur- og norðausturhlið 4. hæðar atvinnuhússins á lóð nr. 2 við Seljaveg. Samþykki meðlóðarhafa dags. 21. og 30. ágúst 2002,  bréf hönnuðar dags. 16. september og 8. október 2002 ásamt bréfi burðavirkishönnuðar dags. 8. október 2002 fylgja erindinu. Stærð: 4. hæð var 199,6 ferm. verður 188,7 ferm. Gjald kr. 4.800"
25964 (01.29.310.3),http://gamli.rvk.is/vefur/owa/edutils.parse_page?nafn=BN025964,Síðumúli 16-18,br. á 1.h í framhúsi nr.16,Frestað. Vísað til athugasemda á umsóknarblaði.,Sótt er um leyfi til þess að breyta innra skipulagi norðurhluta húss nr. 16 og sameina hús nr. 16 og 18 í einn matshluta á lóð nr. 16-18 við Síðumúla. Gjald kr. 4.800
25934 (04.38.640.4),http://gamli.rvk.is/vefur/owa/edutils.parse_page?nafn=BN025934,Skógarás 16,stækk. 1. h og br.,Frestað. Vísað til athugasemda á umsóknarblaði.,"Sótt er um leyfi til þess að stækka íbúð á 1. hæð í hluta áður óuppfyllts rýmis og setja nýjann glugga á austurhlið íbúðarhússins á lóð nr. 16 við Skógarás. Stærð: Stækkun 1. hæðar 23,9 ferm., 64,6 rúmm. Gjald kr. 4.800 + 3.101"
25122 (01.22.000.6),http://gamli.rvk.is/vefur/owa/edutils.parse_page?nafn=BN025122,Skúlagata 57,Byggja ofan á svalir.,Samþykkt.  Samræmist ákvæðum laga nr. 73/1997. Opnun yfir lóðarmörk er samþykkt tímabundið. Með vísan til samþykktar borgarráðs frá 1. september 1998 skal utanhúss- og lóðarfrágangi vera lokið eigi síðar en innan tveggja ára frá útgáfu byggingarleyfis að viðlögðum dagsektarákvæðum 57. gr. skipulags- og byggingarlaga nr. 73/1997. Greiða skal fyrir 1 bílastæði í flokki IV kr. 1.105.124.,"Að lokinni grenndarkynningu er lögð fram að nýju umsókn þar sem sótt er um leyfi til þess að byggja ofan á hluta svala á fjórðu hæð hússins á lóðinni nr. 57 við Skúlagötu. Málið var í kynningu frá 3. júlí til 1. ágúst 2002. Engar athugasemdir bárust. Bréf umsækjanda dags. 21. maí og 16. september 2002 fylgir erindinu. Stærð: Stækkun viðbygging 50,0 ferm. og 129,5 rúmm. Gjald kr. 4.800 + 6.216"
25121 (01.22.000.5),http://gamli.rvk.is/vefur/owa/edutils.parse_page?nafn=BN025121,"1"">Skúlatún 6",Byggja í skarð,"Samþykkt.  Samræmist ákvæðum laga nr. 73/1997. Opnun yfir lóðarmörk er samþykkt tímabundið. Með vísan til samþykktar borgarráðs frá 1. september 1998 skal utanhúss- og lóðarfrágangi vera lokið eigi síðar en innan tveggja ára frá útgáfu byggingarleyfis að viðlögðum dagsektarákvæðum 57. gr. skipulags- og byggingarlaga nr. 73/1997. Greiða skal fyrir 1,1 bílastæði í flokki IV kr. 1.215.636.","Að lokinni grenndarkynningu er lögð fram að nýju umsókn þar sem sótt er um leyfi til þess að byggja tvær hæðir ofan á aðra hæð suðurhluta hússins nr. 6 við Skúlatún. Málið var í kynningu frá 3. júlí til 1. ágúst 2002. Engar athugasemdir bárust. Bréf umsækjanda dags. 21. maí 2002, bréf hönnuða dags. 18. júní og 16. september 2002 og samþykki meðeigenda (á teikn.) fylgja erindinu. Stærð: Stækkun 300,6 ferm. og 899,3 rúmm. Gjald kr. 4.800 + 43.166"
25940 (01.42.400.1),http://gamli.rvk.is/vefur/owa/edutils.parse_page?nafn=BN025940,Skútuvogur 7-9,br. dyraop í nr. 7,Frestað. Vísað til athugasemda eldvarnaeftirlits.,Sótt er um leyfi til þess að breikka dyraop milli aðfanga (0101) og smávörulagers (0102) í húsi nr. 7 á lóð nr. 7-9 við Skútuvog. Bréf hönnuðar dags. 30. september 2002 fylgir erindinu. Gjald kr. 4.800
23306 (01.83.100.1),http://gamli.rvk.is/vefur/owa/edutils.parse_page?nafn=BN023306,Sogavegur 164,viðbygging,Frestað. Lagfæra skráningu.,"Sótt er um leyfi  til þess að byggja léttbyggt anddyri við norðurhlið og steinsteypta bílgeymslu við vesturhlið ásamt stækkun íbúðar ofan á bílgeymslu á lóð nr. 164 við Sogaveg. Samþykki nágranna dags. 27. júlí 2000 ásamt umsögn Borgarskipulags dags. 23. apríl 2001 fylgja erindinu. Stærð: Viðbygging íbúð 31,2 ferm., bílgeymsla 24,8 ferm., samtals 59,8 ferm., 121,7 rúmm. Gjald kr. 4.100 + 4.990"
25858 (01.24.600.9),http://gamli.rvk.is/vefur/owa/edutils.parse_page?nafn=BN025858,Stangarholt 18,reyndarteikningar,Samþykkt.  Samræmist ákvæðum laga nr. 73/1997.,Sótt er um samþykki fyrir núverandi fyrirkomulagi í húsinu á lóðinni nr. 18 við Stangarholt vegna gerðar eignaskiptayfirlýsingar. Gerð er grein fyrir notkun rishæðar og eignarhaldi kjallararýma. Samþykki meðeigenda (á teikn.) fylgir erindinu. Gjald kr. 4.800
23215 (04.08.580.2),http://gamli.rvk.is/vefur/owa/edutils.parse_page?nafn=BN023215,Stórhöfði 37,skrifstofu og þjónustub.,Samþykkt.  Samræmist ákvæðum laga nr. 73/1997. Frágangur á lóðamörkum verði gerður í samráði við lóðarhafa aðliggjandi lóða. Áskilin lokaúttekt byggingarfulltrúa. Áskilið samþykki Vinnueftirlits ríkisins. Á meðan á byggingartíma stendur skal byggingarleyfishafi setja upp á sinn kostnað girðingu vegna fornminja norðan við lóð. Girðinguna skal staðsetja um það bil sjö metrum frá fornminjum sem eru gamall þjóðvegur. Þess skal gætt við framkvæmd verksins að engin spjöll verði á veginum.,"Sótt er um leyfi til þess að byggja þriggja hæða skrifstofu- og þjónustubyggingu úr steinsteypu á lóðinni nr. 37 við Stórhöfða.  Bréf hönnuðar dags. 20. ágúst 2002 og skýrsla um brunahönnun dags. 20. ágúst 2002 fylgja erindinu. Stærð: Atvinnuhúsnæði 1. hæð verkstæði 1824,4 ferm., 2. hæð verslun 1607,9 ferm., 3. hæð skrifstofur 1564,1 ferm. Samtals 4996,4 ferm. og 23699,7 rúmm. Gjald kr. 4.100 + 113.759"
25939 (01.33.670.1),http://gamli.rvk.is/vefur/owa/edutils.parse_page?nafn=BN025939,Sundaborg 1-15,br. innr. og stækka andd.,Samþykkt.  Samræmist ákvæðum laga nr. 73/1997. Áskilin lokaúttekt byggingarfulltrúa.,"Sótt er um leyfi til þess að breyta innra skipulagi skrifstofu og vörulagers Johans Rönning í húsi nr. 13 og 15, opna milli 1. og 2. hæðar í einingum 0232, 0261-0264 ásamt leyfi til þess stækka anddyri milli húss nr. 13 og 15 á lóð nr. 1-15 við Sundaborg. Samþykki meðeigenda (á teikningu), samþykki fyrir hönd eigenda dags. 8. október 2002, bréf frá burðarvirkishönnuði dags. 10. október 2002 og brunahönnun VSI dags. 1. október 2002 og endurskoðuð 10. október 2002  fylgja erindinu. Stærð: Stækkun anddyris 9.2 ferm., 28,9 rúmm.  Minnkun brúttóflatar 2. hæðar vegna opa samtals 359,1 ferm. Gjald kr. 4.800 + 1387"
25981 (01.24.340.7),http://gamli.rvk.is/vefur/owa/edutils.parse_page?nafn=BN025981,Vífilsgata 16,samþykki íbúð ofl,Frestað. Vísað til athugasemda á umsóknarblaði. Málinu vísað til umsagnar skipulagsfulltrúa vegna bílastæða á lóð.,Sótt er um samþykki fyrir áður gerðri íbúð í kjallara og leyfi til þess að koma fyrir tveimur bílastæðum á suðausturhorni lóðar nr. 16 við Vífilsgötu. Virðingargjörð dags. 21. apríl 1943 fylgir erindinu. Gjald kr. 4.800
25979 (04.35.100.1),http://gamli.rvk.is/vefur/owa/edutils.parse_page?nafn=BN025979,Ystibær 1,viðb. við bílskúr + stækka kvist,Frestað. Vísað til athugasemda á umsóknarblaði.  Málinu vísað til skipulagsfulltrúa til ákvörðunar um grenndarkynningu. Vísað er til tveggja uppdrátta Einars Ingimarssonar dags. 4. október 2002.,"Sótt er um samþykki fyrir áður gerðri stækkun kvists á suðausturþekju og leyfi til þess að byggja léttbyggða geymslu við bílskúr á lóð nr. 1 við Ystabæ. Samþykki meðeiganda ódags. og umsögn skipulagsfulltrúa dags. 3. júlí 2002 fylgja erindinu. Stærð: Áður gerð stækkun kvists xxx ferm., xxx rúmm., geymsluskúr 16,6 ferm., 39,5 rúmm.  Gjald kr. 4.800 + xxx"
25709 (04.13.580.2),http://gamli.rvk.is/vefur/owa/edutils.parse_page?nafn=BN025709,Þorláksgeisli 116,einbýlishús,Frestað. Vísað til athugasemda á umsóknarblaði.,"Sótt er um leyfi til þess að byggja tvílyft steinsteypt einbýlishús með innbyggðri bílgeymslu á lóðinni nr. 116 við Þorláksgeisla. Stærð: Íbúð 1. hæð 92,3 ferm., 2. hæð 87,8 ferm., bílgeymsla (2.hæð) 39,9 ferm. Samtals 220,0 ferm. og 844,4 rúmm. Gjald kr. 4.800 + 40.531"
25901 (05.13.350.1),http://gamli.rvk.is/vefur/owa/edutils.parse_page?nafn=BN025901,Þórðarsveigur 2-6,br. í kj. mhl. 02 og 1.h mhl. 03,Samþykkt.  Samræmist ákvæðum laga nr. 73/1997. Frágangur á lóðamörkum verði gerður í samráði við lóðarhafa aðliggjandi lóða. Áskilin lokaúttekt byggingarfulltrúa.,"Sótt er um leyfi til þess að breyta innra skipulagi kjallara húss nr. 4 og lítillega 1. hæð húss nr. 6 á lóð nr. 2-6 við Þórðarsveig. Stærð: Hús nr. 4 (matshluti 02) kjallari var 222,1 ferm.  verður 224,6 ferm., samtals var hús 1834,2 ferm. verður 1836,7 ferm., var 5521,1 rúmm. verður 5528,9 rúmm. Hús nr. 6 (matshluti 03) íbúð var 279,6 ferm. verður 279,3 ferm., samtals var hús 2395,4 ferm. verður 2395,1 ferm., var 7265,3 rúmm. verður 7264,7 rúmm. Gjald kr. 4.800 + 346"
25877 (01.18.222.2),http://gamli.rvk.is/vefur/owa/edutils.parse_page?nafn=BN025877,Bjarnarstígur 7,Afnema niðurrifskvöð,Með vísan til umsagnar skipulagsfulltrúa er samþykkt að fella niður niðurrifskvöð.,Óskað er eftir leyfi til þess að fella niður niðurrifskvöð á bílskúr á lóðinni nr. 7 við Bjarnarstíg sem byggingarnefnd samþykkti þann 26. ágúst 1965. Útskrift úr gerðabók embættisafgreiðslufundar skipulagsfulltrúa frá 4. október 2002 fylgir erindinu.
25931 (01.22.020.1),http://gamli.rvk.is/vefur/owa/edutils.parse_page?nafn=BN025931,Höfðatún 10,Niðurrif,Samþykkt.  Samræmist ákvæðum laga nr. 73/1997.,"Sótt er um leyfi til þess að rífa fjögurra hæða steinsteypt atvinnuhús (fastanúmer 222-4324, 200-9473, 222-4325, 222-4326) á lóð nr. 10 við Höfðatún. Bréf umsækjanda dags. 30. sept. 2002 fylgir erindinu. Stærð: Niðurrif atvinnuhús kjallari 103,7 ferm., 1. hæð 112,8 ferm., 121 ferm., 114 ferm., samtals 451,5 ferm."
26023 (01.82.120.2),http://gamli.rvk.is/vefur/owa/edutils.parse_page?nafn=BN026023,Rauðagerði 27,breyting á lóðamörkum,Samþykkt.  Samræmist ákvæðum laga nr. 73/1997.,"Óskað er eftir breytingu á lóðamörkum samkvæmt meðfylgjandi mæliblaði mælingadeildar borgarverkfræðings dags. 10. október 2002. Rauðagerði 27: Lóðin er 1868 ferm., sbr. yfirlýsingu nr. 19353/85 dags. 6. maí 1985. Bætt við lóðina 444 ferm. Lóðin verður 2312 ferm. Sjá samþykkt skipulags- og umferðarnefndar 31. maí 1999 og samþykkt borgarráðs 10. ágúst 1999."
25988 (01.85.430.1 02),http://gamli.rvk.is/vefur/owa/edutils.parse_page?nafn=BN025988,Árland 3,(fsp) kjallari o.fl.,Nei. Samræmist ekki ákvæðum 96. gr. byggingarreglugerðar nr. 441/1998.,"Spurt er hvort leyft yrði setja glugga á kjallararými, kjallaratröppur við vesturhlið, byggja út anddyri á 1. hæð og breyta gluggum í líkingu við fyrirliggjandi uppdrátt af húsi nr. 3 á lóð nr. 1-7 við Árland."
25990 (01.29.600.1),http://gamli.rvk.is/vefur/owa/edutils.parse_page?nafn=BN025990,Fellsmúli  2-12,(fsp) hús nr.6 opna út í garð,Jákvætt. Að uppfylltum skilyrðum. Þar með talið samþykki meðeigenda.,Spurt er hvort leyft yrði að setja svalahurð úr stofu íbúðar í kjallara húss nr. 6 á lóð nr. 2-12 við Fellsmúla.
25267 (01.18.210.7),http://gamli.rvk.is/vefur/owa/edutils.parse_page?nafn=BN025267,Grettisgata 8,(fsp) viðb. og breytt þak.,Jákvætt. Að uppfylltum skilyrðum. Þegar byggingarleyfisumsókn berst verður málið sent skipulagsfulltrúa til ákvörðunar um grenndarkynningu.,"Spurt er hvort leyft yrði að byggja við vesturhlið bakhúss og breyta skúrþaki í mænisþak með kvisti í líkingu við fyrirliggjandi skissu á lóð nr. 8 við Grettisgötu. Bréf fyrirspyrjenda dags. 12. júní 2002, umsögn Húsafriðunarnefndar ríkisins dags. 15. júlí 2002 og umsögn Árbæjarsafns dags. 12. september 2002 fylgja erindinu."
25982 (02.35.230.3),http://gamli.rvk.is/vefur/owa/edutils.parse_page?nafn=BN025982,Hamravík 84,(fsp.) tvíbýli,Nei. Samkvæmt skipulagsskilmálum skal vera ein íbúð í húsinu.,Spurt er hvort leyft yrði að breyta tvílyftu einbýlishúsi í einbýlishús með aukaíbúð á lóð nr. 84 við Hamravík.
25766 (04.99.620.3),http://gamli.rvk.is/vefur/owa/edutils.parse_page?nafn=BN025766,Kaldasel 15,fsp. tvær eignir í húsi,Jákvætt. Að uppfylltum skilyrðum.,Spurt er hvort leyft yrði að skipta í tvær sjálfstæðar íbúðir einbýlishúsi á lóðinni nr. 15 við Kaldasel. Útskrift úr gerðabók embættisafgreiðslufundar skipulagsfulltrúa frá 4. október 2002 fylgir erindinu.
25847 (01.83.221.0),http://gamli.rvk.is/vefur/owa/edutils.parse_page?nafn=BN025847,Langagerði 78,(fsp) samþykki á íbúð,Jákvætt. Að uppfylltum skilyrðum. Berist byggingarleyfisumsókn verður hún grenndarkynnt.,Spurt er hvort samþykki fengist fyrir íbúð á rishæð hússins á lóðinni nr. 78 við Langagerði. Útskrift úr gerðabók embættisafgreiðslufundar skipulagsfulltrúa frá 4. október 2002 fylgir erindinu. Virðingargjörð dags. 27. desember 1960 fylgir erindinu.
25792 (01.44.130.3),http://gamli.rvk.is/vefur/owa/edutils.parse_page?nafn=BN025792,Langholtsvegur 158,(fsp) niðurrif - uppbygging,Jákvætt. Að uppfylltum skilyrðum og með hliðsjón af teikningum sem samþykktar voru 26. mars 1998.,Spurt er hvort leyft yrði að rífa og endurbyggja í samræmi við meðfylgjandi teikningar bílskúr á lóðinni nr. 158 við Langholtsveg. Útskrift úr gerðabók embættisafgreiðslufundar skipulagsfulltrúa frá 4. október 2002 fylgir erindinu.
25887 (01.35.700.9),http://gamli.rvk.is/vefur/owa/edutils.parse_page?nafn=BN025887,Langholtsvegur 31,fsp. viðbygging,Jákvætt. Að uppfylltum skilyrðum og með vísan til umsagnar skipulagsfulltrúa.,Spurt er hvort leyft yrði að byggja einnar hæða viðbyggingu úr timbri og bárujárni við suður- og austurhlið og hækka þak einbýlihúss á lóð nr. 31 við Langholtsveg. Útskrift úr gerðabók embættisafgreiðslufundar skipulagsfulltrúa frá 10. október 2002 og umsögn skipulagsfulltrúa dags. 7. október 2002 fylgja erindinu
25848 (01.41.002.1),http://gamli.rvk.is/vefur/owa/edutils.parse_page?nafn=BN025848,Langholtsvegur 89,(fsp) innr. 3 íb. á 1.h,Nei. Með vísan til umsagnar skipulagsfulltrúa dags. 7. október 2002.,Spurt er hvort samþykktar yrðu þrjár íbúðir á 1. hæð og í kjallara í líkingu við fyrirliggjandi teikningar á lóð nr. 89 við Langholtsveg. Útskrift úr gerðabók embættisafgreiðslufundar skipulagsfulltrúa frá 10. október sl. og umsögn skipulagsfulltrúa dags. 7. október 2002 fylgja erindinu. Bréf fyrirspyrjanda dags. 17. september 2002 fylgir erindinu.
25916 (01.17.411.8),http://gamli.rvk.is/vefur/owa/edutils.parse_page?nafn=BN025916,Laugavegur 95,(fsp) stækka 2. og 3. hæð,Jákvætt. Að uppfylltum skilyrðum. Málinu vísað til deiliskipulagsvinnu.,Spurt er hvort leyft yrði að byggja við 2. og 3. hæð norðurhliðar yfir hluta 1. hæðar hússins á lóð nr. 95 við Laugaveg. Útskrift úr gerðabók embættisafgreiðslfundar skipulagsfulltrúa frá 10. október 2002 fylgir erindinu.
26018 (01.53.100.3),http://gamli.rvk.is/vefur/owa/edutils.parse_page?nafn=BN026018,Nesvegur 63,(fsp) Bílskúr,"Jákvætt. Að uppfylltum skilyrðum, þar með talið samþykki meðeigenda og lóðarhafa aðliggjandi lóða.",Spurt er hvort leyft yrði að byggja bílskúr á suður og vestur lóðamörkum lóðar nr. 63 við Nesveg.
26021 (04.93.410.3),http://gamli.rvk.is/vefur/owa/edutils.parse_page?nafn=BN026021,Tindasel 3,(fsp) hækka og br. innkd,Jákvætt. Enda fylgi umsókn greinargerð burðarvirkishönnuðar um breytingar á burðarvirki.,Spurt er hvort leyft yrði að hækka innkeyrsludyr á vesturhlið að einingu 0103 atvinnuhússins á lóð nr. 3 við Tindarsel.
25862 (01.13.310.6),http://gamli.rvk.is/vefur/owa/edutils.parse_page?nafn=BN025862,Vesturgata 65,(fsp) kvistir - svalir,Jákvætt. Að uppfylltum skilyrðum.,Spurt er hvort leyft yrði að hækka þak og byggja kvisti á suður- og norðurhlið hússins nr. 65 við Vesturgötu. Útskrift úr gerðabók embættisafgreiðslufundar skipulagsfulltrúa frá 4. október 2002 fylgir erindinu.
25833 (04.93.030.2),http://gamli.rvk.is/vefur/owa/edutils.parse_page?nafn=BN025833,Vogasel 3,Fjölga íbúðum (fsp),Jákvætt. Að uppfylltum skilyrðum. Berist byggingarleyfisumsókn verður málið sent skipulagsfulltrúa til ákvöðrunar um grenndarkynningu. Framlögð gögn uppfylla ekki ákvæði byggingarreglugerðar nr. 441/1998.,Spurt er hvort leyft yrði að innrétta íbúð í áður vinnustofu við einbýlishús á lóð nr. 3 við Vogasel. Bréf hönnuðar dags. 6. september 2002 og útskrift úr gerðabók embættisafgreiðslufundar skipulagsfulltrúa frá 4. október 2002 fylgja erindinu.
