nr,url,heimilisfang,tegund,nidurstada,spurning
26310 (01.43.430.1),http://gamli.rvk.is/vefur/owa/edutils.parse_page?nafn=BN026310,Álfheimar 74,bakarí (rými 0121),Frestað. Vísað til athugasemda á umsóknarblaði.,Sótt er um leyfi til þess að innrétta bakarí og kaffiveitingasölu í rými 0121 á 1. hæð í Glæsibæ á lóð nr. 74 við Álfheima. Gjald kr. 4.800
26313 (01.83.420.2),http://gamli.rvk.is/vefur/owa/edutils.parse_page?nafn=BN026313,Ásgarður 10-16,v. eignaskipta,Frestað. Vísað til athugasemda á umsóknarblaði.,Sótt er um samþykki fyrir núverandi fyrirkomulagi húsanna nr. 10-16 (matshl. 01-04) við Ásgarð.  Innréttaðar hafa verið íbúðir í kjöllurum húsanna. Gjald kr. 4.800
26235 (01.71.002.2),http://gamli.rvk.is/vefur/owa/edutils.parse_page?nafn=BN026235,Barmahlíð 49,áður gerð íbúð í kj.,Samþykkt.  Samræmist ákvæðum laga nr. 73/1997.,"Sótt er um samþykki fyrir áður gerðri íbúð í kjallara fjölbýlishússins á lóð nr. 49 við Barmahlíð. Íbúðarskoðun byggingarfulltrúa dags. 24. júlí 2001, virðingargjörð dags. 31. janúar 1949 og samþykki meðeigenda dags. 17. nóvember 2002 fylgja erindinu. Gjald kr. 4.800"
25458 (02.84.610.4),http://gamli.rvk.is/vefur/owa/edutils.parse_page?nafn=BN025458,Baughús 20,"reyndarteikn., stækkun",Samþykkt.  Samræmist ákvæðum laga nr. 73/1997.,"Sótt er um samþykki fyrir áður gerðri stækkun íbúðar neðri hæðar út í áður óútgrafið sökkulrými íbúðarhúss og fyrir áður gerðri breytingu á útitröppum nú með geymslu undir á lóð nr. 20 við Baughús. Útskrift úr gerðabók embættisafgreiðslufundar skipulagsfulltrúa frá 18. október 2002 fylgir erindinu. Samþykki meðeigenda ódags. fylgir erindinu.  Stærð: Stækkun íbúðar 42,1 ferm., 107 rúmm., geymsla undir tröppum 9,5 ferm., 18,7 rúmm. Gjald kr. 4.800 + 6.529"
25341 (01.71.301.8),http://gamli.rvk.is/vefur/owa/edutils.parse_page?nafn=BN025341,Blönduhlíð 27,Raunteikningar,Samþykkt. Samræmist ákvæðum laga nr. 73/1997. Afmörkun rishæðar er gerð með vísan til 15. gr. reglugerðar nr. 910/2000.,Sótt er um samþykki fyrir núverandi fyrirkomulagi í húsinu á lóðinni nr. 27 við Blönduhlíð.  Gerð er grein fyrir áður gerðri íbúð í kjallara og áður gerðri séreign á rishæð hússins. Skoðunarskýrslur byggingarfulltrúa dags. 18. apríl 2002 (v. rishæðar) og 18. júlí 2002 (v. kjallara) og afsal vegna rishæðar frá 24. ágúst 1982 fylgja erindinu.  Samþykki meðeigenda (á teikn.) fylgir erindinu. Gjald kr. 4.800
24606 (01.70.440.2),http://gamli.rvk.is/vefur/owa/edutils.parse_page?nafn=BN024606,Blönduhlíð 4,Sþ. íbúð í kjallara,Samþykkt.  Samræmist ákvæðum laga nr. 73/1997.,"Sótt er um samþykki fyrir áður gerðri kjallaraíbúð í húsinu á lóð nr. 4 við Blönduhlíð. Virðingargjörð dags. 14. apríl 1950,  íbúðaskoðun byggingarfulltrúa dags. 16. nóvember 2001 og samþykki meðeigenda dags. 26. febrúar 2002  fylgja erindinu. Gjald 4.800"
23856 (01.24.120.3),http://gamli.rvk.is/vefur/owa/edutils.parse_page?nafn=BN023856,Brautarholt 4-4A,reyndarteikningar 4A,Frestað. Vísað til athugasemda á umsóknarblaði.,Sótt er um núverandi innra fyrirkomulag og breytta skráningu hússins nr. 4A  á lóð nr. 4-4A við Brautarholt. Erindinu fylgir samþykki meðeiganda áritað á teikningu. Gjald kr. 4.100
23739 (01.16.233.6),http://gamli.rvk.is/vefur/owa/edutils.parse_page?nafn=BN023739,Brávallagata 22,reyndarteikningar,Frestað. Vísað til athugasemda á umsóknarblaði.,Sótt er um samþykki fyrir núverandi fyrirkomulagi í húsinu á lóðinni nr. 22 við Brávallagötu. Í kjallara er sýnd séreign þar sem áður voru geymslur. Samþykki meðeigenda dags. 2. desember 2002 fylgir eridninu. Gjald kr. 4.100
25657 (01.82.631.2),http://gamli.rvk.is/vefur/owa/edutils.parse_page?nafn=BN025657,Byggðarendi 24,gluggi og svalir ,Samþykkt.  Samræmist ákvæðum laga nr. 73/1997.,Sótt er um leyfi til þess að koma fyrir glugga á norðuhlið nýbyggingar og breyta lítillega útliti sólskála á austurhlið hússins á lóðinni nr. 24 við Byggðarenda.  Gjald kr. 4.800
26081 (04.30.430.1),http://gamli.rvk.is/vefur/owa/edutils.parse_page?nafn=BN026081,Dragháls 28-30/F.....,reyndarteikningar / Fossh. 27,Frestað. Lagfæra skráningu.,Sótt er um samþykki fyrir núverandi fyrirkomulagi í húsinu nr. 27 við Fossháls á lóðinni Dragháls 28-30/Fossháls 27-29. Skráningartafla er leiðrétt og fyrirkomulagi bílastæða á lóð er breytt. Gjald kr. 4.800
25790 (01.71.300.5),http://gamli.rvk.is/vefur/owa/edutils.parse_page?nafn=BN025790,Drápuhlíð 34,reyndarteikningar - breyting,Frestað. Vísað til athugasemda á umsóknarblaði.,"Sótt er um samþykki fyrir núverandi fyrirkomulagi á innréttingum hússins á lóðinni nr. 34 við Drápuhlíð. Fyrirkomulagi geymslurýma í kjallara er breytt. Tilkynning byggingarnefndar dags. 19. júlí 1946, afsalsbréf dags. 15. nóvember 1947 og kaupsamningur dags. 22. ágúst 1947 fylgja erindinu. Gjald kr. 4.800"
26330 (01.35.500.9),http://gamli.rvk.is/vefur/owa/edutils.parse_page?nafn=BN026330,Efstasund 2,reyndarteikningar,Samþykkt.  Samræmist ákvæðum laga nr. 73/1997.,Sótt er um samþykki fyrir leiðréttum teikningum af húsinu á lóðinni nr. 2 við Efstasund. Innra fyrirkomulagi er breytt á fyrstu hæð og rishæð. Skráningartafla og stærðir eru leiðréttar. Gjald kr. 4.800
26156 (01.35.520.9),http://gamli.rvk.is/vefur/owa/edutils.parse_page?nafn=BN026156,Efstasund 20,viðbygging ,Frestað. Vísað til athugasemda á umsóknarblaði.,"Sótt er um leyfi til þess að byggja steinsteypta viðbyggingu klædda bárujárni að vesturhlið hússins á lóðinni nr. 20 við Efstasund. Stærð: Viðbygging 32,7 ferm. og xx rúmm. Gjald kr. 4.800 + xx"
26004 (04.03.010.1),http://gamli.rvk.is/vefur/owa/edutils.parse_page?nafn=BN026004,>Eirhöfði 2-4,girðing lóðar,Frestað. Lagfæra afstöðumynd.,Sótt er um leyfi til þess að girða af norðurhluta lóðarinnar nr. 2-4 við Eirhöfða. Bréf umsækjanda dags. 31. október 2002 fylgir erindinu. Samþykki eiganda Breiðhöfða 15 dags. 29. október 2002 fylgir erindinu. Gjald kr. 4.800
25890 (01.46.340.2),http://gamli.rvk.is/vefur/owa/edutils.parse_page?nafn=BN025890,Fákafen 11,framkvæmdir í kjallara viðgerð eftir bruna,Frestað. Vísað til athugasemda á umsóknarblaði.,Sótt er um leyfi til þess að breyta innra fyrirkomulagi á öllum hæðum hússins nr. 11 við Fákafen. Bréf hönnuðar dags. 24. september 2002 fylgir erindinu. Gjald kr. 4.800
26320 (01.46.340.1),http://gamli.rvk.is/vefur/owa/edutils.parse_page?nafn=BN026320,Fákafen 9,breytingar,Frestað. Vísað til athugasemda á umsóknarblaði.,Sótt er um leyfi til þess að breyta innra fyrirkomulagi á öllum hæðum hússins nr. 9 við Fákafen. Gjald kr. 4.800
25484 (01.24.720.1),http://gamli.rvk.is/vefur/owa/edutils.parse_page?nafn=BN025484,Flókagata 12,reyndarteikningar,Frestað. Vísað til fyrri athugasemda.,Sótt er um samþykki fyrir áður gerðum breytingum á íbúð 0101 og íbúð 0102 á fyrstu hæð og afmörkun séreignar 0001 í  fjölbýlishúsi á lóð nr. 12 við Flókagötu. Bréf umsækjenda dags. 18. júlí 2002 fylgir erindinu. Gjald kr. 4.800
26243 (01.54.610.2),http://gamli.rvk.is/vefur/owa/edutils.parse_page?nafn=BN026243,Fornhagi 1,reyndarteikn.+ lyfta,Frestað. Vísað til athugasemda á umsóknarblaði.,"Sótt er um samþykki fyrir núverandi innra skipulagi, fyrir áður gerðri stækkun í kjallara, áður gerðum flóttastiga  á austurgafli og leyft til þess að setja lyftu milli kjallara og 2. hæðar Hagaskóla á lóð nr. 1 við Fornhaga. Brunahönnun VSI endurskoðuð 14. nóvember 2002 fylgir erindinu. Gjald kr. 4.800"
26306 (01.18.300.1),http://gamli.rvk.is/vefur/owa/edutils.parse_page?nafn=BN026306,Fríkirkjuvegur 3,breytingar,Frestað. Vísað til athugasemda á umsóknarblaði.,Sótt er um leyfi til þess að breyta innra fyrirkomulagi í kjallara og á annarri hæð hússins á lóðinni nr. 3 við Fríkirkjuveg. Á annarri hæð er eldhús fjarlægt og fundaherbergi skipt í tvennt. Í kjallara er kaffistofu breytt og komið fyrir ræstiklefa. Umsögn Árbæjarsafns dags. 3. desember 2002 og umsögn Húsafriðunarnefndar dags. 3. desember 2002 fylgja erindinu. Gjald kr. 4.800
26301 (01.16.121.5),http://gamli.rvk.is/vefur/owa/edutils.parse_page?nafn=BN026301,Garðastræti 41,"viðbygging, bílgeymsla",Samþykkt.  Samræmist ákvæðum laga nr. 73/1997. Frágangur á lóðamörkum verði gerður í samráði við lóðarhafa aðliggjandi lóða. Með vísan til samþykktar borgarráðs frá 1. september 1998 skal utanhúss- og lóðarfrágangi vera lokið eigi síðar en innan tveggja ára frá útgáfu byggingarleyfis að viðlögðum dagsektarákvæðum 57. gr. skipulags- og byggingarlaga nr. 73/1997.,"Sótt er um leyfi til þess að byggja bílgeymslu úr steinsteypu að suðurhlið hússins á lóðinni nr. 41 við Garðastræti. Jafnframt er erindi 24405 dregið til baka. Umsagnir Borgarskipulags dags. 8. nóvember 2001 og 4. febrúar 2002 fylgja erindinu. Útskrift úr gerðabók embættisafgreiðslufundar skipulagsstjóra frá 8. febrúar 2002 fylgir erindinu. Umsögn Gatnamálastofu dags. 5. febrúar 2002 fylgir erindinu. Stærð: Bílgeymsla 36,5 ferm. og 111,3 rúmm. Gjald kr. 4.800 + 5.342"
25662 (01.17.423.1),http://gamli.rvk.is/vefur/owa/edutils.parse_page?nafn=BN025662,Grettisgata 47A,Niðurrif og viðbygging,Frestað. Vísað til athugasemda á umsóknarblaði.,"Sótt er um leyfi til þess að byggja tröppur og viðbyggingu á norðuhlið húss og breyta innra fyrirkomulagi á báðum hæðum hússins á lóðinni nr. 47A við Grettisgötu. Jafnframt er sótt um leyfi til þess að rífa geymsluskúr á norðanverðri lóðinni. (matshl. 70, landnr. 101633, fastanr. 200-5474 stærð 15,5 ferm. og 35 rúmm.). Útskriftir úr gerðabók embættisafgreiðslufundar skipulagsfulltrúa frá 6. september 2002 og 29. nóvember 2002 fylgja erindinu. Stærð: Viðbygging xx ferm. og xx rúmm. Gjald kr. 4.800"
26102 (01.18.210.5),http://gamli.rvk.is/vefur/owa/edutils.parse_page?nafn=BN026102,Grettisgata 6,íbúð í risi,Frestað. Skoðist á milli funda.,Sótt er um samþykki fyrir áður gerðri íbúð (eign 0502) á rishæð hússins á lóðinni nr. 6 við Grettisgötu. Skoðunarskýrsla byggingarfulltrúa dags. 14. nóvember 2002 fylgir erindinu. Beiðni til Rafmagnsstjóra Reykjavíkur dags. 22. október 1969 fylgir erindinu. Virðingargjörð dags. 28. september 1948 fylgir erindinu. Afsal dags. 23. október 2001 fylgir erindinu. Gjald kr. 4.800
26232 (01.17.431.8),http://gamli.rvk.is/vefur/owa/edutils.parse_page?nafn=BN026232,Grettisgata 77,Séreign í kjallara,Samþykkt. Samræmist ákvæðum laga nr. 73/1997. Afmörkun séreignar er gerð með vísan til 15. gr. reglugerðar nr. 910/2000.,"Sótt er um samþykki fyrir afmörkun ósamþykktrar íbúðar í kjallara fjölbýlishússins á lóð nr. 77 við Grettisgötu. Samþykki meðeigenda (á teikningu), ljósrit af afsali eignar í kjallara innfært 6. júlí 1999 og bréf f.h. umsækjanda dags. 2. desember 2002 fylgja erindinu. Gjald kr. 4.800"
26076 (01.85.500.1 03),http://gamli.rvk.is/vefur/owa/edutils.parse_page?nafn=BN026076,Grundarland 14,breytingar,Frestað. Vísað til athugasemda á umsóknarblaði.,"Sótt er um leyfi til þess að byggja viðbyggingu úr timbri og gleri milli bílskúrsins og hússins nr. 14 á lóðinni nr. 10-16 við Grundarland. Bréf hönnuða dags. 3. desember 2002 fylgir erindinu. Samþykki meðlóðarhafa (ódags.) fylgir erindinu. Bréf hönnuðar dags. 4. nóvember 2002 fylgir erindinu.  Útskrift úr gerðabók embættisafgreiðslufundar skipulagsfulltrúa frá 22. nóvember 2002 fylgir erindinu. Stærð: Stækkun viðbygging 46,7 ferm. og 140,3 rúmm. Gjald kr. 4.800 + 6.734"
26322 (04.11.250.4),http://gamli.rvk.is/vefur/owa/edutils.parse_page?nafn=BN026322,Grænlandsleið 23,br. í tvíbýlishús,Frestað. Vísað til athugasemda á umsóknarblaði. Skipulagsferli ólokið.,"Sótt er um leyfi til þess að breyta einbýlishúsi í tvíbýlishús, loka opi milli hæða, auka salarhæð á 1. og 2. hæð og fjölga bílastæðum um tvö bílastæði á lóð nr. 23 við Grænlandsleið. Stærð: Stækkun 11,4 ferm., 28,2 rúmm. Gjald kr. 4.800 + 1.354"
26145 (05.13.550.7),http://gamli.rvk.is/vefur/owa/edutils.parse_page?nafn=BN026145,Gvendargeisli 92,skriðrými,Samþykkt.  Samræmist ákvæðum laga nr. 73/1997. Frágangur á lóðamörkum verði gerður í samráði við lóðarhafa aðliggjandi lóða.,Sótt er um leyfi til þess að hafa lagnakjallara í stað uppfylltra sökkulrýma undir húsinu á lóðinni nr. 92 við Gvendargeisla. Bréf hönnuða dags. 5. nóvember 2002 fylgir erindinu. Gjald kr. 4.800
26005 (01.81.710.8),http://gamli.rvk.is/vefur/owa/edutils.parse_page?nafn=BN026005,Háagerði 14,breyta í tvíbýli,Samþykkt.  Samræmist ákvæðum laga nr. 73/1997. Frágangur á lóðamörkum verði gerður í samráði við lóðarhafa aðliggjandi lóða. Með vísan til samþykktar borgarráðs frá 1. september 1998 skal utanhúss- og lóðarfrágangi vera lokið eigi síðar en innan tveggja ára frá útgáfu byggingarleyfis að viðlögðum dagsektarákvæðum 57. gr. skipulags- og byggingarlaga nr. 73/1997. Helga Guðmundsdóttir vék af fundi við afgreiðslu málsins.,Sótt er um leyfi til þess að breyta einbýlishúsi í tvíbýlishús á lóð nr. 14 við Háagerði. Útliti og gluggasetningu er breytt á öllum hliðum hússins og komið er fyrir þremur nýjum bílastæðum á lóðinni. Samþykki nágranna fylgir á teikningu. Grenndarkynningu var lokið 4. desember 2002. Útskrift úr gerðabók embættisafgreiðslufundar skipulagsfulltrúa frá 9. ágúst 2002 (v. fyrirspurnar) og umsögn Verkfræðistofu fylgja erindinu. Gjald kr. 4.800
26323 (01.23.520.2),http://gamli.rvk.is/vefur/owa/edutils.parse_page?nafn=BN026323,Hátún 6,stækkun á fjölbýlishúsi,Frestað. Vísað til athugasemda á umsóknarblaði. Að þeim uppfylltum verður málið sent skipulagsfulltrúa til ákvörðunar um grenndarkynningu.,"Sótt er um leyfi til þess að byggja átta hæða steinsteypta viðbyggingu við norðurhlið með 23 íbúðum við núverandi fjölbýlishús á lóð nr. 6 við Hátún. Stærð: Samtals stækkun 1.-8. hæð 1725 ferm., 4663,9 rúmm. Gjald kr. 4.800 + 223.867"
26109 (01.16.000.3),http://gamli.rvk.is/vefur/owa/edutils.parse_page?nafn=BN026109,Hávallagata 22,reyndarteikningar,Frestað. Lagfæra skráningu.,Sótt er um samþykki fyrir núverandi innra fyrirkomulagi hússins á lóðinni nr. 22 við Hávallagötu. Gerð er grein fyrir eignarhaldi í húsinu og lítilsháttar breytingum á íbúð á þakhæð. Gjald kr. 4.800
24896 (04.67.400.2),http://gamli.rvk.is/vefur/owa/edutils.parse_page?nafn=BN024896,Hraunberg 4,reyndarteikningar,Frestað. Leiðrétta skráningu.,Sótt er um samþykki fyrir reyndarteikningum af húsinu nr. 4 við Hraunberg.  Gerð er grein fyrir eignarhaldi í húsinu. Í stað einnar sjálfstæðrar eignar verða skráðar fjórtán séreignir í húsinu. Samþykki Húsfélagsins Hraunbergi 4 dags. 10. júní 2002 fylgir erindinu. Afsalsbréf dags. 27. febrúar 1998 og 24. mars 1999 fylgja erindinu. Gjald kr. 4.800
25968 (01.16.240.1),http://gamli.rvk.is/vefur/owa/edutils.parse_page?nafn=BN025968,Hringbraut 50,br. skrifst. í sjúkradeild,Samþykkt.  Samræmist ákvæðum laga nr. 73/1997. Áskilin lokaúttekt byggingarfulltrúa. Áskilið samþykki heilbrigðiseftirlits.,"Sótt er um leyfi til þess að breyta skrifstofum á  2. hæð, norðurenda, í sjúkradeild með 15 rúmum og leggja niður vistrými á rishæð Elli- og hjúkrunarheimilisins Grundar á lóð nr. 50 við Hringbraut. Gjald kr. 4.800"
26311 (01.17.000.4),http://gamli.rvk.is/vefur/owa/edutils.parse_page?nafn=BN026311,Hverfisgata  8-10,reyndarteikn. br. viðb.,Frestað. Vísað til athugasemda á umsóknarblaði. Sigurður Pálmi Ásbergsson vék af fundi við afgreiðslu málsins.,"Sótt er um leyfi til þess að breyta viðbyggingu í porti að lóðamörkum í vestur og suður og breyta lítillega stiga frá matsal hótels 101 á lóð nr. 8-10 við Hverfisgötu. Stærð: Rúmmálsaukning viðbyggingar 25,3 rúmm. Gjald kr. 4.800 + 1.214"
25277 (01.17.300.5),http://gamli.rvk.is/vefur/owa/edutils.parse_page?nafn=BN025277,Hverfisgata 68A,Reyndarteikningar,Frestað.  Tilkynna eiganda íbúðar 0201 um fyrirhugaða breytta skráningu íbúðarinnar.,"Sótt er um samþykki fyrir áður gerðri íbúð á 1. hæð í austurenda, fyrir afmörkun séreignar í kjallara og á rishæð ásamt breyttu innra skipulagi í íbúðarhúsinu á lóð nr. 68A við Hverfisgötu. Þinglesin afsöl dags. 6. febrúar 1997 (0201), dags. 27. janúar 1984 (0002) ásamt íbúðarskoðun byggingarfulltrúa dags. 16. ágúst 2002 fylgja erindinu. Gjald kr. 4.800"
25797 (01.17.300.6),http://gamli.rvk.is/vefur/owa/edutils.parse_page?nafn=BN025797,Hverfisgata 70,"reyndarteikn., áður gerð íb.",Frestað. Vísað til athugasemda á umsóknarblaði.,Sótt er um samþykki fyrir áður gerðri fjölgun íbúða úr einni í tvær í eystri hluta (matshluta 01) íbúðarhúss á lóð nr. 70 við Hverfisgötu. Samþykki meðeigenda á teikningu fylgir erindinu. Gjald kr. 4.800
26292 (01.17.030.8),http://gamli.rvk.is/vefur/owa/edutils.parse_page?nafn=BN026292,Ingólfsstræti 8,íbúð í risi o.fl.,Samþykkt.  Samræmist ákvæðum laga nr. 73/1997. Skilyrt er að gluggar á austurþekju verði settir í þakið eigi síðar en bárujárn er endurnýjað.,"Sótt er um leyfi til þess að setja þakglugga yfir stigahús, stækka og fjölga þakgluggum á austurþekju,  setja öryggishandrið á þak yfir inngangi og samþykkja íbúð á þakhæð hússins á lóð nr. 8 við Ingólfsstræti. Umsögn Árbæjarsafns dags. 29. nóvember 2002, umsögn Húsfriðunarnefndar ríkisins dags. 2. desember 2002 og  íbúðarskoðun byggingarfulltrúa dags. 27. nóvember og 6. desember 2002 fylgja erindinu. Gjald kr. 4.800"
26096 (01.35.260.6),http://gamli.rvk.is/vefur/owa/edutils.parse_page?nafn=BN026096,Kambsvegur 2,reyndarteikningar,Frestað. Vísað til athugasemda á umsóknarblaði.,Sótt er um samþykki fyrir leiðréttum teikningum af kjallara og skiptingu bílgeymslu í tvær eignir vegna gerðar eignaskiptayfirlýsingar á lóð nr. 2 við Kambsveg. Gjald kr. 4.800
26302 (01.36.050.7),http://gamli.rvk.is/vefur/owa/edutils.parse_page?nafn=BN026302,Kirkjuteigur 5,reyndarteikn. íb.,Frestað. Skoðist á milli funda.,"Sótt er um samþykki fyrir áður gerðri íbúð í kjallara, fyrir áður gerðri íbúð í áður verslun á 1. hæð og áður gerðri skiptingu íbúðar á 2. hæð í tvær íbúðir í íbúðarhúsinu á lóð nr. 5 við Kirkjuteig. Samþykki meðeigenda dags. 2. desember 2002 og  virðingargjörð dags. 1. júlí 1942 og 25. september 1978 fylgja erindinu. Gjald kr. 4.800"
26318 (04.11.440.1),http://gamli.rvk.is/vefur/owa/edutils.parse_page?nafn=BN026318,Kristnibraut 43-47,hurð bílg. 0009,Frestað. Lagfæra skráningu.,Sótt er um leyfi til þess að setja hurð frá bílgeymslu 0009 að geymslu 0006 og breyta hurð að sameign í eldvarnarhurð í kjallara fjölbýlishúss nr. 43 á lóð nr. 43-47 við Kristnibraut. Gjald kr. 4.800
26321 (04.11.440.2),http://gamli.rvk.is/vefur/owa/edutils.parse_page?nafn=BN026321,Kristnibraut 49-53,br. á 3. hæð (0301),Samþykkt.  Samræmist ákvæðum laga nr. 73/1997. Frágangur á lóðamörkum verði gerður í samráði við lóðarhafa aðliggjandi lóða. Áskilin lokaúttekt byggingarfulltrúa.,Sótt er um leyfi til þess að breyta innra skipulagi íbúðar 0301 og breyta svalahurð á 3. hæð suðurhliðar fjölbýlishússins nr. 49 á lóð nr. 49-53 við Kristnibraut. Gjald kr. 4.800
24170 (01.32.970.1),http://gamli.rvk.is/vefur/owa/edutils.parse_page?nafn=BN024170,Köllunarklettsvegur 2,Lestunarskýli,Frestað. Málinu vísað til umsagnar Reykjavíkurhafnar.,"Sótt er um leyfi til að byggja óupphitað skýli úr stáli  fyrir lestun og losun vöruflutningabifreiða vestan við lagerhúsnæði á lóðinni nr. 2 við Köllunarklettsveg. Stærð: Skýli 92,5 ferm., 444 rúmm. Gjald kr. 4.100 + 21.312"
26259 (01.18.350.7),http://gamli.rvk.is/vefur/owa/edutils.parse_page?nafn=BN026259,Laufásvegur 21-23,br.eldvarnarmerk.,Samþykkt 4. desember 2002. Samræmist ákvæðum laga nr. 73/1997.,Sótt er um leyfi til þess að breyta eldvarnarmerkingu í tengibyggingu á milli núverandi húsa á lóð nr. 21-23 við Laufásveg. Gjald kr. 4.800
26122 (04.63.320.3 01),http://gamli.rvk.is/vefur/owa/edutils.parse_page?nafn=BN026122,Leirubakki 36,fjölbýlishús m. 18 íb.,Samþykkt.  Samræmist ákvæðum laga nr. 73/1997. Frágangur á lóðamörkum verði gerður í samráði við lóðarhafa aðliggjandi lóða. Áskilin lokaúttekt byggingarfulltrúa. Þinglýsa skal yfirlýsingu eigenda sbr. bréf Orkuveit Reykjavíkur dags. 1. nóvember 2002. Með vísan til samþykktar borgarráðs frá 1. september 1998 skal utanhúss- og lóðarfrágangi vera lokið eigi síðar en innan tveggja ára frá útgáfu byggingarleyfis að viðlögðum dagsektarákvæðum 57. gr. skipulags- og byggingarlaga nr. 73/1997.,"Sótt er um leyfi til þess að innrétta íbúðir í áður verslunarhúsnæði og hækka húsið um eina hæð þannig að samtals yrðu átján íbúðir í húsi nr. 36 á lóð nr. 34-36 við Leirubakka. Jafnframt lagt fram bréf OR dags. 1. nóvember 2002 vegna dreifistöðvar. Stærð: Stækkun samtals 558,6 ferm., 1656 rúmm. Gjald kr. 4800 + 79.488"
26217 (01.52.300.1 05),http://gamli.rvk.is/vefur/owa/edutils.parse_page?nafn=BN026217,Meistaravellir 17,tvær áður gerðar íbúðir á jarðhæð,Frestað. Vísað til athugasemda á umsóknarblaði.,Sótt er um samþykki fyrir tveimur áður gerðum íbúðum (eignir 0001 og 0002) á jarðhæð hússins nr. 17 við Meistaravelli. Samþykki meðeigenda (ódags.) fylgir erindinu. Skoðunarskýrsla byggingarfulltrúa (v. íbúðar 0002) dags. 23. maí 2002 fylgir erindinu. Gjald kr. 4.800
26231 (04.12.650.2),http://gamli.rvk.is/vefur/owa/edutils.parse_page?nafn=BN026231,Ólafsgeisli 14-18,hús nr. 16 - br. innand.,Samþykkt.  Samræmist ákvæðum laga nr. 73/1997. Frágangur á lóðamörkum verði gerður í samráði við lóðarhafa aðliggjandi lóða.,"Sótt er um leyfi til þessa að breyta sameiginlegum stiga í séreign íbúðar 0301 og leiðrétta stærð húss nr. 16 á lóð nr. 14-18 við Ólafsgeisla. Jafnframt er sótt um að breyting á húsi nr. 16 sem samþykkt var 12. nóvember 2002 verði felld úr gildi.   Bréf hönnuðar dags. 18. nóvember 2002 fylgir erindinu. Stærð: Hús nr. 16 var samtals 449,2 ferm. verður 447,5 ferm. Gjald kr. 4.800"
26216 (01.14.051.4),http://gamli.rvk.is/vefur/owa/edutils.parse_page?nafn=BN026216,Pósthússtræti 11,breyting á innr. 1.hæðar,Samþykkt.  Samræmist ákvæðum laga nr. 73/1997. Áskilin lokaúttekt byggingarfulltrúa. Áskilið samþykki heilbrigðiseftirlits.,Sótt er um leyfi til þess að breyta til fyrra horfs innréttingum veitingahússins á fyrstu hæð Hótels Borgar við Pósthússtræti 11. Umboð eiganda dags. 15. nóvember 2002 fylgir erindinu. Gjald kr. 4.800
26282 (01.13.010.5),http://gamli.rvk.is/vefur/owa/edutils.parse_page?nafn=BN026282,Seljavegur 2,stigi og fl.,Frestað. Vísað til athugasemda á umsóknarblaði.,"Sótt er um leyfi til þess að snúa opnun hurða, setja upp hringstiga sem flóttaleið og endurnýja leyfi fyrir leikhúsrekstur Loftkastalans á 2. hæð matshluta 02 á lóð nr. 2 við Seljaveg. Bréf VSI varðandi brunavarnir Loftkastalans dags. 13. nóvember 2002 fylgir erindinu. Gjald kr. 4.800"
26204 (01.13.010.5),http://gamli.rvk.is/vefur/owa/edutils.parse_page?nafn=BN026204,Seljavegur 2,br. á 1.h í kaffistofu,Samþykkt.  Samræmist ákvæðum laga nr. 73/1997. Áskilin lokaúttekt byggingarfulltrúa. Áskilið samþykki heilbrigðiseftirlits.,"Sótt er um leyfi til þess að breyta vestari hluta 1. hæðar (matshluta 02) í kaffistofu starfsmanna og byggja glerskála við norðurhlið, að porti, á lóð nr. 2 við Seljaveg. Samþykki meðeigenda (á teikningu) og umboð vegna undirskriftar dags. 19. nóvember 2002 fylgja erindinu. Jafnframt lögð fram útskrift úr gerðabók embættisafgreiðslufundar skipulagsfulltrúa frá 6. desember 2002. Stærð: Glerbygging 26,7 ferm., 114,8 rúmm. Gjald kr. 4.800 + 5.510"
26296 (01.13.320.6),http://gamli.rvk.is/vefur/owa/edutils.parse_page?nafn=BN026296,Seljavegur 23,áður gerðar breytingar,Frestað. Vísað til athugasemda á umsóknarblaði.,Sótt er um samþykki fyrir áður gerðum breytingum í samræmi við samþykkt byggingarnefndar hinn 8. júní 1989 og 7. júlí 1998 fyrir húsið á lóðinni nr. 23 við Seljaveg. Byggður hefur verið kvistur á framhlið (vesturhlið) og  svalir á austurhlið hússins. Stækkun 19 ferm. og 25 rúmm. Gjald kr. 4.800 + 1200
26300 (01.29.210.5),http://gamli.rvk.is/vefur/owa/edutils.parse_page?nafn=BN026300,Síðumúli  7-9,"reyndarteikn., klæðning",Samþykkt.  Samræmist ákvæðum laga nr. 73/1997.,Sótt er um samþykki fyrir breyttum plötustærðum á klæðningu útveggja atvinnuhússins á lóð nr. 7-9 við Síðumúla. Gjald kr. 4.800
25964 (01.29.310.3),http://gamli.rvk.is/vefur/owa/edutils.parse_page?nafn=BN025964,Síðumúli 16-18,br. á 1.h í framhúsi nr.16,Frestað. Vísað til athugasemda á umsóknarblaði.,Sótt er um leyfi til þess að breyta innra skipulagi norðurhluta húss nr. 16 og sameina hús nr. 16 og 18 í einn matshluta á lóð nr. 16-18 við Síðumúla. Bréf burðarvirkishönnuðar dags. 28. nóvember 2002 fylgir erindinu. Gjald kr. 4.800
26289 (01.24.610.9),http://gamli.rvk.is/vefur/owa/edutils.parse_page?nafn=BN026289,Skipholt 22,reyndarteikningar,Frestað. Vísað til athugasemda á umsóknarblaði.,Sótt er um samþykki fyrir núverandi fyrirkomulagi í húsinu á lóðinni nr. 22 við Skipholt. Gerð er grein fyrir eignarhaldi í húsinu. Gjald kr. 4.800
25708 (01.15.310.2),http://gamli.rvk.is/vefur/owa/edutils.parse_page?nafn=BN025708,Skúlagata 20,lokun á svölum,Samþykkt.  Samræmist ákvæðum laga nr. 73/1997.,"Sótt er um leyfi til þess að útbúa sólskýli (af gerðinni Lumon) á svölum tuttugu íbúða í húsinu á lóðinni nr. 20 við Skúlagötu. Samþykki meðeigenda (ódags.) fylgir erindinu. Bréf húsfélagsins Skúlagötu 20 dags. 17. september 2002 fylgir erindinu. Viðurkenning Brunamálastofnunar ríkisins dags. 27. janúar 1997 og 2. október 2002 fylgir erindinu. Skýrsla Rannsóknarstofnunar byggingariðnaðarins dags. 27. október 1998 og yfirlýsing burðavirkishönnuðar dags. 19. nóvember 2002 fylgir erindinu. Stærð: Sólskýli (Lumon) 153,6 ferm. og 414,7 rúmm. Gjald kr. 4.800 + 19.907"
26295 (01.23.210.1),http://gamli.rvk.is/vefur/owa/edutils.parse_page?nafn=BN026295,Sóltún 24-26,"(24) hurð kj, út-ljós o.fl.",Samþykkt.  Samræmist ákvæðum laga nr. 73/1997. Frágangur á lóðamörkum verði gerður í samráði við lóðarhafa aðliggjandi lóða. Áskilin lokaúttekt byggingarfulltrúa. Áskilið samþykki heilbrigðiseftirlits.,"Sótt er um leyfi til þess að færa dyr að snyrtingu í kjallara, fella niður flóttaljós úr líkamsræktarherbergi í kjallara og setja upp brunaslöngu á 1. hæð gistiheimilisins í húsi nr. 24 á lóð nr. 24-26 við Sóltún. Gjald kr. 4.800"
26315 (01.13.340.1),http://gamli.rvk.is/vefur/owa/edutils.parse_page?nafn=BN026315,Sólvallagata 80-84,80-84 bæta við íbúð,Synjað. Samræmist ekki skipulagi.,"Sótt er um leyfi til þess að bæta einni íbúð ofaná hornið við Sólvallagata/Ánanaust á hús nr. 84 á lóð nr. 80-84 við Sólvallargötu. Bréf hönnuðar dags. 3. desember 2002 fylgir erindinu. Stærð: Stækkun 4. hæðar 94 ferm., 220,7 rúmm. Gjald kr. 4.800 + 10.594"
26329 (02.37.530.1),http://gamli.rvk.is/vefur/owa/edutils.parse_page?nafn=BN026329,Spöngin 33-41,Fasteignas.+ fjölskþjónusta (nr.37),Frestað. Höfundur hafi samband við umhverfis- og heilbrigðisstofu.,Sótt er um leyfi til þess að innrétta fasteignasölu og fjölskylduþjónustu í rými 0203 á 2. hæð húss nr. 33-39 (matshluta 05) á lóð nr. 33-41 við Spöngina. Gjald kr. 4.800
26328 (02.37.520.1),http://gamli.rvk.is/vefur/owa/edutils.parse_page?nafn=BN026328,Spöngin 9-31,kaffihús (nr. 21),Frestað. Vísað til athugasemda eldvarnaeftirlits.,Sótt er um leyfi til þess að innrétta kaffihús í rými 0106 í húsi nr. 21 (matshluta 03) á lóð nr. 9-31 við Spöngina. Gjald kr. 4.800
26205 (01.71.120.1),http://gamli.rvk.is/vefur/owa/edutils.parse_page?nafn=BN026205,Stigahlíð  2-4,reyndarteikn.+lóð,Frestað. Málinu vísað til umsagnar skipulagsfulltrúa.,Sótt er um samþykki fyrir núverandi innra skipulagi kjallara og leyfi fyrir bílastæðum og skipulagi lóðar við fjölbýlishúsin á lóð nr. 2-4 við Stigahlíð. Samþykki meðeigenda ódags. fylgir erindinu. Gjald kr. 4.800
26188 (04.32.680.1),http://gamli.rvk.is/vefur/owa/edutils.parse_page?nafn=BN026188,Stuðlaháls 1,"viðbygging, breytingar",Frestað. Lagfæra skráningu.,"Sótt er um leyfi til þess að byggja tveggja hæða viðbyggingu við austurhlið húss nr. 2, byggja rannsóknarstofu sem aflokað hús frá 2. hæð húss nr. 1 inn í sal húss nr. 2 og fjarlægja milliloft og setja upp nýtt milliloft og brýr í húsi nr. 1 og 2 á lóð nr. 1 við Stuðlaháls. Stærð: Stærðaraukning samtals 702,2 ferm., 562,2 rúmm. Gjald kr. 4.800 + 26.986"
25559 (01.26.110.1),http://gamli.rvk.is/vefur/owa/edutils.parse_page?nafn=BN025559,Suðurlandsbr. 2,Reyndarteikningar,Frestað. Vísað til athugasemda á umsóknarblaði.,"Sótt er um samþykki fyrir leiðréttum uppdráttum af Hótel Esju, fyrir breyttu útliti, breyttu innra skipulagi, breyttum stærðum húss og breyttum lóðarfrágangi þar sem hætt er við að byggja opna bílgeymslu vestan við hótelið  á lóð nr. 2 við Suðurlandsbraut. Útskrift úr gerðabók embættisafgreiðslufundar skipulagsfulltrúa frá 27. september 2002 fylgir erindinu. Stærð: Samtals var stækkun húss 6677,7 ferm. verður 6353,5 ferm., var 23202,4 rúmm. verður 22479,2 rúmm. Opin bílgeymsla var 626,2 ferm. Gjald kr. 4.800"
26215 (01.55.322.1),http://gamli.rvk.is/vefur/owa/edutils.parse_page?nafn=BN026215,Tómasarhagi 16B,reyndarteikningar,Samþykkt.  Samræmist ákvæðum laga nr. 73/1997. Frágangur á lóðamörkum verði gerður í samráði við lóðarhafa aðliggjandi lóða.,"Sótt er um samþykki fyrir núverandi fyrirkomulagi í húsinu á lóðinni nr. 16B við Tómasarhaga vegna breytinga á byggingarstigi. Á austurgafli húss er gluggi í stað dyraops, málsetningar og stærðir hafa verið leiðréttar. Húsið var áður skráð 168,1 ferm. og 584,9 rúmm. en verður 168,8 ferm. og 586,8 rúmm. Gjald kr. 4.800 + 91"
26114 (04.32.750.1),http://gamli.rvk.is/vefur/owa/edutils.parse_page?nafn=BN026114,Tunguháls 3,lóð skipt,Frestað. Með vísan til bréfs skipulagsfulltrúa skal umsækjandi láta vinna tillögu að breyttu deiliskipulagi á sinn kostnað en í samráði við skipulagsfulltrúa.,"Sótt er um leyfi til þess að skipta lóðinni Tunguháls 3 upp í tvær lóðir, Tunguháls 1 og Tunguháls 3, sbr. meðfylgjandi teikningar. Útskrift úr gerðabók embættisafgreiðslufundar skipulagsfulltrúa frá 29. nóvember 2002 og umsögn skipulagsfulltrúa dags. 13. nóvember 2002 fylgja erindinu. Gjald kr. 4.800"
26303 (01.17.030.3),http://gamli.rvk.is/vefur/owa/edutils.parse_page?nafn=BN026303,Þingholtsstræti 5,veitingahús,Frestað. Vísað til athugasemda á umsóknarblaði. Að þeim uppfylltum verður málið sent skipulagsfulltrúa til ákvörðunar um grenndarkynningu.,Sótt er um leyfi til þess að innrétta veitingahús á 1. hæð hússins á lóð nr. 5 við Þingholtsstræti. Bréf hönnuðar dags. 13. desember 2002 fylgir erindinu. Gjald kr. 4.800
26335 (01.17.030.2),http://gamli.rvk.is/vefur/owa/edutils.parse_page?nafn=BN026335,Þingholtsstræti 7,reyndarteikning,Frestað. Vísað til athugasemda á umsóknarblaði.,Sótt er um samþykki fyrir núverandi fyrirkomulagi í húsinu á lóðinni nr.7 við Þingholtsstræti. Gerð er grein fyrir eignarhaldi í húsinu. Gjald kr. 4.800
25855 (00.00.000.0),http://gamli.rvk.is/vefur/owa/edutils.parse_page?nafn=BN025855,Þorláksgeisli 10,stækkun,Frestað. Lagfæra skráningu. Skipulagsferli ólokið.,"Sótt er um leyfi til þess að stækka hús og bæta við íbúð á fjórðu hæð fjölbýlishússins nr. 10 (matshluti 03) á lóðinni nr. 6-12 við Þorláksgeisla. Alls verða fjórtán íbúðir í húsinu. Bréf hönnuðar dags. 20. september 2002 fylgir erindinu. Stærð: Húsið var áður skráð samtals 1024,3 ferm., 3219,8 rúmm. en verður nú 1078,8 ferm. og 3304,7 rúmm. Stækkun 54,5 ferm. og 84,9 rúmm. Gjald kr. 4.800 + 4.075"
26309 (04.13.340.1),http://gamli.rvk.is/vefur/owa/edutils.parse_page?nafn=BN026309,Þorláksgeisli 12,breytingar,Frestað. Vísað til athugasemda á umsóknarblaði. Skipulagsferli ólokið.,"Sótt er um leyfi til þess að stækka hús og bæta við íbúð á fjórðu hæð fjölbýlishússins nr. 12 (matshluti 04) á lóðinni nr. 6-12 við Þorláksgeisla. Alls verða fjórtán íbúðir í húsinu. Stærð: Húsið var áður skráð samtals 1024,3 ferm., 3219,8 rúmm. en verður nú 1078,8 ferm. og 3304,7 rúmm. Stækkun 54,5 ferm. og 84,9 rúmm. Gjald kr. 4.800 + 4.075"
26060 (01.18.420.5),http://gamli.rvk.is/vefur/owa/edutils.parse_page?nafn=BN026060,Þórsgata 10,breyting inni og úti,Samþykkt.  Samræmist ákvæðum laga nr. 73/1997. Með vísan til samþykktar borgarráðs frá 1. september 1998 skal utanhúss- og lóðarfrágangi vera lokið eigi síðar en innan tveggja ára frá útgáfu byggingarleyfis að viðlögðum dagsektarákvæðum 57. gr. skipulags- og byggingarlaga nr. 73/1997.,"Sótt er um leyfi til þess að stækka kvist á suðvesturhlið, koma fyrir svölum á annarri hæð og rishæð, byggja nýtt anddyri úr steinsteypu að suðurhlið húss, breyta innra skipulagi og fækka íbúðum úr þremur í tvær í matshluta 01 á lóðinni nr. 10 við Þórsgötu. Greinargerð hönnuðar dags. 16. október 2002 fylgir erindinu. Samþykki meðlóðarhafa (á teikn.) fylgir erindinu. Jafnframt lögð fram útskrift úr gerðabók embættisafgreiðslufundar skipulagsfulltrúa frá 6. desember 2002. Stærð: Stækkun anddyri og kvistur 4,5 ferm. og 23,0 rúmm. Gjald kr. 4.800 + 1.104"
26351 (01.21.810.1),http://gamli.rvk.is/vefur/owa/edutils.parse_page?nafn=BN026351,Borgartún 25-27,Mæliblað,Samþykkt.  Samræmist ákvæðum laga nr. 73/1997.,Tillaga um byggingarreit og aðkomu. Á uppdráttinn hefur verið færður byggingarreitur í samræmi við samþykkt skipulags- og byggingarnefndar 5. júní 2002 og samþykkt borgarráðs 14. júní 2002. Aðkoma að lóðinni yfir lóðina Borgartún 31 í samræmi við þinglesna yfirlýsingu B-20810/02 dags. 15. nóvember 2002.
26339 (04.30.960.1),http://gamli.rvk.is/vefur/owa/edutils.parse_page?nafn=BN026339,Réttarháls 1,Breyting á lóðarheiti,Samþykkt.  Samræmist ákvæðum laga nr. 73/1997.,"Ofanritað fyrirtæki óska eftir því að lóð höfuðstöðva OR nú við Réttarháls 1 verði tölusett nr. 1 við Bæjarháls. Málinu fylgir bréf OR dags. 21. nóvember 2002. Byggingarfulltrúi leggur til að lóðin verði tölusett sem Bæjarháls 1, Réttarháls 1."
26326 (01.19.011.7),http://gamli.rvk.is/vefur/owa/edutils.parse_page?nafn=BN026326,Barónsstígur 20A,ofaná- og viðbygging,Frestað. Málinu vísað til umsagnar skipulagsfulltrúa.,Spurt er hvort leyft yrði að hækka húsið á lóðinni Barónsstígur 20A um tvær hæðir og innrétta þar verslun og tvær íbúðir.
26255 (01.13.601.0),http://gamli.rvk.is/vefur/owa/edutils.parse_page?nafn=BN026255,Garðastræti 4,fsp. ofanábygging - fjölgun íb.,Jákvætt. Að uppfylltum skilyrðum og með vísan til umsagnar skipulagsfulltrúa.,Spurt er hvort leyft yrði að hækka rishæð og koma þar fyrir tveimur íbúðum og skipta íbúð á fyrstu hæð í tvær íbúðir í húsinu nr. 4 við Garðastræti. Í húsinu eru nú fimm íbúðir en yrðu átta eftir þessar breytingar. Útskrift úr gerðabók embættisafgreiðslufundar skipulagsfulltrúa frá 6. desember 2002 og umsögn skipulagsfulltrúa dags. 6. desember 2002 fylgja erindinu.
26327 (01.19.011.6),http://gamli.rvk.is/vefur/owa/edutils.parse_page?nafn=BN026327,Grettisgata 62,fsp. hækkun og stækkun,Frestað. Vísað til athugasemda á umsóknarblaði. Málinu vísað til umsagnar skipulagsfulltrúa.,Spurt er hvort leyft yrði að hækka um eina hæð og stækka til austurs húsið nr. 62 við Grettisgötu.
26336 (01.18.211.1),http://gamli.rvk.is/vefur/owa/edutils.parse_page?nafn=BN026336,Grettisgata 16B,(fsp) viðbygging og anddyri,Frestað. Málinu vísað til skipulagsfulltrúa.,Spurt er hvort leyft yrði að færa innngang að neðrihæð á austurhlið og byggja viðbyggingu í suðvestur við íbúð neðri hæðar íbúðarhússins á lóð nr. 16B við Grettisgötu. Bréf fyrirspyrjanda dags. 18. nóvember 2002 fylgir erindinu.
26266 (01.63.550.7),http://gamli.rvk.is/vefur/owa/edutils.parse_page?nafn=BN026266,Hörpugata 2,(fsp) nýtt íbúðarhús,Neikvætt. Samkvæmt bókun skipulagsfulltrúa er umsækjanda bent á að halda sig við tillögu sem samþykkt var í borgarráði 11. nóvember 1997.,"Spurt er hvort leyft yrði að byggja tvílyft íbúðarhús ásamt mögulegum kjallara á norðurhluta lóðar nr. 2 við Hörpugötu. Bréf fyrirspyrjanda dags. 25. nóvember 2002, 16. maí og  21. júní 1988, afstöðumynd með innteiknuðum byggingarreit, þinglýsingarskjal vegna skiptingar lóðar, bréf borgaryfirvalda dags. 21. júní og 14. ágúst 1988 ásamt bréfi íbúa til Borgarráðs dags. 29. ágúst 1988 og útskrift úr gerðabók embættisafgreiðslufundar skipulagsfulltrúa frá 6. desember 2002 fylgja erindinu"
26348 (04.64.250.1),http://gamli.rvk.is/vefur/owa/edutils.parse_page?nafn=BN026348,Kríuhólar 2-6,(fsp) klæða bílsk. m. steni,Jákvætt. En betur færi að nota sambærilega klæðningu og á fjölbýlishúsi nr. 4 við Kríuhóla.,Spurt er hvort leyft yrði að klæða bílskúra með steniplötum eins og gert var á skúra nr. 2 á lóð nr. 2-66 við Kríuhóla.
26291 (01.38.040.9),http://gamli.rvk.is/vefur/owa/edutils.parse_page?nafn=BN026291,Laugarásvegur 25,fsp. viðbygging,"Jákvætt. Með vísan til skipulagsskilmála samþykktum dags. 10. september 1959, berist byggingarleyfisumsókn verður hún send skipulagsfulltrúa til ákvörðunar um grenndarkynningu.",Spurt er hvort leyft yrði að reisa viðbyggingu á einni eða tveimur hæðum að austurhlið hússins á lóðinni nr. 25 við Laugarásveg. Útskrift úr gerðabók embættisafgreiðslufundar skipulagsfulltrúa frá 6. desember 2002 fylgir erindinu.
26319 (01.24.000.5),http://gamli.rvk.is/vefur/owa/edutils.parse_page?nafn=BN026319,Laugavegur 105,fsp Íbúðir á annari hæð.,Frestað. Málinu vísað til umsagnar skipulagsfulltrúa.,Spurt er hvort leyft yrði að breyta skrifstofuhúsnæði á annarri hæð hússins nr. 105 við Laugaveg í ellefu íbúðir.
26088 (01.13.201.7),http://gamli.rvk.is/vefur/owa/edutils.parse_page?nafn=BN026088,Nýlendugata 4,(fsp) skúrbygging,Jákvætt. Að uppfylltum skilyrðum. Berist byggingarleyfisumsókn verður hún send skipulagsfulltrúa til ákvörðunar um grenndarkynningu.,Spurt er hvort leyft yrði að byggja bílskúr að austurhlið hússins nr. 4 við Nýlendugötu. Svipað erindi var samþykkt þann 10. desember 1987 og endurnýjað árið 1989. Útskrift úr gerðabók embættisafgreiðslufundar skipulagsfulltrúa frá 6. desember 2002 fylgir erindinu.
26332 (01.18.030.5 02),http://gamli.rvk.is/vefur/owa/edutils.parse_page?nafn=BN026332,Óðinsgata 6A,fsp. íbúð,Jákvætt. Að uppfylltum skilyrðum. Vísað til athugasemda á umsóknarblaði. Magnús Sædal Svavarsson vék af fundi við afgreiðslu málsins.,Spurt er hvort samþykkt yrði íbúð í vinnustofu í húsinu nr. 6A á lóðinni nr. 6 við Óðinsgötu. Staðfesting Hagstofu Íslands dags. 3. des. 2002 fylgir erindinu.
26290 (01.13.321.6),http://gamli.rvk.is/vefur/owa/edutils.parse_page?nafn=BN026290,Seljavegur 3A,fsp. br. á kyndiklefa,Jákvætt. Enda verði inntök fyrir heitt og kalt vatn í sameingarrými t.d. þvottahúsi.,Spurt er hvort leyft yrði að breyta kyndiklefa sem nú er skráður sameignarrými í geymslu í eigu íbúðar 0301 í húsinu á lóðinni nr. 3A við Seljaveg. Samþykki meðeigenda (ódags.) fylgir erindinu.
26201 (01.15.430.5),http://gamli.rvk.is/vefur/owa/edutils.parse_page?nafn=BN026201,Skúlagata 30,(fsp) veitingarr. á 1.h,Jákvætt. Að uppfylltum skilyrðum. Komi til byggingarleyfisumsóknar skal skila greinargerð sem sýni hljóðvist innahúss og til aðliggjandi húsa.,Spurt er hvort leyft yrði að innrétta veitingastað á 1. hæð fjöleignarhússins á lóð nr. 30 við Skúlagötu. Bréf fyrirspyrjenda ódags. fylgir erindinu. Jafnframt lögð fram umsögn skipulagsfulltrúa dags. 29. nóvember 2002.
26347 (01.15.241.9),http://gamli.rvk.is/vefur/owa/edutils.parse_page?nafn=BN026347,Veghúsastígur 7,Br. sal Söngsk. í gist. (fsp),Frestað. Fyrirspyrjandi geri betur grein fyrir fyrirspurn sinni og hafi samband við umhverfis-og heilbrigðisstofu vegna málsins.,"Spurt er hvort leyft yrði að nota sal Söngskólans fyrir  gistingu hópa, í tengslum við væntanlegt gistiheimili á  Hverfisgötu 45, í atvinnuhúsinu á lóð nr. 7 við Veghúsastíg."
26104 (01.19.021.6),http://gamli.rvk.is/vefur/owa/edutils.parse_page?nafn=BN026104,Vitastígur 20,(fsp) hækkun á þaki ofl,Jákvætt. Að uppfylltum skilyrðum. Enda komi til samþykki lóðarhafa nr. 21 við Bergþórugötu.,"Spurt er hvort leyft yrði að hækka þak, byggja kvisti á vestur og austurhlið og innrétta íbúðarherbergi á rishæð hússins nr. 20 við Vitastíg. Íbúðarherbergi á rishæð yrði í eigu íbúðarinnar á annarri hæð hússins. Bréf hönnuðar dags. 29. október 2002, umboð eiganda dags. 22. október 2002, útskrift úr gerðabók embættisafgreiðslufundar skipulagsfulltrúa frá 6. desember 2002 og umsögn hverfisstjóra dags. 5. desember 2002 fylgja erindinu."
