nr,url,heimilisfang,tegund,nidurstada,spurning
29840 (01.29.020.1),http://gamli.rvk.is/vefur/owa/edutils.parse_page?nafn=BN029840,Ármúli 12,breytingar á fyrstu hæð,Samþykkt.  Samræmist ákvæðum laga nr. 73/1997. Áskilin lokaúttekt byggingarfulltrúa. Áskilið samþykki heilbrigðiseftirlits.,"Sótt er um leyfi til þess að innrétta tvær raungreinastofur í suðausturenda 1. hæðar Fjölbrautaskólans við Ármúla, setja upp skáp fyri gas við austurvegg ásamt nýjum hurðum á suðurhlið sem flóttaleið úr hvorri stofu og breyta áður raungreinastofum í norðausturenda í almenna stofu og vinnuherbergi kennara á lóð nr. 12 við Ármúla. Bréf hönnuðar dags. 13. júlí 2004 ásamt brunahönnun dags. nóvember 1994 fylgja erindinu. Gjald kr. 5.400"
29878 (01.29.020.1),http://gamli.rvk.is/vefur/owa/edutils.parse_page?nafn=BN029878,Ármúli 12,færanleg kennslustofa.,Frestað. Vísað til athugasemda á umsóknarblaði. Málinu vísað til umsagnar skipulagsfulltrúa.,"Sótt er um leyfi til þess að setja upp færanlega kennslustofu við norðvesturhlið Fjölbrautarskólans í Ármúla á lóð nr. 12 við Ármúla. Bréf Menntamálaráðuneytisins dags. 22. júlí 2004 fylgir erindinu. Stærð: Færanleg kennslustofa 80,7 ferm., 285,6 rúmm. Gjald kr. 5.400 + 15.422"
29523 (01.18.440.7),http://gamli.rvk.is/vefur/owa/edutils.parse_page?nafn=BN029523,Bergstaðastræti 37,endurbætur á brunav. o.fl.,Samþykkt.  Samræmist ákvæðum laga nr. 73/1997. Áskilin lokaúttekt byggingarfulltrúa. Áskilið samþykki heilbrigðiseftirlits.,"Sótt er um leyfi fyrir endurbótum á brunavörnum Hótels Holts á lóðinni nr. 37 við Bergstaðastræti. Jafnframt er á teikningum gerð grein fyrir áður gerðum breytingum á húsnæðinu. M.a. hefur herbergjum verið fækkað úr 56 í 42. Erindinu fylgir brunahönnunarskýrsla dags. 22. júní 2004 og framkvæmdaáætlun dags. 25. maí 2004 og 22. júní 2004, yfirlýsing umsækjanda varðandi eignarhald dags. 19. júlí 2004. Gjald kr. 5.400"
27554 (01.19.021.8),http://gamli.rvk.is/vefur/owa/edutils.parse_page?nafn=BN027554,Bergþórugata 19,reyndarteikningar,Frestað. Vísað til athugasemda á umsóknarblaði.,Sótt er um samþykki fyrir núverandi fyrirkomulagi í húsinu á lóðinni nr. 19 við Bergþórugötu. Innra fyrirkomulagi og útliti er breytt á öllum hæðum hússins. Brunavirðing dags. 21. nóvember 1924 ásamt kaupsamningi dags. 2. desember 2002 fylgja erindinu. Gjald kr. 5.100
29747 (01.22.110.1),http://gamli.rvk.is/vefur/owa/edutils.parse_page?nafn=BN029747,Borgartún 24,verslun og veitingast 1. hæð og kj.,Frestað. Vísað til athugasemda á umsóknarblaði.,Sótt er um leyfi til að koma fyrir verslun og veitingastað á hluta fyrstu hæðar og í hluta kjallara hússins nr. 24 við Borgartún. Jafnframt er sótt um leyfi til að koma fyrir nýjum dyrum á norðurhlið hússins. Gjald kr. 5.400
29628 (00.00.000.0 09),http://gamli.rvk.is/vefur/owa/edutils.parse_page?nafn=BN029628,Bæjarháls 1,tengigangur kj.,Frestað. Vísað til athugasemda á umsóknarblaði.,"Sótt er um að ljúka við gerð tengigangs í kjallara (hæð -3) höfuðstöðva OR og tengja hann við norðurhús á lóð nr. 1 við Bæjarháls. Stærð: Stækkun tengigangs 293 ferm., 1201,3 rúmm. Gjald kr. 5.400 + 64.870"
29627 (00.00.000.0 09),http://gamli.rvk.is/vefur/owa/edutils.parse_page?nafn=BN029627,Bæjarháls 1,"endurskipul. skemmu, milliloft",Frestað. Vísað til athugasemda á umsóknarblaði.,"Sótt er um leyfi til þess að breyta innra skipulagi norðurhúss (áður Réttarháls 4), koma fyrir nýjum steyptum stiga milli 1. og 3. hæðar ásamt fólks- og vörulyftu, rífa núverandi millipall við norðurhlið og byggja nýjan millipall milli skrifstofu- og verkstæðishluta framkvæmdasviðs OR, breyta lítillega útliti og steypa stoðvegg frá norðurhúsi að og meðfram hluta vesturlóðamarka á lóð nr. 1 við Bitruháls. Brunahönnun VSI dags. 31. maí 2004 og útskrift úr gerðabók embættisafgreiðslufundar skipulagsfulltrúa frá 9. júlí 2004  fylgja erindinu. Stærð: Hús var 5451.6 ferm. verður 5846,8 ferm., var 33942.2 rúmm. verður 35871,9 rúmm. Gjald kr. 5.400 + 5.400 + 104.204"
29866 (04.64.171.0),http://gamli.rvk.is/vefur/owa/edutils.parse_page?nafn=BN029866,Depluhólar 10,áður gerðar breytingar,Frestað. Vísað til athugasemda á umsóknarblaði. Málinu vísað til umsagnar skipulagsfulltrúa.,"Sótt er um áður gerðar breytingar á lóðinni nr. 10 við Depluhóla. Helstu breytingar eru sólstofa við norðausturhorn, sökklarými undir efri hæð tekið í notkun, afmörkun séreignaríbúðar á neðri hæð og setlaug á verönd við íbúð á neðri hæð. Jafnframt er sótt um leyfi til að breyta skipulagi lóðar og afmarka sérnotahluta, fjölga bílastæðum úr tveimur í þrjú og gera þrjá glugga á fyrrverandi sökklarými. Stækkun: xx Gjald kr. 5.400 + xx"
29286 (01.19.340.4),http://gamli.rvk.is/vefur/owa/edutils.parse_page?nafn=BN029286,Egilsgata 3,reyndarteikn. o. fl.,Frestað. Lagfæra skráningu.,"Sótt er um samþykki fyrir núverandi innra skipulagi, endurbótum eldvarna og leyfi til þess að setja upp handrið framan við björgunarop á suðurhlið 6. hæðar Domus Medica á lóð nr. 3 við Egilsgötu. Jafnframt er erindi 29028 dregið til baka. Brunahönnun VSI dags. 21. apríl 2004 og bréf hönnuðar dags. 20. apríl 2004 fylgja erindinu. Gjald kr. 5.400"
29800 (01.24.410.1),http://gamli.rvk.is/vefur/owa/edutils.parse_page?nafn=BN029800,Einholt 2,atv.húsn. breytt í íbúðir 3.hæð,Frestað. Vísað til athugasemda á umsóknarblaði.,Sótt er um leyfi til þess að koma fyrir svölum á suðvesturhlið og innrétta þrjár íbúðir í atvinnurými á þriðju hæð matshluta 01 á lóðinni nr. 2 við Einholt. Bréf hönnuðar dags. 14. júní 2004 (v. fyrirspurnar) fylgir erindinu. Gjald kr. 5.400
29544 (04.94.730.1 08),http://gamli.rvk.is/vefur/owa/edutils.parse_page?nafn=BN029544,Engjasel 66,breyting á efni í glerskála,Frestað. Vísað til athugasemda á umsóknarblaði.,Sótt er um leyfi til að nota karmaefni úr PVC í stað timburs í glerskála við hús nr. 66 á lóðinni nr. 52-68 við Engjasel. Samþykkt 11. feb. 2003 að byggja skála við húsin nr. 60-68 við Engjasel. Gjald kr. 5.400
29618,http://gamli.rvk.is/vefur/owa/edutils.parse_page?nafn=BN029618,Fiskislóð 40,dælustöð,Frestað. Skipulagsferli ólokið.,Sótt er um leyfi til að byggja skólpdælustöð á lóðinni nr. 40 við Fiskislóð. Dælustöðin verði byggð úr steinsteypu með steinahleðslu utan um hluta þeirra mannvirkja sem eru ofanjarðar. Stærð: xx Gjald kr. 5.400 +  xx
29809 (01.75.120.1),http://gamli.rvk.is/vefur/owa/edutils.parse_page?nafn=BN029809,Flugvallarv. Keiluh.,viðbygging,Frestað. Vísað til athugasemda á umsóknarblaði. Skipulagsferli ólokið.,"Sótt er um leyfi til þess að byggja viðbyggingu við suðurhlið Keiluhallarinnar fyrir veitingastað á neðri hæð og leiktæki á palli á lóð Keiluhallarinnar við Flugvallaveg. Stærð: Viðbygging neðri hæð 326,9 ferm., pallur 323,1 ferm., samtals 650 ferm., xxx rúmm. Gjald kr. 5.400 + xxx"
29864 (04.36.410.1 01),http://gamli.rvk.is/vefur/owa/edutils.parse_page?nafn=BN029864,Fylkisvegur 6,nýir búningsklefar 1. hæð,Frestað. Vísað til athugasemda eldvarnaeftirlits.,Sótt er um leyfi til þess að innrétta búningsaðstöðu í stað minni æfingasalar á 1. hæð íþróttahúss Fylkis á lóð nr. 6 við Fylkisveg. Gjald kr. 5.400
29177 (04.61.200.4),http://gamli.rvk.is/vefur/owa/edutils.parse_page?nafn=BN029177,Gilsárstekkur 8,íbúð á jarðhæð,Frestað. Skipulagsferli ólokið.,"Sótt er um samþykki fyrir áður gerðri íbúð og áður gerðri stækkun í óuppfyllt rými á neðri hæð íbúðarhússins á lóðinni nr. 8 við Gilsárstekk. Ljósrit af staðfestingu OR fyrir tveimur orkumælum í húsinu (frá 1. janúar 1971) dags. 13. október 2003 og ljósrit af skráningu Fasteignamats frá 1972 fylgja erindinu. Skoðunarskýrsla byggingarfulltrúa dags. 15. apríl 2004 fylgir erindinu. Stærð: Stækkun 66,2 ferm. og 318,8 rúmm. Gjald kr. 5.400 + 17.215"
29799 (04.35.230.4),http://gamli.rvk.is/vefur/owa/edutils.parse_page?nafn=BN029799,Glæsibær 19,"endurnýjun, byggja við íbúðarhús",Samþykkt.  Samræmist ákvæðum laga nr. 73/1997. Með vísan til samþykktar borgarráðs frá 1. september 1998 skal utanhúss- og lóðarfrágangi vera lokið eigi síðar en innan tveggja ára frá útgáfu byggingarleyfis að viðlögðum dagsektarákvæðum 57. gr. skipulags- og byggingarlaga nr. 73/1997.,"Sótt er um endurnýjun á byggingarleyfi frá 27. nóvember 2002 um leyfi til þess að byggja viðbyggingar að austur-  og vesturhlið einbýlishússins á lóð nr. 19 við Glæsibæ. Samþykki nágranna (á teikningu) og umsögn burðarvirkishönnuðar (á teikningu) fylgja erindinu. Stærð: Stækkun íbúðar 31,4 ferm., bílgeymslu 7,2 ferm., samtals 38,6 ferm., 205,5 rúmm. Gjald kr. 5.400 + 11.097"
28314 (01.47.300.2),http://gamli.rvk.is/vefur/owa/edutils.parse_page?nafn=BN028314,Gnoðarvogur 82,byggja yfir efstu svalir ,Frestað. Lagfæra skráningartöflu.,"Sótt er um samþykki fyrir áður gerðri viðbyggingu í suðausturhorni 3. hæðar og fyrir áður gerðri breytingu á stærð íbúðar í kjallara ásamt leyfi til þess að byggja viðbyggingu í stað núverandi svala við norðausturhlið 3. hæðar og svalaskýli  og viðbyggingu yfir svalir við suðvesturhlið 3. hæðar  íbúðarhússins á lóð nr. 82 við Gnoðarvog. Erindið var grenndarkynnt frá 24. mars til 21. apríl 2004. Engar athugasemdir bárust.  Bréf f.h. umsækjanda dags. 31. október 2003 og samþykki meðeigenda dags. 4. mars 2003 fylgja erindinu. Stærð: Áður gerð viðbygging 10,8 ferm., 23,4 rúmm., umsótt stækkun 3. hæðar samtals 39 ferm., 86,8 rúmm. Gjald kr. 5.100 + 5.951"
29716 (01.46.110.1),http://gamli.rvk.is/vefur/owa/edutils.parse_page?nafn=BN029716,Grensásvegur 9,"eldvarnir, innra frkl, viðbyggingar o.fl.",Frestað. Vísað til athugasemda á umsóknarblaði.,"Sótt er um leyfi til að breyta innra fyrirkomulagi og brunavörnum á öllum hæðum og í kjallara hússins nr. 9 við Grensásveg, þ.m.t. að koma fyrir bílageymslum í kjallara.. Jafnframt er sótt um leyfi til að breyta útliti og að koma fyrir svölum á austurhlið (bakhlið) og byggja tækjaskýli áfast húsi á baklóð. Stækkun: xx Gjald kr. 5.400 + xx"
29277 (01.24.770.2),http://gamli.rvk.is/vefur/owa/edutils.parse_page?nafn=BN029277,Guðrúnargata 4,áður gerðar br,Frestað. Vísað til athugasemda á umsóknarblaði.,"Sótt er um samþykki fyrir áður gerðum breytingum á burðarvirki og innra fyrirkomulagi íbúðar á fyrstu hæð hússins á lóðinni nr. 4 við Guðrúnargötu. Steyptur veggur milli eldhúss og borðstofu hefur verið rifinn að mestu. Á teikningum er gerð grein fyrir áður gerðri bílageymslu á lóð. Bréf byggingarfulltrúa dags. 4. nóvember 2003 fylgir erindinu.  Bréf aðalhönnuðar dags. 25. nóvember 2003 og 15. mars 2004 (með beiðni um að uppdrættir verði kynntir fyrir íbúum annarrar hæðar) fylgja erindinu.  Umsögn burðarvirkishönnuðar dags. 10. nóvember 2003 og bréf frá teiknistofunni T.ark, dags. 1. júlí 2004 fylgja erindinu. Gjald kr. 5.400"
29804 (01.83.001.4),http://gamli.rvk.is/vefur/owa/edutils.parse_page?nafn=BN029804,Hamarsgerði 6,"viðbygging, setlaug o.fl.",Frestað. Vísað til athugasemda á umsóknarblaði.,"Sótt er um leyfi til þess að byggja viðbyggingu úr timbri og gleri að suðurhlið húss, koma fyrir dyrum frá baðherbergi út í garð og byggja setlaug ásamt skjólgirðingu á suðurhluta lóðar nr. 6 við Hamarsgerði. Útskrift úr gerðabók embættisafgreiðslufundar skipulagsfulltrúa frá 11. júní 2004 (v. fyrirspurnar) fylgir erindinu. Stærð: Stækkun viðbygging 7,8 ferm. og 20,2 rúmm. Gjald kr. 5.400 + 1.091"
29856 (04.06.130.7),http://gamli.rvk.is/vefur/owa/edutils.parse_page?nafn=BN029856,Hamarshöfði 3,öryggisgirðing v/bílaplan,Frestað. Vísað til athugasemda á umsóknarblaði.,Sótt er um leyfi til að reisa netgirðingu á steyptum sökklum umhverfis bílaplan á lóðinni nr. 3 við Hamarshöfða. Gjald kr. 5.400
29769 (04.67.340.5),http://gamli.rvk.is/vefur/owa/edutils.parse_page?nafn=BN029769,Hólaberg 82,reyndarteikningar,Frestað. Vísað til athugasemda á umsóknarblaði.,"Sótt er um samþykki fyrir áður gerðum gluggalausum kjallara undir íbúðarhúsi (matshluta 01) ásamt áður gerðum útitröppum sem aðkomu að kjallaranum og fyrir áður gerðum kjallara undir framhúsi (matshluta 02) ásamt breyttu innra skipulagi þess húss á lóð nr. 82 við Hólaberg. Jafnframt lögð fram útskrift úr gerðabók embættisafgreiðslufundar skipulagsfulltrúa frá 26. júlí 2004. Stærð: Áður gerður kjallari (matshl. 01) 111,8 ferm., 275,7 rúmm., (matshl. 02) 90 ferm., 234,9 rúmm. Gjald kr. 5.400 + 27.572"
29862 (01.11.050.1),http://gamli.rvk.is/vefur/owa/edutils.parse_page?nafn=BN029862,Hólmaslóð 8,skilti á lóð,Frestað. Vísað til athugasemda á umsóknarblaði.,"Sótt er um leyfi til þess að setja upp skiltastand (6,4 ferm. hvor hlið) við vesturhlið atvinnuhússins á lóð nr. 8 við Hólmaslóð. Gjald kr. 5.400"
29736 (01.36.101.2),http://gamli.rvk.is/vefur/owa/edutils.parse_page?nafn=BN029736,Hraunteigur 13,áður gerðar br á stigapalli í þakhæð,Frestað. Vísað til athugasemda á umsóknarblaði.,Sótt er um samþykki fyrir áður gerðum breytingum á fyrirkomulagi á stigapalli í þakhæð (3. hæð) hússins nr. 13 við Hraunteig. Erindinu fylgir samþykki meðeigenda nema íbúðar 0201 ódags.  Gjald kr. 5.400
29857 (04.07.500.1),http://gamli.rvk.is/vefur/owa/edutils.parse_page?nafn=BN029857,Höfðabakki 9,HP- skilti á gafl,Samþykkt.  Samræmist ákvæðum laga nr. 73/1997.,"Sótt er um leyfi til að setja 7,2 ferm. skilti efst á suðausturgafl skrifstofuhússins (matshl. 07) á lóðinni nr. 9 við Höfðabakka. Gjald. kr. 5.400"
29631 (04.07.500.1),http://gamli.rvk.is/vefur/owa/edutils.parse_page?nafn=BN029631,Höfðabakki 9,"klæðning mhl 01, 03, 04",Frestað. Vísað til athugasemda á umsóknarblaði.,"Sótt er um leyfi til að einangra og klæða matshluta 01, 03 og 04 á lóðinni nr. 9 við Höfðabakka að utan með sléttum Steni-plötum ljósgráum að lit. Jafnframt verði gluggar endurnýjaðir með álklæddum timburgluggum. Gjald kr. 5.400"
29839 (01.22.010.1),http://gamli.rvk.is/vefur/owa/edutils.parse_page?nafn=BN029839,Höfðatún 2,bráðabirgðaskilti,Samþykkt.  Samræmist ákvæðum laga nr. 73/1997.,"Sótt er um leyfi til þess að staðsetja upplýsingaskilti á horni Borgartúns og Höfðatúns vegna byggingaframkvæmda á Skúlatúnsreit eystri. Skiltið er 19,25 fermetrar að stærð og verður fjarlægt að framkvæmdum loknum. Gjald kr. 5.400"
29753 (04.13.220.1),http://gamli.rvk.is/vefur/owa/edutils.parse_page?nafn=BN029753,Kirkjustétt 2-6,gaskútageymsl. og bráðab. kennslust.,Frestað. Vísað til athugasemda á umsóknarblaði.,Sótt er um leyfi til þess að setja upp gasgeymslu fyrir gaskúta veitingastaðar á 1. hæð matshluta 02 og innrétta hluta 1. hæðar matshluta 03 sem bráðabirgða kennslustofu fyrir myndmenntarkennslu Ingunnarskóla á lóð nr. 2-6 við Kirkjustétt. Gjald kr. 5.400
29788 (04.13.220.1),http://gamli.rvk.is/vefur/owa/edutils.parse_page?nafn=BN029788,Kirkjustétt 2-6,br. innra skipulags,Frestað. Vísað til athugasemda á umsóknarblaði.,"Sótt er um leyfi til þess að innrétta sjoppu, vídeóleigu og grillstað í einingu 0101 á 1. hæð, breyta snyrtingum í sameign og breyta opum á suður og vesturhlið 1. hæðar húss B (matshl. 02) á lóð nr. 2-6 við Kirkjustétt. Gjald kr. 5.400"
28231 (04.26.--9.9 35),http://gamli.rvk.is/vefur/owa/edutils.parse_page?nafn=BN028231,Kistuhylur 4,ÍR- húsið í Árbæjarsafn,Frestað. Lagfæra skráningu.,"Sótt er um leyfi til þess að koma timburhúsi (áður ÍR-húsið við Túngötu/ Kaþólsk kirkja) á nýjan steinsteyptan geymslukjallara (matshl. 38) vestan við Klepp (matshl. 32) á  Árbæjarsafni á lóð nr. 4 við Kistuhyl.  Stærð: Geymslukjallari 185,6 ferm., 1. og 2. hæð sýningarhús 231,4 ferm., samtals 417,1 ferm., 1896 rúmm. Gjald kr. 5.100 + 102.384"
29838 (00.03.800.1),http://gamli.rvk.is/vefur/owa/edutils.parse_page?nafn=BN029838,Kléberg 125704,leiðréttur eldvarnaruppdráttur,Samþykkt.  Samræmist ákvæðum laga nr. 73/1997. Áskilin lokaúttekt byggingarfulltrúa. Áskilið samþykki heilbrigðiseftirlits.,"Sótt er um samþykki á leiðréttum eldvarnaruppdrætti leikskólans á Klébergi, Kjalarnesi. Brunahönnun dags. 18. júní 2004 fylgir erindinu. Gjald kr. 5.400"
29859 (01.32.970.2),http://gamli.rvk.is/vefur/owa/edutils.parse_page?nafn=BN029859,Köllunarklettsvegur 4,starfsmannarými 0104 o. fl.,Frestað. Vísað til athugasemda á umsóknarblaði.,"Sótt er um leyfi til þess að innrétta breytta starfsmannaaðstöðu í einingu 0104 þar sem hætt er við stækkun í norðvestur eins og samþykkt var 15. janúar 2002, setja nýja glugga á norðvesturhorn, byggja geymsluloft og lækka gólf einingar 0104 um 60 sm á lóð 4 við Köllunarklettsveg. Stærð: Milliloft (geymsluloft) 34,8 ferm., rúmmálsaukning vegna lækkunar gólfs xxx rúmm. Gjald kr. 5.400 + xxx"
29518 (01.38.420.8),http://gamli.rvk.is/vefur/owa/edutils.parse_page?nafn=BN029518,Laugarásvegur 69,"sólpallur,",Frestað. Skipulagsferli ólokið.,Sótt er um leyfi til þess að byggja sólpall að austurhlið hússins á lóðinni nr. 69 við Laugarásveg. Samþykki eigenda húss nr. 71 við Laugarásveg dags. 8. júlí 2004 fylgir erindinu.  Umsögn burðarvirkishönnuðar dags. 8. júní 2004 fylgir erindinu. Gjald kr. 5.400
29790 (01.17.430.8),http://gamli.rvk.is/vefur/owa/edutils.parse_page?nafn=BN029790,Laugavegur 96,svalir á 3.h,Samþykkt.  Samræmist ákvæðum laga nr. 73/1997. Með vísan til samþykktar borgarráðs frá 1. september 1998 skal utanhúss- og lóðarfrágangi vera lokið eigi síðar en innan tveggja ára frá útgáfu byggingarleyfis að viðlögðum dagsektarákvæðum 57. gr. skipulags- og byggingarlaga nr. 73/1997.,Sótt er um leyfi til þess að lengja svalir á suðurhlið 3. hæðar fjöleignarhússins á lóð nr. 96 við Laugaveg. Umsögn skipulagsfulltrúa dags. 16. júní 2004 og samþykki meðeigenda dags. 14. júlí 2004 fylgja erindinu. Gjald kr. 5.400
29765 (04.63.320.3),http://gamli.rvk.is/vefur/owa/edutils.parse_page?nafn=BN029765,Leirubakki 34-36,nr. 36  atvinnuhúsnæði í íbúðir,Synjað. Ekki er leyft að gera íbúðir í kjallara.,Sótt er um leyfi til þess að útbúa fjögur íbúðarherbergi í kjallara húss nr. 36 á lóðinni nr. 34-36 við Leirubakka. Ekki er um séreignir að ræða. Kaupsamningur/afsal dags. 30. júní 2004 fylgir erindinu. Samþykki húsfélagsins Leirubakka 34 fylgir erindinu. Gjald kr. 5.400
27541 (01.15.320.1),http://gamli.rvk.is/vefur/owa/edutils.parse_page?nafn=BN027541,Lindargata 50,byggja yfir svalir o.fl.,Frestað. Málinu vísað til skipulagsfulltrúa til ákvörðunar um grenndarkynningu. Vísað er til uppdráttar dags. 30. júní 2004.,"Sótt er um samþykki fyrir núverandi herbergjaskipan á öllum hæðum, fyrir áður gerðri stækkun kjallara og leyfi til þess að byggja til vesturs við herbergi á þriðju hæð matshluta 01 yfir hluta núverandi svala íbúðarhússins (matshluta 01) á lóð nr. 50 við Lindargötu. Samþykki meðlóðarhafa (á teikningu) og umsögn Árbæjarsafns dags. 24. júní 2004 fylgja erindinu. Stærð: Áður gerð stækkun kjallara 5,2 ferm., 13,5 rúmm., stækkun 3. hæðar 7 ferm., 17,5 rúmm. Gjald kr. 5.100 + 1.674"
29855 (01.71.020.9),http://gamli.rvk.is/vefur/owa/edutils.parse_page?nafn=BN029855,Mávahlíð 42,svalir á íbúð 0301,Frestað. Lagfæra skráningu.  Málinu vísað til skipulagsfulltrúa til ákvörðunar um grenndarkynningu. Vísað er til uppdráttar nr. 19-01 dags. 15. júlí 2004.,Sótt er um leyfi til þess að byggja svalir á suðurhlið 3. hæðar fjölbýlishússins á lóð nr. 42 við Mávahlíð. Samþykki meðeigenda að húsi dags. 18. maí 2004 fylgir erindinu. Gjald kr. 5.400
29850 (01.70.110.5),http://gamli.rvk.is/vefur/owa/edutils.parse_page?nafn=BN029850,Miklabraut 48,áður gerð íbúð í risi o.fl.,Frestað. Vísað til athugasemda á umsóknarblaði.,"Sótt er um samþykki fyrir áður gerðri íbúð á rishæð ásamt fyrir áður gerðum breytingum á öllum hæðum fjölbýlishússins á lóð nr. 48 við Miklabraut. Viringargjörð dags. 3. júní 1947, íbúðarskoðun byggingarfulltrúa dags. 15. júlí 2004 og samþykki meðeigenda (á teikningu) fylgja erindinu. Gjald kr. 5.400"
29865 (00.00.000.0 04),http://gamli.rvk.is/vefur/owa/edutils.parse_page?nafn=BN029865,Ólafsgeisli 49,br. á innra skipulagi nr. 49,Frestað. Vantar samþykki meðeigenda vegna reykrörs.,"Sótt er um leyfi til þess að færa eldhús á efri hæð, setja upp arinn, taka í notkun áður óuppfyllt rými og breyta innra skipulagi neðri hæðar raðhúss nr. 49 á lóð nr. 43-51 við Ólafsgeisla. Stærð: Stækkun neðri hæðar 25,9 ferm., 70 rúmm. Gjald kr. 5.400 + 3.780"
29707,http://gamli.rvk.is/vefur/owa/edutils.parse_page?nafn=BN029707,Safamýri 48,áður gerð íb. í kjallara,Samþykkt.  Samræmist ákvæðum laga nr. 73/1997.,"Sótt er um leyfi fyrir áður gerðri íbúð í kjallara hússins nr. 48 á lóðinni nr. 46-50 við Safamýri. Jafnframt er sótt um leyfi til að gera garðdyr á stofuvegg undir svölum efri hæða. Erindinu fylgir samþykki meðeigenda í matshluta 02 dags. 18. júní 2004, skiptasamningur dags. 7. des. 1962. Gjald kr. 5.400"
29573 (01.46.200.1),http://gamli.rvk.is/vefur/owa/edutils.parse_page?nafn=BN029573,Skeifan 15,skipt í 4 eignir,Frestað. Lagfæra skráningu.,"Sótt er um leyfi til þess að skipta húseigninni þar sem Hagkaup er starfrækt í fjórar eignir, eina eign í kjallara eina á 1. hæð og tvær á 2. hæð atvinnuhússins á lóð nr. 15 við Skeifuna. Bréf f.h. eigenda dags. 1. júní 2004 fylgir erindinu. Gjald kr. 5.400"
29501 (01.18.120.4),http://gamli.rvk.is/vefur/owa/edutils.parse_page?nafn=BN029501,Skólavörðustígur 22A,kaffihús,Frestað. Skipulagsferli ólokið.,Sótt er um leyfi til þess að breyta íbúðarhúsnæði í kaffihús og stækka svalir yfir anddyrisútbyggingu á annarri hæð hússins á lóðinni nr. 22A við Skólavörðustíg. Samþykki f.h. eiganda hússins dags. 24. maí 2004 (og á teikn.) fylgir erindinu. Umsögn skipulagsfulltrúa dags. 11. maí 2004 og útskrift úr gerðabók embættisafgreiðslufundar skipulagsfulltrúa frá 14. maí 2004 (v. fyrirspurnar)  fylgja erindinu. Gjald kr. 5.400
29521 (01.15.030.1),http://gamli.rvk.is/vefur/owa/edutils.parse_page?nafn=BN029521,Skúlagata 4,lyfta þaki,Samþykkt.  Samræmist ákvæðum laga nr. 73/1997. Áskilin lokaúttekt byggingarfulltrúa.,"Sótt er um leyfi til þess að koma fyrir hringstiga milli sjöttu hæðar og þakhæðar og lyfta þaki yfir hluta hússins nr. 4 við Skúlagötu. Umsögn skipulagsfulltrúa dags. 16. júní 2004 og útskrift úr gerðabók embættisafgreiðslufundar skipulagsfulltrúa frá 18. júní 2004 fylgja erindinu. Stærð: Rúmmálsstækkun þakhæðar 72,6 rúmm. Gjald kr. 5.400 + 3.920"
29583 (02.53.471.0),http://gamli.rvk.is/vefur/owa/edutils.parse_page?nafn=BN029583,Smárarimi 79,stækkun bílgeymslu,Frestað. Lagfæra skráningu.,"Sótt er um leyfi til þess að stækka bílgeymslu í norður og suður og setja útgang frá bílgeymslu á suðurhlið einbýlishússins á lóð nr. 79 við Smárarima. Stærð: Stækkun bílgeymslu 11,4 ferm 61,2 rúmm. Gjald kr. 5.400 + 3.305"
29717 (02.53.610.1),http://gamli.rvk.is/vefur/owa/edutils.parse_page?nafn=BN029717,Sóleyjarimi 1-23,nr. 17 fjölbýlish. m. 19 íb.,Samþykkt.  Samræmist ákvæðum laga nr. 73/1997. Frágangur á lóðamörkum verði gerður í samráði við lóðarhafa aðliggjandi lóða. Áskilin lokaúttekt byggingarfulltrúa. Skila skal vottun eininga fyrir úttekt á botnplötu.,"Sótt er um leyfi til þess að byggja fimm hæða fjölbýlishús með 19 íbúðum ásamt geymslukjallara allt úr forsteyptum einingum með Borgarfjarðarperlu og kvarz á ytra yfirborði sem hús nr. 17 (matshluti 11) og bílgeymslu (matshluti 12) úr forsteyptum einingum með 36 bílastæðum og 34 bílastæðum á þaki allt sameinlega fyrir hús nr. 15 og 17 á lóð nr. 1-23 við Sóleyjarima. Stærð: Fjölbýlishús kjallari 272,4 ferm., 1. - 5. hæð 375,2 ferm. hver hæð, samtals 2.148,4 ferm., 6206,4 rúmm. B-rými 72,9 ferm., 200,5 rúmm.  Bílgeymsla 957,2 ferm., 2823,7 rúmm. Gjald kr. 5.400 + 498.452"
28344 (02.53.620.2),http://gamli.rvk.is/vefur/owa/edutils.parse_page?nafn=BN028344,Sóleyjarimi 33-49,Raðh. m.9 íb. og innb. bílg.,Frestað. Lagfæra skráningu.,"Sótt er um leyfi til þess að byggja steinsteypt tvílyft raðhús einangrað að utan og klætt með flísum og timbri með samtals níu íbúðum og jafn mörgum innbyggðum bílgeymslum á lóð nr. 33-49 við Sóleyjarrima. Stærð: Hús nr. 33 (mhl. 01) íbúð 1. hæð 76,8 ferm., 2. hæð 103,3 ferm., bílgeymsla 30 ferm., samtals 210,1 ferm., 664,5 rúmm. Hús nr. 35 (mhl. 02) íbúð 1. hæð 77,1 ferm., 2. hæð 103,6 ferm., bílgeymsla 30 ferm., samtals 210,7 ferm., 666,3 rúmm. Hús nr. 37 (mhl. 03) íbúð 1. hæð 77,1 ferm., 2. hæð 103,3 ferm., bílgeymsla 29,5 ferm., samtals 209,9 ferm., 663,8 rúmm. Hús nr. 39 (mhl. 04) íbúð 1. hæð 76,7 ferm., 2. hæð 103,2 fem., bílgeymsla 29,6 ferm., samtals 209,5 ferm., 663 rúmm. Hús nr. 41 (mhl. 05) íbúð 1. hæð 78 ferm., 2. hæð 103,4 ferm., bílgeymsla 29,5 ferm., samtals 209,9 ferm., 663,7 rúmm. Hús nr. 43 (mhl. 06) íbúð 1. hæð 76,9 ferm., 2. hæð 103,4 ferm., bílgeymsla 29,5 ferm., samtals 209,8 ferm., 663,6 rúmm. Hús nr. 45 (mhl. 07) íbúð 1. hæð 77 ferm., 2. hæð 103,5 ferm., bílgeymsla 29,5 ferm., samtals 210 ferm., 664,2 rúmm. Hús nr. 47 (mhl. 08) íbúð 1. hæð 77,1 ferm., 2. hæð 103,7 ferm., bílgeymsla 29,5 ferm., samtals 210,3 ferm, 664,9 rúmm. Hús nr. 49 (mhl. 09) íbúð 1. hæð 77,1 ferm., 2. hæð 103  ferm., bílgeymsla 29,4 ferm., samtals 209,5 ferm., 524,1 rúmm.  Raðhús samtals 1889,7 ferm., 5838,1 rúmm. Gjald kr. 5.100 + 315.257"
29761 (01.13.900.4),http://gamli.rvk.is/vefur/owa/edutils.parse_page?nafn=BN029761,Sólvallagata 57,endurnýjun á byggingaleyfi  1998,Frestað. Vísað til athugasemda á umsóknarblaði. Málinu vísað til skipulagsfulltrúa til ákvörðunar um grenndarkynningu. Vísað er til uppdráttar dags. 1. júlí 2004.,"Sótt er um samþykki fyrir endurnýjun á byggingarleyfi 17435 frá 25. ágúst 1998 þar sem sótt var um ""leyfi til að reisa sólpall og gera svalir á suðvesturhlið, reisa um 200 cm háan skjólvegg við norðvesturhlið og rífa steypta bílgeymslu við suðausturhlið og reisa í stað hennar aðra úr timbri á lóðinni nr. 57 við Sólvallagötu."" Samþykki nágranna, Sólvallagötu 55 fylgir erindinu (á teikningu). Stærð nýrrar bílgeymslu er 25,2 ferm., 81,3 rúmm. Minnkun 10,8 ferm., 14,1 rúmm. Gjald kr. 5.400"
22304 (11.84.008 02),http://gamli.rvk.is/vefur/owa/edutils.parse_page?nafn=BN022304,Spítalastígur 4 ,Færa vegg,Frestað. Málinu vísað til umsagnar lögfræði og stjórnsýslu.,Sótt er um leyfi til þess að færa vegg við anddyri og stækka þannig og breyta íbúðinni í húsinu nr. 4 (matshl.02) á lóðinni nr. 4-4B við Spítalastíg. Afsal dags. 11. október 1994 fylgir erindinu. Gjald kr. 4.100
29047 (04.07.730.1),http://gamli.rvk.is/vefur/owa/edutils.parse_page?nafn=BN029047,Stórhöfði 42,vöruafgreiðsluskýli,Samþykkt.  Samræmist ákvæðum laga nr. 73/1997. Þinglýsa skal kvöð um brottflutning vegna viðhalds holræsalagna.,"Sótt er um leyfi til að reisa óupphitað vöruafgreiðsluskýli vestan við aðra hæð hússins nr. 42 við Stórhöfða. Húsið verði byggt úr einingum og á flytjanlegum undirstöðum þannig að fjarlægja megi hús og undirstöður á innan við átta klukkustundum. Erindinu fylgir bréf hönnuðar dags. 8. mars 2004, fylgigögn með hliðstæðu erindi sem synjað var 29. apríl 2003, bréf hönnuðar f.h. Papco dags. 20. maí 2003 og umsögn gatnamálastjóra vegna þess dags. 4. júní 2003. Stærð: 137 ferm., 598 rúmm. Gjald kr. 5.400 + 32.292"
29413 (02.84.881.1),http://gamli.rvk.is/vefur/owa/edutils.parse_page?nafn=BN029413,Suðurhús 11,stækka íbúð á 2.hæð í sökkulrými,Frestað. Vísað til athugasemda á umsóknarblaði. Vegna umsóknar um glugga skal fylgja samþykki meðeigenda eða fella glugga útaf teikningu.,"Sótt er um samþykki fyrir stækkun íbúðar 2. hæðar í áður sökkulrými með hringstiga milli hæða ásamt leyfi fyrir glugga að umsóttu rými á vesturhlið 1. hæðar íbúðarhússins á lóð nr. 11 við Suðurhús. Samþykki meðeigenda dags. 2. mars 1998, bréf lögfræðistofu f.h. meðeiganda dags. 11. júní 2004, bréf umsækjanda dags. 12. júlí 2004 og bréf lögfræði- og stjórnsýslu dags. 23. júlí 2004 fylgja  erindinu. Stærð: Stækkun 1. hæðar 38,6 ferm., 100,4 rúmm. Gjald kr. 5.400 + 5.422"
29796 (00.00.000.0 01),http://gamli.rvk.is/vefur/owa/edutils.parse_page?nafn=BN029796,Suðurlandsbraut 4,"hringstigi og br. 4.,5.h",Samþykkt.  Samræmist ákvæðum laga nr. 73/1997. Áskilin lokaúttekt byggingarfulltrúa.,Sótt er um leyfi til þess að setja hringstiga milli rýmis 0402 á 4. hæð og 5. hæðar og breyta innra skipulagi 5. hæðar atvinnuhússins á lóð nr. 4 við Suðurlandsbraut. Umsögn burðavirkishönnuðar dags. 1. júlí 2004 fylgir erindinu. Gjald kr. 5.400
29861 (01.26.200.1),http://gamli.rvk.is/vefur/owa/edutils.parse_page?nafn=BN029861,Suðurlandsbraut 4-4A,nr. 4 nýtt skilti,Frestað. Vantar samþykki meðlóðarhafa.,Sótt er um leyfi til þess að setja upp nýtt skilti sambærilegt að stærð og á sama stað og eldra skilti við hús nr. 4 á lóð nr. 4-4A við Suðurlandsbraut. Samþykki meðeigenda dags. 2. júlí 2004 fylgir erindinu. Gjald kr. 5.400
27595 (04.66.550.6 01),http://gamli.rvk.is/vefur/owa/edutils.parse_page?nafn=BN027595,Vesturberg 21,Klæðning,Samþykkt.  Samræmist ákvæðum laga nr. 73/1997. Með vísan til samþykktar borgarráðs frá 1. september 1998 skal utanhúss- og lóðarfrágangi vera lokið eigi síðar en innan tveggja ára frá útgáfu byggingarleyfis að viðlögðum dagsektarákvæðum 57. gr. skipulags- og byggingarlaga nr. 73/1997. Skráningartafla er röng og verður ekki nýtt til skráningar hússins nema hún verði leiðrétt.,Sótt er um leyfi til þess að klæða einbýlishús nr. 21 á lóð nr. 21-27 við Vesturberg að utan með álkerfi og sléttri klæðningu þannig að þynningar haldist. Ástandskönnun útveggja dags. maí 2004 ásamt  samþykki meðlóðarhafa dags. 5. ágúst 2003 og 14. júlí 2004 fylgja erindinu. Gjald kr. 5.100
29724 (02.52.820.4),http://gamli.rvk.is/vefur/owa/edutils.parse_page?nafn=BN029724,Viðarrimi 49,viðbygging,Frestað. Samræma teikningar vegna þakbrúnar.,"Sótt er um leyfi til þess að byggja viðbyggingu úr forsteyptum einingum við norðurhorn einbýlishússins á lóð nr. 49 við Viðarrima. Stærð: Viðbygging 87,7 ferm., 451,8 rúmm. Gjald kr. 5.400 + 24.397"
29572 (05.13.330.1),http://gamli.rvk.is/vefur/owa/edutils.parse_page?nafn=BN029572,>Þórðarsveigur 14-18,ýmsar breytingar,Frestað. Lagfæra skráningu.,"Sótt er um samþykki fyrir breytingum á stiga úr bílgeymslu í húsi nr. 16, breytingu á lyftu í húsi nr. 18, leiðréttri stærð húss nr. 18 ásamt  breytingu glugga, svalahandriða og innréttinga  fjölbýlishúsanna á lóð nr. 16-18 við Þórðarsveig. Stærð: Hús nr. 18 (matshluti 02) kjallari óbreyttur eða 86 ferm., 1. hæð var 224,2 ferm. verður 230,2 ferm., 2.-5. hæð var 234,8 ferm. verður 240,8 ferm. hver hæð, samtals var hús 1249,4 ferm. verður 1279,4 ferm., rúmmál óbreytt. Gjald kr. 5.400"
29846 (05.13.350.1),http://gamli.rvk.is/vefur/owa/edutils.parse_page?nafn=BN029846,Þórðarsveigur 2-6,fella niður reyklosunarop í bílg.,Frestað. Vísað til athugasemda á umsóknarblaði.,Sótt er um leyfi til þess að fella niður annað reyklosunaropið á suðurhlið bílgeymslunnar við fjöleignarhúsin á lóð nr. 2-6 við Þórðarsveig. Gjald kr. 5.400
29863 (05.13.340.1),http://gamli.rvk.is/vefur/owa/edutils.parse_page?nafn=BN029863,Þórðarsveigur 26-30,br. og svalask. á 5. hæð,Frestað. Vísað til athugasemda á umsóknarblaði.,"Sótt er um leyfi til þess að breyta innra skipulagi íbúða á öllum hæðum, breyta stærð íbúða 0501 og 0502 ásamt leyfi til þess að setja upp svalaskýli við íbúð 0501 á 5. hæð allt í húsi nr. 30 (matshl. 02) á lóð nr. 26-30 við Þórðarsveig. Stærð: Svalaskýli 21,2 ferm., 58,3 rúmm. Gjad kr. 5.400 + 3.148"
29871 (01.17.111.4),http://gamli.rvk.is/vefur/owa/edutils.parse_page?nafn=BN029871,Smiðjustígur 4,leiðrétting,Samþykkt.  Samræmist ákvæðum laga nr. 73/1997.,"Á afgreiðslufundi 22. júní síðastliðinn var samþykkt að skipta íbúð 2. hæðar og íbúð 3. hæðar í tvær íbúðir hvorri í fjölbýlishúsinu á lóð nr. 4 við Smiðjustíg. Með samþykkt var bókað að greiða þyrfti fyrir tvö bílastæði í flokki III, samtals kr. 2.310.192,  en átti að vera í flokki II samtals kr. 420.035."
29847 (01.83.420.1 01),http://gamli.rvk.is/vefur/owa/edutils.parse_page?nafn=BN029847,Ásgarður 2,(fsp) áður gert grindverk,Já.,"Spurt er hvort grindverk vestan við hús nr. 2 á lóðinni nr. 2-8 við Ásgarð fengist samþykkt. Erindinu fylgir bréf fyrirspyrjanda til byggingarfulltrúa dags. 7. jan. 2004, álit Kærunefndar fjöleignahúsamála dags. 9. júlí 2004. Samþykki meðeigenda að Ásgarði 6 og 8 dags. 2. júlí 2003 fylgir erindinu."
29867 (01.18.442.0),http://gamli.rvk.is/vefur/owa/edutils.parse_page?nafn=BN029867,Bjargarstígur 16,(fsp) nýjar útidyr á 1 hæð ofl,Frestað. Málinu vísað til umsagnar skipulagsfulltrúa.,Spurt er hvort leyft yrði að koma fyrir nýjum útidyrum og 80cm breiðum tröppum á framhlið hússins (Óðinsgötumegin) á lóðinni nr. 16 við Bjargarstíg. Umsögn gatnamálastjóra dags. 8. júlí 2004 fylgir erindinu.
29852 (01.18.212.2),http://gamli.rvk.is/vefur/owa/edutils.parse_page?nafn=BN029852,Frakkastígur 14,(fsp) br. atvinnuhúsn. í íbúð,Ekki er hægt að taka afstöðu til erindisins vegna ófullnægjandi gagna.,Spurt er hvort samþykkt yrði að breyta atvinnuhúsnæði á fyrstu hæð hússins nr. 14 við Frakkastíg í íbúðarhúsnæði.
29868 (01.29.120.2 04),http://gamli.rvk.is/vefur/owa/edutils.parse_page?nafn=BN029868,Háaleitisbraut 35,(fsp) 35 þakgluggi,Jákvætt. Að uppfylltum skilyrðum.,Spurt er hvort leyft yrði að setja lágreistan kúpul yfir innrigang raðhúss nr. 35 á lóð nr. 29-35 við Háaleitisbraut..
29854 (01.19.101.5),http://gamli.rvk.is/vefur/owa/edutils.parse_page?nafn=BN029854,Njálsgata 87,(fsp) verslunarhúsnæði í íbúðir,Nei. Með vísan til athugasemda á fyrirspurnarblaði. Ein íbúð getur komið til greina.,Spurt er hvort leyft yrði að breyta verslunarhúsnæði á 1. hæð og í kjallara í tvær íbúðir í fjöleignarhúsinu á lóð nr. 87 við Njálsgötu.
29860 (01.25.300.4),http://gamli.rvk.is/vefur/owa/edutils.parse_page?nafn=BN029860,Skipholt 36,(fsp) br. á þaki.,Nei. Fer húsi illa sbr. gr. 8.2 í byggingarreglugerð.,Spurt er hvort samþykkt yrði að þak hússins nr. 36 við Skipholt yrði hækkað í líkingu við það sem fram kemur á meðfylgjandi skissu.
