nr,url,heimilisfang,tegund,nidurstada,spurning
30570 (01.13.630.4),http://gamli.rvk.is/vefur/owa/edutils.parse_page?nafn=BN030570,Bárugata 9,svalir,Frestað. Lagfæra skráningu. Málinu vísað til skipulagsfulltrúa til ákvörðunar um grenndarkynningu. Vísað er til uppdrátta nr. 1 og 2 dags. 21. október og 8. nóvember 2004.,Sótt er um leyfi til þess að byggja svalir við aðra hæð á suðurhlið hússins nr. 9 við Bárugötu. Útskrift úr gerðabók embættisafgreiðslufundar skipulagsfulltrúa frá 10. september 2004 (v. fyrirspurnar) fylgir erindinu. Samþykki meðeigenda (á teikn. og dags. 2. nóvember 2004) fylgir erindinu. Gjald kr. 5.400
30606 (04.06.500.2),http://gamli.rvk.is/vefur/owa/edutils.parse_page?nafn=BN030606,Bíldshöfði 18,bráðabirgða samnýting rýma,Frestað. Vísað til athugasemda eldvarnaeftirlits.,Sótt er um leyfi til að samnýta til bráðabirgða notaeiningar 0202 og 0205 í matshluta 03 (framhús) á lóðinni nr. 18 við Bíldshöfða. Jafnframt verði innra fyrirkomulagi breytt. Gjald kr. 5.400
25135 (01.81.822.1),http://gamli.rvk.is/vefur/owa/edutils.parse_page?nafn=BN025135,Bústaðavegur 65,áður gerðar breytingar,Samþykkt.  Samræmist ákvæðum laga nr. 73/1997. Bárujárnsklæðning sú sem notuð hefur verið til klæðningar á húsið í óleyfi fer húsinu illa og er ekki í samræmi við ákvæði   gr. byggingarreglugerðar nr. 441/1998. Þegar kemur að endurnýjun klæðningarinnar skulu eigendur leita samþykkis á þeirri klæðningu sem nota á. Þinglýsa skal yfirlýsingu þessa efnis á húsið.,"Sótt er um samþykki fyrir áður gerðum breytingum á húsinu á lóðinni nr. 65 við Bústaðaveg. Húsið hefur verið klætt með bárustáli, byggt hefur verið anddyri að norðurhlið og útigeymslur á lóð. Samþykki meðeigenda og nágranna í húsi nr. 67, dags. 14. maí 2002, bréf f.h. eigenda húsanna nr. 65 og 67 dags. 10. júní 2002, umsögn skipulagsfulltrúa dags. 18. júlí 2002 og útskrift úr gerðabók embættisafgreiðslufundar skipulagsfulltrúa frá 19. júlí 2002 fylgja erindinu. Stærð: Stækkun 20,7 ferm. og 50,6 rúmm. Gjald kr. 4.800 + 2.732"
25136 (01.81.822.2),http://gamli.rvk.is/vefur/owa/edutils.parse_page?nafn=BN025136,Bústaðavegur 67,áður gerðar breytingar,Samþykkt.  Samræmist ákvæðum laga nr. 73/1997. Bárujárnsklæðning sú sem notuð hefur verið til klæðningar á húsið í óleyfi fer húsinu illa og er ekki í samræmi við ákvæði gr. 12.6 í byggingarreglugerð nr. 441/1998. Þegar kemur að endurnýjun klæðningarinnar skulu eigendur leita samþykkis á þeirri klæðningu sem nota á. Þinglýsa skal yfirlýsingu þessa efnis á húsið.,"Sótt er um samþykki fyrir reyndarteikningum og áður gerðum breytingum á húsinu á lóðinni nr. 67 við Bústaðaveg. Húsið hefur verið klætt með bárustáli, byggt hefur verið anddyri að norðurhlið og útigeymsla á lóð. Samþykki meðeigenda og nágranna í húsi nr. 65, dags. 14. maí 2002, bréf f.h. eigenda húsanna nr. 65 og 67 dags. 10. júní 2002, umsögn skipulagsfulltrúa dags. 18. júlí 2002 og útskrift úr gerðabók embættisafgreiðslufundar skipulagsfulltrúa frá 19. júlí 2002 fylgja erindinu. Stærð: Stækkun 17,0 ferm. og 42,2 rúmm. Gjald kr. 4.800 + 2.279"
30684 (01.81.831.3 01),http://gamli.rvk.is/vefur/owa/edutils.parse_page?nafn=BN030684,Bústaðavegur 77,"hækka þak, anddyri og svalir",Frestað. Vísað til athugasemda á umsóknarblaði.,"Sótt er um leyfi til þess að hækka þak, byggja anddyrisviðbyggingu að norðurhlið og byggja svalir á suðurhlið annarrar og þriðju hæðar hússins á lóðinni nr. 77 við Bústaðaveg. Samþykki meðeiganda og nágranna í húsi nr. 79 dags.13. desember 2004 fylgir erindinu. Stærð: Stækkun viðbygging xx Gjald kr. 5.400 + xx"
30701 (02.34.410.2),http://gamli.rvk.is/vefur/owa/edutils.parse_page?nafn=BN030701,Dofraborgir 42-44,svalaskýli,Frestað. Vísað til athugasemda á umsóknarblaði. Málinu vísað til umsagnar skipulagsfulltrúa.,Sótt er um leyfi til þess að byggja átta svalaskýli á norðurhlið hússins á lóðinni nr. 42-44 við Dofraborgir. Stærð: Svalaskýli xx Gjald kr. 5.400 + xx
30490 (01.38.420.1),http://gamli.rvk.is/vefur/owa/edutils.parse_page?nafn=BN030490,Dyngjuvegur 10,reyndarteikningar,Samþykkt.  Samræmist ákvæðum laga nr. 73/1997.,"Sótt er um samþykki fyrir áður gerðri breytingu á innra skipulagi kjallara, fyrir þegar byggðri geymslu undir svölum austurhliðar og verönd milli tvíbýlishússins og bílskúrsins á lóð nr. 10 við Dyngjuveg. Samþykki meðeigenda dags. 22. nóvember 20004 fylgir erindinu. Stærð: Áður byggð geymsla 5,7 ferm., 14,3 rúmm. Gjald kr. 5.400 + 772"
30686 (01.41.200.3),http://gamli.rvk.is/vefur/owa/edutils.parse_page?nafn=BN030686,Efstasund 90,br. bílskúr,Frestað. Vísað til athugasemda á umsóknarblaði.,Sótt er um leyfi til þess að færa til glugga og dyr á suðurhlið bílskúrs sem samþykktur var 8. júní 2004 á lóðinni nr. 90 við Efstasund.  Jafnframt er sótt um leyfi til þess að byggja bílskúrinn úr steinsteypu í stað timburs. Gjald kr. 5.400
30690 (01.68.--9.9),http://gamli.rvk.is/vefur/owa/edutils.parse_page?nafn=BN030690,Flugvöllur 106930 Flugskýli 9,breyting inni,Frestað. Vísað til athugasemda á umsóknarblaði. Þar sem ekki eru til í skjalasafni byggingarfulltrúa aðaluppdrættir eða samþykktir vegna byggingarinnar er erindinu vísaði til skipulags- og byggingarnefndar.,"Sótt er um leyfi til þess að einangra útveggi og þak, koma fyrir salernisaðstöðu og kaffistofu og steypa gólf í norðurhluta flugskýlis nr. 9 á lóð Reykjavíkurflugvallar. Ekki eru til samþykktar teikningar af skýlinu. Afsalsbréf dags. 3. desember 2004 fylgir erindinu. Ný skráningartafla fylgir erindinu. Gjald kr. 5.400"
30700 (01.61.960.1),http://gamli.rvk.is/vefur/owa/edutils.parse_page?nafn=BN030700,Flugvöllur Flugleiðir,breyting á 2 hæð,Frestað. Vísað til athugasemda á umsóknarblaði.,Sótt er um leyfi til þess að breyta innra fyrirkomulagi á annarri hæð skrifstofu Flugleiða við Flugvallarveg. Gjald kr. 5.400
30308 (01.44.410.1 01),http://gamli.rvk.is/vefur/owa/edutils.parse_page?nafn=BN030308,Gnoðarvogur 44,breyting inni,Frestað. Vísað til athugasemda á umsóknarblaði.,"Sótt er um leyfi til að breyta innra fyrirkomulagi í kjallara 0001 og 1. hæð 0102 hússins á lóðinni nr. 44 við Gnoðarvog, ásamt skiptingu þess í mh. 01, 02 og 03. Gjald kr. 5.400"
30679 (01.11.520.8),http://gamli.rvk.is/vefur/owa/edutils.parse_page?nafn=BN030679,Grandagarður 1,reyndarteikningar,Samþykkt.  Samræmist ákvæðum laga nr. 73/1997.,Sótt er um samþykki fyrir núverandi innra fyrirkomulagi á báðurm hæðum hússins á lóðinni nr. 1 við Grandagarð. Gjald kr. 5.400
30574 (01.29.540.6),http://gamli.rvk.is/vefur/owa/edutils.parse_page?nafn=BN030574,Grensásvegur 12,br skráningu á 1 hæð,Samþykkt.  Samræmist ákvæðum laga nr. 73/1997. Áskilið samþykki heilbrigðiseftirlits.,Sótt er um leyfi til að breyta skráningu á fyrstu hæð hússins nr. 12 við Grensásveg. Gerð er grein fyrir fækkun flóttaleiða á teikningum. Gjald kr. 5.400
30696 (01.17.223.0),http://gamli.rvk.is/vefur/owa/edutils.parse_page?nafn=BN030696,Grettisgata 17,niðurrif,Frestað. Vantar umsagnir Húsafriðunarnefndar ríksins og Árbæjarsafns.,"Sótt er um leyfi til þess að rífa hús nr. 17 við Grettisgötu. Stærð matshl. 01: 79,0 ferm. og 277,0 rúmm. (fastanr. 200-4923, landnr. 101484) Gjald kr. 5.400"
30449 (01.17.422.7),http://gamli.rvk.is/vefur/owa/edutils.parse_page?nafn=BN030449,Grettisgata 53B,reyndarteikningar,Frestað. Vísað til athugasemda á umsóknarblaði.,"Vegna eignaskiptayfirlýsingar er sótt um samþykki fyrir núverandi fyrirkomulagi hússins á lóðinni nr. 53B við Grettisgötu. Gerð er grein fyrir fimm íbúðum í húsinu, af þeim eru fjórar áður gerðar.  Íbúð 0202 var samþykkt 9. júlí 1992. Ath. einnig uppdrátt frá árinu 1916. Bréf fyrrv. eiganda íbúðar 0201 dags. 1. nóvember 2004 og 13. desember 2004 fylgja erindinu. Skoðunarskýrslur byggingarfulltrúa vegna 0101 (og 0102) báðar dagsettar 1. október 2004 fylgja erindinu. Samþykki meðeigenda dags. 1. október 2004 fylgir erindinu. Gjald kr. 5.400"
30537 (01.14.030.3),http://gamli.rvk.is/vefur/owa/edutils.parse_page?nafn=BN030537,Hafnarstræti 18,"skilti, sóltjald",Frestað. Vísað til athugasemda á umsóknarblaði.,"Sótt er um leyfi til þess að koma fyrir 2,4 fermetra skilti og 4,8m löngu sóltjaldi yfir inngangi á norðurhlið hússins nr. 18 við Hafnarstræti. Umsögn Húsafriðunarnefndar dags. 6. desember 2004 fylgir erindinu. Gjald kr. 5.400"
30711 (32.47.420.2),http://gamli.rvk.is/vefur/owa/edutils.parse_page?nafn=BN030711,Helgugrund 3,lausull í stað þakullar,Samþykkt.  Samræmist ákvæðum laga nr. 73/1997. Enda verði gengið frá lausull í samræmi við það sem fram kemur í ívitnuðum gögnum frá Rannsókarstofun byggingariðnaðarins.,Sótt er um leyfi til þess að breyta byggingarlýsingu þaks og nota lausull í stað þéttullar til einangrunar á þaki hússins á lóðinni nr. 3 við Helgugrund.
30646 (01.13.921.0),http://gamli.rvk.is/vefur/owa/edutils.parse_page?nafn=BN030646,Hringbraut 92,byggja pall og brunastiga,Samþykkt.  Samræmist ákvæðum laga nr. 73/1997.,Sótt er um leyfi til þess að setja upp flóttapall með tröppum niður í garð undir björgunaropi á suðurhlið 1. hæðar tvíbýlishússins á lóð nr. 92 við Hringbraut. Samþykki meðeiganda (á teikn.) fylgir erindinu. Gjald kr. 5.400
30184 (01.15.440.6),http://gamli.rvk.is/vefur/owa/edutils.parse_page?nafn=BN030184,Hverfisgata 105,10 íbúðir á 3. og 4. hæð o.fl.,Frestað. Vísað til athugasemda á umsóknarblaði.,"Sótt er um leyfi til að byggja þrennar svalir á þriðju hæð og fernar svalir á fjórðu hæð, koma fyrir þakgluggum, setja glugga á vesturgafl breyta innra fyrirkomulagi og koma fyrir fjórum íbúðum á þriðju hæð og sex íbúðum á fjórðu hæð hússins nr. 105 við Hverfisgötu.  Jafnframt verði byggð hjóla- og vagnageymsla við norðurgafl hússins og fyrirkomulagi bílastæða breytt. Ennfremur er erindi nr. 29767 varðandi sama efni dregið til baka.  Samþykki meðlóðarhafa fylgir með bréfi mótteknu 20. desember 2004 og áritað á teikningar. Stækkun: 25,9 ferm. og 72,5 rúmm. Gjald kr. 5.400 + 3.915"
30548 (01.17.200.5),http://gamli.rvk.is/vefur/owa/edutils.parse_page?nafn=BN030548,Hverfisgata 50,geymsluskúr,Frestað. Lagfæra uppdrátt og skráningu.,"Sótt er um leyfi til þess að rífa og endurbyggja að hluta geymsluskúr (matshl. 05) úr steinsteypu og timbri á lóðinni nr. 50 við Hverfisgötu. Skilyrt samþykki nokkurra meðlóðarhafa (eigenda matshluta 03) dags. 6. maí 2004 fylgir erindinu. Stærð skúrs sem rifinn verður (matshl. 05, fastanr. 200-4659, landnr. 101428) 43,8 ferm. og 110,0 rúmm. Stærð geymsluskúrs sem byggður verður 27,6 ferm. og 78,6 rúmm. Gjald kr. 5.400 + 4.244"
30569 (01.63.580.4 01),http://gamli.rvk.is/vefur/owa/edutils.parse_page?nafn=BN030569,Hörpugata 13,reyndarteikningar,Frestað. Vísað til athugasemda á umsóknarblaði.,Sótt er um samþykki fyrir núverandi innra skipulagi vegna gerðar eignaskiptayfirlýsingar fyrir fjölbýlishúsið á lóð nr. 13 við Hörpugötu. Gjald kr. 5.400
30712 (32.47.250.1),http://gamli.rvk.is/vefur/owa/edutils.parse_page?nafn=BN030712,Jörfagrund 2,lausull í stað þakullar,Samþykkt.  Samræmist ákvæðum laga nr. 73/1997. Enda verði gengið frá lausull í samræmi við það sem fram kemur í ívitnuðum gögnum frá Rannsókarstofun byggingariðnaðarins.,Sótt er um leyfi til þess að breyta byggingarlýsingu þaks og nota lausull í stað þéttullar til einangrunar á þaki hússins á lóðinni nr. 2 við Jörfagrund. Gjald kr. 5.400
30713 (32.47.250.2),http://gamli.rvk.is/vefur/owa/edutils.parse_page?nafn=BN030713,Jörfagrund 4,lausull í þakullar,Samþykkt.  Samræmist ákvæðum laga nr. 73/1997. Enda verði gengið frá lausull í samræmi við það sem fram kemur í ívitnuðum gögnum frá Rannsókarstofun byggingariðnaðarins.,Sótt er um leyfi til þess að breyta byggingarlýsingu þaks og nota lausull í stað þéttullar til einangrunar á þaki hússins á lóðinni nr. 4 við Jörfagrund.
30714 (32.47.250.3),http://gamli.rvk.is/vefur/owa/edutils.parse_page?nafn=BN030714,Jörfagrund 6,lausull í stað þakullar,Samþykkt.  Samræmist ákvæðum laga nr. 73/1997. Enda verði gengið frá lausull í samræmi við það sem fram kemur í ívitnuðum gögnum frá Rannsókarstofun byggingariðnaðarins.,Sótt er um leyfi til þess að breyta byggingarlýsingu þaks og nota lausull í stað þéttullar til einangrunar á þaki hússins á lóðinni nr. 6 við Jörfagrund.
29753 (04.13.220.1),http://gamli.rvk.is/vefur/owa/edutils.parse_page?nafn=BN029753,Kirkjustétt 2-6,gaskútageymsla mhl. 02,Frestað. Vísað til athugasemda á umsóknarblaði.,Sótt er um samþykki fyrir smá breytingu á innréttingu veitingastaðar á 1. hæð (0103) og leyfi til þess að setja upp gasgeymslu fyrir gaskúta veitingastaðar við norðurhlið matshluta 02 hús nr. 4 á  lóð nr. 2-6 við Kirkjustétt. Gjald kr. 5.400
30532 (04.13.220.1),http://gamli.rvk.is/vefur/owa/edutils.parse_page?nafn=BN030532,Kirkjustétt 2-6,"kennslust., blómav. mhl. 03",Samþykkt.  Samræmist ákvæðum laga nr. 73/1997. Áskilin lokaúttekt byggingarfulltrúa. Áskilið samþykki heilbrigðiseftirlits.,Sótt er um leyfi til þess að fjölga eignum úr fjórum í fimm í húsi 6C nr. 6 (matshl. 03) og innrétta bráðabirgða kennslustofu fyrir myndmenntarkennslu Ingunnarskóla (0104) ásamt  blómabúð (0105) í þjónustubyggingu nr. 6 á lóð nr. 2-6 við Kirkjustétt. Gjald kr. 5.400
30531 (04.13.220.1),http://gamli.rvk.is/vefur/owa/edutils.parse_page?nafn=BN030531,Kirkjustétt 2-6,matvöruv. og lyfjav. matshl. 01,Samþykkt.  Samræmist ákvæðum laga nr. 73/1997. Áskilið samþykki heilbrigðiseftirlits. Áskilin lokaúttekt byggingarfulltrúa.,Sótt er um leyfi til þess að fækka eignum úr þremur í tvær og innrétta matvöruverslun (0101) ásamt lyfjaverslun (0102) í húsi  A nr. 2 (matshl. 01) á lóð nr. 2-6 við Kirkjustétt. Gjald kr. 5.400
30520 (04.34.280.1),http://gamli.rvk.is/vefur/owa/edutils.parse_page?nafn=BN030520,Klettháls 1,Klettháls 1A breyting inni og úti,Frestað. Lagfæra skráningu.,"Sótt er um leyfi til þess að koma fyrir millilofti og breyta innra fyrirkomulagi hússins nr. 1A á lóðinni nr. 1 við Klettháls. Stærð: Stækkun milliloft 67,4 ferm.  Gjald kr. 5.400"
30485 (04.34.230.1),http://gamli.rvk.is/vefur/owa/edutils.parse_page?nafn=BN030485,Klettháls 3,gólf o.fl.,Frestað. Vísað til athugasemda á umsóknarblaði.,"Sótt er um leyfi til þess að breyta útliti suðurgafls á óbyggðum hluta atvinnuhússins, setja 2. hæð yfir notaeiningu 0101 með tveimur nýjum svölum ásamt breytingu bílastæða á lóð nr. 3 við Klettháls.  Erindinu fylgir bréf skiptastjóra dags. 9. nóv. 2004, samþykki meðeiganda dags. 19. nóvember 2004 og mótmæli Einars V. Tryggvasonar, arkitekts, dags. 11. desember 2004. Stærð:  Stækkun 359,3 ferm. Gjald kr. 5.400"
30672 (02.54.430.8),http://gamli.rvk.is/vefur/owa/edutils.parse_page?nafn=BN030672,Klukkurimi 97,Húsasmiðjukofi,Frestað. Málinu vísað til umsagnar skipulagsfulltrúa. Vísað til athugasemda á umsóknarblaði.,Sótt er um leyfi til þess að byggja garðskála úr timbri á lóðinni nr. 97 við Klukkurima. Stærð: Skáli xx Gjald kr. 5.400 +xx
30698 (01.32.930.1),http://gamli.rvk.is/vefur/owa/edutils.parse_page?nafn=BN030698,Köllunarklettsvegur 6,atvinnuhúsnæði,Frestað. Vísað til athugasemda á umsóknarblaði. Málinu vísað til umsagnar skipulagsfulltrúa.,"Sótt er um leyfi til þess að byggja tvílyft atvinnuhúsnæði úr steinsteypu og stálgrind klætt álklæðningu á lóðinni nr. 6 við Köllunarklettsveg. Bréf Reykjavíkurhafnar dags. 5. maí og 16. júní 2004 fylgja erindinu. Stærð: 1. hæð lager o.fl. 1815,5 ferm., 2. hæð skrifstofa 562,1 ferm. Samtals 2377,6 ferm. og 23766,3 rúmm. Gjald kr. 5.400 + 1.283.380"
30695 (01.41.002.0),http://gamli.rvk.is/vefur/owa/edutils.parse_page?nafn=BN030695,Langholtsvegur 87,reyndarteikningar v/eignaskiptasamnings,Frestað. Vísað til athugasemda á umsóknarblaði.,Sótt er um samþykki fyrir núverandi fyrirkomulagi í húsinu á lóðinni nr. 87 við Langholtsveg. Gerð er grein fyrir lítils háttar breytingum á útliti glugga og áður gerðri séreign í kjallara hússins. Gjald kr. 5.400
30669 (01.18.310.5),http://gamli.rvk.is/vefur/owa/edutils.parse_page?nafn=BN030669,Laufásvegur 5,reyndarteikningar,Frestað. Vísað til athugasemda á umsóknarblaði.,Sótt er um samþykki fyrir núverandi innra fyrirkomulagi íbúðar á annarri hæð framhúss (matshluta 01) á lóðinni nr. 5 við Laufásveg. Íbúðin hefur ekki áður verið sýnd á samþykktri teikningu. Gjald kr. 5.400
30061 (01.24.000.5),http://gamli.rvk.is/vefur/owa/edutils.parse_page?nafn=BN030061,Laugavegur 105,br. 1.hæð og kjallara,Frestað. Breyta Bar/kaffi í Kaffibar.,Að lokinni hagsmunaaðilakynningu er sótt um leyfi til þess að innrétta almenningsþvottahús og kaffistofu á fyrstu hæð suðurhluta hússins á lóðinni nr. 105 við Laugaveg. Útskrift úr gerðabók embættisafgreiðslufundar skipulagsfulltrúa frá 8. október 2004 og umsögn skipulagsfulltrúa dags. 7. október 2004 fylgja erindinu. Samþykki meðeigenda (á teikn. og dags. 20. okt. 2004) fylgir erindinu. Gjald kr. 5.400
30697 (01.25.110.1),http://gamli.rvk.is/vefur/owa/edutils.parse_page?nafn=BN030697,Laugavegur 176,"ofanábygging, breytingar",Frestað. Vísað til athugasemda á umsóknarblaði. Málinu vísað til umsagnar skipulagsfulltrúa.,Sótt er um leyfi til þess að byggja fjórar hæðir ofan á austurálmu húss og klæða utan með álplötum og flísum allt húsið á lóðinni nr. 176 við Laugaveg. Jafnframt er sótt um leyfi til þess að rífa skemmur á baklóð. Stærð: Stækkun austurálma xx Gjald kr. 5.400 + xx
29139 (01.17.220.2),http://gamli.rvk.is/vefur/owa/edutils.parse_page?nafn=BN029139,Laugavegur 22A,leiðr. teikningar,Frestað. Vísað til athugasemda á umsóknarblaði.,"Sótt er um samþykki fyrir breytingum á brunalokun að hringstiga í kjallara, gerð er grein fyrir slökkvibúnaði yfir háf í eldhúsi í kjallara, felld hefur verðið niður vörulyfta milli kjallara og 1. hæðar, breytingar sýndar á stiga milli 2., 3. og 4. hæðar, sýnd stækkun einingar 0201 á 2. hæð og leiðrétting teikninga í samræmi við athugasemdir sem gerðar voru við lokaúttekt á hótelinu á lóð nr. 22A við Laugaveg. Stærð: xxx Gjald kr. 5.400"
30309 (01.17.302.0),http://gamli.rvk.is/vefur/owa/edutils.parse_page?nafn=BN030309,Laugavegur 55,veitingahús,Samþykkt.  Samræmist ákvæðum laga nr. 73/1997. Áskilin lokaúttekt byggingarfulltrúa. Áskilið samþykki heilbrigðiseftirlits. Áskilið samþykki Vinnueftirlits ríkisins.,"Sótt er um leyfi til þess að breyta notkun vörugeymsluhúsnæðis (matshl. 03) í veitingahús fyrir samtals 35 gesti á báðum hæðum bakhússins, byggja svalir við vesturhlið 2. hæðar og samþykki fyrir áður gerðri lækkun gólfs bakhússins á lóðinni nr. 55 við Laugaveg. Erindið var í hagsmunaaðilakynningu frá 29. október til 12. nóvember 2004. Athugasemdir bárust. Stærð: Matshluti 03 verður samkvæmt nýrri skráningu 94,5 ferm., 267,1 rúmm. Rúmmálsaukning vegna áður gerðrar lækkunar gólfs 18,5 rúmm. Gjald. kr. 5.400 + 999"
29398 (01.13.653.3),http://gamli.rvk.is/vefur/owa/edutils.parse_page?nafn=BN029398,Mjóstræti 10,br. vinnustofu í íbúðarh.,Frestað. Ákveðið að kynna málið fyrir meðlóðarhöfum.,"Sótt er um leyfi til þess að klæða með bárujárni bakhús nr. 10A (matshluta 02), breyta gluggum og breyta vinnustofu í íbúðarhúsnæði á lóð nr. 10 við Mjóstræti. Samþykki eiganda Grjótagötu 12 dags. 7. maí 2004, útskrift úr gerðabók embættisafgreiðslufundar skipulagsfulltrúa frá 28. maí 2004, bréf skipulagsfulltrúa dags. 7. júní 2004 og útskrift úr gerðabók embættisafgreiðslufundar skipulagsfulltrúa frá 18. júní 2004 fylgja erindinu. Gjald kr. 5.400"
30689 (01.18.220.4),http://gamli.rvk.is/vefur/owa/edutils.parse_page?nafn=BN030689,Njálsgata 4B,reyndarteikningar v/eignaskiptasamnings,Frestað. Vísað til athugasemda á umsóknarblaði.,Sótt er um samþykki fyrir núverandi fyrirkomulagi hússins á lóðinni nr. 4B við Njálsgötu. Gerð er grein fyrir séreign (ósamþ. íb.) í kjallara og tveimur íbúðum á efri hæðum. Gjald kr. 5.400
30275 (01.41.300.5),http://gamli.rvk.is/vefur/owa/edutils.parse_page?nafn=BN030275,Njörvasund 20,"bílskúr, endurn. byggingarl.",Samþykkt.  Samræmist ákvæðum laga nr. 73/1997. Frágangur á lóðamörkum verði gerður í samráði við lóðarhafa aðliggjandi lóða. Með vísan til samþykktar borgarráðs frá 1. september 1998 skal utanhúss- og lóðarfrágangi vera lokið eigi síðar en innan tveggja ára frá útgáfu byggingarleyfis að viðlögðum dagsektarákvæðum 57. gr. skipulags- og byggingarlaga nr. 73/1997.,"Sótt er um endurnýjun á byggingarleyfi frá 3. september 2003 fyrir byggingu tvöfaldrar steinsteyptrar bílgeymslu á lóð nr. 20 við Njörvasund. Erindið var grenndarkynnt frá 28. júlí til 26. ágúst 2003. Engar athugasemdir bárust. Samþykki nágranna dags. 20. júní 2003 fylgir frá fyrra erindi ásamt samþykki nýs eiganda að Skipasundi 81. Stærð: 85,6 ferm., 297,9 rúmm. Gjald kr. 5.400 + 16.087"
30673 (01.41.500.5),http://gamli.rvk.is/vefur/owa/edutils.parse_page?nafn=BN030673,Njörvasund 21,garðskáli,Frestað. Vísað til athugasemda á umsóknarblaði. Málinu vísað til skipulagsfulltrúa til ákvörðunar um grenndarkynningu. Vísað er til uppdráttar nr. 20.001 dags. desember 2004.,"Sótt er um leyfi til þess að byggja garðskála úr álprófílum og gleri á lóðinni nr. 21 við Njörvasund. Samþykki meðeiganda dags. 7. desember 2004 fylgir erindinu. Stærð: Garðskáli (matshl. 02) 9,2 ferm.og 17,0 rúmm. Gjald kr. 5.400 + 918"
30483 (01.18.451.9),http://gamli.rvk.is/vefur/owa/edutils.parse_page?nafn=BN030483,Óðinsgata 15,reyndart. + bílast. á lóð,Samþykkt.  Samræmist ákvæðum laga nr. 73/1997.,Sótt er um leyfi til þess að koma fyrir bílastæði á lóð og samþykki fyrir núverandi fyrirkomulagi matshluta 01 og 02 á lóðinni nr. 15 við Óðinsgötu. Samþykki meðlóðarhafa dags. 6. desember 2004 (og ódags) fylgir erindinu. Gjald kr. 5.400
30468 (04.12.650.2),http://gamli.rvk.is/vefur/owa/edutils.parse_page?nafn=BN030468,Ólafsgeisli 14-18,nr. 14 breyting inni,Samþykkt.  Samræmist ákvæðum laga nr. 73/1997.,Sótt er um leyfi til þess að breyta geymslum 0204 og 0205 og koma fyrir snyrtingu í geymslurými 0205 á annarri hæð hússins nr. 14 (matshl. 01) á lóðinni nr. 14-18 við Ólafsgeisla. Ný skráningartafla fylgir erindinu. Gjald kr. 5.400
30687 (01.14.010.4),http://gamli.rvk.is/vefur/owa/edutils.parse_page?nafn=BN030687,Pósthússtræti 2,breytingar,Synjað. Samræmist ekki skipulagi.,Sótt er um leyfi til þess að færa vöruaðkomu og sorpgeymslu og breyta innra fyrirkomulagi í húsinu nr. 2 við Pósthússtræti (fyrrum hús Eimskipafélagsins) og nr. 28 við Tryggvagötu á lóðinni  Tryggvagata 28. Gjald kr. 5.400
30607 (01.14.030.7),http://gamli.rvk.is/vefur/owa/edutils.parse_page?nafn=BN030607,Pósthússtræti 5,símaver á 3. hæð,Samþykkt.  Samræmist ákvæðum laga nr. 73/1997. Áskilin lokaúttekt byggingarfulltrúa.,Sótt er um leyfi til að koma fyrir símaveri með starfsmannaaðstöðu á þriðju hæð hússins nr. 5 við Pósthússtræti. Jafnframt verði salur fyrir félagsaðstöðu minnkaður sem þessu nemur. Gjald kr. 5.400
30688 (04.77.310.4),http://gamli.rvk.is/vefur/owa/edutils.parse_page?nafn=BN030688,"Rauðavað 5-7,  9-11",breytingar,Samþykkt.  Samræmist ákvæðum laga nr. 73/1997. Frágangur á lóðamörkum verði gerður í samráði við lóðarhafa aðliggjandi lóða. Áskilin lokaúttekt byggingarfulltrúa.,"Sótt er um leyfi til þess að breyta innra fyrirkomulagi í eldhúsi, stækka hjóla- og vagnageymslu, setja glugga á geymslur og baðherbergi við svalagang, minnka stofuglugga og breyta gaflgluggum húsanna (matshl. 01-04) á lóðinni nr. 5-9 við Rauðavað. Gjald kr. 5.400"
30614 (01.28.140.3),http://gamli.rvk.is/vefur/owa/edutils.parse_page?nafn=BN030614,Safamýri 35,reyndarteikning,Frestað. Lagfæra skráningu.,Sótt er um samþykki fyrir núverandi innra fyrirkomulagi í húsinu á lóðinni nr. 35 við Safamýri. Gerð er grein fyrir breytingum á innra fyrirkomulagi kjallara og breyttri stærð íbúðar í kjallara. Gjald kr. 5.400
29948 (01.13.321.4),http://gamli.rvk.is/vefur/owa/edutils.parse_page?nafn=BN029948,Seljavegur 7,kvistur og stækkun þakglugga,Frestað. Málinu vísað til skipulagsfulltrúa til ákvörðunar um grenndarkynningu. Vísað er til uppdrátta nr. 01 og 02 dags. 15. september og 2. nóvember 2004.,"Sótt er um leyfi til þess að breyta innra fyrirkomulagi íbúðar á rishæð, stækka þakglugga á suðurhlið og byggja kvist og setja þakglugga á norðurhlið hússins á lóðinni nr. 7 við Seljaveg.  Útskrift úr gerðabók embættisafgreiðslufundar skipulagsfulltrúa frá 8. október 2004 fylgir erindinu. Samþykki meðeigenda (á teikn.) fylgir erindinu.  Stærð: Stækkun kvistur 10,6 ferm. og 30,7 rúmm. Gjald kr. 5.400 + 5.400 + 1.658"
30633 (01.36.600.1),http://gamli.rvk.is/vefur/owa/edutils.parse_page?nafn=BN030633,Sigtún 38,"Stækk. v. gafla, br. hótelh. o.fl.",Frestað. Vísað til athugasemda á umsóknarblaði.,"Sótt er um leyfi til þess að byggja ofan á 3. hæð suðausturhluta Grand Hótels (D-álma) samtals 9 hótelherbergi, lengja hótelálmur við gafla í norður og suður, stækka 1.-3. hæð við suðvesturhorn hótels (A-álma), setja dyr á vesturhlið salar á 4. hæð, færa dyr á lyftuhúsi á 5. hæð, breyta hluta  hótelherbergja, fjölga snyrtingum við ráðstefnumiðstöð, breyta sal í kjallara og fjarlægja hárgreiðslustofu í kjallara hótelsins á lóð nr. 38 við Sigtún. Stærð: Stækkun xxx ferm., xxx rúmm. Gjald kr. 5.400 + xx"
30691 (01.25.520.8),http://gamli.rvk.is/vefur/owa/edutils.parse_page?nafn=BN030691,Skipholt 70,viðbygging,Frestað. Vísað til athugasemda á umsóknarblaði. Að þeim uppfylltum verður málið sent skipulagsfulltrúa til ákvörðunar um grenndarkynningu.,Sótt er um leyfi til þess að byggja nýtt anddyri úr timburgrind klæddri álklæðningu við þjónustuinngang á vesturhlið hússins á lóðinni nr. 70 við Skipholt. Stærð: Stækkun anddyri xx Gjald kr. 5.400 + xx
30693 (01.17.021.0),http://gamli.rvk.is/vefur/owa/edutils.parse_page?nafn=BN030693,Skólastræti 1,br. 3. h. og sorpgeymsla.,Frestað. Vísað til athugasemda á umsóknarblaði.,"Sótt er um leyfi til þess að breyta baðherbergi á þriðju hæð, breyta útliti á norðurhlið kjallara og færa sorpgeymslu húss (matshl. 01) á lóðinni nr. 1 við Skólastræti. Gjald kr. 5.400"
30694 (01.18.030.2),http://gamli.rvk.is/vefur/owa/edutils.parse_page?nafn=BN030694,Skólavörðustígur 14,eldvarnardyr,Samþykkt.  Samræmist ákvæðum laga nr. 73/1997. Áskilið samþykki heilbrigðiseftirlits.,Sótt er um leyfi til þess að færa eldvarnardyr milli stigahúss og séreignar í kjallara hússins á lóðinni nr. 14 við Skólavörðustíg. Gjald kr. 5.400
30652 (01.42.640.2),http://gamli.rvk.is/vefur/owa/edutils.parse_page?nafn=BN030652,Skútuvogur 14-16,stækka og breyta,Samþykkt.  Samræmist ákvæðum laga nr. 73/1997. Áskilin lokaúttekt byggingarfulltrúa. Áskilið samþykki heilbrigðiseftirlits.,"Sótt er um leyfi til þess að byggja viðbyggingar að norður- og suðurhlið, rífa milliloft og breyta innra fyrirkomulagi í verslun Húsasmiðjunnar í húsi nr. 16 á lóðinni nr. 14-16 við Skútuvog. Engin milliloft verða í húsinu eftir breytinguna. Stækkun 336 ferm. og 1516,6 rúmm. Gjald kr. 5.400 + 81.896"
30069 (01.23.210.1),http://gamli.rvk.is/vefur/owa/edutils.parse_page?nafn=BN030069,Sóltún 24-26,"br. á lóð, anddyri, innra frkl.",Frestað. Vísað til athugasemda á umsóknarblaði.,Sótt er um leyfi fyrir áður gerðum breytingum á  fyrirkomulagi á lóð fyrir áður gerðu anddyri og áður gerðum breytingum á innra fyrirkomulagi allra hæða hússins nr. 26 á lóðinni nr. 24-26 við Sóltún. Erindinu fylgir umsögn um brunavarnir dags. 31. ágústt 2004. Stækkun: xx Glad kr. 5.400 + xx
30426 (04.08.570.1),http://gamli.rvk.is/vefur/owa/edutils.parse_page?nafn=BN030426,Stórhöfði 33,breytt eignamörk á 2.h.,Frestað. Vísað til athugasemda á umsóknarblaði.,"Sótt er um leyfi til að breyta innra fyrirkomulagi, skráningu  og eignaafmörkun á annrri hæð hússins nr. 33 við Stórhöfða. Séreignum á annarri hæð fækkar og verða nú þrjár í stað fjögurra áður. Gjald kr. 5.400"
30685 (04.92.230.7),http://gamli.rvk.is/vefur/owa/edutils.parse_page?nafn=BN030685,Strýtusel 13,br.- viðbygging (sólskáli),Samþykkt.  Samræmist ákvæðum laga nr. 73/1997.,"Sótt er um leyfi til þess að byggja viðbyggingu úr gleri og timbri að norðurhlið hússins á lóðinni nr. 13 við Strýtusel. Jafnframt er gólfkóti fyrstu hæðar leiðréttur og gerð grein fyrir breytingum á innra fyrirkomulagi.  Samþykki eigenda Strýtusels 15 (á teikn.) fylgir erindinu. Stærð: Viðbygging 6,6 ferm. og 19,2 rúmm. Gjald kr. 5.400 + 1.037"
30699 (00.00.000.0 01),http://gamli.rvk.is/vefur/owa/edutils.parse_page?nafn=BN030699,Suðurlandsbraut 28,breytingar inni,Frestað. Vísað til athugasemda á umsóknarblaði.,Sótt er um leyfi til þess að breyta innra fyrirkomulagi í húsinu á lóðinni nr. 28 við Suðurlandsbraut. Gjald kr. 5.400
30703 (01.37.--9.9),http://gamli.rvk.is/vefur/owa/edutils.parse_page?nafn=BN030703,Sundlaugav. Laugard.,sundmiðstöð - reyndarteikn.,Frestað. Vísað til athugasemda á umsóknarblaði.,"Sótt er um samþykki fyrir reyndarteikningu af sundmiðstöðinni í Laugardal og skráningu hennar sem matshluta 04 á lóð nr. 30 við Sundlaugaveg. Stærð: Matshluti 04 verður samtals 5974,2 ferm., 36057,4 rúmm. Stækkun aðallega tæknirýma í kjallara samtals 344,3 ferm., xxx rúmm. Gjald kr. 5.400 + xxx"
28653 (01.37.--9.9 02),http://gamli.rvk.is/vefur/owa/edutils.parse_page?nafn=BN028653,Sundlaugavegur 30,br. heilsumiðstöð (30A),Frestað. Vísað til athugasemda á sérblaði dags. 15. desember 2004.,"Sótt er um leyfi til þess að innrétta skrifstofur, leikfimisali og fleiri snyrtingar á 2. hæð, fjölga stigum og stækka pall yfir sal 1. hæðar ásamt samþykki fyrir reyndarteikningum  af heilsumiðstöð Sundlaugavegi  30A sem sýna m.a. stækkun kjallara undir sundlaugargarði, fjölgun uppganga frá búningsklefa í kjallara að sundlaugargarði, breytta staðsetningu hringstiga utandyra og nýjan glugga á austurhlið ásamt leyfi fyrir innréttingu kaffisölu, hársnyrtistofu, skyndikaffi, snyrtistofu og nuddstofu í kjallara og leyfi fyrir gaskútageymslu við austurgafl vegna gasarins í hvíldarherbergi í heilsumiðstöðinni Laugum sem nú er sýnd sem sér matshluti 05 á lóð nr. 30 við Sundlaugarveg. Bréf hönnuðar dags. 27. mars, 11. nóvember, 3. desember 2003, 12. janúar, 16. febrúar, 8. mars og 6. september 2004 fylgja erindinu. Stærð: Matshluti 05 verður samtals 7269,3 ferm., 5974,2 rúmm. Stækkun samtals 105,5 ferm., xxx rúmm. Gjald kr. 5.400 + xx"
30636 (01.14.121.0),http://gamli.rvk.is/vefur/owa/edutils.parse_page?nafn=BN030636,Templarasund 3,breyting inni - Við Trjörnina,Frestað. Vísað til athugasemda á umsóknarblaði.,Sótt er um samþykki fyrir áður gerðum breytingum á innra fyrirkomulagi veitingahúss á annarri hæð og útliti austurhliðar hússins nr. 3 við Templarasund. Gjald kr. 5.400
30455 (01.13.600.5),http://gamli.rvk.is/vefur/owa/edutils.parse_page?nafn=BN030455,Vesturgata 21,mhl. 03 og 04 - alls 6 íbúðir,Frestað. Vísað til fyrri athugasemda vegna fjölda íbúða á lóð.,"Sótt er um leyfi til þess að byggja matshluta 03 og 04, eða alls sex íbúðir á lóðinni nr. 21 við Vesturgötu. Matshluti 03 er steinsteypt tveggja hæða tvíbýlishús einangrað utan og klætt múrhúð. Matshluti 04 er steinsteypt fjögurra hæða fjölbýlishús með fjórum íbúðum einangrað utan og klætt múrhúð. Með erindinu fylgir yfirlýsing eigenda matshl. 01 dags. 20. október 2004 varðandi sameiningu tveggja eignarhluta í eina íbúð áður en lokaúttekt fer fram. Samþykki eigenda Vesturgötu 23 dags. 16. nóvember 2004 fylgir erindinu. Samþykki lóðarhafa  dags. 6. og 8. desember 2004 fylgir erindinu Stærð: Matshl. 03: 1. hæð 82,1 ferm., 2. hæð 70,9 ferm.  Samtals 153,0 ferm. og 441,8 rúmm. Matshl. 04: kjallari 106,6 ferm., 1.hæð 106,4 ferm., 2.hæð 106,4 ferm., 3.hæð 104,5 ferm., 4.hæð 83,8 ferm. Samtals 507,7 ferm. og 1403,8 rúmm. Gjald kr. 5.400 + 99.662"
30675 (01.78.230.2),http://gamli.rvk.is/vefur/owa/edutils.parse_page?nafn=BN030675,Víðihlíð  5-11,tímab. íveruherbergi,Samþykkt.  Samræmist ákvæðum laga nr. 73/1997. Þinglýsa skal yfirlýsingu um tímabundna notkun á húsið.,Sótt er um leyfi til þess að breyta núverandi föndurherbergi (bílskúr) tímabundið í íveruherbergi við hús nr. 9-11 á lóð nr. 5-11 við Víðihlíð. Gjald kr. 5.400
30231 (04.13.580.4),http://gamli.rvk.is/vefur/owa/edutils.parse_page?nafn=BN030231,Þorláksgeisli 120,br. inni og úti,Samþykkt.  Samræmist ákvæðum laga nr. 73/1997. Frágangur á lóðamörkum verði gerður í samráði við lóðarhafa aðliggjandi lóða.,"Sótt er um leyfi til þess að koma fyrir geymslu og tómstundaherbergi í áður skriðrými undir bílgeymslu, setja glugga á austurhlið og dyr á suðurhlið fyrstu hæðar, breyta innra fyrirkomulagi (m.a. staðsetningu þvottaherbergis) á báðum hæðum og koma fyrir tröppum og stoðvegg við austurhlið hússins á lóðinni nr. 120 við Þorláksgeisla. Skilyrt samþykki nágranna í húsi nr. 122 við Þorláksgeisla dags. 11. október 2004 fylgir erindinu. Yfirlýsing umsækjanda vegna kostnaðar við gerð stoðveggjar dags. 13 desember 2004 og þinglýst 14. desember 2004 fylgir erindinu. Stærð: Húsið var áður skráð svo:  ""Íbúð 1. hæð 93,8 ferm., 2. hæð 91,5 ferm., bílgeymsla 36,2 ferm., samtals 221,5 ferm. 752,7 rúmm. Undir bílgeymlu er skriðrými 38,4 4 ferm., 92,2 rúmm."" Skráning hússins nú er eftirfarandi:  Íbúð 1. hæð 132,2 ferm., 2. hæð 87,8 ferm., bílgeymsla 39,9 ferm. Samtals 259,9 ferm. og 858,7 rúmm. Stækkun hússins 38,4 ferm. og 106,0 rúmm. Gjald kr. 5.400 + 5.724"
30545 (04.13.570.5),http://gamli.rvk.is/vefur/owa/edutils.parse_page?nafn=BN030545,Þorláksgeisli 78-80,br. og stækk. nr. 78 og 80,Frestað. Vísað til athugasemda á umsóknarblaði.,"Sótt er um leyfi til þess að stækka neðri hæð og breyta þar fyrirkomulagi þvottaherbergja og geymslna.  Á efri hæð er stærð bílgeymslu breytt í húsi nr. 78 og snyrting stækkuð í húsi nr. 80 í parhúsinu á lóðinni nr. 78-80 við Þorláksgeisla. Jafnframt er gerð grein fyrir breyttu fyrirkomulagi á lóð. Stærð: Stækkun, viðbygging 1. h.  Þorláksgeisli 78 (matshl. 01) 8,9 ferm., 43,1 rúmm. Þorláksgeisli 80 (matshl. 02) 8,7 ferm., 42,8 rúmm. Ath. stærðarbreyting húss nr. 78 vegna bílgeymslu og viðbyggingar:  Íbúð var 146,9 ferm., bílgeymsla var 29,7 ferm. íbúð verður 160,4 ferm. og bílgeymsla verður 25,1 ferm., heildarstærðir breytast ekki vegna þessa. Gjald kr. 5.400 + 4.639"
30717 (01.18.661.2),http://gamli.rvk.is/vefur/owa/edutils.parse_page?nafn=BN030717,Njarðargata 31,Leiðr. skráning,Samþykkt.  Samræmist ákvæðum laga nr. 73/1997.,Sótt er um samþykki fyrir leiðréttri skráningu hússins nr. 31 við Njarðargötu. Bréf hönnuðar dags. 17. desember 2004 fylgir erindinu.
30678 (01.14.041.5),http://gamli.rvk.is/vefur/owa/edutils.parse_page?nafn=BN030678,Aðalstræti 7,(fsp) íbúð á 2. hæð,Jákvætt. Að uppfylltum skilyrðum enda verði sótt um byggingarleyfi.,Spurt er hvort samþykki fengist fyrir íbúð á annarri hæð hússins nr. 7 við Aðalstræti.
30217 (04.06.200.1),http://gamli.rvk.is/vefur/owa/edutils.parse_page?nafn=BN030217,Bíldshöfði 9,(fsp) skrifstofuhús,"Jákvætt. Að uppfylltum skilyrðum og með vísan til umsagnar skipulagsfulltrúa frá 13. desember 2004, enda verði sótt um byggingarleyfi.",Spurt er hvort leyft yrði að byggja tvö átta hæða skrifstofuhús með innbyggðri bílageymslu neðanjarðar á lóðinni nr. 9 við Bíldshöfða. Jafnframt er spurt um eftirfarandi:  1. Hvort heimilað verði að undanskilja bílageymslu neðanjarðar þegar nýtingarhlutfall á lóð er reiknað. 2. Hvort heimilað verði að fjölga bílastæðum neðanjarðar úr 48 stæðum í 78 stæði og stækka byggingarreit  neðanjarðar sem því nemur. 3. Hvort heimilt sé að fjölga bílastæðum á lóð (ofanjarðar) úr 526 stæðum í 555 stæði. Bréf hönnuðar dags. 28. september 2004 fylgir erindinu. Umsögn skipulagsfulltrúa dags. 13. desember 2004 fylgir erindinu.
30596 (01.27.001.8),http://gamli.rvk.is/vefur/owa/edutils.parse_page?nafn=BN030596,Flókagata 67,(fsp) viðb. hús og bílskúr o.fl.,Jákvætt. Að uppfylltum skilyrðum enda verði sótt um byggingarleyfi. Kvistur of langur og vinna þarf betur við útlitið.,"Spurt er hvort leyft yrði að byggja aftan við húsið nr. 67 við Flókagötu að mestu í samræmi við meðfylgjandi forteikningar.  Jafnframt er spurt hvor leyft yrði að stækka og sameina kvisti á norðuþaki, stækka svalir á suðurhlið, gera svalir á vesturhlið og byggja við bílskúr á baklóð. Erindinu fylgir útskrift úr gerðabók embættisafgreiðslufundar skipulagsfulltrúa frá 17. desember 2004."
30472 (01.81.340.5),http://gamli.rvk.is/vefur/owa/edutils.parse_page?nafn=BN030472,Grundargerði 15,(fsp) íb. í kjallara,"Nei. Of mikið niðurgrafin, lofthæð of lítil.",Spurt er hvort samþykki fengist fyrir áður gerðri íbúð í kjallara hússins á lóðinni nr. 15 við Grundargerði. Virðingargjörð dags. 30. júní 1954 fylgir erindinu. Skoðunarskýrsla byggingarfulltrúa dags. 3. desember 2004 fylgir erindinu.
30709 (01.83.000.7),http://gamli.rvk.is/vefur/owa/edutils.parse_page?nafn=BN030709,Sogavegur 124,niðurr. og nýtt parhús,Frestað. Málinu vísað til umsagnar skipulagsfulltrúa.,Spurt er hvort leyft yrði að fjarlægja núverandi hús og byggja tvílyft steinsteypt parhús með bílskýli undir hluta hússins í líkingu við fyrirliggjandi uppdrætti á lóð nr. 124 við Sogaveg.
30708 (01.18.640.2),http://gamli.rvk.is/vefur/owa/edutils.parse_page?nafn=BN030708,Urðarstígur 12,fsp. niðurrif og nýtt fjölbýli,Frestað. Málinu vísað til umsagnar skipulagsfulltrúa.,Spurt er hvort leyft yrði að rífa núverandi timburhús og byggja steinsteypt fjölbýlishús með þremur íbúðum svipað og samþykkt var 1979 á lóð nr. 12 við Urðarstíg.
30676 (01.18.600.5),http://gamli.rvk.is/vefur/owa/edutils.parse_page?nafn=BN030676,Urðarstígur 8,(fsp) fjarlægja burðarvegg,"Jákvætt. Að uppfylltum skilyrðum, með vísan til athugasemda á fyrirspurnarblaði, enda verði sótt um byggingarleyfi.",Spurt er hvort leyft yrði að fjarlægja hluta úr burðarvegg á fyrstu hæð hússins nr. 8 við Urðarstíg.
30682 (01.13.210.7),http://gamli.rvk.is/vefur/owa/edutils.parse_page?nafn=BN030682,Vesturgata 4,fsp Grófin 1-br. atvhúsn.í íb.,Jákvætt. Að gera íbúð á 1. hæð að uppfylltum skilyrðum þ.m.t. hljóðvist. Íbúð í kjallara kemur ekki til greina.,Spurt er hvort leyft yrði að breyta atvinnuhúsnæði í íbúð / íbúðir í kjallara og á fyrstu hæð hússins nr. 1 við Grófina á lóðinni nr. 4 við Vesturgötu. Á annarri hæð hússins er samþykkt íbúð. Bréf fyrirspyrjanda dags. 14. desember 2004 fylgir erindinu.
