nr,url,heimilisfang,tegund,nidurstada,spurning
25159 (01.24.710.4),http://gamli.rvk.is/vefur/owa/edutils.parse_page?nafn=BN025159,Auðarstræti 9,Br. í kjallara,Samþykkt.  Samræmist ákvæðum laga nr. 73/1997. Afmörkun séreignar í kjallara er gerð með vísan til 15. gr. í reglugerð nr. 910/2000.,Sótt er um samþykki fyrir áður gerðri séreign (ósamþ. íb.) og reyndarteikningum af kjallara hússins á lóðinni nr. 9 við Auðarstræti. Skiptasamningur dags. 30. júlí 1976 fylgir erindinu. Samþykki eigenda dags. 5. maí og 11. nóvember 2002 fylgir erindinu. Skoðunarskýrsla byggingarfulltrúa dags. 21. júní 2002 fylgir erindinu. Gjald kr. 4.800
26792 (00.00.000.0),http://gamli.rvk.is/vefur/owa/edutils.parse_page?nafn=BN026792,Barónsstígur 2,br innra frkl. jarðhæð o.fl.,Frestað. Lagfæra skráningu.,"Sótt er um leyfi til að breyta innra fyrirkomulagi í kjallara, á fyrstu, annarri, þriðju og fimmtu hæð í matshlutum 01 og 02 (Hótel Barón) á lóðinni nr. 2-4 við Barónsstíg. M.a. verði veitingarými stækkað, hótelherbergjum fjölgað um tvö og brunavörnum breytt lítillega. Gjald kr. 5.100)"
26972 (04.02.440.5),http://gamli.rvk.is/vefur/owa/edutils.parse_page?nafn=BN026972,Básbryggja 13-15,reyndarteikn. v. lokaútt.,Frestað. Vísað til athugasemda á umsóknarblaði.,"Sótt er um leyfi til þess að breyta loftræstingu frá geymslum og sorprennum, breyta skipulagi baðherbergja tveggja íbúða á 1. hæð og bílastæðum framan við fjölbýlishúsið á lóð nr. 13-15 við Básbryggju. Gjald kr. 5.100"
26969 (01.18.222.2),http://gamli.rvk.is/vefur/owa/edutils.parse_page?nafn=BN026969,Bjarnarstígur 7,samþykki á risíbúð,Samþykkt.  Samræmist ákvæðum laga nr. 73/1997.,"Sótt er um samþykki fyrir áður gerðri íbúð á rishæð ásamt smávægilegum breytingum í kjallara íbúðarhússins á lóð nr. 7 við Bjarnarstíg. Virðingargjörð dags. 21. ágúst 1928, íbúðarskoðun dags. 14. mars og 24. mars 2003 ásamt samþykki meðeigenda dags. 21. mars 2003 fylgja erindinu. Gjald kr. 5.100"
26963 (01.71.120.3),http://gamli.rvk.is/vefur/owa/edutils.parse_page?nafn=BN026963,Bogahlíð 7-9,sérgeymslur þakhæð,Frestað. Vísað til athugasemda á umsóknarblaði.,Sótt er um leyfi til þess að taka í notkun þakhæð og innrétta þar geymslur í húsinu nr. 7-9 við Bogahlíð. Gjald kr. 5.100
26750 (01.21.900.1),http://gamli.rvk.is/vefur/owa/edutils.parse_page?nafn=BN026750,Borgartún 31,breytingar á 8. hæð,Frestað. Lagfæra skráningu.,"Sótt er um leyfi til þess að breyta innra fyrirkomulagi og útliti áttundu hæðar hússins á lóðinni nr. 31 við Borgartún. Fermetrastærð húss breytist ekki (7139,2 ferm.) en rúmmetrafjöldi eykst úr 25144,1 rúmm. í 25175,6 rúmm. eða um 31,5 rúmm. Yfirlýsing vegna hönnunar eldvarna dags. 26. febrúar 2003 fylgir erindinu. Gjald kr. 5.100 + 1.607"
26890 (01.25.010.3),http://gamli.rvk.is/vefur/owa/edutils.parse_page?nafn=BN026890,Brautarholt 26,"byggja við, hækka þak",Frestað. Lagfæra skráningu.,"Sótt er um leyfi til að byggja við þriðju hæð hússins nr. 26 við Brautarholt (matshl. 01) á lóðinni nr. 26-28 við Brautarholt. Jafnframt er sótt um leyfi til að lyfta þaki byggingarinnar að norðan- og sunnanverðu, breyta inngangi og að klæða norðurhlið (götuhlið) húsanna nr. 26 og 28 (matshl. 01 og 02) með álklæðningu í ljósum lit.  Umsögn Teiknistofunnar Óðinstorgi vegna utanhúsklæðningar dags. 24. mars 2003, samþykki lóðarhafa að Skipholti 25, 27 og 29A ásamt Brautarholti 24 fylgir erindinu. Vegna stækkunar skal greiða fyrir 1,7 bílastæði í flokki lV. Stækkun:  95 ferm. og 449,8 rúmm. Gjald kr. 5.100 + 22.938"
26929 (01.45.440.9),http://gamli.rvk.is/vefur/owa/edutils.parse_page?nafn=BN026929,Dugguvogur 23,innra frkl á 1. og 3. h,Samþykkt.  Samræmist ákvæðum laga nr. 73/1997.,"Sótt er um leyfi til að breyta innra fyrirkomulagi á fyrstu hæð og innra fyrirkomulagi, eignaafmörkun og skráningu á þriðju hæð hússins nr. 23 við Dugguvog. Gjald kr. 5.100"
26964 (04.68.300.9 01),http://gamli.rvk.is/vefur/owa/edutils.parse_page?nafn=BN026964,Eddufell 8,nr. 8 pizzastaður,Frestað. Vísað til athugasemda á umsóknarblaði.,Sótt er um leyfi til að breyta innra fyrirkomulagi húss nr. 8 (matshl. 01) á lóðinni nr. 2-8 við Eddufell og koma þar fyrir framleiðsluaðstöðu fyrir flatbökur (pizzur). Jafnframt verði glugga á norðurhlið (götuhlið) breytt og komið fyrir loftræsibúnaði. Erindinu fylgir yfirlýsing húseiganda dags. 27. feb. 2003. Gjald kr. 5.100
26810 (01.41.000.4),http://gamli.rvk.is/vefur/owa/edutils.parse_page?nafn=BN026810,Efstasund 72,reyndarteikning,Frestað. Vísað til athugasemda á umsóknarblaði.,"Sótt er um samþykki fyrir núverandi fyrirkomulagi í húsi og í bílskúr á lóðinni nr. 72 við Efstasund. Gerð er grein fyrir áður gerðri íbúð í kjallara og breytingum á stærðum bílskúrs. Skoðunarskýrsla byggingarfulltrúa dags. 12. júní 2002 fylgir erindinu. Virðingargjörð dags. 24. júní 1948 og afsal dags. 30. ágúst 1962 fylgja erindinu.  Stærð: Stækkun bílskúrs (matshl. 70) 6,3 ferm. og 17,0 rúmm. Gjald kr. 5.100 + 867"
26974 (01.36.650.1),http://gamli.rvk.is/vefur/owa/edutils.parse_page?nafn=BN026974,Engjateigur 7,br. á eignarhlutum,Frestað. Vísað til athugasemda á umsóknarblaði.,Sótt er um leyfi til þess að breyta eignarhlutum ásamt  samþykki fyrir breyttum brunamerkingum í atvinnuhúsinu á lóð nr. 7 við Engjateig. Umboð til hönnuðar dags. 30. október 2001 fylgir erindinu. Gjald kr. 5.100
25484 (01.24.720.1),http://gamli.rvk.is/vefur/owa/edutils.parse_page?nafn=BN025484,Flókagata 12,reyndarteikningar,Frestað. Vísað til athugasemda á umsóknarblaði.,"Sótt er um samþykki fyrir áður gerðum breytingum á íbúð 0101 og íbúð 0102 á fyrstu hæð og afmörkun séreignar 0001 í  fjölbýlishúsi á lóð nr. 12 við Flókagötu. Bréf umsækjenda dags. 18. júlí 2002, samþykki meðeigenda dags. 27. janúar 2003 og ljósrit af afsali innfærðu 27. desember 1995 fylgja erindinu. Gjald kr. 4.800"
26714 (02.46.720.1),http://gamli.rvk.is/vefur/owa/edutils.parse_page?nafn=BN026714,Fossaleynir 8,iðnaðar/viðgerðarhús,Samþykkt.  Samræmist ákvæðum laga nr. 73/1997. Frágangur á lóðamörkum verði gerður í samráði við lóðarhafa aðliggjandi lóða. Áskilin lokaúttekt byggingarfulltrúa.,"Sótt er um leyfi til þess að byggja atvinnuhús, að mestu á einni hæð, úr stálgrind og klætt silfurgrárri láréttri málmklæðningu á lóð nr. 8 við Fossaleyni. Bréf hönnuðar dags. 24. mars 2003 fylgir erindinu. Stærð: Atvinnuhús 1. hæð 1534,7 ferm., 2. hæð 237,1 ferm., samtals 1771,8 ferm., 12239,3 rúmm. Gjald kr. 5.100 + 624.204"
26466 (01.19.600.5),http://gamli.rvk.is/vefur/owa/edutils.parse_page?nafn=BN026466,Freyjugata 36,reyndarteikningar,Frestað. Vísað til athugasemda á umsóknarblaði.,"Sótt er um samþykki fyrir núverandi fyrirkomulagi í húsinu á lóðinni nr. 36 við Freyjugötu. Gerð er grein fyrir eignarhaldi í húsinu og áður gerðri íbúð á rishæð. Skoðunarskýrsla byggingarfulltrúa dags. 12. september 2002 (rishæð) fylgir erindinu. Jafnframt lagt fram bréf eigenda 1. og 2. hæðar dags. 25. febrúar 2003. Bréf Magnúsar Inga Erligssonar f.h. umsækjanda dags. 17. mars og endurrit fundargerðar húsfundar frá 6. júní 2002 fylgja erindinu. Samantekt Magnúsar Inga Erlingssonar, hdl. dags. 21. mars 2003 fylgir erindinu. Gjald kr. 5.100"
26777 (01.18.452.3),http://gamli.rvk.is/vefur/owa/edutils.parse_page?nafn=BN026777,Freyjugata 6,"stækkun, viðbygg. ofl.",Frestað. Málinu vísað til skipulagsfulltrúa til ákvörðunar um grenndarkynningu. Vísað er til uppdrátta nr. 0.01A og 0.02A dags. 21. febrúar 2003.,"Sótt er um leyfi til að endurnýja, hækka og samræma þak yfir húsinu á lóðinni nr. 6 við Freyjugötu (matshl. 01). Jafnframt verði veggir á vesturhluta hússins hækkaðir, viðbygging til suðurs stækkuð, gerðar svalir á þaki viðbyggingar og innra fyrirkomulagi breytt. Stækkun:  27,5 ferm. og 188,7 rúmm. Gjald kr. 5.100 + 9.623"
26976 (04.04.--9.9),http://gamli.rvk.is/vefur/owa/edutils.parse_page?nafn=BN026976,Grafarholtsland 110549,þjónustubygging,Frestað. Vísað til athugasemda á umsóknarblaði.,"Sótt er um leyfi til þess að byggja einnar hæðar timburþjónustubyggingu fyrir Golfklúbb Reykjavíkur með snyrtingum og smá afdrepi við 10. teig á Grafarholtsvelli. Stærð: Þjónustuhús 18,8 ferm., 55,2 rúmm. Gjald kr. 5.100 + 2.815"
26980 (01.29.540.3),http://gamli.rvk.is/vefur/owa/edutils.parse_page?nafn=BN026980,Grensásvegur 16,veitingarekstur,Frestað. Vísað til athugasemda á umsóknarblaði.,Sótt er um leyfi til þess að innrétta veitingahús með sætum fyrir u.þ.b. 25 gesti á fyrstu hæð hússins á lóðinni nr. 16 við Grensásveg. Gjald kr. 5.100
26956,http://gamli.rvk.is/vefur/owa/edutils.parse_page?nafn=BN026956,Grettisgata 22D,niðurrif,Samþykkt.  Samræmist ákvæðum laga nr. 73/1997.,"Sótt er um leyfi til þess að rífa vörugeymslu og iðnaðarhús, fastanúmer 200 -6242, nr. 22D við Grettisgötu á lóðinni nr. 14B við Frakkastíg. Matshlutar 02, 04, 05, 06 og 07. Stærðir mh. 02, 11 ferm., mh. 04, 80 ferm., mh. 05, 36 ferm. mh. 06, 156 ferm., mh. 07, 132 ferm. Samtals 415 ferm. Gjald kr. 5.100"
26895 (04.11.430.1),http://gamli.rvk.is/vefur/owa/edutils.parse_page?nafn=BN026895,Grænlandsleið 22-26,"nýb. 2. h, 13 mhl., 24 íb og bílg.",Frestað. Lagfæra skráningu.,"Sótt er um leyfi til þess að byggja átta steinsteypt tveggja hæða tvíbýlishús samtengd með stoðveggjum og sameiginlegri bílgeymslu fyrir sextán bíla ásamt fjórum steinsteyptum tvíbýlishúsum með innbyggðri bílgeymslu fyrir tvo bíla . Samtals er sótt um leyfi til þess að byggja tuttugu og fjórar íbúðir á lóð nr. 22-44 við Grænlandsleið. Brunahönnun VSI dags. 1. október 2002 fylgir erindinu. Stærð: Hús nr. 22 (matshluti 01) íbúð 1. hæð 89,9 ferm., 2. hæð 89,9 ferm., samtals 179,8 ferm., 543,9 rúmm.  Hús nr. 24 (matshluti 02), hús nr. 26 (matshluti 03), hús nr. 28 (matshluti 04), hús nr. 30 (matshluti 05), hús nr. 32 (matshluti 06), hús nr. 34 (matshluti 07) og hús nr. 36 (matshluti 08) eru öll sömu stærðar og hús nr. 22 eða samtals 179,8 ferm., 543,9 rúmm hvert hús. Hús nr. 38 (matshluti 09) íbúð 1. hæð 14,5 ferm., 2. hæð 89,6 ferm., bílgeymsla 46,5 ferm., samtals 250,6 ferm., 784,3 rúmm. Hús nr. 40 (matshluti 10), hús nr. 42 (matshluti 11) og hús nr. 44 (matshluti 12) eru öll sömu stærðar og hús nr. 38 eða samtals 250,6 ferm., 784,3 rúmm. hvert hús. Bílgeymsla (matshluti 13) geymslur íbúða í matshlutum 01-08 samtals 75,8 ferm., bílgeymsla 451,2 ferm., samtals 527 ferm., 1464,5 rúmm. Gjald kr. 5.100 + 456.598"
26973 (01.16.020.2),http://gamli.rvk.is/vefur/owa/edutils.parse_page?nafn=BN026973,Hávallagata 31,"stækkun glugga, laufskáli, garðskáli",Frestað. Vísað til athugasemda á umsóknarblaði.,"Sótt er um leyfi til þess að stækka kjallaraglugga undir svölum á suðvesturhlið húss, byggja laufskála austan húss og byggja opið garðskýli syðst á lóðinni nr. 31 við Hávallagötu.  Jafnframt er gerð grein fyrir áður gerðum glugga á suðurhlið kjallara. Stærð: Garðskýli (B-rými) xx Gjald kr. 5.100 + xx"
26970 (01.41.421.3),http://gamli.rvk.is/vefur/owa/edutils.parse_page?nafn=BN026970,Hlunnavogur 4,nýtt anddyri,Frestað. Vísað til athugasemda á umsóknarblaði. Að þeim uppfylltum verður málið sent skipulagsfulltrúa til ákvörðunar um grenndarkynningu.,"Sótt er um leyfi til að byggja anddyri með þaksvölum við vesturhlið hússins á lóðinni nr. 4 við Hlunnavog og rífa jafnframt núverandi svalir á sama stað. Stækkun: 6,6 ferm. og 19,3 rúmm. Gjald kr. 5.100 + 928"
24821 (01.16.240.1),http://gamli.rvk.is/vefur/owa/edutils.parse_page?nafn=BN024821,Hringbraut 50,göngubrú,Samþykkt.  Samræmist ákvæðum laga nr. 73/1997. Með skilyrði um að við verkframkvæmd verði viðhaft það samráð sem fram kemur í bréfi Orkuveitu Reykjavíkur dags. 28. mars 2003. Frágangur á lóðamörkum verði gerður í samráði við lóðarhafa aðliggjandi lóða. Áskilin lokaúttekt byggingarfulltrúa. Með vísan til samþykktar borgarráðs frá 1. september 1998 skal utanhúss- og lóðarfrágangi vera lokið eigi síðar en innan tveggja ára frá útgáfu byggingarleyfis að viðlögðum dagsektarákvæðum 57. gr. skipulags- og byggingarlaga nr. 73/1997.,"Sótt er um leyfi til þess að byggja léttbyggðan tengigang milli 2. hæðar Grundar og Litlu Grundar með steinsteyptum turni með geymslu á 1. hæð og hvíldarpalli á 2. hæð á lóð nr. 50 við Hringbraut. Erindið var í kynningu frá 6. ágúst til 4. september 2002. Engar athugasemdir bárust. Afrit af bréfi gatnamálastjóra til hönnuðar dags. 30. apríl 2002, bréf frá Landssímanum dags. 7. maí 2002 og bréf frá OR dags. 28. mars 2003 fylgja erindinu. Stærð: Tengigangur 1. hæð 22,9 ferm., 2. hæð 95,6 ferm., samtals 118,5 ferm., 356,2 rúmm. Gjald kr. 4.800 + 18.166"
26274 (01.17.030.9),http://gamli.rvk.is/vefur/owa/edutils.parse_page?nafn=BN026274,Ingólfsstræti 10,v. eignaskipta,Samþykkt.  Samræmist ákvæðum laga nr. 73/1997.,Sótt er um samþykki fyrir núverandi fyrirkomulagi í húsinu á lóðinni nr. 10 við Ingólfsstræti vegna gerðar eignaskiptayfirlýsingar. Gerð er grein fyrir eignarhaldi í húsinu. Bréf Kristjáns Bjarnasonar dags. 25. mars 2003 fylgir erindinu. Gjald kr. 4.800
26884 (01.18.010.9),http://gamli.rvk.is/vefur/owa/edutils.parse_page?nafn=BN026884,Ingólfsstræti 16,breyting atvinnuh. í íbúðir,"Frestað. Vísað til athugasemda á umsóknarblaði.

Magnús Sædal Svavarsson vék af fundi við afgreiðslu málsins.","Sótt er um leyfi til þes að breyta atvinnuhúsnæði í sex íbúðir á fyrstu og annarri hæð hússins á lóðinni nr. 16 við Ingólfsstræti. Á þriðju hæð og þakhæð hússins eru þegar skráðar tvær íbúðir. Alls verða því skráðar átta íbúðir í húsinu. Jafnframt er sótt um leyfi til þess að breyta útliti suðurálmu húss og byggja þrjár anddyrisviðbyggingar á vesturhlið hússins. Útskrift úr gerðabók embættisafgreiðslufundar skipulagsfulltrúa frá 28. mars 2003 fylgir erindinu. Samþykki eigenda Þingholtsstrætis 15A (v. víðbygginga á vesturhlið) dags. 11. mars 2003 fylgir erindinu. Skjal þinglýst 24. júní 1926 (v. kvöð um umferð) fylgir erindinu. Bréf hönnuða dags. 11. mars 2003 fylgir erindinu. Stærð: Stækkun, anddyri xx Gjald kr. 5.100 + xx"
26531 (01.17.121.8),http://gamli.rvk.is/vefur/owa/edutils.parse_page?nafn=BN026531,Ingólfsstræti 5,kaffi- og vínveitingastaður,Frestað. Vísað til athugasemda á umsóknarblaði. Þar sem ágreiningur er á meðal eigenda um hvort og þá hversu margir að tölu og hlutfalli þurfi að samþykkja fyrirliggjandi notkunarbreytingu er umsækjanda bent á að leita umsagnar kærunefndar fjöleignarhúsamála sbr. 80. gr. laga nr. 26/1994.,"Sótt er um leyfi til þess að innrétta kaffi- og vínveitingastað á 1. hæð og í kjallara atvinnuhússins á lóð nr. 5 við Ingólfsstræti. Jafnframt er erindi 25502 dregið til baka. Bréf umsækjanda dags. 20. janúar 2003, ljósrit af bréfi hverfisstjóra skipulagsfulltrúa til umsækjanda dags. 8. maí 2002, umsögn burðavirkishönnuðar dags. 17. september 2002 og mótmæli meðeigenda dags. 13. mars 2003 fylgja erindinu. Gjald kr. 5.100"
26832 (04.68.500.1),http://gamli.rvk.is/vefur/owa/edutils.parse_page?nafn=BN026832,Jórufell 2-12,breytingar,Frestað. Vísað til athugasemda á umsóknarblaði.,Sótt er um leyfi til þess að klæða svalahandrið með álplötum og byggja 30 sólskýli á svölum og veröndum fjölbýlishússins á lóðinni nr. 2-12 við Jórufell. Stærð: Stækkun sólskýli xx Gjald kr. 5.100 + xx
26747 (32.47.250.4),http://gamli.rvk.is/vefur/owa/edutils.parse_page?nafn=BN026747,Jörfagrund 23-27,fjölbýlishús m. 8 íb.,Samþykkt.  Samræmist ákvæðum laga nr. 73/1997. Frágangur á lóðamörkum verði gerður í samráði við lóðarhafa aðliggjandi lóða. Áskilin lokaúttekt byggingarfulltrúa.,"Sótt er um leyfi til þess að byggja tvílyft fjölbýlishús byggt úr forsteyptum einingum með samtals átta íbúðum á lóð nr. 23-27 við Jörfagrund. Jafnframt er lagt til að húsið verði nr. 23 við Jörfagrund. Gerðavottun Einingarverksmiðjunnar fylgir erindinu. Stærð: Íbúð 1. hæð 265,3 ferm., 2. hæð 264 ferm., samtals 529,3 ferm., 1700,2 rúmm. Gjald kr. 5.100 + 86.710"
26813 (01.34.510.1),http://gamli.rvk.is/vefur/owa/edutils.parse_page?nafn=BN026813,Kirkjusandur 2,br inni og úti mhl 12,Samþykkt.  Samræmist ákvæðum laga nr. 73/1997. Áskilin lokaúttekt byggingarfulltrúa.,Sótt er um leyfi til að breyta innra fyrirkomulagi og útliti matshluta 12 suðaustanvert  á lóð Íslandsbanka nr. 2 við Kirkjusand.  Gjald kr. 5.100
26975 (01.72.100.1),http://gamli.rvk.is/vefur/owa/edutils.parse_page?nafn=BN026975,Kringlan  4-12,rými S-269  br. (Kaffi Roma),Samþykkt.  Samræmist ákvæðum laga nr. 73/1997. Áskilin lokaúttekt byggingarfulltrúa. Áskilið samþykki heilbrigðiseftirlits.,"Sótt er um leyfi til þess breyta innréttingu einingar S-269 og stækka setusvæði kaffihússins tímabundið um 14,6 ferm. af smeignargangi á 2. hæð Kringlunnar á lóð nr. 4-12 við Kringluna. Samantekt vegna brunamála dags. 25. mars 2003 fylgir erindinu. Gjald kr. 5.100"
26726 (01.54.300.9),http://gamli.rvk.is/vefur/owa/edutils.parse_page?nafn=BN026726,Kvisthagi 21,reyndarteikningar,Frestað. Vísað til athugasemda á umsóknarblaði.,Sótt er um samþykki fyrir núverandi fyrirkomulagi í húsinu á lóðinni nr. 21 við Kvisthaga. Gerð er grein fyrir eignarhaldi í húsinu og fyrir lítilsháttar breytingum á innra fyrirkomulagi risíbúðar. Gjald kr. 5.100
26942 (01.32.840.1),http://gamli.rvk.is/vefur/owa/edutils.parse_page?nafn=BN026942,Köllunarklettsvegur * ,rif á spennistöð,Samþykkt.  Samræmist ákvæðum laga nr. 73/1997.,"Sótt er um leyfi til þess að rífa spennistöð Orkuveitunnar við Köllunarklettsveg. Stærð: Spennistöð 66,6 ferm. og 220 rúmm. Landnúmer. 103874, fastanúmer 222-8143, mh. 16 0101. Bréf f.h. Reykjavíkurhafnar dags. 18. mars 2003 fylgir erindinu. Gjald kr. 5.100"
26197 (01.35.321.6),http://gamli.rvk.is/vefur/owa/edutils.parse_page?nafn=BN026197,Langholtsvegur 16,íbúð í risi og svalir,Samþykkt.  Samræmist ákvæðum laga nr. 73/1997. Með vísan til samþykktar borgarráðs frá 1. september 1998 skal utanhúss- og lóðarfrágangi vera lokið eigi síðar en innan tveggja ára frá útgáfu byggingarleyfis að viðlögðum dagsektarákvæðum 57. gr. skipulags- og byggingarlaga nr. 73/1997.,Sótt er um leyfi til þess að byggja svalir á norðausturhlið og útbúa íbúð á efri hæð hússins á lóðinni nr. 16 við Langholtsveg.  Jafnframt er sótt um leyfi til þess að bæta við einu bílastæði á lóðinni. Málið var í kynningu frá 11. febrúar til 11. mars 2003. Engar athugasemdir bárust. Virðingargjörð dags. 10. ágúst 1946 fylgir erindinu. Skoðunarskýrsla byggingarfulltrúa dags. 4. október 2002 fylgir erindinu.  Gjald kr. 4.800
26594 (01.38.200.2),http://gamli.rvk.is/vefur/owa/edutils.parse_page?nafn=BN026594,Laugarásvegur 24,byggja bílskúr og fl.,Frestað. Vísað er í bókun skipulagsfulltrúa frá 28. mars 2003.,"Sótt er um leyfi til þess að stækka svalir á þriðju hæð, koma fyrir nýjum glugga á götuhlið húss og byggja tvílyfta steinsteypta viðbyggingu sem er geymsla á fyrstu hæð en bílgeymsla á annarri hæð í húsinu á lóðinni nr. 24 við Laugarásveg. Útskrift úr gerðabók embættisafgreiðslufundar skipulagsstjóra frá 16. nóvember 2001 (fyrirspurn) fylgir erindinu. Bréf hönnuðar dags 18. febrúar 2003 fylgir erindinu. Útskrift úr gerðabók embættisafgreiðslufundar skipulagsfulltrúa frá 28. mars 2003 fylgir erindinu. Stærð: Stækkun, viðbygging geymsla 1. hæð (B-rými) 26,3 ferm. og 57,1 rúmm. Bílgeymsla 2. hæð 34,0 ferm. og 103,7 rúmm. Gjald kr. 5.100 + 8.201"
26971 (01.24.100.1),http://gamli.rvk.is/vefur/owa/edutils.parse_page?nafn=BN026971,Laugavegur 126,"veitingastaður, skilti ofl.",Frestað. Vísað til athugasemda á umsóknarblaði.,"Sótt er um leyfi til þess að breyta innra fyrirkomulagi veitingahúss á fyrstu hæð, setja upp skilti á vestur- og norðurhlið koma fyrir nýjum inngangi og tröppum á vesturhlið og klæða utan með ljósgrárri álklæðningu fyrstu hæð hússins á lóðinni nr. 126 við Laugaveg. Gjald kr. 5.100"
26962 (01.24.240.1),http://gamli.rvk.is/vefur/owa/edutils.parse_page?nafn=BN026962,Laugavegur 162,br innra frkl matshl 04,Frestað. Vísað til athugasemda á umsóknarblaði.,Sótt er um leyfi til að breyta innra fyrirkomulagi í matshl. 04 á lóðinni nr. 162 við Laugaveg til að koma þar fyrir geymslum fyrir Þjóðskjalasafn Íslands. Erindinu fylgir yfirlýsing Þjóðskjalavarðar vegna brunavarna dags. 28. feb. 2003. Gjald kr. 5.100
26526 (01.25.000.1),http://gamli.rvk.is/vefur/owa/edutils.parse_page?nafn=BN026526,Laugavegur 168,reyndarteikningar,Frestað. Vantar samþykki meðeigenda.,Sótt er um samþykki fyrir núverandi innra fyrirkomulagi hússins á lóðinni nr. 168 við Laugaveg vegna gerðar eignaskiptayfirlýsingar. Eignaskiptasamningur dags. 3. ágúst 1989 og afsalsbréf dags. 18. júní 1990 varðandi m.a. 7 bílastæði á lóðinni  fylgja erindinu. Samþykki eins meðlóðarhafa dags. 17. janúar 2003 fylgir erindinu. Gjald kr. 5.100
26840 (01.17.222.2),http://gamli.rvk.is/vefur/owa/edutils.parse_page?nafn=BN026840,Laugavegur 40A,endurinnrétting,Frestað. Vísað til athugasemda á umsóknarblaði.,"Sótt er um leyfi til þess að innrétta veitingastað á 1. hæð, tvær nýjar íbúðir á 2. hæð, tvær í stað einnar á 3. hæð og tvær nýjar íbúðir á þakhæð ásamt leyfi til þess að byggja kvisti á norðurþekju, stækka kvist á suðurþekju, setja svalir á suðurhlið og breyta stærð bakhúss á lóð nr. 40B við Laugaveg. Stærð: xxx Gjald kr. 5.100 + xxx"
26701 (01.19.510.9),http://gamli.rvk.is/vefur/owa/edutils.parse_page?nafn=BN026701,Leifsgata 27,reyndarteikningar,Frestað. Lagfæra skráningu.,Sótt er um leyfi fyrir áður gerðum breytingum á innra fyrirkomulagi og skráningu hússins nr. 27 við Leifsgötu. Gjald kr. 5.100
26438 (01.14.050.9),http://gamli.rvk.is/vefur/owa/edutils.parse_page?nafn=BN026438,Lækjargata 6B,"Niðurr., viðb. o.fl.",Frestað. Vísað til athugasemda á umsóknarblaði. Umsækjanda bent á að ekki hefur verið lögð fram tillaga um breytingu á deiliskipulagi sem er á hans ábyrgð og kostnað.,"Sótt er um leyfi til þess að rífa hluta af bakbyggingu og byggja viðbyggingu við kjallara sem stækkun á veitingarsal með neyðarútgang að bakgötu, samþykki fyrir íbúð á 2. hæð og íbúðarherbergi á 3. hæð hússins á lóð nr. 6B við Lækjargötu. Bréf hönnuðar ódags., dags. 28. febrúar og 21. mars 2003 fylgja  erindinu. Jafnframt lögð fram umsögn skipulagsfulltrúa dags. 10. janúar 2003, útskrift úr gerðabók embættisafgreiðslufundar skipulagsfulltrúa frá 24. janúar 2003, umsögn Húsafriðunarnefndar dags. 20. janúar 2003,  umsögn Árbæjarsafns dags. 12. febrúar 2003 og samþykki eigenda Lækjargötu 6A. Stærð: Niðurrif 26 ferm., viðbygging 43,9 ferm., 143,7 rúmm. Gjald kr. 4.800 + 7.329"
26950 (01.71.000.3),http://gamli.rvk.is/vefur/owa/edutils.parse_page?nafn=BN026950,Miklabraut 72,reyndarteikningar og fl.,Frestað. Vísað til athugasemda á umsóknarblaði.,Sótt er um samþykki fyrir áður gerðri íbúð í kjallara og  afmörkun tveggja séreigna á þakhæð fjölbýlishússins á lóð nr. 72 við Miklubraut. Íbúðarskoðun byggingarfulltrúa dags. 2. nóvember 2001 fylgir erindinu. Gjald kr. 5.100
26765 (01.81.700.1),http://gamli.rvk.is/vefur/owa/edutils.parse_page?nafn=BN026765,Mosgerði 2,br. á kvisti og innra frkl.,Samþykkt.  Samræmist ákvæðum laga nr. 73/1997.,Sótt er um leyfi til að breyta þaki hússins nr. 2 við Mosgerði frá því sem samþykkt var eftir grenndarkynningu hinn 4. júní 2002. Breytingin varðar innra fyrirkomulag og útlit. Jafnfram er sótt um að samþykkt frá 4. júní 2002 verði felld úr gildi. Erindinu fylgir bréf hönnuðar ódags. og bréf Arkitektastofu Suðurnesja ódags. Stærðarbr:  2.7 ferm. stækkun og 3.3 rúmm. minnkun.  Gjald kr. 5.100
26954 (01.18.212.7),http://gamli.rvk.is/vefur/owa/edutils.parse_page?nafn=BN026954,Njálsgata 19,niðurrif,Samþykkt.  Samræmist ákvæðum laga nr. 73/1997.,"Sótt er um leyfi til þess að rífa tveggja hæða steinsteypt hús byggt 1913 þ.e. ölsuðu og ketilhús, fastanúmer 200 -6263 ásamt kjallara og rishæð á lóð nr. 19 við Njálsgötu. mh. 01 stærð 329 ferm. mh. 02 stærð 90 ferm. Umsögn Árbæjarsafns dags. 22. október 2002 og umsögn Húsfriðunarnefndar ríkisins dags. 2. október 2002 fylgja erindinu. Gjald kr. 5.100"
26955 (01.18.212.6),http://gamli.rvk.is/vefur/owa/edutils.parse_page?nafn=BN026955,Njálsgata 21,niðurrif,Samþykkt.  Samræmist ákvæðum laga nr. 73/1997.,"Sótt er um leyfi til þess að rífa steinsteypt ""átöppunarhús"" byggt 1924 þ.e. ölgerðar og korngeymslu, fastanúmer 200-6261á lóð nr. 21 við Njálsgötu, mh. 01 stærð 470 ferm., mh. 02 stærð 284 ferm. Umsögn Árbæjarsafns dags. 22. október 2002 og umsögn Húsfriðunarnefndar ríkisins dags. 2. október 2002 fylgja erindinu. Gjald kr. 5.100"
26881 (01.18.650.5),http://gamli.rvk.is/vefur/owa/edutils.parse_page?nafn=BN026881,Nönnugata 16,íbúð á 1. hæð,Samþykkt.  Samræmist ákvæðum laga nr. 73/1997.,"Sótt er um leyfi til að koma fyrir íbúð í norðvesturhluta fyrstu hæðar hússins nr. 16 við Nönnugötu. Jafnframt er sótt um leyfi til að breyta gluggum og skráningu hússins í samræmi við meðfylgjandi gögn. Erindinu fylgir samþykki meðeigenda dags. 25. feb. 2003, afsal fyrir eign 0001 og 0002 dags. 4. mars 1971. Gjald kr. 5.100"
26989 (01.14.051.4),http://gamli.rvk.is/vefur/owa/edutils.parse_page?nafn=BN026989,Pósthússtræti 11,breyting 1. hæð,Samþykkt.  Samræmist ákvæðum laga nr. 73/1997. Áskilin lokaúttekt byggingarfulltrúa. Áskilið samþykki heilbrigðiseftirlits.,Sótt er um samþykki fyrir breytingum sem orðið hafa á innréttingartíma veitingahúss á fyrstu hæð Hótels Borgar að Pósthússtræti 11. Gjald kr. 5.100
26891 (01.34.130.3),http://gamli.rvk.is/vefur/owa/edutils.parse_page?nafn=BN026891,Rauðalækur 39,reyndarteikningar ,Samþykkt.  Samræmist ákvæðum laga nr. 73/1997.,Sótt er um samþykki fyrir núverandi innra skipulagi kjallara og fyrir áður gerðri stækkun íbúðar út í stigahús á 3. hæð íbúðarhússins á lóð nr. 39 við Rauðalæk. Samþykki meðeigenda dags. 24. febrúar 2003 fylgir erindinu. Gjald kr. 5.100
26965 (01.34.211.1),http://gamli.rvk.is/vefur/owa/edutils.parse_page?nafn=BN026965,Rauðalækur 73,reyndarteikningar,Frestað. Vísað til athugasemda á umsóknarblaði.,Sótt er um samþykki fyrir núverandi fyrirkomulagi í húsinu á lóðinni nr. 73 við Rauðalæk. Gerð er grein fyrir eignarhaldi í húsinu. Gjald kr. 5.100
26854 (01.22.210.9),http://gamli.rvk.is/vefur/owa/edutils.parse_page?nafn=BN026854,Rauðarárstígur 5,reyndarteikningar,Samþykkt.  Samræmist ákvæðum laga nr. 73/1997. Afmörkun séreignar 0001 er gerð með vísan til 15. gr. reglugerðar nr. 910/2000.,Sótt er um samþykki fyrir núverandi fyrirkomulagi í húsinu á lóðinni nr. 5 við Rauðarárstíg. Innra fyrirkomlagi er breytt á öllum hæðum og gerð er grein fyrir rislofti á teikningum. Samþykki meðeigenda dags. 6. febrúar 2003 fylgir erindinu. Afsalsbréf dags. 1. mars 1946 (v. séreignarherbergis 0001) fylgir erindinu. Gjald kr. 5.100
26968 (01.13.321.6),http://gamli.rvk.is/vefur/owa/edutils.parse_page?nafn=BN026968,Seljavegur 3A,breyting í kjallara,Frestað. Vísað til athugasemda á umsóknarblaði.,Sótt er um leyfi til þess að breyta miðstöðvarherbergi í kjallara (rými 0005) í geymslu í húsinu á lóðinni nr. 3A við Seljaveg. Gjald kr. 5.100
26833 (01.29.530.2),http://gamli.rvk.is/vefur/owa/edutils.parse_page?nafn=BN026833,Síðumúli 29,skyndibitastaður,Frestað. Vísað til athugasemda á umsóknarblaði.,Sótt er um leyfi fyrir áður gerðum veitingastað í norðurenda fyrstu hæðar hússins nr. 29 við Síðumúla.  Erindinu fylgir yfirlýsing eiganda húsnæðis dags. 4. mars 2003 og bréf umsækjanda dags. 24. mars 2003. Gjald kr. 5.100
26948 (01.63.630.5),http://gamli.rvk.is/vefur/owa/edutils.parse_page?nafn=BN026948,Skerplugata 5,gluggar á vinnust.,Samþykkt.  Samræmist ákvæðum laga nr. 73/1997.,Sótt er um leyfi til þess að bæta við gluggum á norður- og vesturhlið vinnustofu við einbýlishúsið á lóð nr. 5 við Skerplugötu. Samþykki eigenda Skerplugötu 3 og 7 (á teikningu) fylgir erindinu. Gjald kr. 5.100
26842 (01.67.140.3),http://gamli.rvk.is/vefur/owa/edutils.parse_page?nafn=BN026842,Skildinganes 11,breytingar,Frestað. Vísað til athugasemda á umsóknarblaði.,Sótt er um leyfi til þess að breyta vinnustofu (matshl. 02) í sjálfstæða íbúð og fjölga bílastæðum um eitt á lóðinni nr. 11 við Skildinganes. Gjald kr. 5.100
26896 (01.43.210.6),http://gamli.rvk.is/vefur/owa/edutils.parse_page?nafn=BN026896,Sólheimar 1,íbúð á þakhæð,Frestað. Vísað til athugasemda á umsóknarblaði.,Sótt er um leyfi til þess að innrétta þakhæð sem sjálfstæða íbúð og fjölga um eitt bílastæði á lóð nr. 1 við Sólheima. Umsögn Verkfræðistofu dags. 31. mars 2003 fylgir erindinu. Gjald kr. 5.100
26966 (04.07.730.1),http://gamli.rvk.is/vefur/owa/edutils.parse_page?nafn=BN026966,Stórhöfði 42,vöruafgreiðsluskýli,Frestað. Vísað til athugasemda á umsóknarblaði.,"Sótt er um leyfi til að byggja óupphitað stálskýli vestan við byggingu Papco á lóðinni nr. 42 við Stórhöfða. Erindinu fylgir bréf hönnuðar dags. 12. nóv. 1999, tillaga að þinglýsingarskjali dags. 12. nóv. 1999, tölvupóstur Gatnamálastofu dags. 31. mars 2003. Stækkun: xx Gjald kr. 5.100 + xx"
25978 (01.78.860.1),http://gamli.rvk.is/vefur/owa/edutils.parse_page?nafn=BN025978,Suðurhlíð 38,Lækkun húss o.fl.,Frestað. Vísað til athugasemda á umsóknarblaði.,"Sótt er um samþykki fyrir lækkun salarhæðar kjallara, leyfi til þess að breyta byggingaraðferð þannig að gólfplötur verði úr holplötum og þak hefðbundið sperruþak í stað viðsnúins þaks og lækka þar með kóta á þakkanti úr 26.1 í kóta 25.65, breytt innra skipulag og koma fyrir heitum pottum við íbúðir fjölbýlishússins á lóð nr. 38 við Suðurhlíð. Bréf hönnuðar dags. 5. nóvember 2002, Rb vottun fyrir holplötur, útreikningur verkfræðings vegna einangrunar dags. 17. mars og 23. mars 2003 og brunahönnun endurskoðuð 12. nóvember 2002 fylgja  erindinu. Stærð: Hús var samtals 7501,2 verður 7561 ferm., var 23350,5 rúmm. verður 23010,4 rúmm. B-rými voru samtals 203,1 ferm. verða 207,3 ferm.,  Gjald kr. 4.800"
25559 (01.26.110.1),http://gamli.rvk.is/vefur/owa/edutils.parse_page?nafn=BN025559,Suðurlandsbr. 2,Reyndarteikningar,Samþykkt 27. mars 2003. Samræmist ákvæðum laga nr. 73/1997. Áskilið samþykki heilbrigðiseftirlits. Áskilin lokaúttekt byggingarfulltrúa.,"Sótt er um samþykki fyrir leiðréttum uppdráttum af Hótel Esju, fyrir breyttu útliti, breyttu innra skipulagi, breyttum stærðum húss og breyttum lóðarfrágangi þar sem hætt er við að byggja opna bílgeymslu vestan við hótelið  á lóð nr. 2 við Suðurlandsbraut. Útskrift úr gerðabók embættisafgreiðslufundar skipulagsfulltrúa frá 27. september 2002 fylgir erindinu. Mótmæli eigenda Lágmúla 5 dags. 14. mars 2003 og mótmæli Tröllanes ehf., dags. 14. mars 2003, brunahönnun VSI endurskoðuð 4. mars 2003 fylgja  erindinu. Málinu fylgir þinglýst yfirlýsing um bílastæði dags. 20. mars 2002. Stærð: Samtals var stækkun húss 6677,7 ferm. verður 6367,9 ferm., var 23202,4 rúmm. verður 22551,2 rúmm. Opin bílgeymsla var 626,2 ferm. Gjald kr. 4.800"
26152 (01.36.100.6),http://gamli.rvk.is/vefur/owa/edutils.parse_page?nafn=BN026152,Sundlaugavegur 22,íbúð í kjallara,Frestað. Vísað til athugasemda á umsóknarblaði.,Sótt er um samþykki fyrir núverandi fyrirkomulagi í húsinu á lóðinni nr. 22 við Sundlaugaveg. Gerð er grein fyrir áður gerðri íbúð í kjallara hússins. Íbúðarskoðun byggingarfulltrúa dags. 26. nóvember 2002 fylgir erindinu. Skýrsla Rafmagnsveitu dags. 16. apríl 1974 fylgir erindinu. Gjald kr. 4.800
26983 (01.14.131.1),http://gamli.rvk.is/vefur/owa/edutils.parse_page?nafn=BN026983,Tjarnargata 10,reyndarteikningar,Samþykkt.  Samræmist ákvæðum laga nr. 73/1997.,Sótt er um samþykki fyrir leiðréttingu á skiptingu svala á þakhæð hússins á lóð nr. 10 við Tjarnargötu. Bréf hönnuðar dags. 16. desember 2002 fylgir erindinu. Gjald kr. 5.100
26985 (04.32.920.1),http://gamli.rvk.is/vefur/owa/edutils.parse_page?nafn=BN026985,Tunguháls 10,breytingar,Samþykkt.  Samræmist ákvæðum laga nr. 73/1997.,Sótt er um samþykki fyrir breyttum teikningum af atvinnuhúsi við Tunguháls 10. Rými 0113 er tekið út af teikningu. Gjald kr. 5.100
26780 (01.17.140.4),http://gamli.rvk.is/vefur/owa/edutils.parse_page?nafn=BN026780,Vegamótastígur 4,stækkun veitingast. fyrstu hæð,Samþykkt.  Samræmist ákvæðum laga nr. 73/1997. Áskilin lokaúttekt byggingarfulltrúa. Áskilið samþykki heilbrigðiseftirlits.,Sótt er um leyfi til að stækka veitingastað á fyrstu hæð hússins nr. 4 við Vegamótasstíg þannig að eldhús flytjist í núverandi rými 0101 og veitingasalur stækki. Útskrift úr gerðabók embættisafgreiðslufundar skipulagsfulltrúa frá 7. mars 2003 fylgir erindinu. Erindinu fylgir yfirlýsing  SPRON dags. 12. mars 2003. Gjald kr. 5.100
26227 (01.54.011.0),http://gamli.rvk.is/vefur/owa/edutils.parse_page?nafn=BN026227,Víðimelur 35,v. eignaskipta og samþ. íbúð (0101),Samþykkt.  Samræmist ákvæðum laga nr. 73/1997. Afmörkun séreignar merkt 0103 er gerð með vísan til 15. gr. reglugerðar nr. 910/2000. Samþykkt íbúðar 0101 er gerð með vísan til gr. 12.8 í byggingarreglugerð nr. 441/1998.,Sótt er um samþykki fyrir núverandi fyrirkomulagi í húsinu nr. 33-35 á lóðinni nr. 35 við Víðimel vegna eignaskiptayfirlýsingar. Gerð er grein fyrir áður gerðri íbúð (íbúð 0101) og áður gerðri séreign (herbergi 0103) á fyrstu hæð hússins. Samþykki meðeigenda dags. 30. október 2002 og 17. febrúar 2003 fylgir erindinu. Skýringar vegna erfðayfirlýsingar dags. 4. september 1986 (þinglýst 20. janúar 1987) fylgir erindinu. Virðingargjörð dags. 21. desember 1938 fylgir erindinu. Skoðunarskýrsla byggingarfulltrúa dags. 6. desember 2002 fylgir erindinu. Gjald kr. 4.800
25981 (01.24.340.7),http://gamli.rvk.is/vefur/owa/edutils.parse_page?nafn=BN025981,Vífilsgata 16,áður gerð íbúð ofl,Frestað. Vísað til athugasemda á umsóknarblaði.,Sótt er um samþykki fyrir áður gerðri íbúð í kjallara og leyfi til þess að koma fyrir tveimur bílastæðum á suðausturhorni lóðar nr. 16 við Vífilsgötu. Útskrift úr gerðabók embættisafgreiðslufundar skipulagsfulltrúa frá 25. október 2002 og umsögn skipulagsfulltrúa dags. 24. október 2002 fylgja erindinu. Virðingargjörð dags. 21. apríl 1943 fylgir erindinu. Gjald kr. 4.800
26335 (01.17.030.2),http://gamli.rvk.is/vefur/owa/edutils.parse_page?nafn=BN026335,"35"">Þingholtsstræti 7",reyndarteikning,Frestað. Vísað til athugasemda á umsóknarblaði.,Sótt er um samþykki fyrir núverandi fyrirkomulagi í húsinu á lóðinni nr.7 við Þingholtsstræti. Gerð er grein fyrir tveimur íbúðum og eignarhaldi í húsinu. Samþykki meðeiganda dags. 20. janúar 2003 fylgir erindinu. Virðingargjörð dags. 1. desember 1942 fylgir erindinu. Gjald kr. 4.800
26874 (00.00.000.0 01),http://gamli.rvk.is/vefur/owa/edutils.parse_page?nafn=BN026874,Þorláksgeisli 98-102, breytingar,Samþykkt.  Samræmist ákvæðum laga nr. 73/1997. Frágangur á lóðamörkum verði gerður í samráði við lóðarhafa aðliggjandi lóða.,"Sótt er um leyfi til þess að breyta útliti og einangra að innan aðra hæð raðhússins á lóðinni nr. 98-102 við Þorláksgeisla. Leiðrétt skráningartafla fylgir erindinu.  Hús nr. 98 (matshl. 01) var áður skráð samtals 202,4 ferm. og 611,7 rúmm. en er nú skráð 199,9 ferm. og 604,7 rúmm. Hús nr. 100 (matshl. 02) var áður skráð samtals 191,1 ferm. og 585,5 rúmm. en er nú skráð 188,3 ferm. og 577,1 rúmm. Hús nr. 102 (matshl. 03) var áður skráð samtals 202,1 ferm. og 615,9 rúmm. en er nú skráð 199,2 ferm. og 604,7 rúmm. Gjald kr. 5.100"
26978 (01.13.631.1),http://gamli.rvk.is/vefur/owa/edutils.parse_page?nafn=BN026978,Öldugata 2,viðbyggingingar,Frestað. Vísað til athugasemda á umsóknarblaði. Að þeim uppfylltum verður málið sent skipulagsfulltrúa til ákvörðunar um grenndarkynningu.,"Sótt er um leyfi til að rífa bílgeymslu við húsið nr. 2 við Öldugötu og að byggja þess í stað móttökuskála á norðurhluta lóðarinnar ásamt lyftustokki og tilheyrandi tengigangi við norðurhlið hússins.Skálinn verði byggður úr steinsteypu og stáli, klæddur með múrkerfi með svipaðri áferð og hús eða klæddur með grágrýti. Á þaki verði gras.  Jafnframt verði byggður nýr kvistur í norðurþak af sömu stærð og með svipaðri áferð og kvistur í suðurþaki. Ennfremur er sótt um leyfi til að breyta notkun og innra fyrirkomulagi allra hæða hússins og koma þar fyrir fundar- og kennsluherbergjum ásamt matsal og framleiðslueldhúsi á fyrstu hæð. Erindinu fylgir umsögn skipulagsfulltrúa dags. 11. nóv. 2002 vegna breyttrar notkunar og bílastæða, umsögn skipulagsfulltrúa vegna fyrirspurnar dags. 29. jan. 2003 og útskrift úr gerðarbók afgreiðslufundar skipulagsfulltrúa dags. 3. feb. 2003. Greiða skal fyrir 5,4 stæði í flokki IV. Niðurrif: Bílskúr 32.2 ferm. og 81 rúmm. Stækkun: xx Gjald kr. 5.100 + xx"
26993,http://gamli.rvk.is/vefur/owa/edutils.parse_page?nafn=BN026993,Bleikargróf - Stjörnugróf ,,Samþykkt.  Samræmist ákvæðum laga nr. 73/1997.,"Á afgreiðslufundi byggingarfulltrúa 25. mars var samþykkt tölusetning á hús og lóðir áður Nýbýlaveg í Kópavogi. Nú hefur eigandi Skeifunnar við Nýbýlaveg, Birgir Dýrfjörð óskað breytingar á tölusetningunni þannig að Skeifan sem ákveðið var að tölusetja við Bleikargróf 14 verði Stjörnugróf nr. 29. Landnr. 115733  og fastanr. 206-4656. Melstaður sem ákveðið hafði verið að tölusetja við Stjörnugróf 29 verði Stjörnugróf nr. 31. Landnr. 115727, fastanr. 206-4645."
27010 (01.34.520.9),http://gamli.rvk.is/vefur/owa/edutils.parse_page?nafn=BN027010,Laugarnesvegur 85,Lóðarstækkun,Samþykkt.  Samræmist ákvæðum laga nr. 73/1997. Með vísan til umsagnar skipulagsfulltrúa dags. 24. september 2002 Stækkunin tilheyrir mh. 02.,Ofanritaður óskar eftir stækkun lóðarinnar nr. 85 við Laugarnesveg samkvæmt meðfylgjandi mæliblaði mælingadeildar borgarverkfræðings dags. 28. mars 2003.
26960 (01.77.720.1),http://gamli.rvk.is/vefur/owa/edutils.parse_page?nafn=BN026960,Nauthólsvík Skáli,stöðuleyfi fyrir gáma,Samþykkt. Til bráðabirgða í 24 mánuði.,Sótt er um stöðuleyfi fyrir tvo 20 feta gáma við veitingahúsið Kaffi Nauthól í Nauthólsvík. Bréf umsækjanda dags. 13. mars 2003 fylgir erindinu.
26996 (01.13.550.4),http://gamli.rvk.is/vefur/owa/edutils.parse_page?nafn=BN026996,Bárugata 17,fsp. áður gerð íb. í kj.,Frestað. Vantar íbúðaskoðun.,Spurt er hvort samþykki fengist fyrir áður gerðri íbúð ásamt breytingum á innra fyrirkomulagi í kjallara hússins nr. 17 við Bárugötu. Vinnuskýrsla Rafmagnsveitu Reykjavíkur dags. 30. október 1979 fylgir erindinu.
26939 (01.18.222.1),http://gamli.rvk.is/vefur/owa/edutils.parse_page?nafn=BN026939,Bjarnarstígur 9,(fsp) svalir á 3.h,Frestað. Málinu vísað til umsagnar skipulagsfulltrúa.,Spurt er hvort leyft yrði að setja svalir á bakhlið 3. hæðar og hugsanlega litlar svalir á framhlið sömu hæðar fjölbýlishússins á lóð nr. 9 við Bjarnarstíg.
26804 (01.13.341.5),http://gamli.rvk.is/vefur/owa/edutils.parse_page?nafn=BN026804,Framnesvegur 42A,fsp viðb. / ofanábygging,Jákvætt. Að uppfylltum skilyrðum og með vísan til umsagnar skipulagsfulltrúa.,Spurt er hvort leyft yrði að byggja viðbyggingu að norðurhlið og byggja hæð og risloft ofan á húsið nr. 42A við Framnesveg. Útskrift úr gerðabók embættisafgreiðslufundar skipulagsfulltrúa frá 28. mars 2003 og umsögn skipulagsfulltrúa frá 25. mars 2003 fylgja erindinu.
26957 (01.43.240.3),http://gamli.rvk.is/vefur/owa/edutils.parse_page?nafn=BN026957,Goðheimar 19,(fsp) breyta í íbúð,Jákvætt. Að uppfylltum skilyrðum.,Spurt er hvort leyft yrði að innrétta íbúð í vesturhluta 1. hæðar hússins á lóðinni nr. 19 við Goðheima.
26958 (01.18.330.7),http://gamli.rvk.is/vefur/owa/edutils.parse_page?nafn=BN026958,Grundarstígur 8,(fsp.) risíbúð,Jákvætt. Að uppfylltum skilyrðum. Miðað við framlögð gögn er hægt að samþykkja tvær íbúðir í húsinu.,Spurt er hvort samþykki fengist fyrir áður gerðri íbúð á rishæð hússins á lóðinni nr. 8 við Grundarstíg. Skoðunarskýrsla byggingarfulltrúa dags. 20. mars 2003 og virðingargjörð dags. 21. október 1933 fylgja erindinu. Úttektarskýrsla Rafmagnsveitu Reykjavíkur dags. 9. október 1951 fylgir erindinu.
26967 (01.81.740.7),http://gamli.rvk.is/vefur/owa/edutils.parse_page?nafn=BN026967,Háagerði 83,fsp. kvistur,Nei. Miðað við framlögð gögn.,Spurt er hvort leyft yrði að breyta útliti og stækka kvist á norðurþekju hússins nr. 83 við Háagerði.
26834 (01.54.310.3),http://gamli.rvk.is/vefur/owa/edutils.parse_page?nafn=BN026834,Kvisthagi 17,"fsp. hækka þak, kvistir",Jákvætt. Að uppfylltum skilyrðum.,Spurt er hvort leyft yrði að hækka þak og gera kvisti á húsið nr. 17 við Kvisthaga í líkingu við meðfylgjandi riss. Erindinu fylgir bréf umsækjanda dags. 4. mars 2003. Umsögn skipulagsfulltrúa dags. 24. mars 2003 og útskrift skipulagsfulltrúa frá 28. mars 2003 fylgja erindinu.
26977 (01.17.221.1),http://gamli.rvk.is/vefur/owa/edutils.parse_page?nafn=BN026977,Laugavegur 30,(fsp) br. salarh. í kjall.,Frestað. Málinu vísað til umsagnar gatnamálastjóra vegna niðurtöku í gangstétt.,"Spurt er hvort leyft yrði að auka salarhæð kjallara, breyta kjallaratröppum í gangstétt, landhæð og inngangi á suðurhlið og innrétta verslun í kjallara hússins á lóð nr. 30 við Laugaveg."
26994 (02.87.700.6),http://gamli.rvk.is/vefur/owa/edutils.parse_page?nafn=BN026994,Logafold 62,,Nei. Með vísan til bréfs skipulagsfulltrúa frá 17. mars 2003.,Lagt fram bréf ofangreinds eigenda dags. 29. október 2002 þar sem óskað er eftir leyfi til þess að gera viðbótaríbúð í húsinu nr. 62 við Logafold. Jafnframt lagt fram bréf skipulagsfulltrúa dags. 17. mars s.l.
26999 (01.24.341.3),http://gamli.rvk.is/vefur/owa/edutils.parse_page?nafn=BN026999,Mánagata 11,Áður gerð íbúð í kj.,Jákvætt. Að uppfylltum skilyrðum.,Spurt er hvort samþykkt yrði áður gerð íbúð í kjallara íbúðarhússins á lóð nr. 11 við Mánagötu. Staðfesting Hagstofu og bréf fyrrverandi íbúa dags. 31. mars 2003 ásamt íbúðarskoðun byggingarfulltrúa dags. 21. mars 2003 fylgja erindinu.
26953 (01.44.111.4),http://gamli.rvk.is/vefur/owa/edutils.parse_page?nafn=BN026953,Nökkvavogur 9,"(fsp) lyfta kvistum, svalir",Nei. Fer húsi illa.,Spurt er hvort leyft yrði að hækka og stækka kvisti á norður- og suðurhlið og koma fyrir svölum á suðurhlið hússins á lóðinni nr. 9 við Nökkvavog.
26949 (01.35.530.9),http://gamli.rvk.is/vefur/owa/edutils.parse_page?nafn=BN026949,Skipasund 20,(fsp) breyta þaki,Frestað. Málinu vísað til umsagnar skipulagsfulltrúa.,"Spurt er hvort leyft yrði að setja nýtanlega rishæð, í stað núverandi valmaþaks, á íbúðarhúsið á lóð nr. 20 við Skipasund."
26702 (04.23.220.4),http://gamli.rvk.is/vefur/owa/edutils.parse_page?nafn=BN026702,Stangarhylur 7,(fsp) Gistiheimili,Nei. Með vísan til útskriftar úr gerðabók embættisafgreiðslufundar skipulagsfulltrúa.,Spurt er hvort leyft yrði að innrétta gistiheimili í atvinnuhúsinu á lóð nr. 7 við Stangarhyl. Bréf fyrirspyrjanda dags. 14. febrúar 2003 fylgir erindinu. Útskrift úr gerðabók embættisafgreiðslufundar skipulagsfulltrúa frá 14. mars 2003 fylgir erindinu.
