nr,url,heimilisfang,tegund,nidurstada,spurning
43930 (04.60.350.3),http://gamli.rvk.is/vefur/owa/edutils.parse_page?nafn=BN043930,Álfab. 12-16/Þönglab.,Þönglabakki 1-6 - rétta brú,Frestað. Vísað til athugasemda á umsóknarblaði.,"Sótt er um leyfi til að rétta úr bogabrú á 3. hæð milli Þönglabakka 1 og 6 á lóð nr. Álfabakki 12-16/Þönglabakki 1-6. Stækkun 4,48 rúmm. Gjald kr. 8.000 + 358"
43861 (01.43.430.1),http://gamli.rvk.is/vefur/owa/edutils.parse_page?nafn=BN043861,Álfheimar 74,Innri breytingar 7. hæð,Samþykkt.  Samræmist ákvæðum laga nr. 160 / 2010. Áskilið samþykki heilbrigðiseftirlits. Áskilin lokaúttekt byggingarfulltrúa.,Sótt eru leyfi til að breyta áður samþykktu erindi BN042810 þar sem settar eru nýjar hurðir í gang og rennihurðir í millirými í mhl. 02 á 7. hæð hússins á lóð nr. 74 við Álfheimar. Bréf frá hönnuði dags. 15. nóv. 2011 og samþykki eiganda dags. 29. nóv. 2011 fylgir. Gjald kr. 8.000
43938 (01.26.410.5),http://gamli.rvk.is/vefur/owa/edutils.parse_page?nafn=BN043938,Ármúli 21,reyndarteikningar,Frestað. Vísað til athugasemda eldvarnaeftirlits á umsóknarblaði.,"Sótt er um samþykkt á reyndarteikningu þar sem gerð er grein fyrir breytingum á ákvæðum um brunavarnir frá nýsamþykktu erindi, sjá BN043797, í kjallara og á 1. hæð atvinnuhúss á lóð nr. 21 við Ármúla. Gjald kr. 8.000"
43948 (01.18.632.1),http://gamli.rvk.is/vefur/owa/edutils.parse_page?nafn=BN043948,Baldursgata 32,Niðurrif,Frestað. Samkvæmt gögnum embættisins er lágmarksgjald ógreitt.,"Sótt er um leyfi til niðurrifs, vegna fyrirhugaðrar uppbyggingar skv. skipulagi frá 2009, einbýlishússins á lóðinni nr. 32 við Baldursgötu. Meðfylgjandi er bréf arkitekts dags. 8.12. 2011. Gjald kr. 8.000"
43949 (01.18.632.2),http://gamli.rvk.is/vefur/owa/edutils.parse_page?nafn=BN043949,Baldursgata 34,Niðurrif,Frestað. Samkvæmt gögnum embættisins er lágmarksgjald ógreitt.,"Sótt er um leyfi til niðurrifs, vegna fyrirhugaðrar uppbyggingar skv. skipulagi frá 2009, einbýlishússins á lóðinni nr. 34 við Baldursgötu. Meðfylgjandi er bréf arkitekts dags. 8.12. 2011.  Gjald kr. 8.000"
43903 (01.13.550.2),http://gamli.rvk.is/vefur/owa/edutils.parse_page?nafn=BN043903,Bárugata 21,reyndarteikning,"Samþykkt.  Samræmist ákvæðum laga nr. 160 / 2010. Enda séu veggir lóðanna 19 og 21 að götu jafnháir, og veggur á lóðarmörkum jafnhár þeim veggjum sem fyrir eru. Áskilin lokaúttekt byggingarfulltrúa.","Sótt er um samþykki á reyndarteikningu sem sýnir nýjan útgang úr stofu á austurhlið annarrar hæðar út á bílskúrsþak, byggingu palls með grindverki og skjólvegg á bílskúrsþakinu til samræmis við sams konar mannvirki á Bárugötu 19, sbr. umsögn skipulagsstjóra dags. 9. nóvember 2011,  við íbúðarhús á lóð nr. 21 við Bárugötu. Gjald kr. 8.000"
43943 (01.18.021.2),http://gamli.rvk.is/vefur/owa/edutils.parse_page?nafn=BN043943,Bergstaðastræti 14,lagfæra glugga og svalahurð,Samþykkt.  Samræmist ákvæðum laga nr. 160 / 2010. Áskilin lokaúttekt byggingarfulltrúa.,Sótt er um leyfi til að endurnýja glugga og svalahurð/glugga í upphaflegri mynd á þriðju hæð fjölbýlishússins á lóðinni nr. 14 við Bergstaðastræti. Meðfylgjandi er bréf umsækjenda dags. 3.12. 2011 og samþykki meðeigenda dags. 15.11. 2011. Gjald kr. 8.000
43901 (01.23.000.2),http://gamli.rvk.is/vefur/owa/edutils.parse_page?nafn=BN043901,Borgartún 26,"innrétta 2. hæð, austur",Samþykkt.  Samræmist ákvæðum laga nr. 160 / 2010. Áskilið samþykki heilbrigðiseftirlits. Áskilin lokaúttekt byggingarfulltrúa.,Sótt er um leyfi til að innrétta austurhluta 2. hæðar verslunar- og skrifstofuhússins á lóð nr. 26 við Borgartún. Gjald kr. 8.000
43900 (01.21.910.1),http://gamli.rvk.is/vefur/owa/edutils.parse_page?nafn=BN043900,Borgartún 33,"Hækka hús, nýtt stigahús, varaaflstöð",Frestað. Vísað til athugasemda á umsóknarblaði.,"Sótt er um leyfi til að hækka um eina hæð og byggja einnar hæðar viðbyggingu fyrir varaaflstöð og nýtt stigahús á norðurhlið skrifstofuhúss á lóð nr. 33 við Borgartún. Jafnframt er erindi BN043086 dregið til baka. Stækkun:  1.017,6 ferm., 2.418,8 rúmm. Gjald kr. 8.000 + 273.504"
43902 (00.01.800.0),http://gamli.rvk.is/vefur/owa/edutils.parse_page?nafn=BN043902,Brautarholt 1 125660,byggja golfskála,Samþykkt.  Samræmist ákvæðum laga nr. 160 / 2010. Með vísan til samþykktar borgarráðs frá 1. september 1998 skal utanhúss- og lóðarfrágangi vera lokið eigi síðar en innan tveggja ára frá útgáfu byggingarleyfis að viðlögðum dagsektarákvæðum 57. gr. skipulags- og byggingarlaga nr. 73/1997. Áskilin lokaúttekt byggingarfulltrúa.,"Sótt er um leyfi til að byggja golfskála fyrir veitingasölu í flokki II úr timbri á steyptum undirstöðum með flötu þaki á jörðinni Brautarholt 1 með landnúmeri 125660. Útskrift úr gerðabók embættisafgreiðslufundar skipulagsstjóra frá 9. desember 2011 fylgir erindinu , útskrift úr gerðabók skipulagsstjóra dags. 12.12. 2011 og bréf hönnuðar dags. 7.12. 2011 Stærðir brúttó: 118,3 ferm., 378,6 rúmm. Gjald kr. 8.000 + 30.288"
43774 (01.46.610.1),http://gamli.rvk.is/vefur/owa/edutils.parse_page?nafn=BN043774,Faxafen 10,Tattústofa,Frestað. Vísað til athugasemda eldvarnaeftirlits á umsóknarblaði.,Sótt er um leyfi til að opna húðflúrstofu í eignarhluta 0104 og hluta af eignarhluta 0103  í húsnæðinu á lóð nr. 10 við Faxafen. Gjald kr. 8.000 + 8.000
43428 (01.29.600.2),http://gamli.rvk.is/vefur/owa/edutils.parse_page?nafn=BN043428,Fellsmúli 10A,klæðning,Samþykkt.  Samræmist ákvæðum laga nr. 160 / 2010. Með vísan til samþykktar borgarráðs frá 1. september 1998 skal utanhúss- og lóðarfrágangi vera lokið eigi síðar en innan tveggja ára frá útgáfu byggingarleyfis að viðlögðum dagsektarákvæðum 57. gr. skipulags- og byggingarlaga nr. 73/1997. Áskilin lokaúttekt byggingarfulltrúa.,"Sótt er um leyfi til að klæða að utan með sléttum álplötum, dreifistöð Orkuveitu Reykjavíkur á lóð nr. 10A við Fellsmúla Meðfylgjandi er bréf Orkuveitunnar dags 6.7. 2011 og tölvupóstur sömu aðila dags. 18.8. 2011. Einnig samþykki húsfélaganna Fellsmúla 10 og 12. Gjald kr. 8.000"
43893 (01.08.760.3),http://gamli.rvk.is/vefur/owa/edutils.parse_page?nafn=BN043893,Fiskislóð 45,br. glugga norðurhlið,Frestað. Vísað til athugasemda á umsóknarblaði.,Sótt er um leyfi til að síkka og breikka glugga á norðurhlið 2. hæðar í húsinu á lóð nr. 45 við Fiskislóð.  Gjald kr. 8.000
43612 (04.36.470.1),http://gamli.rvk.is/vefur/owa/edutils.parse_page?nafn=BN043612,Fylkisvegur 9,eimbað og pottur,Samþykkt.  Samræmist ákvæðum laga nr. 160 / 2010. Áskilið samþykki heilbrigðiseftirlits. Með vísan til samþykktar borgarráðs frá 1. september 1998 skal utanhúss- og lóðarfrágangi vera lokið eigi síðar en innan tveggja ára frá útgáfu byggingarleyfis að viðlögðum dagsektarákvæðum 57. gr. skipulags- og byggingarlaga nr. 73/1997. Áskilin lokaúttekt byggingarfulltrúa.,"Sótt er um leyfi til að byggja nýtt eimbað við suðvesturhlið, koma fyrir nýrri setlaug á laugarbakka og til að stækka tæknirými í kjallara Árbæjarlaugar á lóð nr. 9 við Fylkisveg. Stækkun:  Kjallari 42 ferm., 1. hæð 8,1 ferm. Samtals:  50,1 ferm., 160,4 rúmm. Gjald kr. 8.000 + 12.832"
43931 (05.05.640.4),http://gamli.rvk.is/vefur/owa/edutils.parse_page?nafn=BN043931,Gerðarbrunnur 20-22,breyta tröppum,Frestað. Samkvæmt gögnum embættisins er lágmarksgjald ógreitt.,Sótt er um leyfi til breyta útitröppum sbr. erindið BN038485 á vesturhlið parhússins nr. 20 á lóð nr. 20-22 við Gerðarbrunn.  Gjald kr. 8.000
43154 (01.52.220.1 01),http://gamli.rvk.is/vefur/owa/edutils.parse_page?nafn=BN043154,Grandavegur 1,þakgluggar,Samþykkt.  Samræmist ákvæðum laga nr. 160 / 2010. Með vísan til samþykktar borgarráðs frá 1. september 1998 skal utanhúss- og lóðarfrágangi vera lokið eigi síðar en innan tveggja ára frá útgáfu byggingarleyfis að viðlögðum dagsektarákvæðum 57. gr. skipulags- og byggingarlaga nr. 73/1997. Áskilin lokaúttekt byggingarfulltrúa.,Sótt er um leyfi til setja tvo þakglugga á austurhlið fjölbýlishússins nr. 1 á lóð nr. 1-3 við Grandaveg. Samþykki húsfélagsins Grandaveg 1 dags. 4. maí 2011 og samþykki eigenda Grandaveg 3 fylgir.  Gjald kr. 8.000
43802 (01.54.001.1),http://gamli.rvk.is/vefur/owa/edutils.parse_page?nafn=BN043802,Hringbraut 57,reyndarteikningar,Frestað. Vísað til athugasemda á umsóknarblaði.,"Sótt er um samþykkt á reyndarteikningum þar sem gerð er grein fyrir íbúð í kjallara fjölbýlishúss á lóð nr. 57 við Hringbraut. Erindi fylgir virðingargjörð dags. 10. febrúar 1956, þinglýstur eignaskiptasamningur dags. 9. desember 1985 og þinglýst afsal dags. 22. desember 2010. Gjald kr. 8.000"
43803 (02.69.341.1),http://gamli.rvk.is/vefur/owa/edutils.parse_page?nafn=BN043803,Iðunnarbrunnur 17-19,steypa stoðveggi ofl.,Samþykkt.  Samræmist ákvæðum laga nr. 160 / 2010. Enda sé veggur hvergi hærri en einn meter yfir beina línu milli hæðapunkta á lóðarmörkum. Með vísan til samþykktar borgarráðs frá 1. september 1998 skal utanhúss- og lóðarfrágangi vera lokið eigi síðar en innan tveggja ára frá útgáfu byggingarleyfis að viðlögðum dagsektarákvæðum 57. gr. skipulags- og byggingarlaga nr. 73/1997. Áskilin lokaúttekt byggingarfulltrúa.,"Sótt er um leyfi til að steypa stoðveggi á hluta lóðamarka, setja upp heitan pott og færa sorpgeymslur við parhús nr. 17 á lóð nr. 17-19 við Iðunnarbrunn. Meðfylgjandi er umsögn Skipulagstjóra dags. 17.10. 2011 og samþykki meðlóðarhafa á nr. 19 dags. 18.11. 2011. Gjald kr. 8.000"
43834 (00.07.400.1),http://gamli.rvk.is/vefur/owa/edutils.parse_page?nafn=BN043834,Í Úlfarsárlandi 123800,tækjaskýli og staurar,Samþykkt.  Samræmist ákvæðum laga nr. 160 / 2010. Með vísan til samþykktar borgarráðs frá 1. september 1998 skal utanhúss- og lóðarfrágangi vera lokið eigi síðar en innan tveggja ára frá útgáfu byggingarleyfis að viðlögðum dagsektarákvæðum 57. gr. skipulags- og byggingarlaga nr. 73/1997. Áskilin lokaúttekt byggingarfulltrúa.,"Sótt er um leyfi til að byggja tækjaskýli úr timbri klætt með stáli og koma fyrir tveim tréstaurum til fjarskiptareksturs á toppi Úlfarsfells á Úlfarsfellslóð landnúmer 173282. Stærðir: 15,1 ferm.,. 40,8 rúmm. brúttó. Gjald kr. 8.000 + 326,4"
43936 (01.32.330.1),http://gamli.rvk.is/vefur/owa/edutils.parse_page?nafn=BN043936,Klettagarðar 4,"stækkun lóðar, girðing og innri breyting",Frestað. Málinu vísað til umsagnar skipulagsstjóra.,"Sótt er um leyfi sbr. BN042573 til að breyta innra skipulagi, stækka lóð um 1713 ferm., koma fyrir olíuskilju og olíutanki og girðingu, 2,0 m hárri úr stálneti á lóðarmörkum í húsinu á lóð nr. 4 við Klettagarða.  Stækkun:  Hús XX rúmm. stærð tanka XX ferm., XX rúmm."
43851 (01.24.000.5),http://gamli.rvk.is/vefur/owa/edutils.parse_page?nafn=BN043851,Laugavegur 105,innrétta íbúðir,Frestað. Vísað til athugasemda á umsóknarblaði og umsagnar lögfræði- og stjórnsýslu dags. 12. desember 2011.,Sótt er um leyfi til að innrétta 34 íbúðir á 3. 4. og 5. hæð og til að koma fyrir flóttastiga á bakhlið íbúðar- og atvinnuhúss á lóð nr. 105 við Laugaveg. Erindi fylgir fsp. dags 28. júní 2011 og umsögn lögfræði- og stjórnsýslu dags. 12. desember 2011. Gjald kr. 8.000
43835 (01.24.210.2),http://gamli.rvk.is/vefur/owa/edutils.parse_page?nafn=BN043835,Laugavegur 164,breytingar á áður samþykktu erindi BN041689,Samþykkt.  Samræmist ákvæðum laga nr. 160 / 2010. Áskilin lokaúttekt byggingarfulltrúa.,Sótt er um leyfi til að breyta brunavörnum sbr. BN041689 á 1. hæð austurenda skrifstofuhúss á lóð nr. 164 við Laugaveg. Bréf frá hönnuði dags. 4. nóv. 2011 fylgir. Gjald kr. 8.000
43836 (01.24.210.2),http://gamli.rvk.is/vefur/owa/edutils.parse_page?nafn=BN043836,Laugavegur 166,breyting innanhúss,Samþykkt.  Samræmist ákvæðum laga nr. 160 / 2010. Áskilin lokaúttekt byggingarfulltrúa.,Sótt er um leyfi til að breyta brunavörnum sbr. BN041690 á 1. hæð skrifstofuhúss á lóð nr. 166 við Laugaveg. Bréf frá hönnuði dags. 4. nóv. 2011 fylgir. Gjald kr. 8.000
43935 (01.17.101.4),http://gamli.rvk.is/vefur/owa/edutils.parse_page?nafn=BN043935,Laugavegur 3,breyta innréttingu 1.hæðar og kjallara,Frestað. Vísað til athugasemda á umsóknarblaði.,Sótt er um leyfi til að breyta innréttingu veitingahúss á 1. hæð og í kjallara fjöleignahúss á lóð nr. 3 við Laugaveg. Gjald kr. 8.000
43934 (01.55.411.1),http://gamli.rvk.is/vefur/owa/edutils.parse_page?nafn=BN043934,Lynghagi 18,íbúðir kjallara sem ósamþ. íbúðir,Frestað. Vísað til athugasemda á umsóknarblaði.,"Sótt er um leyfi til að skrá þinglýstar séreignir sem ósamþykktar íbúðir í kjallara fjölbýlishúss á lóð nr. 18 við Lynghaga. Erindi fylgja þinglýst afsöl dags. 9. maí 1963, 30. apríl 1963, 17. nóvember 1964, 21.janúar 1969, 28. janúar 1969, 2. nóvember 1973, 2. júlí 1981, 3. október 1990 og 3. október 1990.  Einnig samþykki meðeigenda dags. 5. desember 2011. Gjald kr. 8.000"
43941 (04.32.640.2),http://gamli.rvk.is/vefur/owa/edutils.parse_page?nafn=BN043941,Lyngháls 4,breyting úti,Samþykkt.  Samræmist ákvæðum laga nr. 160 / 2010. Áskilin lokaúttekt byggingarfulltrúa.,Sótt er um leyfi til að breyta hliðarhengdri inngangshurð í rennihurð sem opnast sjálfvirkt við brunaboð á jarðhæð í veitingahúsi á lóð nr. 4 við Lyngháls. Gjald kr. 8.000
43929 (01.61.960.1),http://gamli.rvk.is/vefur/owa/edutils.parse_page?nafn=BN043929,Nauthólsvegur 50,breyting á fjarskiptabúnaði,Frestað. Vísað til athugasemda á umsóknarblaði.,Sótt er um leyfi til koma fyrir sendiskáp út á þaki og loftnetsúlu með loftneti til viðbótar þeim sem leyfi eru fyrir á Hótel Loftleiðir á lóð nr. 50 við Nauthólsveg. Samþykki frá eiganda dags. 1. feb. 2007 Gjald kr. 8.000
43859 (04.38.140.2),http://gamli.rvk.is/vefur/owa/edutils.parse_page?nafn=BN043859,Næfurás 10-14,breyting inni,Samþykkt.  Samræmist ákvæðum laga nr. 160 / 2010. Skilyrt er að eignaskiptayfirlýsingu vegna breytinga í húsinu sé þinglýst til þess að samþykktin öðlist gildi.     Áskilin lokaúttekt byggingarfulltrúa.,"Sótt er um samþykki fyrir núverandi fyrirkomulagi, þar sem gerð er grein fyrir nýtingu óuppfylltra sökkulrýma í kjallara fjölbýlishúss á lóð nr. 10-14 við Næfurás. Stækkun:  112,8 ferm., 309 rúmm. Gjald kr. 8.000 + 24.720"
43897 (01.13.601.2),http://gamli.rvk.is/vefur/owa/edutils.parse_page?nafn=BN043897,Ránargata 2,reyndarteikningar jarðhæð,Frestað. Vísað til athugasemda á umsóknarblaði.,Sótt er um samþykkt á reyndarteikningum af kjallara þar sem gerð er grein fyrir áður gerðri íbúð í húsi á lóð nr. 2 við Ránargötu. Bréf sem segir frá tengingu eldavélar dags. 20 Júlí 1951. Gjald kr. 8.000
43933 (01.54.011.5),http://gamli.rvk.is/vefur/owa/edutils.parse_page?nafn=BN043933,Reynimelur 50,áður gerð íbúð í kjallara,Frestað. Vísað til athugasemda á umsóknarblaði.,"Sótt er um samþykkt á reyndarteikningu, þar sem gerð er grein fyrir áður gerðri íbúð í kjallara fjölbýlishúss á lóð nr. 50 við Reynimel. Gjald kr. 8.000"
42839 (01.29.500.1),http://gamli.rvk.is/vefur/owa/edutils.parse_page?nafn=BN042839,Síðumúli 24-26,brunamerkingar og innri breytingar,Frestað. Vísað til athugasemda heilbrigðiseftirlits á umsóknarblaði.,Sótt er um leyfi fyrir innri breytingum og breytingum á brunamerkingum og táknum á 1. 2. 3. og 4. hæð húsnæðisins á lóð nr. 24-26 við Síðumúla. Samþykki meðeigenda dags. 31. ágúst 2011. og bréf frá hönnuði dags. 1. des. 2011 fylgja. Gjald kr. 8.000 + 8.000
43671 (01.67.310.6),http://gamli.rvk.is/vefur/owa/edutils.parse_page?nafn=BN043671,Skeljanes 4,geymsla og skúr,Frestað. Vísað til athugasemda á umsóknarblaði og umsagnar skipulagsstjóra dags. 6. desember 2011.,"Sótt er um samþykkt á reyndarteikningu af fjölbýlishúsi á lóð nr. 4 við Skeljanes. Útskrift úr gerðabók embættisafgreiðslufundar skipulagsstjóra frá 9. desember 2011, ásamt umsögn skipulagsstjóra frá 6. desember 2011 fylgja erindinu.] Erindi fylgir bréf hönnuðar dags. 10. október 2011. Gjald kr. 8.000 + 8.000"
43925 (01.24.221.2),http://gamli.rvk.is/vefur/owa/edutils.parse_page?nafn=BN043925,Skipholt 17,styrkja milliplötu yfir 3. hæð,Samþykkt.  Samræmist ákvæðum laga nr. 160 / 2010. Áskilin lokaúttekt byggingarfulltrúa.,"Sótt er um leyfi til að styrkja plötu kringum stigagöt, með stálbitum í lofti  og skástífum, milli  3. og 4. hæðar í íbúðar- og atvinnuhúsi á lóð nr. 17 við  Skipholt."
43942 (04.38.650.5),http://gamli.rvk.is/vefur/owa/edutils.parse_page?nafn=BN043942,Skógarás 20,Breyting inni,Frestað. Vísað til athugasemda á umsóknarblaði.,"Sótt er um leyfi til að innrétta 59,2 ferm. aukaíbúð að viðbættum geymslum á 1. hæð í íbúðarhúsi á lóð nr. 20 við Skógarás. Gjald kr. 8.000"
43603 (01.18.140.1),http://gamli.rvk.is/vefur/owa/edutils.parse_page?nafn=BN043603,Skólavörðustígur 30,breyting á BN041476/43475/43333,Synjað. Með vísan til umsagnar lögfræði- og stjórnsýslu dags. 8. desember 2011.,"Sótt er um leyfi til að breyta innra fyrirkomulagi, sjá erindi BN041476, fella niður tröppur á austurhlið og breyta í heimagistingu gistiheimili á lóð nr. 30 við Skólavörðustíg. Erindi fylgir umsögn lögfræði- og stjórnsýslu dags. 8. desember 2011. Gjald kr. 8.000"
43472 (01.42.740.1),http://gamli.rvk.is/vefur/owa/edutils.parse_page?nafn=BN043472,Skútuvogur 13,innrétta hárgreiðslustofu,Samþykkt.  Samræmist ákvæðum laga nr. 160 / 2010. Áskilið samþykki heilbrigðiseftirlits. Áskilin lokaúttekt byggingarfulltrúa.,Sótt er um leyfi fyrir hárgreiðslustofu í mhl. 01 í rými 0103 í atvinnuhúsinu á lóð nr. 13 við Skútuvog. Gjald kr. 8.000
43928 (04.06.120.3),http://gamli.rvk.is/vefur/owa/edutils.parse_page?nafn=BN043928,Smiðshöfði 11,endurnýjun á BN037934,Samþykkt.  Samræmist ákvæðum laga nr. 160 / 2010. Áskilin lokaúttekt byggingarfulltrúa.,"Sótt er um leyfi til að endurnýja áður samþykkt erindi BN037934 þar sem sótt er um leyfi fyrir millilofti í einingu 0201 og 0202 í atvinnuhúsnæðinu á lóð nr. 11 við Smiðshöfða. Stærð millilofts 108,7 ferm. Gjald kr. 8.000"
43939 (01.24.601.1),http://gamli.rvk.is/vefur/owa/edutils.parse_page?nafn=BN043939,Stórholt 17,bílgeymsla,Frestað. Málinu vísað til umsagnar skipulagsstjóra.,"Sótt er um leyfi til að byggja staðsteyptan bílskúr (mhl.03)í austurhorni lóðar fjölbýlishúss á lóð nr. 17 við Stórholt. Stærð:  35 ferm., 99,8 rúmm. Gjald kr. 8.000 + 7.984"
43724 (04.23.000.1),http://gamli.rvk.is/vefur/owa/edutils.parse_page?nafn=BN043724,Straumur 9,breyting inni,Frestað. Samkvæmt gögnum embættisins er lágmarksgjald ógreitt.,Sótt er um leyfi til að breyta innra skipulagi  bensín- og skyndibitastaðarins í  bensínstöðinni á lóð nr. 9 við Straum. Gjald kr. 8.000 + 8.000
43927 (04.64.590.3),http://gamli.rvk.is/vefur/owa/edutils.parse_page?nafn=BN043927,Suðurhólar 35,nr. 35F breyting á BN043067,Samþykkt.  Samræmist ákvæðum laga nr. 160 / 2010. Með vísan til samþykktar borgarráðs frá 1. september 1998 skal utanhúss- og lóðarfrágangi vera lokið eigi síðar en innan tveggja ára frá útgáfu byggingarleyfis að viðlögðum dagsektarákvæðum 57. gr. skipulags- og byggingarlaga nr. 73/1997. Skilyrt er að eignaskiptayfirlýsingu vegna lóðar verði þinglýst eigi síðar en við fokheldi. Áskilin lokaúttekt byggingarfulltrúa.,"Sótt er um leyfi til að breyta fyrirkomulagi bílastæða framan við íbúð 0103 við nýsamþykkt raðhús, sjá erindi BN043067, nr. 35F á lóð nr. 35 við Suðurhóla. Gjald kr. 8.000"
43937 (01.26.310.2),http://gamli.rvk.is/vefur/owa/edutils.parse_page?nafn=BN043937,Suðurlandsbraut 16,innrétta snyrtistofu,Frestað. Vísað til athugasemda á umsóknarblaði.,Sótt er um leyfi til að innrétta snyrti-og nuddstofu  í rými 0102  í húsinu á lóð nr. 16 við Suðurlandsbraut.  Gjald kr. 8.000
43539 (01.14.121.0),http://gamli.rvk.is/vefur/owa/edutils.parse_page?nafn=BN043539,Templarasund 3,breyta innra skipulagi,Samþykkt.  Samræmist ákvæðum laga nr. 160 / 2010. Áskilið samþykki heilbrigðiseftirlits. Með vísan til samþykktar borgarráðs frá 1. september 1998 skal utanhúss- og lóðarfrágangi vera lokið eigi síðar en innan tveggja ára frá útgáfu byggingarleyfis að viðlögðum dagsektarákvæðum 57. gr. skipulags- og byggingarlaga nr. 73/1997. Áskilin lokaúttekt byggingarfulltrúa.,"Sótt er um leyfi til breytinga á innra skipulagi og útliti á suðurhlið, sbr. erindi BN043193, húss á lóð nr. 3 við Templarasund og nr. 4 við Kirkjutorg. Meðfylgjandi er bréf arkitekts dags. 18.10. 2011 og annað dags. 6.12. 2011 Gjald kr. 8.000 + 8.000"
43783 (04.71.200.1),http://gamli.rvk.is/vefur/owa/edutils.parse_page?nafn=BN043783,Vatnsveituv. Fákur,svalir - mhl 48,Frestað. Vísað til athugasemda á umsóknarblaði.,Sótt er um leyfi til að byggja svalir úr timbri innfelldar í þak út frá kaffistofu á 2. hæð hesthúss Fáks nr. xx á lóð nr. xx við Vatnsveituveg. Gjald kr. 8.000
43940 (01.13.600.5),http://gamli.rvk.is/vefur/owa/edutils.parse_page?nafn=BN043940,Vesturgata 21,mhl. 01 endurnýja og bæta við gluggum,Frestað. Hönnuður hafi samband við embættið.,"Sótt er um leyfi til að koma fyrir fimm þakgluggum og bæta við einum glugga á norðurhlið 1. hæðar einbýlishúss (mhl. 01) á lóð nr. 21 við Vesturgötu. Erindi fylgja umsagnir Húsafriðunarnefndar dags. 17. og Minjasafns Reykjavíkur dags. 23. ágúst 2011, einnig jákvæð fyrirspurn frá Byggingarfulltrúa dags. 23. ágúst 2011. Gjald kr. 8.000"
43798 (04.79.130.4),http://gamli.rvk.is/vefur/owa/edutils.parse_page?nafn=BN043798,Þingvað 29,endurnýja og br. BN038348,Samþykkt.  Samræmist ákvæðum laga nr. 160 / 2010. Með vísan til samþykktar borgarráðs frá 1. september 1998 skal utanhúss- og lóðarfrágangi vera lokið eigi síðar en innan tveggja ára frá útgáfu byggingarleyfis að viðlögðum dagsektarákvæðum 57. gr. skipulags- og byggingarlaga nr. 73/1997. Frágangur á lóðamörkum verði gerður í samráði við lóðarhafa aðliggjandi lóða. Áskilin lokaúttekt byggingarfulltrúa.,"Sótt er um leyfi til að endurnýja og breyta erindi BN038348, þar sem veitt var leyfi til að byggja staðsteypt einbýlishús á tveimur hæðum með innbyggðri bílgeymslu á lóð nr. 29 við Þingvað. Stærð:  1. hæð íbúð 222,4 ferm., bílgeymsla 33,1 ferm., 2. hæð íbúð 40,2 ferm. Samtals:  295,7 ferm., 1132,5 rúmm. Gjald kr. 8.000 + 90.600"
43945,http://gamli.rvk.is/vefur/owa/edutils.parse_page?nafn=BN043945,Landspildur - Vesturlandsv.,niðurfelling lóða,Samþykkt.  Samræmist ákvæðum laga nr. 160 / 2010.,"Framkvæmda- og eignasvið óska eftir því að fimm landspildur verði lagðar undir borgarlandið og afmáðar úr skrám, samanber meðfylgjandi uppdrátt Landupplýsingadeildar dags. 7. 12. 2011. Landnúmerin eru eftirfarandi : 110471, 110487, 110488, 110489 og 110496.  sem óskað er eftir að verði gerðar að borgarlandi, landnúmer 218177."
43829 (01.45.400.1),http://gamli.rvk.is/vefur/owa/edutils.parse_page?nafn=BN043829,Dugguvogur 6,(fsp) viðbygging,Jákvætt. Ekki gerð athugasemd við erindið með vísan til umsagnar skipulagsstjóra dags. 29.nóvember 2011.,"Spurt er hvort leyft yrði að byggja við, og hversu mikið, atvinnuhús á lóð nr. 6 við Dugguvog. Útskrift úr gerðabók embættisafgreiðslufundar skipulagsstjóra frá 9. desember 2011 ásamt umsögn skipulagsstjóra frá 29. nóvember 2011 fylgja erindinu."
43845 (01.08.510.1),http://gamli.rvk.is/vefur/owa/edutils.parse_page?nafn=BN043845,Hólmaslóð olíustöð 2,(fsp) skrifstofugámar,Jákvætt. Ekki gerð athugasemd við erindið með vísan til umsagnar skipulagsstjóra dags. 9. desember 2011.,Spurt er hvort koma megi fyrir 3-4 skrifstofugámum fyrir hreinlætis- og hvíldaraðstöðu 14 starfsmanna við hlið afgreiðsluhúss á olíustöð Skeljungs við Hólmaslóð í Örfirisey. Útskrift úr gerðabók embættisafgreiðslufundar skipulagsstjóra frá 9. desember 2011 fylgir erindinu.
43912 (01.46.010.2),http://gamli.rvk.is/vefur/owa/edutils.parse_page?nafn=BN043912,Skeifan 5,(fsp) netbar,"Ekki gerð athugasemd við erindið skipulagslega séð, en vísað er til athugasemda byggingarfulltrúa á umsóknarblaði.",Spurt er hvort leyft yrði að innrétta netbar og veitingahús í fl. III í iðnaðarhúsi á lóð nr. 5 við Skeifuna. Útskrift úr gerðabók embættisafgreiðslufundar skipulagsstjóra frá 9. desember 2011 fylgir erindinu.]
43926 (01.14.042.0),http://gamli.rvk.is/vefur/owa/edutils.parse_page?nafn=BN043926,Veltusund 3B,(fsp) óbreyttur rekstur,Afgreitt með vísan til athugasemda á umsóknarblaði.,Spurt er hvort núverandi rekstur fyrirtækisins Halal ehf. sé samþykktur í húsi á lóð nr. 3B við Veltusund.
43932 (01.78.261.1 02),http://gamli.rvk.is/vefur/owa/edutils.parse_page?nafn=BN043932,Víðihlíð 38,(fsp) garðskáli,Frestað. Málinu vísað til umsagnar skipulagsstjóra.,Spurt er hvort leyfi fengist til að reisa garðskála að mestu undir svölum annarar hæðar raðhússins nr. 38 á lóð nr. 36-42 við Víðihlíð. Ljósmynd fylgir
43916 (05.13.350.1),http://gamli.rvk.is/vefur/owa/edutils.parse_page?nafn=BN043916,Þórðarsveigur 2-6,(fsp) nr. 6 breyta atvinnuhúsnæði í íbúðir,Nei. Samræmist ekki deiliskipulagi.,Spurt er hvort leyfi fengist til að breyta atvinnuhúsnæði á 1. hæð í 2 íbúðir með sérinngangi í húsinu nr. 6 á lóð nr. 2-6 við Þórðarsveig. Útskrift úr gerðabók embættisafgreiðslufundar skipulagsstjóra frá 9. desember 2011 fylgir erindinu.
