nr,url,heimilisfang,tegund,nidurstada,spurning
39560 (04.73.110.1),http://gamli.rvk.is/vefur/owa/edutils.parse_page?nafn=BN039560,Árvað 2,færanlegar kennslustofur,Samþykkt. Samræmist ákvæðum laga nr. 73/1997. Áskilin lokaúttekt byggingarfulltrúa.  Áskilið samþykki heilbrigðiseftirlits.,"Sótt er um leyfi til að bæta tveim færanlegum kennslustofum og tengibyggingu við grunnskóla á lóð nr. 3 við Árvað. Stærðir viðbót: 121,9 ferm., 412,5 rúmm. Gjald kr. 7.700"
39533 (01.22.010.7),http://gamli.rvk.is/vefur/owa/edutils.parse_page?nafn=BN039533,"3"">Borgartún 8-16 (14)",matsölustaður 1. hæð,Frestað. Vísað til athugasemda á umsóknarblaði.,Sótt er um leyfi til að innrétta matsölustað á 1. hæð í austurenda verslunar- og skrifstofuhúsnæðis nr. 12-14 á lóð nr. 8-16  við Borgartún. Meðfylgjandi er samþykki eigenda skrifað á teikningu. Gjald kr. 7.700
39495 (02.34.440.4),http://gamli.rvk.is/vefur/owa/edutils.parse_page?nafn=BN039495,Dofraborgir 15,stækkun,Samþykkt.  Samræmist ákvæðum laga nr. 73/1997. Með vísan til samþykktar borgarráðs frá 1. september 1998 skal utanhúss- og lóðarfrágangi vera lokið eigi síðar en innan tveggja ára frá útgáfu byggingarleyfis að viðlögðum dagsektarákvæðum 57. gr. skipulags- og byggingarlaga nr. 73/1997. Áskilin lokaúttekt byggingarfulltrúa.,"Sótt er um leyfi til að byggja við efri hæð einbýlishússins á lóð nr. 15 við Dofraborgir. Stækkun:  A-rými 34,2 ferm., 118,8 rúmm., B-rými 14,2  ferm., 35,5 rúmm. Samtals 48,4 ferm., 154,3 Gjald kr. 7.700 +11.881"
39546 (01.24.410.2),http://gamli.rvk.is/vefur/owa/edutils.parse_page?nafn=BN039546,Einholt 4,hljóðskermar,Samþykkt.  Samræmist ákvæðum laga nr. 73/1997. Áskilið samþykki heilbrigðiseftirlits.,"Sótt er um tímabundið leyfi til að setja upp hljóðskerma og um leið skilveggi utan um kælibás sem er byggður upp að skrifstofuhúsi á lóð nr. 4 við Einholt. Meðfylgjandi er bréf frá hönnuði dags. 19. febrúar 2009, bréf frá Mannvit dags. 15.des. 2008, 21. jan. 2009 og 11. feb. 2009 og tölvupóstur frá Umhverfis- og samgöngusviði Reykjavíkurborgar dags 22. jan. 2009, sömuleiðis tæknilegar upplýsingar frá framleiðanda hjóðskermanna. Gjald kr. 7.700"
39185 (00.00.000.0 02),http://gamli.rvk.is/vefur/owa/edutils.parse_page?nafn=BN039185,Engjavegur 6,br. inni 2. hæð,Samþykkt.  Samræmist ákvæðum laga nr. 73/1997. Áskilin lokaúttekt byggingarfulltrúa.  Áskilið samþykki heilbrigðiseftirlits.,Sótt er um leyfi til að breyta núverandi skrifstofum og fundarherbergi í endurhæfingarstöð með meðferðarrými og tækjarsal á 2. hæð í húsi á lóð nr. 6 við Engjaveg. Gjald kr. 7.300 + 7.700
38883 (02.69.310.3),http://gamli.rvk.is/vefur/owa/edutils.parse_page?nafn=BN038883,Friggjarbrunnur 53,fjölbýlishús,Frestað. Vísað til athugasemda á umsóknarblaði.,"Sótt er um leyfi til að byggja 4 - 6 hæða fjölbýlishús með sextíu og einni íbúð á bílakjallara fyrir 52 bíla úr forsteyptum einingum við Skyggnisbraut 2-6 á lóð nr. 53 við Friggjarbrunn. Stærð:  Kjallari (bílageymslur)  2.095,3 ferm., 1. hæð 1.193,9 ferm., 2. hæð 1.235,6 ferm., 3. hæð 1.240,4 ferm.,  4. hæð 1.240,4 ferm., 5. hæð 770,5 ferm., 6. hæð  382 ferm.,  Samtals:  8.158,1 ferm., 25.069,6 rúmm. 52 bílastæði eru í bílgeymslu 51á lóðum og við götu, samtals 103 stæði. Gjöld kr. 7.300 + 7.700 + 1.930.359"
39514 (01.11.250.1),http://gamli.rvk.is/vefur/owa/edutils.parse_page?nafn=BN039514,Grandagarður 20,niðurrif,Samþykkt.  Samræmist ákvæðum laga nr. 73/1997. Áskilið samþykki heilbrigðiseftirlits.,"Sótt er um leyfi til að rífa  mjölgeyma, tengd mannvirki og löndunarrör á síldarbryggju HB Granda á lóð nr. 20 við Grandagarð. Meðfylgjandi er afstöðumynd og bréf arkitekta dags. 13. febrúar 2009 og tölvupóstar arkitekts dags. 25. febrúar 2009 og 2. mars 2009. Stærð niðurrifs:  Fastanr. 200-0102, mhl. 13 merkt 0101 mjölgeymar 2.850 rúmm., mhl. 14 merkt 0101 vélahús 2.130 rúmm., mhl. 20, 21, 22 og 23 merkt mjölgeymar samtals 1.900 rúmm. Samtals 6.880 rúmm. Gjald kr. 7.700"
39284 (02.22.000.1),http://gamli.rvk.is/vefur/owa/edutils.parse_page?nafn=BN039284,Gufunes Áburðarverksm,"endurvinnsla, útgönguleið",Samþykkt.  Samræmist ákvæðum laga nr. 73/1997. Áskilin lokaúttekt byggingarfulltrúa.  Áskilið samþykki heilbrigðiseftirlits.,"Sótt er um leyfi til að breyta innra skipulagi og innrétta endurvinnslu fyrir plastefni, til að koma fyrir tveimur nýjum gönguhurðum úr vélasal og til að byggja milliloft  í atvinnuhúsinu sem auðkennt er með fastanr. 203-8422, mhl. 01 merkt 0101 við Gufunes. Stækkun:  34,8 ferm. Gjald kr. 7.300 + 7.700"
39508 (01.24.781.1),http://gamli.rvk.is/vefur/owa/edutils.parse_page?nafn=BN039508,Gunnarsbraut 51,breytingar innnanhúss,Samþykkt.  Samræmist ákvæðum laga nr. 73/1997. Yfirlýsing um samruna eigna skal þinglýst fyrir útgáfu á byggingarleyfi Áskilin lokaúttekt byggingarfulltrúa.  Áskilið samþykki heilbrigðiseftirlits.,Sótt er um leyfi til breytinga innanhúss í sambýli fyrir geðfatlaða í húsi á lóð nr. 51 við Gunnarsbraut. Meðfylgjandi er yfirlýsing burðarvirkishönnuðar skráð á teikningu. Gjald kr 7.700
39119 (01.72.730.1),http://gamli.rvk.is/vefur/owa/edutils.parse_page?nafn=BN039119,Háaleitisbraut 68,áfangaskipti,Samþykkt.  Samræmist ákvæðum laga nr. 73/1997. Skilyrt er að eignaskiptayfirlýsingu vegna breytinga í húsinu sé þinglýst fyrir útgáfu á byggingarleyfi. Áskilin lokaúttekt byggingarfulltrúa.  Áskilið samþykki heilbrigðiseftirlits.,"Sótt er um leyfi til að skipta samþykktum byggingaráfanga sbr. erindi BN038993 dags. 7.10. 2008 í tvennt , þannig verði 1. áfangi tilheyrandi Landsvirkjun byggður nú, en 2.  áfangi síðar, við hús á lóð nr. 68 við Háaleitisbraut. Ljósritað samþykki meðeigenda dags. 18.12. 2008 fylgir, sömuleiðis ódagsett bréf arkitekts. Stærðir: 1. áfangi 38,2 ferm., 166,41 rúmm. Gjald kr. 7.300 + 7.700 + 12.148"
39565 (04.32.300.1),http://gamli.rvk.is/vefur/owa/edutils.parse_page?nafn=BN039565,Hestháls  2-4,breyting inni,Frestað. Vísað til athugasemda á umsóknarblaði.,Sótt er um leyfi til að breyta skrifstofulofti í lagerloft í mhl. 04 og stækka lagerloft í mhl. 01 um 29 ferm. í iðnaðarhúsi á lóð nr. 2-4 við Hestháls. Meðfylgjandi er eldvarnarskýrsla. Stækkun mhl. 01 29 ferm. Gjald kr. 7.700
39308 (04.34.330.1),http://gamli.rvk.is/vefur/owa/edutils.parse_page?nafn=BN039308,Hraunbær 102,nr. 102a breyting inni,Frestað. Vísað til athugasemda á umsóknarblaði.,Sótt er um leyfi til að breyta innra skipulagi í eignarhluta 0108 veitingarsalar í  verslunarhúsi á lóð nr. 102A við Hraunbæ. Gjald kr. 7.300
39562 (01.19.890.1),http://gamli.rvk.is/vefur/owa/edutils.parse_page?nafn=BN039562,Hringbraut Landsp.,breyting inni og breytt sölubúð úti,Frestað. Vísað til athugasemda á umsóknarblaði. Málinu vísað til umsagnar skipulagsstjóra.,"Sótt er um leyfi til að byggja við úr steinsteypu og setja þar nýtt eldhús/sölubúð, fjarlægja núverandi eldhús/sölubúð og komið þar fyrir setustofu í barnaspítala á lóð Landspítalans við Hringbraut. Stækkun: 18,2 ferm og 82,1 rúmm. Gjald kr. 7.700 + 6322"
39462 (01.80.230.9),http://gamli.rvk.is/vefur/owa/edutils.parse_page?nafn=BN039462,Hvammsgerði 4,"hækkun á risi, svalir og kvistar",Samþykkt.  Samræmist ákvæðum laga nr. 73/1997. Með vísan til samþykktar borgarráðs frá 1. september 1998 skal utanhúss- og lóðarfrágangi vera lokið eigi síðar en innan tveggja ára frá útgáfu byggingarleyfis að viðlögðum dagsektarákvæðum 57. gr. skipulags- og byggingarlaga nr. 73/1997. Áskilin lokaúttekt byggingarfulltrúa.,"Sótt er um leyfi til að byggja anddyri, hækka ris og til að byggja kvisti og svalir á einbýlishúsið á lóð nr. 4 við Hvammsgerði. Jafnframt er erindi BN036652 dregið til baka. Útskrift úr gerðabók embættisafgreiðslufundar skipulagsstjóra frá 13. febrúar 2009 fylgir erindinu. Stækkun:  4,8 ferm., 110,1 rúmm. Gjald kr. 7.700 + 7.700 +  8.470"
39573 (01.42.800.1),http://gamli.rvk.is/vefur/owa/edutils.parse_page?nafn=BN039573,Kleppsmýrarvegur Bátanaust,niðurrif,Samþykkt.  Samræmist ákvæðum laga nr. 73/1997. Áskilið samþykki heilbrigðiseftirlits.,"Faxaflóahafnir sf sækja um leyfi til niðurrifs á iðnaðarhúsnæði úr stáli við Kleppsmýrarveg áður Bátanaust, byggingarár 1968, fastanúmer 202-0962, landnúmer 105184, stærð 85 ferm, 363 rúmm. Málinu fylgir bréf Faxaflóahafna dags. 24. febrúar 2009."
39572 (01.42.800.1),http://gamli.rvk.is/vefur/owa/edutils.parse_page?nafn=BN039572,Kleppsmýrarvegur Bátanaust,niðurrif,Samþykkt.  Samræmist ákvæðum laga nr. 73/1997. Áskilið samþykki heilbrigðiseftirlits.,"Faxaflóahafnir sf, sækja um leyfi til niðurrifs á iðnaðarhúsnæði úr stáli við Kleppsmýrarveg áður Bátanaust, byggingarár 1945, fastanúmer 202-0962, landnúmer 105184, stærð 297 ferm, 1428 rúmm. Málinu fylgir bréf Faxaflóahafna dags. 24. febrúar 2009."
39571 (01.42.800.3),http://gamli.rvk.is/vefur/owa/edutils.parse_page?nafn=BN039571,Kleppsmýrarvegur Keilir,niðurrif,Samþykkt.  Samræmist ákvæðum laga nr. 73/1997. Áskilið samþykki heilbrigðiseftirlits.,"Faxaflóahafnir sf sækja um leyfi til niðurrifs á iðnaðarhúsi úr stáli við Kleppsmýrarveg áður vélsmiðjan Keilir byggingarár 1963, fastanúmer 202-0967, landnúrmer 105186, stærð 162 ferm., 743 rúmm. Málinu fylgir bréf Faxaflóahafna dags. 24. febrúar 2009."
39559 (01.72.100.1),http://gamli.rvk.is/vefur/owa/edutils.parse_page?nafn=BN039559,Kringlan  4-12,breyta innréttingu,Frestað. Vísað til athugasemda á umsóknarblaði.,"Sótt er um leyfi til að breyta innréttingum í einingu S-339, Te og Kaffi, í verslunarmiðstöðinni Kringlan á lóð nr. 4-12 við Kringluna. Meðfylgjandi eru undirskriftir f.h. rekstrarfélags og brunavarnaeftirlits Kringlunnar á teikningu og bréf brunatæknilegs hönnuðar dags. 2.2. 2009 Gjald kr. 7.700"
39568 (01.17.110.8),http://gamli.rvk.is/vefur/owa/edutils.parse_page?nafn=BN039568,Laugavegur 21 - Klapp,breyting inni,Frestað. Vísað til athugasemda á umsóknarblaði. Málinu vísað til umsagnar skipulagsstjóra.,Sótt er um leyfi fyrir fyrirkomulagsbreytingu innanhúss á verslun með kaffisölu í kaffihús þar sem boðið verður uppá ýmsan varning til sölu í húsi á lóð nr. 21 við Laugaveg. Gjald kr. 7.700
39527 (01.74.620.2),http://gamli.rvk.is/vefur/owa/edutils.parse_page?nafn=BN039527,Ofanleiti 14,breyta söluturni í hamborgarastað,"Frestað. Vísað til athugasemda á umsóknarblaði. Með vísan til útskriftar úr gerðabók skipulagsstjóra en ekki gerð athugasemd við að umsækjandi láti vinna tillögu að breytingu á deiliskipulagi, sem grenndarkynnt verður, ef berst.","Sótt er um leyfi  til að breyta núverandi söluturni í hamborgarastað til meðtöku án veitingasalar, bætt verður við sorp- og gasgeymslu utan við hús á lóð nr. 14 við Ofanleiti. Málinu fylgir bréf frá skrifstofu borgarstjóra dags. 9.jan. 2009.  Útskrift úr gerðarbók embættisafgreiðslufundar skipulagsstjóra frá 27. febrúar 2009 fylgir erindinu Gjald kr. 7.700"
39587 (01.79.350.1),http://gamli.rvk.is/vefur/owa/edutils.parse_page?nafn=BN039587,Skógarvegur 18-22,takmarkað byggingarleyfi,Samþykkt.  Samræmist ákvæðum laga nr. 73/1997. Samþykktin fellur úr gildi við útgáfu á endanlegu byggingarleyfi.   Vegna útgáfu á takmörkuðu byggingarleyfi skal umsækjandi hafa samband við yfirverkfræðing embættis byggingarfulltrúa.,Sótt er um takmarkað byggingarleyfi fyrir sökklum og botnplötum 1.áfanga á lóðinni nr. 18-22 við Skógarveg.
39407 (01.79.350.1),http://gamli.rvk.is/vefur/owa/edutils.parse_page?nafn=BN039407,Skógarvegur 18-22,bygging stúdentagarða,Samþykkt.  Samræmist ákvæðum laga nr. 73/1997. Frágangur á lóðamörkum verði gerður í samráði við lóðarhafa aðliggjandi lóða.   Áskilin lokaúttekt byggingarfulltrúa.,"Sótt er um leyfi til að byggja tvö fjögurra hæða fjölbýlishús, Mhl. 01 og 02, nr. 18 og 22 með nítján íbúðum í hvoru, á sameiginlegum bílakjallara, Mhl. 04, sem í eru 35 bílastæði á lóð nr. 18-22 við Skógarveg. Erindi fylgir brunahönnun  frá EFLA dags. 10. febrúar 2009 ásamt útskrift úr gerðabók embættisafgreiðslufundar skipulagsstjóra frá 30. janúar 2009. Stærðir:  Mhl. 01 1529,7 ferm., 4475,9 rúmm., Mhl. 02 1572,2 ferm., 4576,7 rúmm., Mhl. 04 (bílakjallari 1. og 2. áfangi), B-rými 1601,9 ferm., 5306,2 rúmm. Samtals Mhl. 01 og Mhl 02 3101,9 ferm., 9052,6 rúmm. Mhl. 04, B-rými 1601,9 ferm., 5306,2 rúmm. Samtals 4703,8 ferm., 14358,8 rúmm. Gjöld kr. 7.700 + 7.700 + 1.105.628"
39566 (01.18.030.2),http://gamli.rvk.is/vefur/owa/edutils.parse_page?nafn=BN039566,>Skólavörðustígur 14,"breyting inni, veitingastaður",Frestað. Vísað til athugasemda á umsóknarblaði. Málinu vísað til umsagnar skipulagsstjóra.,Sótt er um leyfi til að breyta bakaríi í veitingastað með veitingaleyfi í flokki tvö fyrir 99 gesti og með opnunartíma frá kl. 10:00 til 23:00 í húsi á lóð nr. 14  við Skólavörðustíg. Gjald kr. 7.700
38957 (01.42.700.1),http://gamli.rvk.is/vefur/owa/edutils.parse_page?nafn=BN038957,Skútuvogur 11,viðbygging,Frestað. Vísað til athugasemda á umsóknarblaði.,"Sótt er um leyfi til að byggja eina hæð með burðarvirki úr stáli, klæddu með áli, steyptri gólfplötu og timburþaki ofan á tengibyggingu ásamt breytingum innanhúss með tilfærslum á milliveggjum í atvinnuhúsi á lóð nr. 11 við Skútuvog. Meðfylgjandi er yfirlýst samþykki eigenda Skútuvogs 11A fyrir breytingunum ásamt útskrift úr gerðabók embættisafgreiðslufundar skipulagsstjóra frá 3. október 2008. Meðfylgjandi einnig yfirlýsing burðarvirkjahönnuðar um bygginguna dags. 29.1. 2009 Stærðir: Stækkun 367,5 ferm., 1.442,5 rúmm. Samtals eftir stækkun 4.379,7 ferm., 19.546,2 rúmm. Gjald kr. 7.300 + 7.700 + 105.303"
39564 (01.81.0-9.8),http://gamli.rvk.is/vefur/owa/edutils.parse_page?nafn=BN039564,"4"">Sogavegur 3",breytingar,Frestað. Vísað til athugasemda á umsóknarblaði.,Sótt er um leyfi fyrir breytingum á áður samþykktu erindi BN039246 frá 16.des. 2008. Breytingar fela í sér stækkun hurðar á vesturhlið og að setja skilti á norðurhlið húss á lóð nr. 3 við Sogaveg. Gjald kr. 7.700
39553 (01.73.200.2),http://gamli.rvk.is/vefur/owa/edutils.parse_page?nafn=BN039553,Stigahlíð 51,gluggar,Samþykkt. Samræmist ákvæðum laga nr. 73/1997.,Sótt er um leyfi til að endurnýja og breyta í leiðinni gluggum í einbýlishúsinu á lóð nr. 51 við Stigahlíð. Gjald kr. 7.700
39428 (01.14.042.0),http://gamli.rvk.is/vefur/owa/edutils.parse_page?nafn=BN039428,Veltusund 3B,breyting inni í veitingahús,Frestað. Vísað til athugasemda á umsóknarblaði. Umfjöllun skipulagsstjóra ólokið.,Sótt er leyfi um að innrétta skyndibitastað í stað verslunar í atvinnuhúsi á lóð nr. 3B við Veltusund. Bréf frá Húsafriðunarnefnd dags. 12. feb. 2009 og tölvupóstur frá Minjasafni Reykjavíkur dags. 20. feb. 2009. Gjald kr. 7.700
39311 (01.18.420.5),http://gamli.rvk.is/vefur/owa/edutils.parse_page?nafn=BN039311,Þórsgata 10,tengibygging,Frestað. Vísað til athugasemda á umsóknarblaði.,"Sótt er um leyfi til að byggja tengibyggingu milli fram- og bakhúss, til að gera upp bakhús og byggja við það til suðurs og austurs að lóðamörkum og til að breyta í einbýlishús núverandi fjölbýlishúsi á lóð nr. 10 við Þórsgötu.  Útskrift úr gerðabók embættisafgreiðslufundar skipulagsstjóra frá 20. febrúar 2009 fylgir erindinu. Einnig lög fram umsögn skipulagsstjóra dags. 16. janúar 2009. Tillagan var grenndarkynnt frá 21. janúar til og með 18. febrúar 2009. Engar athugasemdir bárust. Stækkun:  127,7 ferm., 454,5 rúmm. Gjald kr. 7.300 + 34.997"
39544 (01.51.100.2),http://gamli.rvk.is/vefur/owa/edutils.parse_page?nafn=BN039544,Öldugrandi  1-9,nr. 9 breyting á rishæð,Frestað. Vísað til athugasemda á umsóknarblaði.,"Sótt er um leyfi til að innrétta geymslur í rishæð, setja þakglugga á rýmið og fellistiga úr íbúðum 0301, 0302, 0303 og 0304 í fjölbýlishúsi nr. 9,  á lóð nr. 1-9 við Öldugranda. Sbr. fyrirspurn BN030886 dags. 25.1. 2005 (jákvætt) og jafnframt er erindi BN032894 dregið til baka Meðfylgjandi bréf arkitekts dags. 15.8. 2005 Gjald kr. 7.700"
39579,http://gamli.rvk.is/vefur/owa/edutils.parse_page?nafn=BN039579,Árvað - Tölusetningar,,Samþykkt.  Samræmist ákvæðum laga nr. 73/1997.,"Byggingarfulltrúi leggur til að bílastæðalóð með staðgreininúmeri 4.734.102 og landnúmeri 209365 verði tölusett nr. 3 við Árvað, lóð grunnskóla með staðgreininúmer 4.737.103 og landnúmeri 203628 verði Árvað 5 og bílastæðalóð með staðgreininúmer 4.734.501 og landnr. 206711 verði nr. 7 við Árvað."
39577 (01.11.250.1),http://gamli.rvk.is/vefur/owa/edutils.parse_page?nafn=BN039577,Grandagarður 20,leiðrétting,Samþykkt.  Samræmist ákvæðum laga nr. 73/1997.,"Á afgreiðslufundi byggingarfulltrúa þann 24. febrúar sl, var frestað niðurrifsumsókn á lóð nr. 20 við Grandagarð og bókað að ""vísa umsókninni til umsagnar Faxaflóahafna vegna rifa á síldarbryggju"", það á ekki að vera og leiðréttist það hér með."
39555 (01.84.780.4),http://gamli.rvk.is/vefur/owa/edutils.parse_page?nafn=BN039555,Ánaland 6,(fsp) svalalokun íbúðar,"Jákvætt. Að uppfylltum skilyrðum og að teknu tilliti til ákvæða gr. 102 í byggingarreglugerð nr. 441/1998, enda verði sótt um byggingarleyfi.",Spurt er hvort leyfi yrði til að koma fyrir svalalokun með rennihurð úr perlugleri á svalir 0205 í eigu íbúðar 0202 í fjölbýlishúsi á lóð nr. 6 við Ánaland.
39558 (01.71.301.7),http://gamli.rvk.is/vefur/owa/edutils.parse_page?nafn=BN039558,Blönduhlíð 25,(fsp) bílskúr,Frestað. Málinu vísað til umsagnar skipulagsstjóra.,Spurt er hvort leyfi fengist fyrir byggingu bílgeymslu á lóðinni nr. 25 við Blönduhlíð.  Fyrirspurn BN034882 um sama efni var samþykkt jákvæð þann 07.11.2006
39545 (01.47.300.3),http://gamli.rvk.is/vefur/owa/edutils.parse_page?nafn=BN039545,Gnoðarvogur 84,(fsp) stækka sólstofu,Frestað. Málinu vísað til umsagnar skipulagsstjóra.,Spurt er hvort leyfi fengist til að og hversu mikið mætti  breikka  núverandi sólstofu sem ekki liggur byggingarleyfi  fyrir í fjölbýlishúsinu á lóð nr. 84 við Gnoðarvog.
39497 (01.15.240.2),http://gamli.rvk.is/vefur/owa/edutils.parse_page?nafn=BN039497,Klapparstígur 17,(fsp) fjölbýlishús,Frestað. Með vísan til umsagnar skipulagsstjóra er ekki gerð athugasemd við að fyrirspyrjandi láti vinna breytingu á deiluskipulagi í samræmi við umsögn.  Tillaga verður grenndarkynnt berist hún.,Spurt er hvort leyft yrði að byggja fjögurra hæða fjölbýlishús eins og sýnt er á meðfylgjandi teikningum á lóð nr. 17 við Klapparstíg. Útskrift úr gerðarbók embættisafgreiðslufundar skipulagsstjóra frá 27. febrúar 2009 fylgir erindinu ásamt umsögn skipulagsstjóra dags. 27. febrúar 2009.
39517 (04.64.500.2),http://gamli.rvk.is/vefur/owa/edutils.parse_page?nafn=BN039517,Krummahólar 13-29,(fsp) byggja bílskúr á lóð borgarinnar,Nei. Ekki í sæmræmi við deiliskipulag sbr. umsögn skipulagsstjóra.,Spurt er hvort leyfi fáist til að byggja bílskúr á lóð í borgarlandi á milli húsanna nr. 29 og 33 við Krummahóla. Útskrift úr gerðarbók embættisafgreiðslufundar skipulagsstjóra frá 27. febrúar 2009 fylgir erindinu.
39557 (01.87.060.1 16),http://gamli.rvk.is/vefur/owa/edutils.parse_page?nafn=BN039557,Ljósaland 6,(fsp) stækka íbúð,Frestað. Vísað til umsagnar skipulagsstóra,Spurt er hvort leyft yrði að byggja við til suðurs eins og sýnt er á meðfylgjandi teikningum af raðhúsi nr. 6 á lóð nr. 1-25 2-24 við Ljósaland.
39561 (01.87.030.1 01),http://gamli.rvk.is/vefur/owa/edutils.parse_page?nafn=BN039561,""">Logaland 1",(fsp) breyta þaki á glerskála,Frestað. Skoðist á staðnum.,Spurt er hvort leyfi fáist til að breyta klæðningu á núverandi þaki glerskála úr lexan thermogleri í bárujárn á sólstofu við hús á lóð nr. 1 við Logaland.
39547 (01.54.202.3),http://gamli.rvk.is/vefur/owa/edutils.parse_page?nafn=BN039547,Melhagi 2,(fsp) innri breytingar,Jákvætt. Að umræddu verslunarhúsnæði verði breytt í íbúðarhúsnæði enda verði sótt um byggingarleyfi.,Spurt er hvort leyfi fengist til að breyta verslunarhúsnæði í stofu fyrir íbúa íbúðarhússins á lóð nr. 2 við Melhaga.
39538 (01.18.650.6),http://gamli.rvk.is/vefur/owa/edutils.parse_page?nafn=BN039538,Njarðargata 25,(fsp) byggja ofaná,"Jákvætt. Ekki eru gerðar skipulagslegar athugasemdir við því að húsnæðinu verði breytt í íbúð, enda verði sótt um byggingarleyfi og því fylgi samþykki allra meðeigenda og íbúðin uppfylli ákvæði byggingarreglugerðar um íbúðir sbr. byggingarreglugerð nr. 441/1998.",Lagt fram erindi frá afgreiðslufundi byggingarfulltrúa frá 24. febrúar 2009 þar sem spurt er hvort leyft yrði að byggja léttbyggða hæð ofan á og bárujárnsklæða einbýlishúsið á lóð nr. 25 við Njarðargötu. Útskrift úr gerðabók embættisafgreiðslufundar skipulagsstjóra frá 27. febrúar 2009 fylgir erindinu. Erindi fylgir fsp. BN037810
39441 (01.19.020.1),http://gamli.rvk.is/vefur/owa/edutils.parse_page?nafn=BN039441,Njálsgata 26,(fsp) breyting á skrásetningu úr vinnustofu í samþykkta íbúð,Jákvætt. Ekki eru gerðar skipulagslegar athugasemdir við því að húsnæðinu verði breytt í íbúð.  Enda verði sótt um byggingarleyfi og því fylgi samþykki allra meðeigenda og íbúðin uppfylli ákvæði byggingarreglugerðar um íbúðir sbr. byggingarreglugerð nr. 441/1998.,Spurt er hvort samþykkt yrði að breyta vinnustofu sem merkt er 0001 í íbúð í Mhl. 02 á lóð nr. 26 við Njálsgötu. Erindi fylgir íbúðarskoðun byggingarfulltrúa dags. 23. janúar 2009 og útskrift úr gerðabók embættisafgreiðslufundar skipulagsstjóra frá 27. febrúar 2009.
39470 (01.19.020.2),http://gamli.rvk.is/vefur/owa/edutils.parse_page?nafn=BN039470,Njálsgata 28,(fsp) sólpallur á lóð,"Jákvætt. Ekki er gerð athugasemda við erindið frá skipulagslegu sjónarmiði, en sækja þarf um byggingarleyfi og vinna frágang á lóðarmörkum í sátt við lóðarhafa aðliggjandi lóðar.",Spurt er hvort leyft yrði að útbúa sólpall eins og  meðfylgjandi skissa sýnir við einbýlishúsið á lóð nr. 28 við Njálsgötu. Útskrift úr gerðabók embættisafgreiðslufundar skipulagsstjóra frá 27. febrúar 2009 ásamt umsögn skipulagsstjóra dags. 26. febrúar 2009.
