nr,url,heimilisfang,tegund,nidurstada,spurning
40450 (05.86.530.1),http://gamli.rvk.is/vefur/owa/edutils.parse_page?nafn=BN040450,Almannadalur 17-23,skipting loftunargerðis nr. 19 breyta BN036042,Samþykkt.  Tengist máli nr. BN036042. Samræmist ákvæðum laga nr. 73/1997.,"Sótt er um leyfi til að skipta í tvennt loftunargerði, sjá BN036042,  við hesthúsið nr. 19 á lóðinni nr. 17-23 við Almannadal. Gjald kr. 7.700"
40470 (01.28.030.1),http://gamli.rvk.is/vefur/owa/edutils.parse_page?nafn=BN040470,Álftamýri 59-75,nr. 67 reyndarteikning,Frestað. Málinu vísað til umsagnar skipulagsstjóra.,"Sótt er um samþykki fyrir áður gerðum kjallara og til að byggja geymslu undir verönd, grafa frá kjallara og koma fyrir gluggum á kjallara og til að byggja skjólvegg við verönd raðhússins nr. 67 á lóðinni nr. 59-75 við Álftamýri. Áður gerð stækkun kjallara:  xx ferm., xx rúmm. Geymsla:  16,5 ferm., 42,5 rúmm. Samtals:  xx ferm., xx rúmm. Gjald kr. 7.700 + xx"
40178 (01.18.431.3),http://gamli.rvk.is/vefur/owa/edutils.parse_page?nafn=BN040178,Bergstaðastræti 24B,"viðbygging, kvistur",Frestað. Vísað til athugasemda á umsóknarblaði.,"Sótt er um leyfi til að hækka veggi og gafla, byggja nýtt anddyri, setja kvist úr steinsteypu og hækka timburþak sbr. fsp.BN038508 á einbýlishúsi frá 1919 á lóð nr. 24B við Bergstaðastræti. Erindið var grenndarkynnt frá 22. júlí til og með 20. ágúst 2009. Eftirtaldir aðilar sendu inn athugasemdir: Inga Jóhannsdóttir, dags. 11. ágúst og Guðrún Margrét Árnadóttir, dags. 18. ágúst 2009. Einnig lögð fram umsögn skipulagsstjóra dags. 4. september 2009.  Stærðir stækkun: xx ferm., xx rúmm. Samtals eftir stækkun. kjallari 62,4 ferm., 1. hæð 59,4 ferm., 2. hæð 54 ferm., samtals 175,8 ferm., 452,7 rúmm. Gjald kr. 7.700 + xx"
40432 (01.18.530.1),http://gamli.rvk.is/vefur/owa/edutils.parse_page?nafn=BN040432,Bergstaðastræti 48,breytingar úti og inni,Frestað. Vísað til athugasemda á umsóknarblaði.,"Sótt er um leyfi til að innrétta íbúð í skrifstofurými 0102, til að minnka glugga að götu og til að gera dyr út á svalir á 1. hæð íbúðar- og atvinnuhússins á lóð nr. 48 við Bergstaðastræti. Erindi fylgir viðauki við eignaskiptasamning dags. 11. september 2009. Jafnframt er erindi BN036934 dregið til baka. Gjald kr. 7.700"
40433 (04.06.510.1),http://gamli.rvk.is/vefur/owa/edutils.parse_page?nafn=BN040433,Bíldshöfði 20,viðbygging,"Synjað. Með vísan til umsagnar skipulagsstjóra, enda utan byggingarreits deiliskipulags.","Sótt er um leyfi til að stækka og hólfa niður geymslur og koma fyrir vörumóttöku í kjallara á norðurhlið, undir palli 1. hæðar,  koma fyrir vörumóttöku og opið vöruskýli á palli 1. hæðar á norðurhlið í atvinnuhúsnæðinu á lóð nr. 20 við Bíldshöfða. Útskrift úr gerðabók embættisafgreiðslufundar skipulagsstjóra frá 25. sept. 2009 og umsögn skipulagsstjóra dags. 25. sept. 2009 fylgja erindinu. Stækkun:  XXX ferm.  XXX rúmm. Gjald kr. 7.700 + XXX"
40405 (01.22.010.7),http://gamli.rvk.is/vefur/owa/edutils.parse_page?nafn=BN040405,Borgartún 8-16,H1 innrétta 18. hæð,Samþykkt.  Samræmist ákvæðum laga nr. 73/1997. Áskilin lokaúttekt byggingarfulltrúa.,Sótt er um leyfi til að innrétta skrifstofur á 18. hæð í Höfðatúni 2 á lóð nr. 8-16 við Borgartún. Gjald kr. 7.700
40255 (01.85.010.1),http://gamli.rvk.is/vefur/owa/edutils.parse_page?nafn=BN040255,Efstaland 26,veitingastaður flokkur 2,Samþykkt.  Samræmist ákvæðum laga nr. 73/1997. Áskilin lokaúttekt byggingarfulltrúa. Áskilið samþykki heilbrigðiseftirlits.,"Sótt er um leyfi til að breyta skilgreiningu veitingastaðar í rými 0201 í flokk II í verslunar- og skrifstofuhúsinu á lóð nr. 26 við Efstaland. Kynningin stóð frá 20. ágúst til og með 17. september 2009.  Eftirtaldir aðilar sendu inn athugasemdir: 12 íbúar að Gautlandi 17 - 21 dags, 9. sept. og 40 íbúar að Efstalandi 8, 10, 12, 14, 16, 20, 22 og 24 dags. 10. september. Einnig lögð fram umsögn skipulagsstjóra dags. 18. september 2009. Gjald kr. 7.700"
40330 (04.03.010.2),http://gamli.rvk.is/vefur/owa/edutils.parse_page?nafn=BN040330,Eirhöfði 8 -Breiðh 15,vörugeymsla,Samþykkt.  Samræmist ákvæðum laga nr. 73/1997. Frágangur á lóðamörkum verði gerður í samráði við lóðarhafa aðliggjandi lóða.  Áskilin lokaúttekt byggingarfulltrúa.,"Sótt er um leyfi til að byggja vörugeymslu (Mhl 02) úr forsteyptum einingum á lóðinni Eirhöfði 8/Breiðhöfði 15. Erindi fylgir viðurkenning Brunamálastofnunar dags. 21. júní 2006 og yfirlýsing um stöðu vottunarferlis frá Nýsköpunarmiðstöð Íslands dags. 14. desember 2007.  Einnig fylgir umboð hönnuðar til undirritunar uppdrátta dags. 14. september 2009. Stærð:  339 ferm., 2.215 rúmm. Gjald kr. 7.700 + 170.555"
40493 (01.24.711.8),http://gamli.rvk.is/vefur/owa/edutils.parse_page?nafn=BN040493,Flókagata 8,takmarkað byggingarleyfi,Samþykkt.  Samræmist ákvæðum laga nr. 73/1997. Samþykktin fellur úr gildi við útgáfu á endanlegu byggingarleyfi. Vegna útgáfu á takmörkuðu byggingarleyfi skal umsækjandi hafa samand við yfirverkfræðing embættisins.,Sótt er um takmarkað byggingarleyfi fyrir sökklum á lóðinni nr. 8 við Flókagötu erindi BN040242
40452 (01.66.--9.9),http://gamli.rvk.is/vefur/owa/edutils.parse_page?nafn=BN040452,Flugvöllur 106748,niðurrif,Samþykkt.  Samræmist ákvæðum laga nr. 73/1997.,"Sótt er um leyfi til að rífa gamlan bragga, landnúmer 106748 sem notaður hefur verið sem vélageymsla á  Reykjavíkurflugvelli. Niðurrif:  Mhl. 17 merkt 0101 vélageymsla 374 ferm. 1543 rúmm. Gjald kr. 7.700"
40299 (01.17.303.0),http://gamli.rvk.is/vefur/owa/edutils.parse_page?nafn=BN040299,Frakkastígur 7,leyfi til að opna kaffihús í flokki 2,Samþykkt.  Skilyrt er að eignaskiptayfirlýsingu vegna breytinga í húsinu sé þinglýst fyrir útgáfu á byggingarleyfi. Samræmist ákvæðum laga nr. 73/1997. Áskilið samþykki heilbrigðiseftirlits. Áskilin lokaúttekt byggingarfulltrúa.,"Sótt er um leyfi til að breyta innra skipulagi og  opna kaffihús/bar í flokki II í húsi mhl 03 á lóð nr. 7 við Frakkastíg. Jákvæð fyrirspurn BN39905 fylgir erindinu dags 2. júní 2009 ásamt útskrift úr gerðabók embættisafgreiðslufundar skipulagsstjóra frá 4. september 2009 og eldri umsögn skipulagststjóra dags. 29. maí 2009. Samþykki meðlóðarhafa dags. 7. sept,. 2009 fylgir erindinu Gjald kr. 7.700 + 7.700"
40348 (01.17.303.0),http://gamli.rvk.is/vefur/owa/edutils.parse_page?nafn=BN040348,Frakkastígur 7,húðflúrstofa,Frestað. Vísað til athugasemda heilbrigðiseftirlits á umsóknarblaði.,Sótt er um leyfi til að breyta mhl 01 og 02 í mhl 01 til að opna húðflúrstofu á jarðhæð hússins á lóð nr. 7 við Frakkastíg. Samþykki lóðarhafa dags. 7. sept. 2009 fylgir erindinu. Fylgiskjal. vegna skráningartöflu ódags. fylgir erindinu. Gjald kr. 7.700 + 7.700
40464 (01.51.6-9.9),http://gamli.rvk.is/vefur/owa/edutils.parse_page?nafn=BN040464,Frostaskjól 2,innri breytingar,Frestað. Vísað til athugasemda á umsóknarblaði. Málinu vísað til umsagnar skipulagsstjóra.,"Sótt er um leyfi til innri breytinga, notkun og stækkun, sem felast í að koma fyrir frístundarskóla fyrir börn, kaffihús í flokki XXXX og að koma fyrir milligólfi í lyftingahúsi 6 á lóð nr. 2 við Frostaskjól. Stækkun: 84 ferm.  Gjald kr. 7.700"
40383 (01.19.011.1),http://gamli.rvk.is/vefur/owa/edutils.parse_page?nafn=BN040383,Grettisgata 56A,v/eignaskiptasamnings,Samþykkt.  Samræmist ákvæðum laga nr. 73/1997. Skilyrt er að eignaskiptayfirlýsingu vegna breytinga í húsinu sé þinglýst til þess að samþykktin öðlist gildi.,Sótt er um samþykki fyrir reyndarteikningum þar sem fyrri breytingar eru sýndar ásamt skráningartöflu vegna eignaskiptasamnings fyrir íbúðarhúsið á lóð nr. 56 við Grettisgötu. Gjald kr. 7.700
40456 (04.30.400.1),http://gamli.rvk.is/vefur/owa/edutils.parse_page?nafn=BN040456,Grjótháls 7-11,breyting á eldvarnartexta,Samþykkt.  Samræmist ákvæðum laga nr. 73/1997. Áskilin lokaúttekt byggingarfulltrúa.,"Sótt er um leyfi til breytinga á eldvarnatexta vegna þaks er varðar nánari eldvarnarútfærslur á nýsamþykktu erindi BN039652 í húsi Ölgerðar Egils Skallagrímssonar á lóð nr. 7-11 við Grjótháls. Meðfylgjandi er bréf arkitekts dags. 22. sept. 2009. Erindi fylgir brunahönnun frá EFLA dags. 4. desember 2007, endurskoðuð  25. ágúst 2009 fylgir erindi. Gjald kr. 7.700"
40472 (01.14.030.2),http://gamli.rvk.is/vefur/owa/edutils.parse_page?nafn=BN040472,Hafnarstræti 20/Læk5,breyting á 4. hæð,Frestað. Vísað til athugasemda á umsóknarblaði.,Sótt er um leyfi til að innrétta veitingahús í flokki III á 4. hæð verslunar- og skrifstofuhússins á lóð nr. 20 við Hafnarstræti. Erindi fylgir bréf hönnuðar varðandi flokkun veitingahúss og jákv. fsp. dags. 22. september 2009. Gjald kr. 7.700
40469 (01.54.210.1),http://gamli.rvk.is/vefur/owa/edutils.parse_page?nafn=BN040469,Hagamelur 1,bæta við kennslustofu,Samþykkt.  Samræmist ákvæðum laga nr. 73/1997.,"Sótt er um leyfi til að bæta við og stækka frístundaheimili úr timbri á lóð Melaskólans á lóð nr. 1 við Hagamel. Stækkun 61,6 ferm. og 208,3 rúmm. Gjald kr. 7.700 + 16.039"
40401 (01.25.420.1),http://gamli.rvk.is/vefur/owa/edutils.parse_page?nafn=BN040401,Háteigsvegur 35-39,breyting inni,Frestað. Umsækjandi hafi samband vð Eldvarnareftirlit.,Sótt er um leyfi til að koma fyrir aðstöðu til reksturs grunnskóla fyrir 40 nemendur á  1. hæð í vesturenda Sjómannaskólans á lóð nr. 35 við Háteigsveg. Gjald kr. 7.700 + 7.700
39096 (01.23.400.2),http://gamli.rvk.is/vefur/owa/edutils.parse_page?nafn=BN039096,Hátún 14,"viðbygging, áhaldageymsla bogfimivöllur",Samþykkt.  Samræmist ákvæðum laga nr. 73/1997. Áskilin lokaúttekt byggingarfulltrúa. Áskilið samþykki heilbrigðiseftirlits.,"Sótt er um leyfi til að reisa áhaldageymslu og 60 m bogfimivöll með fjögurra metra hárri öryggisgirðingu við enda vallar og 170 cm á hliðum á lóð nr. 14 við Hátún. Meðfylgjandi er bréf frá arkitekt dags. 4. nóvember 2008 með vísan í erlendar reglur. Stærð:  21,7 ferm., 60,7 rúmm. Gjöld kr. 7.300 + 3.336"
40160 (01.35.420.8),http://gamli.rvk.is/vefur/owa/edutils.parse_page?nafn=BN040160,Hjallavegur 30,"sólstofa, svalir, bíslag",Samþykkt. Með vísan til samþykktar borgarráðs frá 1. september 1998 skal utanhúss- og lóðarfrágangi vera lokið eigi síðar en innan tveggja ára frá útgáfu byggingarleyfis að viðlögðum dagsektarákvæðum 57. gr. skipulags- og byggingarlaga nr. 73/1997. Skilyrt er að eignaskiptayfirlýsingu vegna breytinga í húsinu sé þinglýst fyrir útgáfu á byggingarleyfi. Áskilin lokaúttekt byggingarfulltrúa.,"Sótt er um leyfi fyrir áður gerðu bíslagi og til að byggja sólskála á jarðhæð og svalir ofan á við tvíbýlishúsið á lóð nr. 30 við Hjallaveg. Erindi fylgir jákv. fsp. dags. 30. júní 2009. Áður gerð stækkun:  9,8 ferm., 36 rúmm. Sólstofa:  11,3 ferm, 27 rúmm. Gjald kr. 7.700 + 7.700 + 4.851"
40459 (01.75.520.3),http://gamli.rvk.is/vefur/owa/edutils.parse_page?nafn=BN040459,Hlíðarfótur 7,nýir aðaluppdrættir,Samþykkt.  Samræmist ákvæðum laga nr. 73/1997. Áskilið samþykki heilbrigðiseftirlits. Áskilin lokaúttekt byggingarfulltrúa.,Sótt er um breytingar frá nýsamþykktu erindi BN040071 er varðar frágang lóðar og hljóðdempandi loftun kennslurýmis í skóla Hjallastefnunar á lóð nr. 7 við Hlíðarfót. Meðfylgjandi er bréf hönnuðar dags. 21. sept. 2009 og ný teikningaskrá. Gjald kr. 7.700
40463 (01.52.020.2),http://gamli.rvk.is/vefur/owa/edutils.parse_page?nafn=BN040463,Hringbraut 121,endurnýjun byggingarleyfis BN032683,Frestað. Vísað til athugasemda á umsóknarblaði.,"Sótt er um leyfi til að endurnýja erindi BN032683 dags. 25. október 2005 þar sem sótt er um að breyta innra skipulagi veitingastaðar í flokki ??? og apóteks, í suðurenda 1. hæðar atvinnuhússins á lóð nr. 121 við Hringbraut. Gjald kr. 7.700"
40052 (01.17.100.2 02),http://gamli.rvk.is/vefur/owa/edutils.parse_page?nafn=BN040052,Hverfisgata 14A,br. í hótelíbúðir,Frestað. Vísað til athugasemda á umsóknarblaði.,Sótt er um leyfi til að innrétta sem gistiheimili tvær einingar í áður samþykktu skrifstofuhúsnæði í bakhúsi nr. 14A á lóð nr. 14 við Hverfisgötu. Útskrift úr gerðabók embættisafgreiðslufundar skipulagsstjóra frá 26. júní 2009 fylgir erindinu. Gjald kr. 7.700
40221 (01.17.200.8),http://gamli.rvk.is/vefur/owa/edutils.parse_page?nafn=BN040221,Hverfisgata 46,innri breytingar,Samþykkt.  Samræmist ákvæðum laga nr. 73/1997. Skilyrt er að eignaskiptayfirlýsingu vegna breytinga í húsinu sé þinglýst til þess að samþykktin öðlist gildi. Áskilið samþykki heilbrigðiseftirlits. Áskilin lokaúttekt byggingarfulltrúa.,"Sótt er um leyfi til að skilgreina í flokk III og breyta innra fyrirkomulagi í knattborðsstofu, sjá erindi BN038677 dags. 30. september 2008, á 1. hæð  íbúðar- og atvinnuhússins á lóð nr. 46 við Hverfisgötu. Hljóðvistarskýrsla frá verkfræðistofunni Mannvit dags. 18. september 2009 fylgir . Gjald kr. 7.700 + 7.700 +7.700"
40466 (04.06.030.4),http://gamli.rvk.is/vefur/owa/edutils.parse_page?nafn=BN040466,Hyrjarhöfði 8,endurnýjun byggingarleyfis BN037438,Samþykkt.  Samræmist ákvæðum laga nr. 73/1997. Áskilið samþykki Vinnueftirlits ríkisins. Áskilin lokaúttekt byggingarfulltrúa.,"Sótt er um leyfi til að endurnýja erindið BN037438 dags. 15. jan. 2008, reyndarteikningu þar sem fram koma áður gerð milliloft í öllum einingum og rými í kjallara af iðnaðarhúsnæðinu á lóðinni nr. 8 við Hyrjarhöfða. Stærðir: Stækkun kjallari 54,7 ferm., 180,5 rúmm. Milliloft í rými: 0101. 81,9 ferm., rými 0102. 18,7 ferm. og í rými 0103. 76,4 ferm. samtals stækkun milliloft 177,0 ferm. Gjald kr. 7.700 + 13.898"
40403 (01.63.570.1),http://gamli.rvk.is/vefur/owa/edutils.parse_page?nafn=BN040403,Hörpugata 4,breyta bakhúsi í íbúð,Synjað. Ekki er gert ráð fyirr búsetu í geynslu- eða bílskúrum skv. deiliskipulagi.,"Sótt er um leyfi til að breyta notkun á geymslu mhl 02,   28,8 ferm. í íbúð á lóð nr. 4  við Hörpugötu. Bréf frá hönnuði dags. 9. júní 2009 og útskrift úr gerðabók embættisafgreiðslufundar skipulagsstjóra frá 18. september 2009 fylgja erindinu. Gjald kr. 7.700"
40413 (04.99.620.4),http://gamli.rvk.is/vefur/owa/edutils.parse_page?nafn=BN040413,Kaldasel 17,"breyta útliti glugga, svalahurð",Samþykkt.  Samræmist ákvæðum laga nr. 73/1997. Með vísan til samþykktar borgarráðs frá 1. september 1998 skal utanhúss- og lóðarfrágangi vera lokið eigi síðar en innan tveggja ára frá útgáfu byggingarleyfis að viðlögðum dagsektarákvæðum 57. gr. skipulags- og byggingarlaga nr. 73/1997.Áskilin lokaúttekt byggingarfulltrúa.,Sótt er um leyfi til að breyta gluggum og bæta við svalahurð á suðaustur hlið og koma fyrir þakglugga vesturhlið einbýlishússins á lóð nr. 17 við Kaldasel. Umsögn burðarvirkishönnuðar dags. 23. sept. 2009 fylgir erindinu. Gjald kr. 7.700
39887 (00.05.600.5),http://gamli.rvk.is/vefur/owa/edutils.parse_page?nafn=BN039887,"Kjalarnes, Mógilsá Landspilda 125736",sumarhús og gestahús,Samþykkt.  Samræmist ákvæðum laga nr. 73/1997. Bókun byggingarfulltrúa: Málinu fylgir bréf Veðurstofu Íslands dags. 21. júlí 2009 vegna staðbundins hættumats.  Með vísan til þess sem þar kemur fram er óheimilt að nota húsið nema sem frístundarhús eins og um er sótt.  Það er á ábyrgð eiganda að kynna sér við  hvaða aðstæður hættuástand getur komið upp og hvað ber þá að gera. Þinglýsa skal yfirlýsingu þessa efnis á fasteignina. Með vísan til niurstöðu í fyrrnefndu bréfi Veðurstofunnar hefur samþykkt málsins ekki fordæmisgildi vegna annarra bygginga á svæðinu hvað hættumat varðar. Með vísan til samþykktar borgarráðs frá 1. september 1998 skal utanhúss- og lóðarfrágangi vera lokið eigi síðar en innan tveggja ára frá útgáfu byggingarleyfis að viðlögðum dagsektarákvæðum 57. gr. skipulags- og byggingarlaga nr. 73/1997.  Frágangur á lóðamörkum verði gerður í samráði við lóðarhafa aðliggjandi lóða. Áskilin lokaúttekt byggingarfulltrúa.,"Sótt er um leyfi til að byggja steinsteypt sumarhús, að hluta til á tveimur hæðum, aðalhús (Mhl.01) og gestahús (Mhl.02) tengd saman með yfirbyggðri verönd í landi Mógilsár á Kjalarnesi. Útskrift úr gerðabók embættisafgreiðslufundar skipulagsstjóra frá 5. júní 2009 fylgir erindinu og tölvupóst Veðurstofu Íslands dags. 21. júlí 2009 Stærð Mhl.01:  1. hæð 58,7 ferm., 2. hæð 77,5 ferm. Mhl.02:  1. hæð 14,6 ferm., 2. hæð 70,7 ferm. Samtals 206,9 ferm., 769,1 rúmm. Gjald kr. 7.700 + 59.221"
40103 (01.17.110.8),http://gamli.rvk.is/vefur/owa/edutils.parse_page?nafn=BN040103,Laugavegur 21 - Klapp,innrétta kaffihús í flokki III,Frestað. Með vísan til athugasemda við hljóðvistarskýrslu,"Sótt er um  leyfi  til að innrétta kaffihús í flokki III í  húsi á lóð nr. 30 við Klapparstíg. Gert er ráð fyrir 49 gestum innandyra og 50 gestum í garði. (Laugavegur 21/Klapparstígur 30). Jákvæð fyrirspurn BN040066 fylgir málinu. Bréf frá Eddu Einarsdóttur arkitekt dags. 7. júlí 2009,  frá Agli Guðmundssyni dags 14. júlí 2009,  bréf frá Húsafriðunarnefnd dags. 6. júli 2009,  Minjasafni Reykjavíkur dags. 8. júlí 2009 og Önnu Á. Ragnarsdóttur dags. 28. ágúst 2009, einnig hljóðvistarskýrsla frá EFLU dags. 7. september 2009 og breytt skýrsla dags. 21. september 2009 fylgja erindinu. Gjald kr. 7.700 +7.700"
39527 (01.74.620.2),http://gamli.rvk.is/vefur/owa/edutils.parse_page?nafn=BN039527,Ofanleiti 14,breyta söluturni í hamborgarastað,Frestað. Skipulagsferli ólokið.,"Sótt er um leyfi  til að breyta núverandi söluturni í hamborgarastað í flokki I til meðtöku án veitingasalar, bætt verður við sorp- og gasgeymslu utan við hús á lóð nr. 14 við Ofanleiti. Málinu fylgir bréf frá skrifstofu borgarstjóra dags. 9. janúar 2009.  Útskrift úr gerðarbók embættisafgreiðslufundar skipulagsstjóra frá 27. febrúar 2009 fylgir erindinu. Rafræntbréf frá hönnuði dags. 22. sept. 2009 fylgir erindinu. Gjald kr. 7.700 + 7.700"
40468 (01.82.310.8),http://gamli.rvk.is/vefur/owa/edutils.parse_page?nafn=BN040468,Rauðagerði 66,"ný verönd, skjólveggir",Frestað. Vísað til athugasemda á umsóknarblaði. Málinu vísað til umsagnar skipulagsstjóra.,"Sótt er um leyfi til að byggja verönd með sökkulrými, skjólvegg, garðtröppur, útigeymslu, setja tvo nýja glugga á geymslu á suðausturhlið og hurðir og innrétta óútgrafið rými í geymslu einbýlishússins á lóð nr. 66 við Rauðagerði. Jafnframt er gerð grein fyrir innréttingu íbúðar og íbúðarherbergja í kjallara. reyndarteikning sem sýnir frávik frá upphaflegrum uppdráttum af einbýlishúsinu á lóð nr. 66 við Rauðagerði. Stækkun: XXX ferm. XXX rúmm. Gjald kr. 7.700 + XXX"
40467 (04.30.940.1),http://gamli.rvk.is/vefur/owa/edutils.parse_page?nafn=BN040467,Réttarháls 2,hárgreiðslustofa,Frestað. Vísað til athugasemda á umsóknarblaði.,Sótt er um leyfi til að innrétta hárgreiðslustofu á annarri hæð í viðbyggingu á austurenda atvinnuhússins á lóð nr. 2 við Réttarháls. Fylgiskjöl sem fylgja erindinu eru teikning af 1. hæð og afstöðumynd. Gjald kr. 7.700 kr
40179 (01.25.520.8),http://gamli.rvk.is/vefur/owa/edutils.parse_page?nafn=BN040179,Skipholt 70,slökkvikerfi og breytingar,Frestað. Vísað til athugasemda helbrigðiseftirlits á umsóknarblaði.,Sótt er um leyfi til að setja upp sjálfvirkt slökkvikerfi í háfi á matsölustað American Style og fleiri breytingar í atvinnuhúsinu á lóð nr. 70 við Skipholt.   Gjald kr. 7.700 + 7.700
40465 (02.37.520.1),http://gamli.rvk.is/vefur/owa/edutils.parse_page?nafn=BN040465,Spöngin 9-31,kaffihús og verslun,Frestað. Vísað til athugasemda á umsóknarblaði.,Sótt er um leyfi til að opna kaffihús í flokki XXXX og verslun í atvinnuhúsinu á lóð nr. 11 við Spöngina.  Gjald kr. 7.700
40492 (01.13.520.8),http://gamli.rvk.is/vefur/owa/edutils.parse_page?nafn=BN040492,Stýrimannastígur 4,takmarkað byggingarleyfi,Samþykkt.  Samræmist ákvæðum laga nr. 73/1997. Samþykktin fellur úr gildi við útgáfu á endanlegu byggingarleyfi. Vegna útgáfu á takmörkuðu byggingarleyfi skal umsækjandi hafa samband við yfirverkfræðing embættisins.,Sótt er um takmarkað byggingarleyfi fyrir jarðvinnu á lóðinni nr. 4 við Stýrimannastíg erindi BN039685
34872 (01.33.530.1),http://gamli.rvk.is/vefur/owa/edutils.parse_page?nafn=BN034872,Sundagarðar 2,reyndarteikningar,Frestað. Umsækjandi hafi samband við Eldvarnareftirlit vegna athugasemda þess.,"Sótt er um samþykkt á áorðnum breytingum á innréttingum, engar breytingar eru á útliti né lóð, í húsinu á lóðinni nr. 2 við Sundagarða. Gjald kr. 6.100 + 7.700"
39920 (00.08.000.3),http://gamli.rvk.is/vefur/owa/edutils.parse_page?nafn=BN039920,Varmadalur 4,stálgrindarskemma,Frestað. Vísað til athugasemda eldvarnareftirlits á umsóknarblaði.,"Sótt er um leyfi til að byggja stálgrindarskemmu klædda með yleiningum í Varmadal 4 í Reykjavík. Grenndarkynning stóð frá 19. júní til 17. júlí 2009. Engar athugasemdir bárust. Meðfylgjandi eru bréf hönnuðar dags. 11. maí 2009 og 11. júní 2009. Einnig fylgir umsögn Brunamálastofnunar um samlokueiningar dags. 22. maí 2009. Útskrift úr gerðarbók embættisafgreiðslufundar skipulagsstjóra frá 24. júlí 2009 fylgir erindinu. Stærðir: 334 ferm., 1.612,2 rúmm. Gjald kr. 7.700 + 7.700 + 12.414"
40391 (01.33.780.2),http://gamli.rvk.is/vefur/owa/edutils.parse_page?nafn=BN040391,Vatnagarðar 12,viðbygging,Frestað. Vantar bílastæði fyrir fatlaða.,"Sótt er um leyfi til að byggja við millibyggingu með því að lengja til suðausturs og norðvesturs að jöfnu við verkstæðið á lóð nr. 12 við Vatnagarða. Stækkun: 69,7 ferm og 244,9 rúmm. Gjald kr. 7.700 + 18.857"
40471 (02.84.800.5),http://gamli.rvk.is/vefur/owa/edutils.parse_page?nafn=BN040471,Vesturhús 6,gluggar á 1. hæð,Frestað. Málinu vísað til umsagnar skipulagsstjóra.,"Sótt er um leyfi til að koma fyrir þremur gluggum á norðurhlið kjallara, dyrum á suðurhlið og til að byggja skjólvegg og tröppur á suðurhluta lóðar einbýlishússins á lóð nr. 6 við Vesturhús. Jafnframt er gerð grein fyrir óuppfylltu rými í kjallara sem innréttað er sem geymsla með aðgengi utan frá Erindi BN027935 dregið til baka. Stækkun:  71,5 ferm., 193,1 rúmm. Gjald kr. 7.700 + 14.869"
40461 (01.52.400.6),http://gamli.rvk.is/vefur/owa/edutils.parse_page?nafn=BN040461,Víðimelur 66,breyting inni,Frestað. Vísað til athugasemda á umsóknarblaði.,Sótt er um leyfi til að stækka hurðarop á milli vinnuherbergis og gangs í húsinu á lóð nr. 66 við Víðimel. Umsögn burðarvirksihönnuðar dags. 25. ágúst 2009 fylgir erindinu. Gjald kr. 7.700
40412 (04.11.160.2),http://gamli.rvk.is/vefur/owa/edutils.parse_page?nafn=BN040412,Vínlandsleið 16,breytingar inni,Frestað. Vísað til athugasemda á umsóknarblaði.,"Sótt er um leyfi til að breyta bílakjallara í lager og geymslur, stækka og breyta innra skipulagi 1. og 2. hæðar atvinnuhússins á lóð nr. 16 við Vinlandsleið. Brunaskýrsla dags. 11. sept. 2007 og endurskoðuð 8. sept. 2009 ásamt útskrift úr gerðabók embættisafgreiðslufundar skipulagsstjóra frá 25. sept. 2009 fylgja erindinu. Stækkun: XXX ferm. og XXX rúmm.  Gjald kr. 7.700 + XXX"
40491 (01.41.400.4),http://gamli.rvk.is/vefur/owa/edutils.parse_page?nafn=BN040491,Drekavogur 4-4B,leiðrétting,,"Á afgreiðslufundi byggingarfulltrúa þann 22. september 2009 var til umfjöllunar byggingarleyfisumsókn nr. BN039458.  Í texta kom fram m.a. að erindi BN034193 væri fellt úr gildi. Rétt er að erindi BN034193 er dregið til baka. Ennfremur þarf að leiðrétta stærðir vegna umsóknarinnar.                                                                    óskráð skriðrými Húsið var         2.881 m3       901,3 m2           11.4 m2 Húsið verður 3.287,2 m3       937,2 m2           84,4 m2 Stækkun         407,1 m3         36.9 m2              73 m2

Stækkun samtals 109,9 m2"
40494 (00.02.600.0 03),http://gamli.rvk.is/vefur/owa/edutils.parse_page?nafn=BN040494,Fitjakot 125675,afmörkun spilda,Samþykkt.  Samræmist ákvæðum laga nr. 73/1997.,"Katrín Hákonardóttir Echellberger f.h. ofangreindra sækir um breytta afmörkun spilda úr landi Fitjakots, en spildurnar eru úr landi Fitjakots á Kjalarnesi og í eigu Katrínar, Jóhanns, Ernu og Tryggva Hákonarbarna.  Fyrir liggur samþykkt skipulagsráðs Reykjavíkur frá 17. desember 2008 á lóð fyrir húsið Blásteina.  Málinu fylgir bréf Katrínar H. Echellberger dags. 28. september 2009.  Samþykki þriggja meðeigenda á skýringaruppdrátti dags. 28. september 2009 og tölvubréf Ernu Hákonardóttur dags. 29. september 2009. Tillaga að breytingu lóðamarka.  Spilda 1 (stgr. 36.433.101) Spildan er talin 4 ha, sbr. þinglesið afsal  Litra D8 nr. 32. dags. 29. júní 1973. Spildan reynist   40003 m2 Tekið af spildunni undir lóð Blásteina   - 5028 m2 Tekið af spildunni og bætt við Spildu III   - 4516 m2 Tekið af spildunni og bætt við Spildu 125844   - 2482 m2 Bætt við spilduna frá Spildu IV    802 m2 Spildan verður   28779 m2 Spilda II (stgr. 36.433.701) Spildan er talin 0,88 ha, sbr. þinglesið afsal Litra Q8 nr. 148. dags. 12.06.1974. Spildan reynist   8821 m2 Tekið af spildunni og bætt við Spildu 125844   - 8815 m2 Tekið af spilduni og bætt við Spildu III   6 m2 Spildan verður og verður máð úr skrám   0 m2 Spilda III (stgr. 36.433.301) Spildan er talin 2 ha, sbr. þinglesið afsal Litra Æ8 nr. 375 dags. 31.12.1974 Spildan reynist    20691 m2 Tekið af spildunni undir lóð Blásteina   - 1539 m2 Bætt við úr Spildu   4516 m2 Bætt við spilduna frá Spildu II    6 m2 Bætt við spilduna frá Spildu IV   996 m2 Bætt við spilduna frá Spildu IV   13269 m2 Tekið af spildunni og bætt við Spildu IV    - 9160 m2 Spildan verður    28779 m2 Spilda IV (stgr. 36.433.501) - Spildan er tlin 3.8 ha. sbr. þinglesið afsal  Litra F11 nr. 205 dags. 10. nóvember 1977. Spildan reynist    38380 m2 Tekið af spildunni og bætt við Spildu I   -  802 m2 Tekið af spildunni undir lóð Blásteina    -  233 m2 Tekið af spildunni og bætt við Spildu III   -  996 m2 Tekið af spildunni og bætt við Spildu III   - 13269 m2 Tekið af spildunni og bætt við Spildu 125844 -   2131 m2 Tekið af spildunni og bætt við Spildu 125844 -   1330 m2 Bætt við spilduna frá Spildu III    9160 m2                               Spildan verður   28779 m2 Spilda 125844 (stgr. 26.442.101) - Spildan er talin 3.16 ha, Spildan reynist    28040 m2 Bætt við spilduna frá Spildu II    8815 m2 Bætt við spilduna frá Spildu IV   2131 m2 Bætt við spilduna frá Spildu IV   1330 m2 Bætt við spilduna frá Spildu I    2482 m2 Leiðrétt vegna fermetrabrota    1 m2 Spildan verður    42799 m2 Lóð Blásteina (að mestu leyti miðað við áður afgirta lóð.  Stgr. 36.433.201) Frá Spildu I       5028 m2 Frá Spildu III     1539 m2 Frá Spildu IV   233 m2 Lóðin verður    6800 m2 Ath. spildurnar fjórar eru skráðar hjá Fasteignaskrá Íslands sem Blásteinar 125843 landnr. 125843.  Stærð 106.800 m2. Málinu fylgja mæliblað 36.433 og 36.442 og tveir skýringaruppdrættir með sömu staðgeininr. allir dags. 28. september 2009."
40480 (01.11.630.2),http://gamli.rvk.is/vefur/owa/edutils.parse_page?nafn=BN040480,Mýrargata 10-12,mæliblað,Samþykkt.  Samræmist ákvæðum laga nr. 73/1997.,"Faxaflóahafnir sf. sækja um breytingu og minnkun lóðarinnar Mýrargötu 10-12, staðgr.1.116.302, landnr. 100067. Lóðin er nú 3.925 ferm, tekið undir götur og hafnarsvæði 3.695 ferm, verður skráð með óútvísuðu svæði Faxaflóahafna. Minnkuð lóð verður því 230 ferm og er lagt til að hún verði tölusett sem Mýrargata 10, staðgr. 1.116.302. Málinu fylgir bréf Faxaflóahafna sf. dags. 8. september 2009 ásamt lóðarblaði dags. 7. september 2009 og þrem fylgiskjölum A3 dags. 7. september 2009."
40481 (01.11.630.7),http://gamli.rvk.is/vefur/owa/edutils.parse_page?nafn=BN040481,Mýrargata 18,mæliblað,Samþykkt.  Samræmist ákvæðum laga nr. 73/1997.,"Faxaflóahafnir sf. sækja um leyfi til þess að fella lóð nr. 18 við Mýrargötu úr fasteignaskrá og sameina flatarmáli hennar óútvísuðu landi Faxaflóahafna. Staðgr. lóðarinnar er 1.116.307, landnr. 100070. Stærð lóðar sem fella á úr skrám er 50 ferm. Málinu fylgir bréf Faxaflóahafna sf. dags. 8. september 2009 ásamt lóðarblaði dags. 7. september 2009 og þrem fylgiskjölum A3 dags. 7. september 2009."
40482 (01.11.630.1),http://gamli.rvk.is/vefur/owa/edutils.parse_page?nafn=BN040482,Mýrargata 20,mæliblað,Samþykkt.  Samræmist ákvæðum laga nr. 73/1997.,"Faxaflóahafnir sf. sækja um leyfi til þess að fella lóð nr. 20 við Mýrargötu úr fasteignaskrá og sameina flatamál hennar óútvísuðu landi Faxaflóahafna. Staðgr. lóðarinnar er 1.116.301, landnr. 100066. Stærð lóðar sem fella á úr skrám er 1.425 ferm. Málinu fylgir bréf Faxaflóahafna sf. dags. 8. september 2009 ásamt lóðarblaði dags. 7. september 2009 og þrem fylgiskjölum A3 dags. 7. september 2009."
40479,http://gamli.rvk.is/vefur/owa/edutils.parse_page?nafn=BN040479,"Sólvallagata 67, Vesturvallag.10 og 12, Hringbraut 116-118",mæliblað,Samþykkt.  Samræmist ákvæðum laga nr. 73/1997. Lóðarmarkabreytingin tekur gildi þegar þinglýst hefur verið yfirlýsingu um breytt lóðarmörk.,"Óskað er eftir samþykki byggingarfulltrúa til að breyta mörkum lóðanna Sólvallagötu 67, Vesturvallagötu 10 og 12,  og Hringbraut 116 og 118 eins og sýnt er á meðsendum uppdrætti Landupplýsingadeildar dags. 22. september 2009. Breytingin fellst í því að lóðirnar Vesturvallagata 10 og 12 og Hringbraut 116 og 118 verði allar sameinaðar Sólvallagötu 67 og hverfi úr skrám. Við breytinguna stækkar lóðin Sólvallagata 67 úr 6092 ferm í 7042 ferm, lóðin Hringbraut 116 er 241 ferm og hverfi, lóðin Hringbraut 118 er 255 ferm og hverfi, lóðin Vesturvallagata 10 er 227 ferm og hverfi og lóðin Vesturvallagata 12 er 226 ferm og hverfi. Samanber deiliskipulag sem samþykkt var í skipulagsráði 9. apríl 2008 og í borgarráði 17. apríl 2008. Auglýsing um gildistöku á þessu deiliskipulagi birtist í B-deild stjórnartíðinda 8. júlí 2008."
40483 (01.11.640.2),http://gamli.rvk.is/vefur/owa/edutils.parse_page?nafn=BN040483,Ægisgarður 1,mæliblað,Frestað.,"Faxaflóahafnir sf. sækja um leyfi til breytinga og minnkunar lóðarinnar Ægisgarðs 1-3, staðgr. 1.116.402, landnr. 100073. Lóðin er nú 6.742 ferm, tekið undir götur og hafnarsvæði 620 ferm, verður skráð með óútvísuðu landi Faxaflóahafna. Minnkuð lóð verður því 6.122 ferm. Önnur skráning óbreytt. Málinu fylgir bréf Faxaflóahafna sf. dags. 8. september 2009 ásamt lóðarblaði dags. 7. september 2009 og þrem fylgiskjölum A3 dags. 7. september 2009."
40457 (01.16.230.6),http://gamli.rvk.is/vefur/owa/edutils.parse_page?nafn=BN040457,"57"">Ásvallagata 7",(fsp) frekari fyrirspurn,Afgreitt. Ekki er þörf á deiliskipulagsbreytinga vegna bogadreginna svala en sækja verður um byggingarleyfi sem grenndarkynnt verður ef berst.,Spurt er eftir staðfestingu á að ekki þurfi til að koma deiliskipulagsbreyting vegna fyrirhugaðra framkvæmda sem nánar tiltekið fela í sér að hengja upp léttar bogadregnar svalir úr stáli á rishæð hússins á lóð nr. 7 við Ásvallagötu. Jákvæð fyrirspurn BN039601 dags. 24. mars 2009 Bréf frá eiganda ódags. fylgir erindinu
40455 (01.70.421.6),http://gamli.rvk.is/vefur/owa/edutils.parse_page?nafn=BN040455,"5"">Blönduhlíð 9",(fsp) breytingar á svölum,Afgreitt. Jákvætt að brjóta niður svalir og breikka þær um 15 cm. Útfærsla á handriði úr plexigleri er ekki ásættnleg lausn. Sækja verður um bygginarleyfi sem samþykki meðeiganda fylgir.,Spurt er hvort leyfi fengist til að brjóta ónýtar svalir niður og byggja þær upp aftur með smávægilegum breytingum sem eru að breikka þær um 15 cm. og í staðinn fyrir steypt handrið verði komið fyrir léttri grind klædd með plexigleri á fjölbýlishúsinu á lóð nr. 9 við Blönduhlíð. Bréf frá eigendum með myndum og skýringum ódagsett og jákvæð og neikvæð fyrirspurn BN040323 dags. 25. ágúst 2009 fylgir erindinu.
40488 (02.57.610.2),http://gamli.rvk.is/vefur/owa/edutils.parse_page?nafn=BN040488,Gylfaflöt 32,(fsp) stöðuleyfi,Jákvætt. Í sex vikur á meðan á viðgerð stendur.,Spurt er hvort staðsetja megi til 6 vikna á meðan á viðgerðum stendur 21 ferm. færanlegt timburhús á athafnasvæði Barnasmiðjunnar á lóð nr. 7 við Gylfaflöt.
40462 (00.00.000.0 02),http://gamli.rvk.is/vefur/owa/edutils.parse_page?nafn=BN040462,Kristnibraut 27,(fsp) loka hluta af verönd,Jákvætt. Að uppfylltum skilyrðum enda verði sótt um byggingarleyfi sem taki mið af umsókn skipulagsstjóra á fyrirspurnarblaði.,Spurt er hvort leyfi fengist til að loka hluta af verönd íbúðar á jarðhæð undir svölum á fjölbýlishúsi á lóð nr. 27 við Kristnibraut.
40451 (01.70.220.5),http://gamli.rvk.is/vefur/owa/edutils.parse_page?nafn=BN040451,Mávahlíð 10,(fsp) er íbúð samþykkt,"Jákvætt. Áður gerð íbúð í kjallara hússins var samþykkt þann 11. október 1979. Umsækjandi var Sigríður Tómasdóttir, Mávahlíð 10.",Spurt er hvort að kjallari í fjölbýlishúsinu á lóð nr. 10 við Mávahlíð sé samþykkt sem íbúð.
40399 (01.54.220.7),http://gamli.rvk.is/vefur/owa/edutils.parse_page?nafn=BN040399,Melhagi 7,(fsp) stækka svalir,"Nei. Með vísan til umsagnar skipulagsstjóra frá 18. september 2009, þ.e. ekki verða heimilaðar breiðari svalir en 2.4m til jafns við aðrar svalir á húsinu.",Spurt er um hvort leyfi til að breyta áður samþyktu erindi BN036534 dags. 21. ágúst 2007 og lengja svalir framan við suðurkvisti á 3. hæð fjölbýlishúss á lóð nr. 7  við Melhaga. Útskrift úr gerðabók embættisafgreiðslufundar skipulagsstjóra frá 25. sept. 2009 og umsögn skipulagsstjóra dags. 18. september 2009 fylgja erindinu.
40414 (01.17.120.6),http://gamli.rvk.is/vefur/owa/edutils.parse_page?nafn=BN040414,Skólavörðustígur 8,(fsp) skyndibitastaður,"Nei. Með vísan til umsagnar skipulagsstjóra dags. 24. september 2009, en þar kemur fram að kóti vegna veitingastaða er full nýttur.",Spurt er um leyfi fengist til að opna skyndibitastað í verslunarhúsinu á lóð nr. 8 við Skólavörðustíg. Útskrift úr gerðabók embættisafgreiðslufundar skipulagsstjóra frá 25. sept. 2009 og umsögn skipulagsstjóra dags. 24. sept. 2009 fylgja erindinu.
40420 (01.13.201.1),http://gamli.rvk.is/vefur/owa/edutils.parse_page?nafn=BN040420,Tryggvagata  4-6,(fsp) hvort íbúð á 2.hæð merkt 0204 sé sammþykkt,Nei Ekki er að finna á samþykktum uppdráttum í vörslu embættis byggingarfulltrúa uppdrátt sen sýnir að þessi viðkomandi eign sé samþykkt sem íbúð.,"Spurt er hvort íbúð merkt 0204 sé samþykkt í fjölbýlishúsi nr. 4-6 við Tryggvagötu. Erindi fylgir eignarhlutayfirlýsing dags. 30. maí 1984, neikvætt svarbréf byggingarfulltrúa dags. 13. maí 2003, söluyfirlit dags. 4. október 2007, veðbandayfirlit dags. 15. október 2007, afsal eignar 0204 dags. 5. febrúar 2008 og afsal eignar 0204 dags. 10. ágúst 2009"
40387 (01.17.200.7 02),http://gamli.rvk.is/vefur/owa/edutils.parse_page?nafn=BN040387,Vatnsstígur 3,(fsp) kaffihús/veitingastaður í flokki 3,Afgreitt. Ekki er unnt að taka afstöðu til erindisins samkvæmt fyrirliggjandi gögnum.  Að öðru leyti vísast til umsagnar skipulagsstjóra dags. 24. septem ber 2009.,Spurt er hvort leyfi fengist til að setja upp veitingastað í flokki III í íbúðar og atvinnuhúsinu á lóð nr. 3 við Vatnsstíg. Útskrift úr gerðabók embættisafgreiðslufundar skipulagsstjóra frá 25. sept. 2009 og umsögn skipulagsstjóra dags. 24. sept. 2009 fylgja erindinu.
