nr,url,heimilisfang,tegund,nidurstada,spurning
32420 (01.14.040.6),http://gamli.rvk.is/vefur/owa/edutils.parse_page?nafn=BN032420,Austurstræti 10A,sólskáli,Synjað. Samræmist ekki gildandi deiliskipulagi.,Sótt er um leyfi fyrir sólstofu á svölum 6. hæðar þar sem innréttuð hefur verið íbúð í húsinu á lóð nr. 10A við Austurstræti. Útskrift úr gerðabók embættisafgreiðslufundar skipulagsfulltrúa frá 9. september 2005 fylgir erindinu. Stækkun: 25 ferm. og 75 rúmm. Gjald kr. 5.700 + 4.275
32195 (01.14.040.9),http://gamli.rvk.is/vefur/owa/edutils.parse_page?nafn=BN032195,Austurstræti 14,stigi v/brunavarna,Samþykkt.  Samræmist ákvæðum laga nr. 73/1997. Áskilin lokaúttekt byggingarfulltrúa. Áskilið samþykki heilbrigðiseftirlits.,"Sótt er um leyfi til þess að breyta stiga milli kjallara og fyrstu hæðar, fjarlægja hluta burðarveggja í kjallara,  breyta kjallararými í geymslu í stað setustofu veitingastaðar og bæta brunavarnir kjallara og 1. hæðar hússins á lóð nr. 14 við Austurstræti. Brunahönnun VSI dags. 20. júlí 2005 fylgir erindinu. Gjald kr. 5.700"
32432 (04.94.420.1 05),http://gamli.rvk.is/vefur/owa/edutils.parse_page?nafn=BN032432,Bakkasel 28,br. á svölum,Samþykkt.  Samræmist ákvæðum laga nr. 73/1997.,"Sótt er um leyfi til þess að hækka svalaskýli norðanvert á 1. hæð, koma fyrir tveim nýjum herbergjum á 2. hæð og leiðrétta skráningu vegna breyttrar salarhæðar kjallara raðhúss nr. 28 á lóð nr. 20-36 við Bakkasel.  Stærð: Rúmmálsauking vegna breytts svalaskýlis 4,3 rúmm.  Gjald kr. 5.700 + 241"
32484 (02.40.430.1),http://gamli.rvk.is/vefur/owa/edutils.parse_page?nafn=BN032484,Barðastaðir 61,skjólgirðing,Samþykkt.  Samræmist ákvæðum laga nr. 73/1997.,Sótt er um leyfi til þess að byggja 140cm háa timburgirðingu við verönd á vesturhlið einbýlishússins á lóðinni nr. 61 við Barðastaði. Gjald kr. 5.700
32428 (01.17.432.5),http://gamli.rvk.is/vefur/owa/edutils.parse_page?nafn=BN032428,Barónsstígur 27,reyndart. v/eignaskiptay.,Samþykkt.  Samræmist ákvæðum laga nr. 73/1997. Skilyrt er að eignaskiptayfirlýsingu vegna breytinga í húsinu sé þinglýst til þess að samþykktin öðlist gildi.,Vegna gerðar eignaskiptayfirlýsingar er sótt um samþykki fyrir áður gerðum breytingum á innra fyrirkomulagi á öllum hæðum hússins á lóðinni nr. 27 við Barónsstíg. Samþykki meðeigenda (ódags.) fylgir erindinu. Gjald kr. 5.700
32523 (01.13.621.9),http://gamli.rvk.is/vefur/owa/edutils.parse_page?nafn=BN032523,Bárugata 10,v. eignaskipta,Frestað. Vísað til athugasemda á umsóknarblaði.,Sótt er um leyfi fyrir áður gerðum breytingum á innra fyrirkomulagi í húsinu nr. 10 við Bárugötu. Jafnframt verði skráning hússins leiðrétt. Gjald kr. 5.700
32496 (04.06.510.1),http://gamli.rvk.is/vefur/owa/edutils.parse_page?nafn=BN032496,Bíldshöfði 20,bensínafgreiðsla,Frestað. Vísað til athugasemda á umsóknarblaði.,Sótt er um leyfi til að koma fyrir sjálfsafgreiðslustöð fyrir bensín og olíu á lóðinni nr. 20 við Bíldshöfða. Auk tæknibúnaðar verði reist tæknihús úr steinsteypu og stakstætt skilti við innkeyrslu á lóðina. Skiltið verði mest 6 m á hæð og flatamál verði um 5 ferm. hvor hlið. Erindinu fylgir umboð til handa Atlantsolíu ehf dags. 30. sept. 2004. Stærð: xx Gjald kr. 5.700 + xx
32240 (01.70.421.7),http://gamli.rvk.is/vefur/owa/edutils.parse_page?nafn=BN032240,Blönduhlíð 11,reyndarteikningar af risi,Frestað. Vísað til athugasemda á umsóknarblaði.,Sótt er um samþykki fyrir áður gerðri séreign á rishæð hússins á lóðinni nr. 11 við Blönduhlíð. Erindinu fylgir skoðunarskýrsla byggingarfulltrúa dags. 8. janúar 2005. Gjald kr. 5.700
31552 (01.13.440.9),http://gamli.rvk.is/vefur/owa/edutils.parse_page?nafn=BN031552,Brekkustígur 17,svalir o.fl.,Frestað. Vísað til athugasemda á umsóknarblaði.,Sótt er um leyfi til þess að byggja svalir á austurhlið fyrstu og annarrar hæðar hússins á lóðinni nr. 17 við Brekkustíg. Samþykki meðeigenda (ódags.) fylgir erindinu. Gjald kr. 5.700
32499 (01.82.600.7),http://gamli.rvk.is/vefur/owa/edutils.parse_page?nafn=BN032499,Byggðarendi 13,br. á inni og stækkun húss,"Frestað. Vísað til athugasemda á umsóknarblaði. Málinu vísað til skipulagsfulltrúa til ákvörðunar um grenndarkynningu. Vísað er til uppdrátta A01.01, A21.11, A21.12 og A21.61 dags. 25. ágúst 2005.","Sótt er um leyfi til þess að byggja tveggja hæða steinsteypta viðbyggingu við norðausturhorn, færa bílsgeymslu vestar í kjallara, breyta gluggum á norðurhlið kjallara, taka í notkun áður sökkulrými í kjallara og breyta innra skipulagi beggja hæða einbýlishússins á lóð nr. 13 við Byggðarenda. Umsögn burðarvirkishönnuðar dags. 30. ágúst 2005 fylgir erindinu. Stærð: Áður gerð stækkun kjallara xxx ferm., xxx rúmm., viðbygging xxx Gjald kr. 5.700 + xxx"
32508 (01.82.600.8),http://gamli.rvk.is/vefur/owa/edutils.parse_page?nafn=BN032508,Byggðarendi 15,stækka svalir o.fl,Frestað. Vísað til athugasemda á umsóknarblaði.,"Sótt er um leyfi til þess að stækka svalir við suðurhlið efri hæðar , útbúa geymslurými undir hluta svala og saga niður úr þvottaherbergisglugga fyrir dyr að garði frá neðrihæð einbýlishússins á lóð nr. 15 við Byggðarenda. Stærð: Geymslurými xxx ferm., xxx rúmm. Gjald kr. 5.700 + xx"
30875 (01.45.400.2 02),http://gamli.rvk.is/vefur/owa/edutils.parse_page?nafn=BN030875,Dugguvogur 10,fjölga eignum á efri hæð,Frestað. Vísað til athugasemda á umsóknarblaði.,"Sótt er um leyfi til að fjölga eignum á efri hæð í suðurhluta húss nr. 10 (mhl 02) á lóðinni nr. 8-10 við Dugguvog, úr tveimur í tíu. Jafnframt verði suðurhluti hússins skráður sem sérstakur matshluti, matshluti 03.  Erindinu fylgir skýrsla vegan brunahönnunar dags. 7. júlí 2005. Gjald kr. 5.700"
32515 (01.45.400.2),http://gamli.rvk.is/vefur/owa/edutils.parse_page?nafn=BN032515,Dugguvogur 8-10,br. innra skipul. o.fl.,Frestað. Vísað til athugasemda á umsóknarblaði.,Sótt er um breytingar á innra fyrirkomulagi í húsi nr. 10 á lóðinni nr. 8-10 við Dugguvog. Jafnframt er sótt um leyfi til að fjarlægja veggi milli eignarhluta og samnýta þá til bráðabirgða. Gjald kr. 5.700
32481 (04.64.140.3),http://gamli.rvk.is/vefur/owa/edutils.parse_page?nafn=BN032481,Erluhólar 3,áðurg br v/ eignaskiptas,Frestað. Vísað til athugasemda á umsóknarblaði.,Vegna eignaskiptayfirlýsingar er sótt um samþykki fyrir áður gerðum breytingum á innra fyrirkomulagi íbúðar og geymslurýma í kjallara hússins á lóðinni nr. 3 við Erluhóla. Gjald kr. 5.700
32226 (02.85.010.8),http://gamli.rvk.is/vefur/owa/edutils.parse_page?nafn=BN032226,Fannafold 97,sólstofa,Frestað. Vísað til athugasemda á umsóknarblaði.,"Sótt er um leyfi til þess að byggja sólstofu að suðurhlið einbýlishússins á lóðinni nr. 97 við Fannafold. Stærð: Stækkun sólstofa 21,2 ferm. og 57,8 rúmm. Gjald kr. 5.700 + 3.295"
32500 (00.00.000.0),http://gamli.rvk.is/vefur/owa/edutils.parse_page?nafn=BN032500,Ferjuvogur 2,færanlegar kennslustofur,Frestað. Vísað til athugasemda á umsóknarblaði. Málinu vísað til skipulagsfulltrúa til ákvörðunar um grenndarkynningu. Vísað er til uppdrátta nr. A1.01 og A1.02 dags. 30. ágúst 2005.,"Sótt er um leyfi til þess að setja upp færanlega kennslustofur fyrir Menntaskólann við Sund í skólagarði vestan við bílastæði að Ferjuvogi á lóð nr. 2 við Ferjuvog, skv.uppdr. GLÁMA - KÍM, dags. 30.08.05. Stærð: Færanleg kennslustofar 153,6 ferm., 592,1 rúmm. Gjald kr. 5.700 + 33.750"
32042 (01.08.940.1),http://gamli.rvk.is/vefur/owa/edutils.parse_page?nafn=BN032042,Fiskislóð 5-9,reyndarteikningar,Samþykkt.  Samræmist ákvæðum laga nr. 73/1997. Áskilin lokaúttekt byggingarfulltrúa. Áskilið samþykki heilbrigðiseftirlits.,Sótt er um samþykki fyrir ýmsum breytingum á innra fyrirkomulagi og útliti hússins nr. 5-9 við Fiskislóð sbr. texta á uppdráttum. Yfirlýsing eldvarnahönnuðar dags. 31. ágúst 2005 fylgir erindinu. Gjald kr. 5.700
32102 (01.62.--9.0),http://gamli.rvk.is/vefur/owa/edutils.parse_page?nafn=BN032102,Flugvöllur 106643,vaktað svæði fyrir bíla (2),Synjað. Samræmist ekki deiliskipulagi Reykjavíkurflugvallar.,"Sótt er um leyfi til að koma gera bílastæði fyrir 93 bíla norðan við fraktskála við innanlandsflug á Reykjavíkurflugvelli. Jafnframt er sótt um leyfi fyrir vaktskúr úr timbri og girðingu umhverfis bílastæðin, samkv. uppdr. Páls Björgvinssonar arkitekts, dags. 13.12.2004. Málinu fylgja gögn frá fyrirspurn nr. BN026133 og erindi BN030032 um sama efni. Útskrift úr gerðabók embættisafgreiðslufundar skipulagsfulltrúa frá 9. september 2005 fylgir erindinu. Stærð vaktskúrs: xx Gjald kr. 5.700 + xx"
32436 (02.46.800.1),http://gamli.rvk.is/vefur/owa/edutils.parse_page?nafn=BN032436,Fossaleynir 17,reyndarteikningar,Samþykkt.  Samræmist ákvæðum laga nr. 73/1997. Áskilin lokaúttekt byggingarfulltrúa. Áskilið samþykki heilbrigðiseftirlits.,Sótt er um samþykki fyrir lítils háttar breytingum á innra fyrirkomulagi meðferðarstöðvarinnar Stuðla á lóðinni nr. 17 við Fossaleyni. Gjald kr. 5.700
32497 (01.43.220.8),http://gamli.rvk.is/vefur/owa/edutils.parse_page?nafn=BN032497,Goðheimar 26,"endurnýjun á byggingarleyfi 
áðurgerðar framkvæmdir",Frestað. Skila verður nýrri útgáfu skráningartöflu nr. 4.01B,"Sótt er um endurnýjun á byggingarleyfi nr. 23176 frá 11. júlí 2001 þar sem sótt var um ""leyfi til þess að byggja sólstofu á hluta af svölum þriðju hæðar hússins á lóðinni nr. 26 við Goðheima."" Ódags. samþykki meðeigenda og samþykki allra nágranna nema eins í húsi nr. 24 dags. 30. apríl 2001 eða áritað á teikningu fylgdi erindi 23176. Stærð: Sólstofa 19,2 ferm. og 48,5 rúmm. Gjald kr. 5.700 + 2.765"
31886 (01.46.110.2),http://gamli.rvk.is/vefur/owa/edutils.parse_page?nafn=BN031886,Grensásvegur 11,byggja ofaná og klæða,Frestað. Vísað til athugasemda á umsóknarblaði.,"Sótt er um leyfi til þess að byggja þriðju hæðina ofan á núverandi atvinnuhús, byggja við anddyri á fyrstu hæð, setja lyftu í stigahús frá kjallara og upp á nýja  hæð, byggja neyðarstiga að austurhlið, forsteyptar svalir á stighús 2. hæðar og klæða utan með málmplötum húsið á lóð nr. 11 við Grensásveg. Bréf hönnuðar dags. 28. júní, 26. júlí og 16. ágúst 2005 fylgja erindinu. Stærð: Stækkun 3. hæð 630,5 ferm. og 2620,0 rúmm. Gjald kr. 5.700 + 5.700 + xx"
32483 (01.29.540.6),http://gamli.rvk.is/vefur/owa/edutils.parse_page?nafn=BN032483,Grensásvegur 12,br. veitingahús 1.hæð,Frestað. Vísað til athugasemda á umsóknarblaði.,Sótt er um leyfi til þess að breyta veitingahúsi á fyrstu hæð í verslun og skrifstofu og jafnframt fjölga séreignum um eina í húsinu nr. 12 við Grensásveg. Gjald kr. 5.700
32519 (05.13.360.2),http://gamli.rvk.is/vefur/owa/edutils.parse_page?nafn=BN032519,Gvendargeisli 13B,fjarskiptamastur,Samþykkt.  Samræmist ákvæðum laga nr. 73/1997.,"Sótt er um leyfi til að reisa 16 m hátt stálmastur fyrir fjarskiptabúnað ásamt tækjakassa á lóðinni nr 13B við Gvendargeisla. Stærð: 0,9 ferm., 3,2 rúmm. Gjald kr. 5.700 + 184"
32197 (01.81.520.6),http://gamli.rvk.is/vefur/owa/edutils.parse_page?nafn=BN032197,Háagerði 11,endurnýjun á byggingarleyfi  frá 27.01.2000,Frestað. Lagæra gögn m.t.t. skráningar. Skila nýrri útgáfu af skráningartöflu 4.01B.,"Sótt er um endurnýjun á byggingarleyfi nr. 17758 frá 27. janúar 2000 þar sem sótt var um ""leyfi til að hækka þak á útbyggingu við norðurhlið, byggja yfir svalir á suðurhlið og að sýna ósamþykkta íbúð á efri hæð hússins á lóðinni nr. 11 við Háagerði."" Útskrift úr gerðabók embættisafgreiðslufundar skipulagsfulltrúa frá 19. ágúst 2005 fylgir erindinu.  Samþykki meðeiganda og nokkurra nágranna (á. teikn.) fylgir erindinu. Stækkun: 8,5 ferm., 15,5 rúmm. Gjald kr. 5.700 + 884"
32516 (00.00.000.0 01),http://gamli.rvk.is/vefur/owa/edutils.parse_page?nafn=BN032516,Holtavegur 10,breyting inni og gluggar,Frestað. Vísað til athugasemda eldvarnaeftirlits.,Sótt er um leyfi til að breyta innra fyrirkomulagi notaeiningar 0101í húsi nr. 10 á lóðinni nr. 8-10 við Holtaveg. Jafnframt er sótt um leyfi til að setja þrjá nýja glugga á suðurvegg húsnæðisins. Gjald kr. 5.700
32061 (01.43.010.1),http://gamli.rvk.is/vefur/owa/edutils.parse_page?nafn=BN032061,Holtavegur 23,br. á skrifstofum,Frestað. Vantar yfirlýsingu brunahönnuðar.,Sótt er um leyfi til þess að breyta skrifstofum og snyrtingum kennara á 1. hæð A-álmu Langholtsskóla á lóð nr. 23 við Holtaveg. Gjald kr. 5.700
32172 (01.43.010.1),http://gamli.rvk.is/vefur/owa/edutils.parse_page?nafn=BN032172,Holtavegur 23,lyfta og skábraut,Frestað. Vantar yfirlýsingu brunahönnuðar.,"Sótt er um leyfi til þess að setja upp nýja lyftu aðeins norðar sem opnar að kjallara,1. og 2. hæð ásamt upphitaðri skábraut við aðalinngang á vesturhlið A-álmu Langholtsskóla á lóð nr. 23 við Holtaveg. Gjald kr. 5.700 + 5.700"
32490 (01.11.150.1),http://gamli.rvk.is/vefur/owa/edutils.parse_page?nafn=BN032490,Hólmaslóð 2,breyting inni og úti,Frestað. Vísað til athugasemda á umsóknarblaði.,"Sótt er um leyfi til þess að fjölga um eina eign á fyrstu hæð, breyta útliti og setja upp flóttastiga að norðvesturhlið atvinnuhússins á lóð nr. 2 við Hólmaslóð. Gjald kr. 5.700"
32538 (01.11.140.1),http://gamli.rvk.is/vefur/owa/edutils.parse_page?nafn=BN032538,Hólmaslóð 4,staðsetn. á sorptunnum,Frestað. Vantar mæliblað.,Sótt er um samþykki fyrir leiðréttri afstöðumynd lóðarinnar nr. 4 við Hólmaslóð. Staðsetning sorptunna er leiðrétt. Gjald kr. 5.700
32239 (01.14.310.6),http://gamli.rvk.is/vefur/owa/edutils.parse_page?nafn=BN032239,Hringbraut 28,reyndarteikningar,Frestað. Lagfæra skráningu.,Sótt er um samþykki fyrir núverandi fyrirkomulagi hússins á lóðinni nr. 28 við Hringbraut. Gerð er grein fyrir breytingum á innra fyrirkomulagi og eignarhaldi. Samþykki meðeigenda dags. 26. ágúst 2005 fylgir erindinu. Gjald kr. 5.700
32343 (01.52.401.4),http://gamli.rvk.is/vefur/owa/edutils.parse_page?nafn=BN032343,Hringbraut 89,svalir 1-2 hæð,Frestað. Grenndarkynningu ólokið.,Sótt er um leyfi fyrir svölum og verönd að suðurhlið og timburpall í garði sunnanvert við hús á lóð nr. 89 við Hringbraut. Bréf burðarvirkishönnuðar dags. 16. ágúst 2005 fylgir erindinu. Gjald kr. 5.700
32482 (32.47.260.3),http://gamli.rvk.is/vefur/owa/edutils.parse_page?nafn=BN032482,Jörfagrund 20,þakgluggi með plasti,Frestað. Vísað til athugasemda á umsóknarblaði.,Sótt er um leyfi til þess að koma fyrir þakglugga á mæni raðhúss á lóðinni nr. 20 við Jörfagrund. Samþykki nágranna Jörfagrund 16 og 18 dags. 28. ágúst (og á teikn.) fylgir erindinu. Gjald kr. 5.700
32422 (04.34.230.1),http://gamli.rvk.is/vefur/owa/edutils.parse_page?nafn=BN032422,Klettháls 3,breytt byggingarleyfi,Frestað. Vísað til athugasemda á umsóknarblaði. Stækkun hússins samræmist ekki deiliskipulagi.,"Sótt er um leyfi fyrir breytingum á útliti og innra skipulagi á syðrihluta atvinnuhúsnæðisins á lóðinni nr. 3 við Klettháls Erindinu fylgir samþykki meðeiganda dags. 18. ágúst 2005 og endurskoðuð brunahönnun Línuhönnunar uppfærð 22. ágúst 2005 Stærð: Stækkun 44,7 ferm., 27 rúmm. Gjald kr. 5.700 + 1.539"
32435 (02.68.410.1),http://gamli.rvk.is/vefur/owa/edutils.parse_page?nafn=BN032435,Lambhagaland - 189563,br. á áður samþykktu húsi,Frestað. Vantar vottun Rb.,"Sótt er um leyfi til þess að breyta byggingarlýsingu og byggja úr timbri í stað steinsteypu og klæða með ""Novabrick"" steini starfsmannahús (matshl. 20) í gróðrarstöðinni Lambhaga í Lambhagalandi við Vesturlandsveg. Sjá einnig erindi 22820. Ný skráningartafla fylgir erindinu. Gjald kr. 5.700"
32521 (01.37.--9.3),http://gamli.rvk.is/vefur/owa/edutils.parse_page?nafn=BN032521,Laugardalur,"Ármann, félagsheim. íþróttahús",Frestað. Vísað til athugasemda á umsóknarblaði.,Sótt er um leyfi til að byggja íþrótta- og félagsheimili Ármanns við austurenda félagsheimilis Þróttar nr. 7 við Engjaveg í Laugardal. Stærð: xx Gjald kr. 5.700 + xx
32480 (01.24.010.3),http://gamli.rvk.is/vefur/owa/edutils.parse_page?nafn=BN032480,Laugavegur 118,Grettisg. 89 -br.inni + viðb.,Frestað. Vísað til athugasemda á umsóknarblaði. Málinu vísað til umsagnar skipulagsfulltrúa.,"Sótt er um leyfi til þess að breyta innra fyrirkomulagi á fyrstu hæð, klæða með flísum og byggja skyggni yfir fyrstu hæð  og stækka fjórðu hæð hússins Grettisgata 89 á lóðinni Laugavegur 118. Stærð: Stækkun xx Gjald kr. 5.700 + xx"
32423 (01.15.110.5),http://gamli.rvk.is/vefur/owa/edutils.parse_page?nafn=BN032423,Lindargata 1-3,3 - leikhús,Samþykkt.  Samræmist ákvæðum laga nr. 73/1997. Áskilin lokaúttekt byggingarfulltrúa. Áskilið samþykki heilbrigðiseftirlits.,Sótt er um leyfi til þess að starfrækja leikhús í húsinu nr. 3 á lóðinni nr. 1-3 við Lindargötu. Jafnframt er sótt um að koma fyrir flóttastiga að austurhlið húss og skábraut við aðalinngang á suðurhlið. Gjald kr. 5.700
32383 (01.87.060.1),http://gamli.rvk.is/vefur/owa/edutils.parse_page?nafn=BN032383,Ljósaland 1-25 2-24,geymsla í kj. á nr.2,Frestað. Vísað til athugasemda á umsóknarblaði. Jafnframt er vísað til bókunar skipulagsfulltrúa um gerð deiliskipulags.,"Sótt er um leyfi til þess að byggja kjallara við raðhús nr. 2 á lóðinni nr. 1-25 og 2-24 við Ljósaland. Samþykki meðeigenda dags. 6. september 2005 og útskrift úr gerðabók embættisafgreiðslufundar skipulagsfulltrúa frá 9. september 2005 fylgja erindinu. Stærð: Kjallararými 30,3 ferm., 79,7 rúmm. Gjald kr. 5.700 + 4.543"
32511 (01.55.410.9),http://gamli.rvk.is/vefur/owa/edutils.parse_page?nafn=BN032511,Lynghagi 22,reyndart. v/eignask.,Frestað. Vísað til athugasemda á umsóknarblaði.,Sótt er um leyfi fyrir áður gerðum breytingum á innra fyrirkomulagi hússins nr. 22 við Lynghaga. M.a. er gerð grein fyrir notkun rishæðar og breytingu í kjallara. Gjald kr. 5.700
32434 (01.55.410.8),http://gamli.rvk.is/vefur/owa/edutils.parse_page?nafn=BN032434,Lynghagi 24,"reyndart, 2 íb í kjallara o.fl.",Frestað. Vísað til athugasemda á umsóknarblaði.,"Sótt er um leyfi fyrir áður gerðum breytingum í húsinu nr. 24 við Lynghaga. M.a. er gerð grein fyrir ósamþykktu íbúðarrými í kjallara og fyrirkomulagi í rishæð hússins.  Erindinu fylgir afsal vegna íbúðarrýmis 0001 dags. 19. mars 1963, afsal vegna íbúðarrýmis 0002 dags. 28. nóv 1968, sameignarsamningur dags. 12. júlí 1955. Gjald kr. 5.700"
32510 (01.70.211.3),http://gamli.rvk.is/vefur/owa/edutils.parse_page?nafn=BN032510,Mávahlíð 1,"kvisti bætt við áður samþ
breyting innra skipulag",Frestað. Vísað til athugasemda á umsóknarblaði. Málinu vísað til umsagnar skipulagsfulltrúa.,"Sótt er um leyfi til þess að byggja kvist á austurhlið og breyta innra fyrirkomulagi risíbúðar í húsinu á lóðinni nr. 1 við Mávahlíð. Samþykki meðeigenda (vantar einn) fylgir erindinu á teikn. Stærð: Stækkun 11,1 ferm. og 7,1 rúmm. Gjald kr. 5.700 + 405"
32525 (01.18.442.9),http://gamli.rvk.is/vefur/owa/edutils.parse_page?nafn=BN032525,Óðinsgata 20B,svalir o.fl.,Frestað. Vísað til athugasemda á umsóknarblaði. Málinu vísað til skipulagsfulltrúa til ákvörðunar um grenndarkynningu. Vísað er til uppdráttar dags. 25. ágúst 2005.,"Sótt er um leyfi til þess að byggja svalir við vesturhlið 1. hæðar, stækka glugga í kjallara á austurhlið, stækka kjallaraíbúð í áður geymslurými og breyta innra skipulagi rishæðar í fjölbýlishúsinu á lóð nr. 20B við Óðinsgötu. Samþykki meðeiganda (á teikningu) og samþykki eigenda Óðinsgötu 20 og 18A (á teikningu) fylgja erindinu. Gjald kr. 5.700"
31717 (01.54.110.5),http://gamli.rvk.is/vefur/owa/edutils.parse_page?nafn=BN031717,Reynimelur 26,reyndarteikningar,Frestað. Vísað til athugasemda á umsóknarblaði.,"Vegna eignaskiptayfirlýsingar er sótt um samþykki fyrir núverandi fyrirkomulagi hússins á lóðinni nr. 26 við Reynimel. Gerð er grein fyrir áður gerðri íbúð í kjallara, áður gerðum hringstiga milli kjallara og fyrstu hæðar og áður gerðum millivegg í bílskúr. Skýrsla Rafmagnsveitu Reykjavíkur dags. 10. janúar 1947 fylgir erindinu. Virðingargjörð dags. 21. apríl 1947 fylgir erindinu. Gjald kr. 5.700 + 5.700"
32512 (01.13.320.2),http://gamli.rvk.is/vefur/owa/edutils.parse_page?nafn=BN032512,Seljavegur 31,kvistur,Frestað. Vísað til athugasemda á umsóknarblaði.,Sótt er um leyfi til þess að byggja kvist á norðvesturhlið (götuhlið) hússins á lóðinni nr. 31 við Seljaveg. Samþykki meðeigenda dags. 18. ágúst 2005 fylgir erindinu. Stærð: Stækkun kvistur xx Gjald kr. 5.700 + xx
32506 (00.06.800.0),http://gamli.rvk.is/vefur/owa/edutils.parse_page?nafn=BN032506,Sjávarhólar 125750,br frá  28.06.05,Frestað. Vísað til athugasemda á umsóknarblaði.,Sótt er um leyfi til að breyta stálskemmu á lóð Sjávarhóla á Kjalarnesi frá því sem samþykkt var  28. júní 2005. Hæð skemmu verði minnkuð um 1 m og gólfkóti lækkaður um 20 cm.  Minnkun rúmmáls: xx Gjald kr. 5.700
32438 (01.25.400.2),http://gamli.rvk.is/vefur/owa/edutils.parse_page?nafn=BN032438,Skipholt 50B,breyta og aðlaga bílastæði,Samþykkt.  Samræmist ákvæðum laga nr. 73/1997. Frágangur á lóðamörkum verði gerður í samráði við lóðarhafa aðliggjandi lóða.,Sótt er um leyfi til þess að aðlaga bílastæði að nærliggjandi lóðum á lóð nr. 50B við Skipholt. Samþykki nágranna og meðlóðarhafa (á teikn.) fylgir erindinu. Gjald kr. 5.700
32439 (01.25.410.1),http://gamli.rvk.is/vefur/owa/edutils.parse_page?nafn=BN032439,Skipholt 50C,breyta bílastæðum,Frestað. Breyta verður mæliblaði til samræmis við skipulag.,Sótt er um leyfi til þess að aðlaga bílastæði að nærliggjandi lóðum á lóð nr. 50C við Skipholt. Jafnframt er sótt um að staðsetja sorpgám á lóðinni. Samþykki nágranna og meðlóðarhafa (á teikn.) fylgir erindinu. Gjald kr. 5.700
32440 (01.25.410.2),http://gamli.rvk.is/vefur/owa/edutils.parse_page?nafn=BN032440,Skipholt 50D,breyta bílastæðum,Frestað. Breyta verður mæliblaði til samræmis við skipulag.,Sótt er um leyfi til þess að aðlaga bílastæði að nærliggjandi lóðum á lóð nr. 50D við Skipholt. Samþykki nágranna og meðlóðarhafa (á teikn.) fylgir erindinu. Gjald kr. 5.700
32441 (01.25.450.1),http://gamli.rvk.is/vefur/owa/edutils.parse_page?nafn=BN032441,Skipholt 50e-f,aðlögun á bílastæðum o.fl.,Samþykkt.  Samræmist ákvæðum laga nr. 73/1997. Frágangur á lóðamörkum verði gerður í samráði við lóðarhafa aðliggjandi lóða.,Sótt er um leyfi til þess að aðlaga bílastæði að nærliggjandi lóðum og færa stigrör í húsum á lóðinni nr. 50e og 50f við Skipholt. Samþykki nágranna og meðlóðarhafa (á teikn.) fylgir erindinu. Gjald kr. 5.700
32535 (01.18.120.4 01),http://gamli.rvk.is/vefur/owa/edutils.parse_page?nafn=BN032535,Skólavörðustígur 22A,neyðarstigi og anddyri,Samþykkt.  Samræmist ákvæðum laga nr. 73/1997. Áskilin lokaúttekt byggingarfulltrúa. Áskilið samþykki heilbrigðiseftirlits.,Sótt er um leyfi til þess að breyta innra fyrirkomulagi við anddyri og breyta staðsetningu neyðarstiga á svölum veitingastaðar á annarri hæð hússins nr. 22A við Skólavörðustíg. Samþykki f.h. eiganda dags. 7. september 2005 fylgir erindinu. Gjald kr. 5.700
32524 (01.22.210.3),http://gamli.rvk.is/vefur/owa/edutils.parse_page?nafn=BN032524,Skúlagata 54,reyndarteikningar,Frestað. Vísað til athugasemda á umsóknarblaði.,"Sótt er um samþykki fyrir núverandi fyrirkomulagi hússins nr. 54 á lóðinni nr. 54-54A við Skúlagötu. Gerð er grein fyrir íbúð í kjallara, sýnd er ein íbúð á fyrstu hæð en tvær íbúðir á annarri hæð. Einnig er gerð grein fyrir sólstofu á suðurhlið hússins. Stærð: Stækkun sólstofa xx Gjald kr. 5.700 + xx"
32495 (01.80.400.8),http://gamli.rvk.is/vefur/owa/edutils.parse_page?nafn=BN032495,Stóragerði 13,hurð út í garð,Frestað. Vísað til athugasemda á umsóknarblaði.,Sótt er um leyfi til þess að gera dyr úr stofu að garði hússins nr. 13 við Stóragerði. Á uppdráttum er jafnframt gerð grein fyrir breyttu innra fyrirkomulagi kjallara. Samþykki meðeigenda dags. 24. ágúst 2005 fylgir erindinu. Gjald kr. 5.700
32135 (04.08.480.1),http://gamli.rvk.is/vefur/owa/edutils.parse_page?nafn=BN032135,Stórhöfði 29-31,br. innra frkl,Frestað. Vísað til athugasemda á umsóknarblaði.,Sótt er um leyfi til þess að breyta innra skipulagi á 1.-4. hæð húss nr. 29 á lóð nr. 29-31 við Stórhöfða. Gjald kr. 5.700
32339 (01.37.--9.9),http://gamli.rvk.is/vefur/owa/edutils.parse_page?nafn=BN032339,Sundlaugavegur 30,"reyndarteikn., sundm.",Samþykkt.  Samræmist ákvæðum laga nr. 73/1997. Áskilin lokaúttekt byggingarfulltrúa. Áskilið samþykki heilbrigðiseftirlits.,Sótt er um samþykki fyrir niðurfellingu útljóss í anddyri á 1. hæð og minna fundarherbergi á  2. hæð ásamt brunakröfu á dyrum að geymslu á 1. hæð og lyftudyrum á 2. hæð sundmiðstöðvarinnar í Laugardal á lóð nr. 30 við Sundlaugaveg. Bréf hönnuðar dags. 15. ágúst 2005 og umsögn brunahönnuðar dags. 6. september 2005 fylgja erindinu. Gjald kr. 5.700
32338 (01.37.--9.9),http://gamli.rvk.is/vefur/owa/edutils.parse_page?nafn=BN032338,Sundlaugavegur 30,"reyndarteikn., heilsum. (30A)",Samþykkt.  Samræmist ákvæðum laga nr. 73/1997. Áskilin lokaúttekt byggingarfulltrúa. Áskilið samþykki heilbrigðiseftirlits.,Sótt er um samþykki fyrir áorðnum breytingum við veitingasölu og skrifstofur á 2. hæð ásamt fyrir smá leiðréttingum teikninga kjallara og 1. hæðar heilsumiðstöðvarinnar í Laugardal nr. 30A á lóð nr. 30 við Sundlaugaveg. Bréf hönnuðar dags. 15. ágúst 2005 og umsögn brunahönnuðar dags. 6. september 2005 fylgja erindinu. Gjald kr. 5.700
32513 (01.45.440.4),http://gamli.rvk.is/vefur/owa/edutils.parse_page?nafn=BN032513,Súðarvogur 42,reyndarteikningar,Frestað. Vísað til athugasemda á umsóknarblaði.,Sótt er um leyfi fyrir áður gerðum breytingum á innra fyrirkomulagi í húsinu nr. 42 við Súðarvog. M.a. hefur stigi milli fyrstu og annarrar hæðar verið fjarlægður. Gjald kr. 5.700
32505 (01.41.100.4),http://gamli.rvk.is/vefur/owa/edutils.parse_page?nafn=BN032505,Sæviðarsund 90,viðbygging o.fl.,Frestað. Vísað til athugasemda á umsóknarblaði.,Sótt er um leyfi til þess að stækka forstofu hússins á lóðinni nr. 90 við Sæviðarsund. Jafnframt er sótt um leyfi til þess að breyta útliti glugga á norðausturhlið hússins. Gjald kr. 5.700
32528 (00.05.201.0),http://gamli.rvk.is/vefur/owa/edutils.parse_page?nafn=BN032528,Tindar 125726,vélaskemma og hesthús,Frestað. Vísað til athugasemda á umsóknarblaði. Málinu vísað til umsagnar skipulagsfulltrúa.,Sótt er um leyfi til að byggja vélaskemmu og hesthús á lóð Tinda á Kjalarnesi (landnr. 125726). Skemman verði byggð úr stáli og hesthús óeinangrað. Stærð: xx Gjald kr. 5.700 + xx)
32520 (04.06.310.3),http://gamli.rvk.is/vefur/owa/edutils.parse_page?nafn=BN032520,Vagnhöfði 21,anddyri o.fl.,Frestað. Vísað til athugasemda á umsóknarblaði.,Sótt er um byggingarleyfi á lóðinni nr. 21 við Vagnhöfða. Stækkun: xx Gjald kr. 5.700 + xx)
32132 (01.33.780.2),http://gamli.rvk.is/vefur/owa/edutils.parse_page?nafn=BN032132,Vatnagarðar 12,fella burt milliloft,Samþykkt.  Samræmist ákvæðum laga nr. 73/1997. Áskilin lokaúttekt byggingarfulltrúa.,"Sótt er um að fella burt milliloft sem samþykkt var 21. mars 2000 í hluta atvinnuhússins á lóð nr. 12 við Vatnagarða. Stærð: Áður samþykkt óbyggt milliloft 87,5 ferm. Leiðrétt stærð atvinnuhúss samtals 1119,9 ferm., 6676,2 rúmm. Gjald kr. 5.700"
32237 (04.12.110.1),http://gamli.rvk.is/vefur/owa/edutils.parse_page?nafn=BN032237,Vínlandsleið 2-4,"reyndarteikn., ný starfsemi",Frestað. Vísað til athugasemda á umsóknarblaði.,"Sótt er um leyfi til þess að breyta innra skipulagi á 1. hæð og hluta 2. hæðar vegna innréttinga fyrir líftæknifyrirtæki, þar með talið fyrir breytingu millilofta á 1. hæð og samþykki fyrir hækkun salarhæða á 1. og 2. hæð, stækkun sorp- og tæknirýma ásamt stoðveggjum og breytingu glugga atvinnuhússins á lóð nr. 2-4 við Vínlandsleið. Stærð: Stækkun 59,1 ferm., 27,7 rúmm. Gjald kr. 5.700 + 1.579"
32337 (01.88.000.9),http://gamli.rvk.is/vefur/owa/edutils.parse_page?nafn=BN032337,Vogaland 7,girðing o.fl.,Frestað. Málinu vísað til umsagnar skipulagsfulltrúa.,Sótt er um leyfi til að breyta fyrirkomulagi í garði sem felur í sér að 195 cm hár skjólveggur úr timbri verður framlengdur og útbúinn verður laufskáli (pergóla) vestanvert við húsið á lóð nr. 7 við Vogaland.  Bréf frá hönnuði dags. 15. ágúst 2005 og mótmæli frá eiganda að Undralandi 4 dags. 6. september 2005 fylgja erindinu. Gjald kr. 5.700
32223 (04.93.030.6),http://gamli.rvk.is/vefur/owa/edutils.parse_page?nafn=BN032223,Ystasel 37,viðbygging,Samþykkt.  Samræmist ákvæðum laga nr. 73/1997. Frágangur á lóðamörkum verði gerður í samráði við lóðarhafa aðliggjandi lóða. Með vísan til samþykktar borgarráðs frá 1. september 1998 skal utanhúss- og lóðarfrágangi vera lokið eigi síðar en innan tveggja ára frá útgáfu byggingarleyfis að viðlögðum dagsektarákvæðum 57. gr. skipulags- og byggingarlaga nr. 73/1997.,"Sótt er um leyfi fyrir léttbyggðri viðbyggingu  á austurhlið hússins á lóð nr. 37 við Ystasel. Stækkun: 42,1 ferm. og 219,8 rúmm. Gjald kr. 5.700 + 12.529"
31685 (01.18.110.7),http://gamli.rvk.is/vefur/owa/edutils.parse_page?nafn=BN031685,Þórsgata 15,áður gerð íb í kjallara,Frestað. Lagfæra gögn m.t.t. skráningar.,"Sótt er um samþykki fyrir núverandi fyrirkomulagi og áður gerðri séreign (eign 0001, ósamþ. íb.) í kjallara matshluta 01 á lóðinni nr. 15 við Þórsgötu. Jafnframt er erindi 23587 dregið til baka. Skoðunarskýrslur byggingarfulltrúa dags. 20. desember 2001 (endurskoðað 3. desember 2004) og 3. febrúar 2004 fylgja erindinu. Afsal fyrir kjallaraíbúð, innfært 26. júní 2001, fylgir erindinu.  Samþykki eigenda matshluta 01 (ódags.) fylgir erindinu. Gjald kr. 5.700 + 5.700"
32545 (01.08.950.2),http://gamli.rvk.is/vefur/owa/edutils.parse_page?nafn=BN032545,Fiskislóð 1,breyting á mæliblaði,Samþykkt.  Samræmist ákvæðum laga nr. 73/1997.,"Lagt fram nýtt mæliblað, dags. september 2005, fyrir lóðina nr. 1 við Fiskislóð. Breyting í ágúst 2005: Breyting á byggingarreit og skipulagi lóðar. Breyting í september 2005: Legu tengigötu breytt og fækkun bílastæða (2stk.)"
32541 (04.93.030.6),http://gamli.rvk.is/vefur/owa/edutils.parse_page?nafn=BN032541,Ystasel 37,lóðamarkabreyting,Samþykkt.  Samræmist ákvæðum laga nr. 73/1997.,"Lögð fram tillaga Landupplýsingadeildar framkvæmdasviðs, dags. 7. september 2005, að breytingu á lóðamörkum lóðarinnar nr. 7 við Ystasel. Lóðin er 3289 ferm. sbr. lóðarsamning nr. 37180/85 dags. 11. september 198. Bætt við lóðina úr óútvísuðu landi 80 ferm. Lóðin verður 3369 ferm. Sjá samþykkt skipulagsráðs 13. apríl 2005."
32145 (01.18.442.0),http://gamli.rvk.is/vefur/owa/edutils.parse_page?nafn=BN032145,Bjargarstígur 16,(fsp) stigahús og svalir,Jákvætt. Að uppfylltum skilyrðum og með vísan til athugasemda á fyrirspurnarblaði og umsagnar skipulagsfulltrúa.,"Spurt er hvort leyft yrði að byggja svalir á 1. og 2. hæð og viðbyggingu við kjallara , 1. hæð og þakhæð með nýjum stiga milli allra hæða á baklóð einbýlishússins á lóð nr. 16 við Bjargarstíg. Bréf fyrirspyrjanda dags. júlí 2005, umsögn skipulagsfulltrúa dags. 8. september 2005 og útskrift úr gerðabók embættisafgreiðslufundar skipulagsfulltrúa frá 10. september 2005 fylgja erindinu."
32514,http://gamli.rvk.is/vefur/owa/edutils.parse_page?nafn=BN032514,Dyngjuvegur 10,(fsp) dyr að lóð úr svefnherb.,Jákvætt. Að uppfylltum skilyrðum enda verði sótt um byggingarleyfi.,Spurt er hvort leyft yrði að koma fyrir dyrum að lóð úr svefnherbergi í kjallara hússins nr. 10 við Dyngjuveg.
32491 (01.38.400.7),http://gamli.rvk.is/vefur/owa/edutils.parse_page?nafn=BN032491,Hólsvegur 10,(fsp) sþ. íbúð í kjallara,Jákvætt. Að uppfylltum skilyrðum enda verði sótt um byggingarleyfi.,Spurt er hvort samþykki fengist fyrir íbúð í kjallara hússins nr. 10 við Hólsveg. Uppdráttur Rafmagnsveitu Reykjavíkur samþykktur 8. ágúst 1944 fylgir erindinu. Skoðunarskýrsla byggingarfulltrúa dags. 6. september 2005 fylgir erindinu.
32448 (04.64.510.4 01),http://gamli.rvk.is/vefur/owa/edutils.parse_page?nafn=BN032448,Krummahólar 33,(fsp) bílskúr,Jákvætt. Með vísan til útskriftar úr gerðabók embættisafgreiðslufundar skipulagsfulltrúa.,Spurt er hvort leyft yrði að byggja bílskúr að vesturgafli húss nr. 33 á raðhúsalóð nr. 33-47 við Krummahóla. Útskrift úr gerðabók embættisafgreiðslufundar skipulagsfulltrúa frá 9. september 2005 fylgir erindinu.
32486 (04.99.830.2),http://gamli.rvk.is/vefur/owa/edutils.parse_page?nafn=BN032486,Lambasel 3,(fsp) hækka kóta o.fl.,Frestað. Málinu vísað til umsagnar skipulagsfulltrúa.,"Spurt er hvort leyft yrði að hækka gólfkóta hússins á lóðinni nr. 3 við Lambasel um 30 cm, úr 93.5 í 93.8 m. Jafnframt er spurt hvort leyft yrði að hækka salarhæðir í húsi, annrsvegar um 20 cm, úr 3 m í 3.2 m, en hins vegar um 60 cm, úr 3,6 m í 4,2 m."
32501 (01.34.600.7),http://gamli.rvk.is/vefur/owa/edutils.parse_page?nafn=BN032501,Laugarnesvegur 74,(fsp)  glerhús og svalir,Frestað. Málinu vísað til umsagnar skipulagsfulltrúa.,Spurt er hvort leyft yrði að byggja glerskála og koma fyrir svölum á suðurhlið fjórðu hæðar hússins nr. 74 við Laugarnesveg.
32427 (01.25.000.1),http://gamli.rvk.is/vefur/owa/edutils.parse_page?nafn=BN032427,Laugavegur 168,(fsp) byggja hluta húss,Jákvætt. Með vísan til umsagnar skipulagsfulltrúa.,Spurt er hvort leyft yrði að byggja þann hluta hússins nr. 168 við Laugaveg sem samþykktur var árið 1963 en aldrei byggður. Málinu fyrir umsögn skipulagsfulltrúa dags. 9. september 2005.
32477 (02.54.481.0),http://gamli.rvk.is/vefur/owa/edutils.parse_page?nafn=BN032477,Lyngrimi 20,(fsp)viðbygging/sólstofa,Jákvætt vegna sólstofu enda verði sótt um byggingarleyfi. Neikvætt vegna fjölgunar bílastæða.,Spurt er hvort leyft yrði að byggja sólstofu að suðurhlið hússins nr. 20 við Lyngrima. Jafnframt er spurt hvort leyft yrði að bæta við einu bílastæði á lóðinni.
32533 (04.12.520.1),http://gamli.rvk.is/vefur/owa/edutils.parse_page?nafn=BN032533,Maríubaugur 41-51,fsp. sólstofur,Frestað. Málinu vísað til umsagnar skipulagsfulltrúa.,Spurt er hvort leyft yrði að byggja sex sólstofur að suðurhlið raðhússins nr. 41-51 við Maríubaug. Bréf f.h. eigenda dags. 6. september 2005 fylgir erindinu.
32527 (01.18.201.0),http://gamli.rvk.is/vefur/owa/edutils.parse_page?nafn=BN032527,Skólavörðustígur 13 og 13A,(fsp) hækka framhús ofl.,Frestað. Málinu vísað til umsagnar skipulagsfulltrúa.,Spurt er hvort leyft yrði að byggja viðbyggingu að norðaustuhlið og hækka rishæð hússins nr. 13A við Skólavörðustíg. Jafnframt er spurt hvort leyft yrði að tengja saman á öllum hæðum húsin nr. 13 og 13A við Skólavörðustíg.
32507 (04.23.240.2),http://gamli.rvk.is/vefur/owa/edutils.parse_page?nafn=BN032507,Stangarhylur 4,(fsp) íbúð,Nei. Ekki er gert ráð fyrir íbúðum á svæðinu samkvæmt skipulagi.,Spurt er hvort leyft yrði að útbúa íbúð á efri hæð matshluta 02 á lóðinni nr. 4 við Stangarhyl.
32479 (01.53.210.8),http://gamli.rvk.is/vefur/owa/edutils.parse_page?nafn=BN032479,Sörlaskjól 7,(fsp) samþykki á íbúð,Jákvætt. Að uppfylltum skilyrðum enda verði sótt um byggingarleyfi.,Spurt er hvort samþykki fengist fyrir áður gerðri íbúð í kjallara hússins nr. 7 við Sörlaskjól. Afsalsbréf dags. 28. desember 1946 og virðingargjörð dags. 6. febrúar 1948 fylgja erindinu. Álit Kærunefndar Fjöleignahúsamála dags. 18. október 2004 fylgir erindinu. Skoðunarskýrsla byggingarfulltrúa dags. 26. apríl 2005 fylgir erindinu. Bréf fyrirspyrjenda dags. 29. ágúst 2005 fylgir erindinu.
32489 (01.13.600.8),http://gamli.rvk.is/vefur/owa/edutils.parse_page?nafn=BN032489,Vesturgata 17,(fsp) fjarlægja geymsluhús,Ekki er tekin afstaða til erindisins þar sem fyrirspyrjandi er hvorki eigandi umrædds húss eða meðlóðarhafi.,Spurt er hvort leyft yrði að fjarlægja geymsluskúr á baklóð lóðanna nr. 17 og 17A við Vesturgötu.
