nr,url,heimilisfang,tegund,nidurstada,spurning
52225 (01.11.980.1),http://gamli.rvk.is/vefur/owa/edutils.parse_page?nafn=BN052225,Austurbakki 2,Fjölbýlis- og verzlunarhúsnæði - nýtt mál,Frestað. Málinu vísað til umsagnar skipulagsfulltrúa.,"Sótt er um leyfi til að breyta erindi BN050486 sem felst m.a. í því að umfangi og formi húsa hefur verið breytt, bætt við hæð í bílakjallara, yfirbyggð göngugata fjarlægð og íbúðum fækkað úr 106 í 71 í verslunar- og íbúðarhúsi á lóð nr. 2 við Austubakka. Stækkun: A-rými: x ferm., x rúmm. B-rými x ferm. Gjald kr. 11.000"
52115 (01.11.980.1),http://gamli.rvk.is/vefur/owa/edutils.parse_page?nafn=BN052115,Austurbakki 2,"T1, T2, T3 - Breyting","Samþykkt.  Samræmist ákvæðum laga nr. 160 / 2010. Frágangur á lóðamörkum verði gerður í samráði við lóðarhafa aðliggjandi lóða. Með vísan til samþykktar umhverfis- og skipulagsráðs, dags. 22. maí 2013, skal lóðarhafi, í samráði við byggingarfulltrúa, setja upp skilti til kynningar á fyrirhuguðum framkvæmdum á byggingarstað. Í samræmi við samþykkt umhverfis- og skipulagsráðs dags. 9. október 2013 skal vélknúinn þvottabúnaður vera til staðar á byggingarlóð sem tryggi að vörubílar og aðrar þungavinnuvélar verði þrifnar áður en þær yfirgefa byggingarstað. Samráð skal haft við byggingarfulltrúa um staðsetningu búnaðarins. Sérstakt samráð skal haft við yfirverkfræðing byggingarfulltrúa vegna jarðvinnu. Áskilin lokaúttekt byggingarfulltrúa. Áskilið samþykki heilbrigðiseftirlits. Áskilið samþykki Vinnueftirlits ríkisins. Skilyrt er að ný eignaskiptayfirlýsing sé samþykkt fyrir útgáfu byggingarleyfis, henni verður þinglýst eigi síðar en við fokheldi.","Sótt er um leyfi til að breyta erindi BN048688 þannig að efsta hæð húsanna T1, T2 og T3 hækkar um 50cm á reit 1 lóð nr. 2 við Austurbakka. Stækkun:  385,4 rúmm. Gjald kr. 10.100"
51334 (01.14.040.6),http://gamli.rvk.is/vefur/owa/edutils.parse_page?nafn=BN051334,Austurstræti 10A,"Útbygging 5.hæð, lyfta o.fl.",Frestað. Vísað til athugasemda á umsóknarblaði.,"Sótt er um leyfi til  stækkunar á íbúð á 5. hæð sem felst í nýrri viðbyggingu á norðurhlið og hækkun þaks að hluta þótt mænishæð verði óbreytt, að koma fyrir setlaug á svölum, auk smærri breytinga innanhúss í verslunar- og skrifstofuhúsi á lóð nr. 10A við Austurstræti. Stækkun x ferm., x rúmm. Meðfylgjandi er samþykki eigenda dags. 23. júní 2016.   Lögð er fram umsögn skipulagsfulltrúa dags. 08.12.2016 við fsp. SN160900. Gjald kr. 10.100"
52269 (01.43.430.1),http://gamli.rvk.is/vefur/owa/edutils.parse_page?nafn=BN052269,Álfheimar 74,Stækka veitingastofu - mhl.1,Frestað. Vísað til athugasemda á umsóknarblaði.,Sótt er um leyf til að stækka veitingastofu í rými 0124 þannig að hún stækkar inn í rými 0123 og að gera nýjan inngang á norðausturhlið  í mhl. 01 í húsinu á lóð nr. 74 við Álfheima.  Fundargerð frá Húsfélagi Glæsibær dags. 15 sept. 2016 fylgir vegan útlitsbreytingar fylgir.  Gjald kr. 11.000
52120 (01.26.200.2),http://gamli.rvk.is/vefur/owa/edutils.parse_page?nafn=BN052120,Ármúli 5,Innrétta og opna veitingastaði,Frestað. Vísað til athugasemda á umsóknarblaði.,"Sótt er um leyfi til að breyta innra skipulagi og innrétta veitingastað í flokki ll, teg. a í húsi á lóð nr. 5 við Ármúla. Gjald kr. 10.100"
51531 (01.16.220.5),http://gamli.rvk.is/vefur/owa/edutils.parse_page?nafn=BN051531,Ásvallagata 27,Endurnýja þak og byggja tvo kvisti,Frestað. Vísað til athugasemda á umsóknarblaði.,"Sótt er um leyfi til að byggja tvo kvisti samhliða endurnýjun á þaki, ásamt veggsvölum á bakhlið á 1. og 2. hæð og rishæð í fjölbýlishúsi á lóð nr. 27 við Ásvallagötu. Útskrift úr gerðabók embættisafgreiðslufundar skipulagsfulltrúa frá 26. ágúst 2016 fylgir erindinu ásamt umsögn skipulagsfulltrúa dags. 26. ágúst 2016. Einnig útskrift úr gerðabók embættisafgreiðslufundar skipulagsfulltrúa frá 19. janúar 2017. Erindi var grenndarkynnt frá 6. desember 2016 til og með 9. janúar 2017. Engar athugasemdir bárust. Stækkun A-rými 0 ferm., x rúmm. Gjald kr. 10.100"
51984 (01.82.401.5),http://gamli.rvk.is/vefur/owa/edutils.parse_page?nafn=BN051984,Básendi 12,Reyndarteikningar,Frestað. Vísað til athugasemda á umsóknarblaði.,"Sótt er um samþykki á þegar gerðum breytingum, sem felast í að þaki var breytt í upphafi sem og gluggum, á sjöunda áratugnum var innréttuð íbúð í kjallara og múrkerfi og einangrun seinna bætt á fjölbýlishúsið á lóð nr. 12 við Básenda. Útskrift úr gerðabók embættisafgreiðslufundar skipulagsfulltrúa frá 19. janúar 2017 fylgir erindinu ásamt umsögn skipulagsfulltrúa dags. 18. janúar 2017. Meðfylgjandi er bréf arkitekts dags.. 15.11. 2016. Gjald kr. 10.100"
52271 (01.18.600.9),http://gamli.rvk.is/vefur/owa/edutils.parse_page?nafn=BN052271,Bergstaðastræti 49,Viðbygging,Frestað. Vísað til athugasemda á umsóknarblaði.,"Sótt er um leyfi til að byggja viðbyggingu við kjallara og nýjan stiga milli kjallara og 1. hæðar einbýlishúss á lóð nr. 49 við Bergstaðastræti. Erindi fylgir umsögn Minjastofnunar Íslands dags. 10. október 2016 og umsögn burðarvirkishönnuðar dags. 16. janúar 2017. Stækkun:  19,6 ferm., 118,9 rúmm. Gjald kr. 11.000"
52001 (01.19.032.6),http://gamli.rvk.is/vefur/owa/edutils.parse_page?nafn=BN052001,Bergþórugata 23,Breyta eldvörnum í notkunarflokk 4,Frestað. Málinu vísað til umsagnar skipulagsfulltrúa.,Sótt er um breytingu á áður samþykktu erindi BN049455 sem felst í að breyta skilgreiningu mannvirkis úr notkunarflokki 3 í notkunarflokk 4 í fjölbýlishúsi á lóð nr. 23 við Bergþórugötu. Lögð er fram umsögn skipulagsfulltrúa við erindi BN051780 dags. 11.11.2016 Gjald kr. 10.100
52263 (04.05.640.1),http://gamli.rvk.is/vefur/owa/edutils.parse_page?nafn=BN052263,Bíldshöfði 7,Stækka framleiðslusal,Frestað. Málinu vísað til umsagnar skipulagsfulltrúa.,"Sótt er um leyfi til að byggja við núverandi framleiðslusal mhl. 25 og verða veggir að hálfu steyptir og að hálfu úr samlokustáleiningum í húsinu á lóð nr. 7 við Bíldshöfða.  Stækkun: 193,2 ferm., 1.249,9 rúmm.  Gjald kr. 11.000"
52176 (04.06.200.1),http://gamli.rvk.is/vefur/owa/edutils.parse_page?nafn=BN052176,Bíldshöfði 9,Dvergshöfði 2 - Breytingar inn og úti,Frestað. Málinu vísað til umsagnar skipulagsfulltrúa.,"Sótt er um leyfi til að breyta innra skipulagi kjallara, 2., 7., og 8. hæðar ásamt utanhússbreytingum sem felast í að  koma fyrir nýjum glugga á norðurhlið 8. hæðar og nýjum hringstiga frá 8. hæð niður á 7. hæð austanmegin í Dvergshöfða 2, á lóð nr. 9 við Bíldshöfða.  Gjald kr. 10.100"
52182 (01.18.221.9),http://gamli.rvk.is/vefur/owa/edutils.parse_page?nafn=BN052182,Bjarnarstígur 12,Reyndarteikningar,Frestað. Vísað til athugasemda eldvarnaeftirlits á umsóknarblaði.,"Sótt er um samþykki fyrir áður gerðum breytingum v/lokaúttektar, sjá erindi BN039938 í fjölbýlishúsi á lóð nr. 12 við Bjarnarstíg. Gjald kr. 10.100"
52193 (01.22.010.7),http://gamli.rvk.is/vefur/owa/edutils.parse_page?nafn=BN052193,Borgartún 8-16A,Katrínartún 2 - Reyndarteikningar 1.-3.hæð og kjallari,Samþykkt.  Samræmist ákvæðum laga nr. 160 / 2010. Frágangur á lóðamörkum verði gerður í samráði við lóðarhafa aðliggjandi lóða. Áskilin lokaúttekt byggingarfulltrúa. Áskilið samþykki heilbrigðiseftirlits. Áskilið samþykki Vinnueftirlits ríkisins.,"Sótt er um samþykki fyrir áður gerðum breytingum sem orðið hafa á byggingartíma á kjöllurum, jarðhæð, 2. og 3. hæð og í glerskála, sjá erindi BN035574, BN037406, BN03748 og BN041025, vegna lokaúttektar á verslunar- og skrifstofuhúsinu Katrínartún 2, H1 og glerskála, G1 á lóð nr. 8-16A við Borgartún. Erindi fylgir uppfærð brunahönnun frá EFLU dags. 20. desember 2016. Gjald kr. 10.100"
52229 (01.22.010.7),http://gamli.rvk.is/vefur/owa/edutils.parse_page?nafn=BN052229,Borgartún 8-16A,"BK5 - Stækkun -3 - bílaþvottastöð, BN047805",Frestað. Vísað til athugasemda á umsóknarblaði.,"Sótt er um leyfi til að stækka bílakjallara og innrétta bílaþvottastöð, sjá erindi BN047805, en við það fækkar bílastæðum um fjögur í bílageymslu á lóð nr. 8-16A við Borgartún. Stækkun:  xx ferm., xx rúmm. Gjald kr. 11.000"
52264 (01.24.120.5),http://gamli.rvk.is/vefur/owa/edutils.parse_page?nafn=BN052264,Brautarholt 8,Brunamerkingar o.fl. - BN051406,Frestað. Vísað til athugasemda á umsóknarblaði.,Sótt er um breytingar á erindi BN051406 sem felast í breytingu á brunamerkingu vegna lokaúttektar í húsi á lóð nr. 8 við Brautarholt. Gjald kr. 11.000
51765 (01.13.430.7),http://gamli.rvk.is/vefur/owa/edutils.parse_page?nafn=BN051765,Brekkustígur 10,Endurnýjun BN047645 - hækka mæli - kvistir,Samþykkt.  Samræmist ákvæðum laga nr. 160 / 2010. Með vísan til samþykktar borgarráðs frá 1. september 1998 skal utanhúss- og lóðarfrágangi vera lokið eigi síðar en innan tveggja ára frá útgáfu byggingarleyfis að viðlögðum dagsektum sbr. greinar nr. 2.4.7 og 2.9.2 í byggingarreglugerð nr. 112/2012. Áskilin lokaúttekt byggingarfulltrúa.,Sótt er á ný um leyfi til að hækka mæni og bæta við kvistum í húsi á lóð nr. 10 við Brekkustíg. Sjá BN047645. Lögð eru fram eftirfarandi gögn sem fylgdu BN047645:  Umsögn Minjastofnunar dags . 27.06.2014. Umsögn skipulagsfulltrúa dags. 04.07.2014. Umsögn Borgarsögusafns dags. 05.08.2014. Gjald kr. 10.100
52183 (01.71.300.7),http://gamli.rvk.is/vefur/owa/edutils.parse_page?nafn=BN052183,Drápuhlíð 38,Bílskúr - stigi niður í garð o.fl.,Frestað. Vísað til athugasemda á umsóknarblaði.,"Sótt er um leyfi til að byggja staðsteyptan bílskúr á vesturhlið húss, saga niður úr glugga á vesturhlið íbúðar 0101, koma fyrir hurð og stálbrú út á bílskúr og tröppur frá bílskúrsþaki niður á lóð fjölbýlishúss nr. 38 við Drápuhlíð.  Samþykki meðlóðarhafa  fylgir erindinu. Lögðfram umsögn skipulagsfulltrúa SN160442 dags. 10. júní 2016.  Stærð bílskúr:  28,0 ferm., 88,2 rúmm.  Gjald kr. 10.100"
52114 (01.45.400.2),http://gamli.rvk.is/vefur/owa/edutils.parse_page?nafn=BN052114,Dugguvogur 8-10,Reyndarteikningar 1. hæð hús nr. 10,Frestað. Vísað til athugasemda á umsóknarblaði.,Sótt er um leyfi fyrir áður gerðum breytingum innan- og utanhúss í húsinu nr. 10 á lóð nr. 8- 10 við Dugguvog.  Gjald kr. 10.100
52107 (04.06.140.3),http://gamli.rvk.is/vefur/owa/edutils.parse_page?nafn=BN052107,Dvergshöfði 27,Íbúðir,Frestað. Vísað til athugasemda á umsóknarblaði og umsagnar skipulagsfulltrúa dags. 19. janúar 2017.,Sótt er um leyfi til að innrétta íbúðir á 2. hæð í atvinnuhúsi á lóð nr. 27 við Dvergshöfða. Útskrift úr gerðabók embættisafgreiðslufundar skipulagsfulltrúa frá 19. janúar 2017 fylgir erindinu ásamt umsögn skipulagsfulltrúa dags. 19. janúar 2017. Gjald kr. 10.100
52228 (01.85.010.1),http://gamli.rvk.is/vefur/owa/edutils.parse_page?nafn=BN052228,Efstaland 26,3.hæð - -Gistiheimili fl.2,Frestað. Vísað til athugasemda á umsóknarblaði.,"Sótt er um leyfi til að koma fyrir öðrum flóttastiga frá svölum og innrétta gististað í flokki II, teg. gistiheimili fyrir 40 gesti í 21 herbergi á 3. hæð verslunar- og skrifstofuhúss á lóð nr. 26 við Efstaland. Gjald kr. 11.000"
52180 (04.03.010.1),http://gamli.rvk.is/vefur/owa/edutils.parse_page?nafn=BN052180,Eirhöfði 2-4,Breyting - BN051154,Frestað. Vísað til athugasemda á umsóknarblaði.,"Sótt er um leyfi til að breyta áður samþykktu erindi BN051154, sem felst í uppfærslu á brunavörnum og breytingum á gluggaskipan hússins á lóð nr. 2-4 við Eirhöfða.  Gjald kr. 10.100"
52108 (01.11.523.0),http://gamli.rvk.is/vefur/owa/edutils.parse_page?nafn=BN052108,Fiskislóð 10,Breyting á geymslurými sbr. BN048940,Frestað. Vísað til athugasemda á umsóknarblaði.,Sótt er um leyfi til að breyta áður samþykktu erindi BN048940 þannig að hætt er við geymslu undir stiga og verður það opið rými í húsinu á lóð nr. 10 við Fiskislóð.  Gjald kr. 10.100
52135 (01.08.910.1),http://gamli.rvk.is/vefur/owa/edutils.parse_page?nafn=BN052135,Fiskislóð 31,Fjarskiptabúnaður - loftnetsúla,Frestað. Vísað til athugasemda eldvarnaeftirlits á umsóknarblaði.,Sótt er um leyfi til að koma upp fjarskiptabúnaði innandyra og farsímaloftneti frá NOVA á norðurgafl sem stendur 3 metra upp frá þakbrún hússins á lóð nr. 31 við Fiskislóð. Útskrift úr gerðabók embættisafgreiðslufundar skipulagsfulltrúa frá 19. janúar 2017 fylgir erindinu.  Samþykki eiganda fylgir dags. 14. desember 2016. Gjald kr. 10.100
52100 (01.08.760.2),http://gamli.rvk.is/vefur/owa/edutils.parse_page?nafn=BN052100,Fiskislóð 49-51,Líkamsræktarstöð,Frestað. Vísað til athugasemda á umsóknarblaði.,"Sótt er um leyfi til að breyta geymslu og verkstæði á fyrstu og annarri hæð í líkamsræktarstöð í húsi nr. 51 á lóð nr. 49 - 51 við Fiskislóð.  Einnig er lögð fram umsögn/tölvupóstur Faxaflóahafna sf., dags. 19. janúar 2017. Útskrift úr gerðabók embættisafgreiðslufundar skipulagsfulltrúa frá 19. janúar 2017 fylgir erindinu ásamt umsögn skipulagsfulltrúa dags. 19. janúar 2017. Bréf frá hönnuði dags. 22 des. 2017 Gjald kr. 10.100"
51996 (01.13.410.7),http://gamli.rvk.is/vefur/owa/edutils.parse_page?nafn=BN051996,Framnesvegur 11,11A - Fjarlægja burðarvegg - hurð út í garð,Frestað. Málinu vísað til skipulagsfulltrú til ákvörðunar um grenndarkynningu. Vísað er til uppdráttar nr. 0001 dags. 6. desember 2016.,"Sótt er um leyfi til að fjarlægja burðarvegg á milli eldhúss og stofu á fyrstu hæð, síkka glugga á bakhlið og koma fyrir hurð með þrepum út í garð á húsinu á lóð nr. 11A við Framnesveg.  Útskrift úr gerðabók embættisafgreiðslufundar skipulagsfulltrúa frá 6. janúar 2017 fylgir erindinu ásamt umsögn skipulagsfulltrúa dags. 30. desember 2016. Fyrirspurn BN051900 fylgir erindinu.  Gjald kr. 10.100"
52247 (01.19.420.5),http://gamli.rvk.is/vefur/owa/edutils.parse_page?nafn=BN052247,Freyjugata 39,Eldvarnarhurð - 2.hæð,Frestað. Vísað til athugasemda á umsóknarblaði.,Sótt er um leyfi til að setja eldvarnarhurð við stigagang 2. hæðar í húsinu á lóð nr. 39 við Freyjugötu.  Gjald kr. 11.000
52218 (01.18.421.0),http://gamli.rvk.is/vefur/owa/edutils.parse_page?nafn=BN052218,Freyjugata 7,Breyting í viðbyggingu,Samþykkt.  Samræmist ákvæðum laga nr. 160 / 2010. Áskilin lokaúttekt byggingarfulltrúa.,Sótt er um leyfi til að breyta stofu í herbergi í húsi á lóð nr. 7 við Freyjugötu. Gjald kr. 11.000
52124 (05.05.350.2),http://gamli.rvk.is/vefur/owa/edutils.parse_page?nafn=BN052124,Friggjarbrunnur 18,Stækka þaksvalir BN048703,Frestað. Samþykki meðeigenda þarf að fylgja erindi.,"Sótt er um leyfi til að stækka þaksvalir íbúðar á efstu hæð, sjá erindi BN048703, fjölbýlishúss á lóð nr. 18 við Friggjarbrunn. Gjald kr. 10.100"
51965 (01.44.410.1),http://gamli.rvk.is/vefur/owa/edutils.parse_page?nafn=BN051965,Gnoðarvogur 44-46,46 - Veitingastaður,Samþykkt.  Samræmist ákvæðum laga nr. 160 / 2010. Áskilin lokaúttekt byggingarfulltrúa. Áskilið samþykki heilbrigðiseftirlits. Áskilið samþykki Vinnueftirlits ríkisins.,Sótt er um leyfi til að innrétta veitingarstað í flokki II C í mhl. 02 í rými 0101 sem á að vera með sæti fyrir 15 gesti og einnig vera með afgreiðslu úr bílalúgu á húsinu á lóð nr. 46 við Gnoðarvog. Samþykki fylgir á teikningum dags. 13. des. 2016. Gjald kr. 10.100
52237 (01.44.410.1),http://gamli.rvk.is/vefur/owa/edutils.parse_page?nafn=BN052237,Gnoðarvogur 44-46,Útihurð - breyting,Samþykkt.  Samræmist ákvæðum laga nr. 160 / 2010. Með vísan til samþykktar borgarráðs frá 1. september 1998 skal utanhúss- og lóðarfrágangi vera lokið eigi síðar en innan tveggja ára frá útgáfu byggingarleyfis að viðlögðum dagsektum sbr. greinar nr. 2.4.7 og 2.9.2 í byggingarreglugerð nr. 112/2012. Áskilin lokaúttekt byggingarfulltrúa. Áskilið samþykki heilbrigðiseftirlits.,Sótt er um breytingu á erindi BN051779 vegna lokaúttektar sem felst í að breyta opnun á útihurð á veitingastað í húsi á lóð nr. 44 við Gnoðarvog. Gjald kr. 11.000
51103 (01.18.211.4),http://gamli.rvk.is/vefur/owa/edutils.parse_page?nafn=BN051103,Grettisgata 20A,Breyting á kvistum,"Samþykkt.  Samræmist ákvæðum laga nr. 160 / 2010. Með vísan til samþykktar borgarráðs frá 1. september 1998 skal utanhúss- og lóðarfrágangi vera lokið eigi síðar en innan tveggja ára frá útgáfu byggingarleyfis að viðlögðum dagsektum sbr. greinar nr. 2.4.7 og 2.9.2 í byggingarreglugerð nr. 112/2012. Skilyrt er að ný eignaskiptayfirlýsing sé samþykkt fyrir útgáfu byggingarleyfis, henni verður þinglýst eigi síðar en við lokaúttekt. Áskilin lokaúttekt byggingarfulltrúa. Áður en byggingarleyfi verður gefið út skal senda séruppdrætti til umsagnar Minjastofnunar Íslands.","Sótt er um leyfi til að breyta og stækka kvisti á götuhlið í fjölbýlishúsi á lóð nr. 20A við Grettisgötu. Lögð fram umsögn skipulagsfulltrúa um svipaða fyrirspurn dags. 20. ágúst 2015, þinglýstur eignaskiptasamningur dags. í ágúst 2000, samþykki meðeiganda dags. 17. ágúst 2016 og umsögn Minjastofnunar Íslands dags. 24. maí 2015. Útskrift úr gerðabók embættisafgreiðslufundar skipulagsfulltrúa frá 1. júlí fylgir erindinu, ásamt umsögn skipulagsfulltrúa dags. 1. júlí 2016.  Stækkun:  2,31 ferm., 11,9 rúmm. Gjald kr. 10.100"
51104 (01.18.211.5),http://gamli.rvk.is/vefur/owa/edutils.parse_page?nafn=BN051104,Grettisgata 20B,Breyting á kvistum,"Samþykkt.  Samræmist ákvæðum laga nr. 160 / 2010. Með vísan til samþykktar borgarráðs frá 1. september 1998 skal utanhúss- og lóðarfrágangi vera lokið eigi síðar en innan tveggja ára frá útgáfu byggingarleyfis að viðlögðum dagsektum sbr. greinar nr. 2.4.7 og 2.9.2 í byggingarreglugerð nr. 112/2012. Skilyrt er að ný eignaskiptayfirlýsing sé samþykkt fyrir útgáfu byggingarleyfis, henni verður þinglýst eigi síðar en við lokaúttekt. Áskilin lokaúttekt byggingarfulltrúa. Áður en byggingarleyfi verður gefið út skal senda séruppdrætti til umsagnar Minjastofnunar Íslands.","Sótt er um leyfi til að breyta og sameina kvisti á götuhlið í fjölbýlishúsi á lóð nr. 20A við Grettisgötu. Lögð fram umsögn skipulagsfulltrúa um svipaða fyrirspurn dags. 20. ágúst 2015, þinglýstur eignaskiptasamningur dags. í ágúst 2000 og umsögn Minjastofnunar Íslands dags. 24. maí 2015. Útskrift úr gerðabók embættisafgreiðslufundar skipulagsfulltrúa frá 1. júlí 2016 fylgir erindinu, ásamt umsögn skipulagsfulltrúa dags. 1. júlí 2016.  Stækkun:  1,05 ferm., 6,1 rúmm. Gjald kr. 10.100"
52260 (01.18.210.1),http://gamli.rvk.is/vefur/owa/edutils.parse_page?nafn=BN052260,Grettisgata 2A,Opna milli 2A og geymslu á næstu lóð,Frestað. Vísað til athugasemda á umsóknarblaði.,Sótt er um leyfi til að opna tímabundið á lóðarmörkum milli geymslu í mhl. 03 á aðliggjandi lóð nr. 2b og gistiheimilis á lóð nr. 2a og við Grettisgötu. Gjald kr. 11.000
51931 (01.18.210.2),http://gamli.rvk.is/vefur/owa/edutils.parse_page?nafn=BN051931,Grettisgata 2b,Opna á milli geymslu og gistiheimilis,Frestað. Vísað til athugasemda á umsóknarblaði.,Sótt er um leyfi til að opna tímabundið á lóðarmörkum milli gistiheimilis á aðliggjandi lóð nr. 2a og geymslu í mhl. 03 á lóð nr. 2b við Grettisgötu. Gjald kr. 10.100
52165 (01.24.760.5),http://gamli.rvk.is/vefur/owa/edutils.parse_page?nafn=BN052165,Gunnarsbraut 40,"Hækka þak, kvistir, svalir",Frestað. Vísað til athugasemda á umsóknarblaði og umsagnar skipulagsfulltrúa dags. 18. janúar 2017.,"Sótt er um leyfi til að hækka þak, byggja kvisti á öllum hliðum og gera svalir á norðvesturhlið rishæðar í fjölbýlishúsi á lóð nr. 40 við Gunnarsbraut. Útskrift úr gerðabók embættisafgreiðslufundar skipulagsfulltrúa frá 19. janúar 2017 fylgir erindinu ásamt umsögn skipulagsfulltrúa dags. 18. janúar 2017. Stækkun: x ferm., x rúmm. Gjald kr. 10.100"
52116 (02.57.570.2),http://gamli.rvk.is/vefur/owa/edutils.parse_page?nafn=BN052116,Gylfaflöt 9,Reyndarteikningar,Samþykkt.  Samræmist ákvæðum laga nr. 160 / 2010. Áskilin lokaúttekt byggingarfulltrúa.,Sótt er um leyfi til að breyta áður samþykktu erindi BN050064 vegna lokaúttektar sem felst m.a. í breytingum á brunamerkingum á 2. og 3. hæð í húsi á lóð nr. 9 við Gylfaflöt. Gjald kr. 10.100
52236 (01.18.020.1),http://gamli.rvk.is/vefur/owa/edutils.parse_page?nafn=BN052236,Hallveigarstígur 2,Kvistir og þaksvalir,Frestað. Málinu vísað til umsagnar skipulagsfulltrúa.,"Sótt er um leyfi til að byggja svalir og kvisti á rishæð í húsi á lóð nr. 2 við Hallveigarstíg. Stækkun: A-rými 0 ferm., x rúmm. Gjald kr. 11.000"
52074 (01.72.730.1),http://gamli.rvk.is/vefur/owa/edutils.parse_page?nafn=BN052074,Háaleitisbraut 68,Breytingar v/lokaúttektar sbr. BN049120,Samþykkt.  Samræmist ákvæðum laga nr. 160 / 2010. Áskilin lokaúttekt byggingarfulltrúa. Áskilið samþykki heilbrigðiseftirlits.,Sótt er um leyfi fyrir áður gerðum breytingum vegna lokaúttektar á erindi BN049120 vegna innréttingar á matvælavinnslu í kjallara rýmis 0003 í húsi á lóð nr. 68 við Háaleitisbraut. Gjald kr. 10.100
52095 (04.96.110.2),http://gamli.rvk.is/vefur/owa/edutils.parse_page?nafn=BN052095,Hryggjarsel 7-17,Reyndarteikningar - áður gerðar breytingar,Frestað. Vísað til athugasemda á umsóknarblaði og umsagnar skipulagsfulltrúa dags. 17. janúar 2017.,"Sótt er um leyfi fyrir áður gerðum breytingum, sem felast í að tekið er í notkun óútfyllt sökkulrými í kjallara, komið fyrir gluggum á það og útbúið  íbúðarrými í raðhúsi nr. 7 á lóð nr. 7-17 við Hryggjarsel. Útskrift úr gerðabók embættisafgreiðslufundar skipulagsfulltrúa frá 19. janúar 2017 fylgir erindinu ásamt umsögn skipulagsfulltrúa dags. 17. janúar 2017. Stækkun: XX ferm., XX rúmm.  Bréf hönnuðar dags. 8. desember 2016 fylgir . Gjald kr.10.100"
52152 (01.15.251.5),http://gamli.rvk.is/vefur/owa/edutils.parse_page?nafn=BN052152,Hverfisgata 61,Breyting inni - 0102,Samþykkt.  Samræmist ákvæðum laga nr. 160 / 2010. Áskilin lokaúttekt byggingarfulltrúa.,"Sótt er um leyfi til að breyta áður samþykktu erindi BN044975 þannig að breytt er innra skipulagi,  eldhús í íbúð 0102 fært  og baðherbergi í íbúð 0404 í risi fært í fjölbýlishúsi á lóð nr. 61 við Hverfisgötu.  Bréf hönnuðar dags. 10. janúar 2017 fylgir erindinu. Gjöld kr. 10.100"
52197 (01.17.400.1),http://gamli.rvk.is/vefur/owa/edutils.parse_page?nafn=BN052197,Hverfisgata 84,Breyting - 2.hæð og ris,Frestað. Vísað til athugasemda á umsóknarblaði.,"Sótt er um leyfi til að byggja tvennar svalir á suðurhlið, breyta innra skipulagi íbúða á 2. hæð og í risi og endurbæta burðar- og brunaþol og hljóðvist í húsi á lóð nr. 84 við Hverfisgötu. Útskrift úr gerðabók embættisafgreiðslufundar skipulagsfulltrúa frá 19. janúar 2017 fylgir erindinu ásamt umsögn skipulagsfulltrúa dags. 19. janúar 2017. Einnig umsögn Minjastofnunar Íslands dags. 12. janúar 2017. Gjald kr. 10.100"
51889 (01.17.400.2),http://gamli.rvk.is/vefur/owa/edutils.parse_page?nafn=BN051889,Hverfisgata 86,"Breyting inni - kröfur um burðarþol, bruna og hljóðvist",Frestað. Vísað til athugasemda á umsóknarblaði.,"Sótt er um leyfi til að byggja svalir á 3.hæð og breyta innra skipulagi íbúða, ásamt öðrum minni breytingum til að uppfylla kröfur byggingarreglugerðar um burðarþol, brunavarnir og hljóðvist, í húsi á lóð nr. 86 við Hverfisgötu. Umsögn Minjastofnunar dags. 02.01.2017 fylgir erindi. Útskrift úr gerðabók embættisafgreiðslufundar skipulagsfulltrúa frá 19. janúar 2017 fylgir erindinu ásamt umsögn skipulagsfulltrúa dags. 19. janúar 2017. Gjald kr. 10.100"
52190 (34.53.330.2),http://gamli.rvk.is/vefur/owa/edutils.parse_page?nafn=BN052190,Kistumelur 18,Breytingar - i 0106 og 0107,Frestað. Vísað til athugasemda á umsóknarblaði.,Sótt er um leyfi til að breyta áður samþykktu erindi BN051110 þannig að komið er fyrir salerni og ræstivaski í rými 0106 og í 0107 í húsinu á lóð nr. 18 við Kistumel.  Gjald kr. 10.100
52106 (01.45.700.2),http://gamli.rvk.is/vefur/owa/edutils.parse_page?nafn=BN052106,Knarrarvogur 4,"Svalir, klæðning",Frestað. Lagfæra skráningu.,Sótt er um leyfi til að klæða húseign með sléttri álklæðningu ásamt því að byggja svalir á gaflhliðum á 2. og 3. hæð í húsi á lóð nr. 4 við Knarrarvog. Gjald kr. 10.100
52265 (01.72.100.1),http://gamli.rvk.is/vefur/owa/edutils.parse_page?nafn=BN052265,Kringlan 4-12,Eining 122 - Breyting - Dressmann,Samþykkt.  Samræmist ákvæðum laga nr. 160 / 2010. Áskilin lokaúttekt byggingarfulltrúa.,Sótt er um leyfi til að breyta innra skipulagi og ásýnd inngangs í einingu 122 á 1. hæð í verslunarhúsi á lóð nr. 4-12 við Kringluna. Gjald kr. 10.100
52168 (01.72.100.1),http://gamli.rvk.is/vefur/owa/edutils.parse_page?nafn=BN052168,Kringlan 4-12,Breytingar í norðausturenda 1. 2. og 3. hæð,Frestað. Vísað til athugasemda eldvarnaeftirlits á umsóknarblaði.,"Sótt er um leyfi til að breyta innra skipulagi í norðurenda verslunarhúsnæðis á 1., 2. og 3. hæð sem felst í því að bakstigahús og lyftur eru fjarlægðar milli verslunarrýma á 1. og 2. hæð, verslunarrými á 2. hæð skipt í tvö rými, flóttaleiðum breytt og byggðar flóttasvalir á 3. hæð austurhliðar og vörulyftu komið fyrir milli 1. og 2. hæðar við norðurgafl, auk útlitsbreytinga sem felast í nýjum inngangi að vörulyftu á norðurhlið og nýrri vöruhurð á austurhlið, í húsi á lóð nr. 4-12 við Kringluna. Umsögn burðarþolshönnuðar dags. 21.12.2016 fylgir erindi ásamt greinargerð brunahönnuðar dags. 17.01.2017. Gjald kr. 10.100"
52261 (04.32.420.2),http://gamli.rvk.is/vefur/owa/edutils.parse_page?nafn=BN052261,Krókháls 10,Brunastigi og brunamerkingar,Frestað. Vísað til athugasemda á umsóknarblaði.,Sótt er um leyfi til að koma fyrir brunastigum frá svölum á austur og vestur gafl hússins á lóð nr. 10 við Krókháls. Gjald kr. 11.000
51553 (01.34.601.6),http://gamli.rvk.is/vefur/owa/edutils.parse_page?nafn=BN051553,Laugarnesvegur 74A,Reyndarteikningar,Frestað. Vísað til athugasemda á umsóknarblaði.,"Sótt er um samþykki fyrir áður gerðum breytingum, gluggum á suðurhlið hefur verið breytt og lítils háttar breyting á fyrirkomulagi innréttinga,sjá erindi BN050708 í veitingastað í flokki II á lóð nr. 74A við Laugarnesveg, Gjald kr. 10.100"
51754 (01.17.130.5),http://gamli.rvk.is/vefur/owa/edutils.parse_page?nafn=BN051754,Laugavegur 10,"Risþak bakhúsi - kvistur, breyting Gló sbr. BN051134",Frestað. Vísað til athugasemda á umsóknarblaði.,"Sótt er um leyfi til að breyta erindi BN051134, breikka kvist á bakhlið, sameina bakhús, byggja mænisþak og koma fyrir gleranddyri framan við inngang  og innrétta einn veitingastað í húsi á lóð nr. 10 við Laugaveg.  Útskrift úr gerðabók embættisafgreiðslufundar skipulagsfulltrúa frá 7. október 2016 fylgir erindinu ásamt umsögn skipulagsfulltrúa dags. 7. október 2016. Útskrift úr gerðabók embættisafgreiðslufundar skipulagsfulltrúa frá 28. október 2016 fylgir erindinu. Leiðrétt bókun frá fundi skipulagsfulltrúa 21. október 2016 þar sem umsögn skipulagsfulltrúa dags. 20. október 2016 var samþykkt. Leiðrétt bókun er: Umsögn skipulagsfulltrúa dags. 28. október 2016 samþykkt. Umsögn Minjastofnunar Íslands dags. 5. september 2016. Bréf frá Gló og Joe & Juice  dags. 27. okt. 2016fylgir erindi. Stækkun : 1,8 ferm., 86,3 rúmm. Gjald kr. 10.100 + 11.000"
52198 (01.17.200.9),http://gamli.rvk.is/vefur/owa/edutils.parse_page?nafn=BN052198,Laugavegur 27,Breyta í fl.2 - starfsmannaaðstaða o.fl.,Frestað. Vísað til athugasemda á umsóknarblaði.,"Sótt er um leyfi til að innrétta starfsmannaaðstöðu í bakhúsi (mhl. 04-0103) og breyta kaffihúsi (flokkur II, teg. kaffihús) í veitingahús í flokki II, teg. veitingahús í kjallara húss á lóð nr. 27 við Laugaveg. Erindi fylgir bréf með skýringum hönnuðar og minnisblað frá Raf ehf um virkni ósontækja. Gjald kr. 10.100"
52245 (01.17.301.9),http://gamli.rvk.is/vefur/owa/edutils.parse_page?nafn=BN052245,Laugavegur 59,Breyting á veitingastað,Frestað. Vísað til athugasemda á umsóknarblaði.,Sótt er um leyfi til að innrétta veitingastað í flokki III fyrir 105 gesti í íbúðar- og atvinnuhúsi á lóð nr. 59 við Laugaveg. Erindi fylgir húsaleigusamningur dags. 9. janúar 2017 og brunahönnun frá EFLU dags. 10. júlí 2016. Gjald kr. 11.000
52223 (01.17.402.1),http://gamli.rvk.is/vefur/owa/edutils.parse_page?nafn=BN052223,Laugavegur 77,5.hæð - breytingar,Frestað. Vísað til athugasemda á umsóknarblaði.,Sótt er um leyfi til að breyta 5. hæð þannig að eldhús í austurenda er aflagt og innréttuð eru tvö aðskilin skrifstofurými í húsinu á lóð nr. 77 við Laugaveg.  Gjald kr. 10.100
52262,http://gamli.rvk.is/vefur/owa/edutils.parse_page?nafn=BN052262,Lindarvað 15-21,Heitir pottar og reykrör fjarlægt,Samþykkt.  Samræmist ákvæðum laga nr. 160 / 2010. Frágangur á lóðamörkum verði gerður í samráði við lóðarhafa aðliggjandi lóða. Áskilin lokaúttekt byggingarfulltrúa.,Sótt er um leyfi fyrir áður gerðum breytinum vegna lokaúttektar á erindi BN052262 þar sem hætt er við að koma fyrir heitum potti í öllum íbúðum nema í nr. 17 mhl. 02 og reykröri nema í nr. 15 mhl. 01 í raðhúsinu á lóð nr. 15 - 21 við Lindarvað.  Gjald kr. 11.000
52110 (01.24.101.2),http://gamli.rvk.is/vefur/owa/edutils.parse_page?nafn=BN052110,Mjölnisholt 4,Breyting á áður samþykktum teikningum,Frestað. Vísað til athugasemda á umsóknarblaði.,"Sótt er um leyfi til að breyta áður samþykktu erindi BN050529 sem felst í því að hækka þak um 60 cm í húsi á lóð nr. 4 við Mjölnisholt. Útskrift úr gerðabók embættisafgreiðslufundar skipulagsfulltrúa frá 22. desember 2016 fylgir erindinu ásamt umsögn skipulagsfulltrúa dags. 22. desember 2016. Samþykki meðeigenda dags. 21.12.2016 fylgir erindi. Stækkun: Mhl.01 0,8 ferm., x rúmm.  Gjald kr. 10.100"
52219 (01.13.320.4),http://gamli.rvk.is/vefur/owa/edutils.parse_page?nafn=BN052219,Seljavegur 27,Kvistur,Frestað. Vísað til athugasemda á umsóknarblaði.,"Sótt er um leyfi til að byggja kvist á götuhlið og svalir á bakhlið 2. hæðar og rishæðar, ásamt áður gerðum breytingum sem felast í breytingum í kjallara og innan íbúða á 1. og 2. hæð, ásamt gerð risíbúðar í húsi á lóð nr. 27 við Seljaveg. Stækkun: 0 ferm., 52,0 rúmm. Samþykki meðeigenda dags. 18.01.2017 fylgir erindi. Gjald kr. 11.000"
52102 (01.29.310.5),http://gamli.rvk.is/vefur/owa/edutils.parse_page?nafn=BN052102,Síðumúli 20,Nýr gluggi,Samþykkt.  Samræmist ákvæðum laga nr. 160 / 2010. Með vísan til samþykktar borgarráðs frá 1. september 1998 skal utanhúss- og lóðarfrágangi vera lokið eigi síðar en innan tveggja ára frá útgáfu byggingarleyfis að viðlögðum dagsektum sbr. greinar nr. 2.4.7 og 2.9.2 í byggingarreglugerð nr. 112/2012. Áskilin lokaúttekt byggingarfulltrúa.,Sótt er um leyfi til að setja glugga á vesturgafl annarrar hæðar og smávægilegar breytingar á innréttingum í vesturhluta hússins á lóð nr. 20 við Síðumúla.  Samþykki meðeigenda dags. 7. des. 2016 og bréf hönnuðar dags. 8. des. 2016 og umsögn burðarvirkishönnuðar dags. 28. des. 2016 fylgir. Gjald kr. 10.100
51999 (01.27.301.1),http://gamli.rvk.is/vefur/owa/edutils.parse_page?nafn=BN051999,Skaftahlíð 7,Reyndarteikningar v/eignaskiptayfirlýsingar,Frestað. Lagfæra skráningu.,Sótt er um leyfi fyrir áður gerðum breytingum vegna gerðar eignaskiptayfirlýsingar fyrir húsið á lóð nr. 7 við Skaftahlíð. Samþykki meðeigenda ódags. fylgir erindinu.  Gjald kr. 10.100
52029 (01.46.210.1),http://gamli.rvk.is/vefur/owa/edutils.parse_page?nafn=BN052029,Skeifan 11,Breyta innveggjum og innréttingum í 11D,Samþykkt.  Samræmist ákvæðum laga nr. 160 / 2010. Áskilin lokaúttekt byggingarfulltrúa. Áskilið samþykki heilbrigðiseftirlits.,"Sótt er um leyfi til að breyta innra skipulagi í mhl 04, rými 0105 á fyrstu hæð og á millipalli í húsinu á lóð nr. 11D í Skeifunni.  Gjald kr. 10.100 + 11.000"
52244 (01.67.121.1),http://gamli.rvk.is/vefur/owa/edutils.parse_page?nafn=BN052244,Skildinganes 2,Breyting - BN049789,Samþykkt.  Samræmist ákvæðum laga nr. 160 / 2010. Frágangur á lóðamörkum verði gerður í samráði við lóðarhafa aðliggjandi lóða. Með vísan til samþykktar borgarráðs frá 1. september 1998 skal utanhúss- og lóðarfrágangi vera lokið eigi síðar en innan tveggja ára frá útgáfu byggingarleyfis að viðlögðum dagsektum sbr. greinar nr. 2.4.7 og 2.9.2 í byggingarreglugerð nr. 112/2012. Í samræmi við samþykkt umhverfis- og skipulagsráðs dags. 9. október 2013 skal vélknúinn þvottabúnaður vera til staðar á byggingarlóð sem tryggi að vörubílar og aðrar þungavinnuvélar verði þrifnar áður en þær yfirgefa byggingarstað. Samráð skal haft við byggingarfulltrúa um staðsetningu búnaðarins. Sérstakt samráð skal haft við yfirverkfræðing byggingarfulltrúa vegna jarðvinnu. Áskilin lokaúttekt byggingarfulltrúa.,"Sótt er um leyfi til að breyta áður samþykktu erindi BN049789 þannig að um er að ræða forsteyptar einingar í staðinn fyrir staðsteypt burðarvirki, þak verður klætt með tvöföldum soðnum þakkpappa í staðinn fyrir málmklæðingu einbýlishús á lóð nr. 2 við Skildinganes.  Gjald kr. 11.000"
52240 (04.91.440.1),http://gamli.rvk.is/vefur/owa/edutils.parse_page?nafn=BN052240,Skógarsel 10,Eldsneytistangar - neðanjarðar,Samþykkt.  Samræmist ákvæðum laga nr. 160 / 2010. Áskilin lokaúttekt byggingarfulltrúa. Áskilið samþykki heilbrigðiseftirlits.,"Sótt er um samþykki fyrir áður gerðum breytingum, sjá erindi BN045824 v/lokaúttektar á eldsneytistönkum neðanjarðar á lóð nr. 10 við Skógasel. Jafnframt er erindi BN047412 dregið til baka. Gjald kr. 11.000"
52266 (04.91.800.1),http://gamli.rvk.is/vefur/owa/edutils.parse_page?nafn=BN052266,Skógarsel 12,Aðstöðu- og geymsluhúsnæði - ÍR,Frestað. Vísað til athugasemda á umsóknarblaði.,"Sótt er um leyfi til að byggja aðstöðu- og geymsluhúsnæði fyrir íþróttafélag á lóð nr. 12 við Skógarsel. Stærð: A-rými 442,8 ferm., 1760,1 rúmm. B-rými x ferm., x rúmm. Bréf arkitekts dags. 17.01.2017 fylgir erindi. Gjarld kr. 11.000"
52226 (01.15.230.1),http://gamli.rvk.is/vefur/owa/edutils.parse_page?nafn=BN052226,Skúlagata 14-16,Vatnsstígur 18 - Breyting inni - 1701,Frestað. Vísað til athugasemda á umsóknarblaði.,Sótt er um leyfi til að breyta innra skipulagi mhl. 10 íbúðar 1701 í fjölbýlishúsinu Vatnsstíg 18 á lóð nr. 14-16 við Skúlagötu.  Gjald kr. 11.000
52267 (01.19.340.1),http://gamli.rvk.is/vefur/owa/edutils.parse_page?nafn=BN052267,Snorrabraut 58,Breyting - 1.hæð,Frestað. Vísað til athugasemda eldvarnaeftirlits á umsóknarblaði.,Sótt er um leyf til að breyta  fjórum herbergjum í tvær sjúkrastofur og einu í starfsmannaaðstöðu í húsinu á lóð nr. 58 við Snorrabraut.  Gjald kr. 11.000
52270 (01.81.090.1),http://gamli.rvk.is/vefur/owa/edutils.parse_page?nafn=BN052270,Sogavegur 69,"Breyta íbúð í atvinnuhúsnæði, stækka húsnæðið og stækka lóð",Frestað. Málinu vísað til umsagnar skipulagsfulltrúa.,"Sótt er um leyfi til að breyta þremum séreignum úr íbúð og atvinnuhúsnæði í eina séreign sem verður atvinnuhúsnæði, stækka þannig að byggt er til norðurs stiga- og lyftuhús og til suðurs anddyri og til að stækka lóð til norðurs  úr 1537 ferm í 1914 ferm. á lóð nr. 69 við Sogaveg.  Stækkun húss: 71,4 ferm. XX rúmm.  Gjald kr. 11.000"
52160 (01.43.350.3 01),http://gamli.rvk.is/vefur/owa/edutils.parse_page?nafn=BN052160,Sólheimar 29-35,Breyta í íbúðir,Frestað. Vísað til athugasemda á umsóknarblaði.,Sótt er um leyfi til að innrétta mhl. 01 og mhl. 02 sem 9 íbúðareiningar í húsi á lóð nr. 29-35 við Sólheima. Útskrift úr gerðabók embættisafgreiðslufundar skipulagsfulltrúa frá 19. janúar 2017 fylgir erindinu ásamt umsögn skipulagsfulltrúa dags. 19. janúar 2017. Gjald kr. 10.100
51881 (01.63.130.5),http://gamli.rvk.is/vefur/owa/edutils.parse_page?nafn=BN051881,Sturlugata 6,Vísindagarðar,Frestað. Vísað til athugasemda á umsóknarblaði.,"Sótt er um leyfi til að byggja fjögurra hæða verslunar- og skrifstofuhús sem hýsa mun frumkvöðlasetur sem tengir fyrirtæki og vísindasamfélag í Vísindagörðum á lóð nr. 6 við Sturlugötu. Erindi fylgir skýrsla um byggingareðlisfræði og orkuramma, greinargerð með burðarvirkishönnun, greinargerðir um hönnunarforsendur lýsingar og lagnakerfa og greinargerðir um hljóðvist og brunahönnun allt frá verkfræðistofunni Eflu dags. í október 2016 ásamt greinargerð hönnuðar um aðgengi dags. í október 2016. Útskrift úr gerðabók embættisafgreiðslufundar skipulagsfulltrúa frá 2. desember 2016 fylgir erindinu ásamt umsögn skipulagsfulltrúa dags. 2. desember 2016. Stærð, A+B rými:  8.683,2 ferm., 30.236 rúmm. Gjald kr. 10.100"
52049 (01.13.521.0),http://gamli.rvk.is/vefur/owa/edutils.parse_page?nafn=BN052049,Stýrimannastígur 8,Breyting úti og inni,Frestað. Vísað til athugasemda á umsóknarblaði. Málinu vísað til  skipulagsfulltrúa. til ákvörðunar um grenndarkynningu. Vísað er til uppdráttar nr. 101B dags. 6. janúar 2017.,"Sótt er um leyfi til breyta innra skipulagi, innrétta bað og setustofu í kjallara, færa eldhús á 1. hæð og breyta fyrirkomulagi í risi, einnig að breyta inngangi í kjallara, byggja timburverönd á vesturhlið, gera tvöfalda hurð þar út úr einbýlishúsi á lóð nr. 8 við Stýrimannastíg.  Útskrift úr gerðabók embættisafgreiðslufundar skipulagsfulltrúa frá 6. janúar 2017 fylgir erindinu ásamt umsögn skipulagsfulltrúa dags. 3. janúar 2017. Erindi fylgir umsögn Minjastofnunar Íslands dags. 4. október 2016. Gjald kr. 10.100"
52162 (01.78.810.1),http://gamli.rvk.is/vefur/owa/edutils.parse_page?nafn=BN052162,Suðurhlíð 35,Reyndarteikningar,Frestað. Vísað til athugasemda á umsóknarblaði.,"Sótt er um leyfi fyrir áður gerðum breytingum sem felast í því að útihurð í mhl. 04, á 1. hæð vesturhliðar, hefur verið fjarlægð í húsi á lóð nr. 35 við Suðurhlíð. Gjald kr. 10.100"
52111 (01.26.310.1),http://gamli.rvk.is/vefur/owa/edutils.parse_page?nafn=BN052111,Suðurlandsbraut 14,Breyta útliti og innra skipulagi,Samþykkt.  Samræmist ákvæðum laga nr. 160 / 2010. Með vísan til samþykktar borgarráðs frá 1. september 1998 skal utanhúss- og lóðarfrágangi vera lokið eigi síðar en innan tveggja ára frá útgáfu byggingarleyfis að viðlögðum dagsektum sbr. greinar nr. 2.4.7 og 2.9.2 í byggingarreglugerð nr. 112/2012. Áskilin lokaúttekt byggingarfulltrúa. Áskilið samþykki heilbrigðiseftirlits.,"Sótt er um leyfi til að færa aðalinngang, endurnýja glugga á framhlið og bæta við gluggum á bakhlið ásamt því að breyta innra skipulagi og breyta mötuneyti í framreiðslueldhús í húsi á lóð nr. 14 við Suðurlandsbraut. Gjald kr. 10.100"
51601 (01.26.210.2),http://gamli.rvk.is/vefur/owa/edutils.parse_page?nafn=BN051601,Suðurlandsbraut 6,"Reyndarteikningar - breyting 3, 5, 6 og 7 hæð",Frestað. Vísað til athugasemda eldvarnaeftirlits á umsóknarblaði.,"Sótt er um leyfi fyrir áður gerðum breytingum á mhl. 03 innanhúss á hæðum 3, 5, 6 og 7 í húsi á lóð nr. 6 við Suðurlandsbraut. Gjald kr. 10.100"
52147 (01.26.210.3),http://gamli.rvk.is/vefur/owa/edutils.parse_page?nafn=BN052147,Suðurlandsbraut 8,Breyting inni - 1.hæð,Frestað. Lagfæra skráningu.,Sótt er um leyfi til að innrétta verslun í rými 0101 í verslunar- og skrifstofuhúsi á lóð nr. 8 við Suðurlandsbraut. Gjald kr. 11.000
52227 (01.83.700.1),http://gamli.rvk.is/vefur/owa/edutils.parse_page?nafn=BN052227,Tunguvegur 19,Innrétta íbúð á jarðhæð og fl.,Frestað. Vísað til athugasemda á umsóknarblaði.,"Sótt er um leyfi til að hækka ris, byggja kvisti og svalir og innrétta þar íbúð, innrétta íbúð á 1. hæð garðmegin, kaffihús í flokki I að götu og íbúð í bílskúr, en íbúðirnar verða gististaður í flokki II, teg. g í húsi á lóð nr. 19 við Tunguveg. Stækkun:  143 ferm., 372,4 rúmm. Gjald kr. 11.000"
52274 (01.18.120.2),http://gamli.rvk.is/vefur/owa/edutils.parse_page?nafn=BN052274,Týsgata 1,"Svalir, breyting inni 2.hæð og fyrir áður gerðum breytingum",Frestað. Vísað til athugasemda á umsóknarblaði.,"Sótt er um samþykki fyrir áður gerðum breytingum, sem eru þær að svalir hafa verið byggðar á 4. hæð og gluggum breytt í svalahurð og hurð út í garð fjarlægð, einnig að innrétta íbúð á 2. hæð, byggja svalir á suðausturhlið og sameina 0102 og 0103 í eina verslun á 1. hæð húss á lóð nr. 1 við Týsgötu. Samþykki sumra fylgir erindinu dags. 16. jan. 2017 ásamt umsögn burðarvirkishönnuðar dags. 5. desember 2016.. Gjald kr. 11.000"
52248 (01.76.860.1),http://gamli.rvk.is/vefur/owa/edutils.parse_page?nafn=BN052248,Vesturhlíð 1,Starfsmannaaðstaða,Frestað. Vísað til athugasemda heilbrigðiseftirlits á umsóknarblaði.,"Sótt er um leyfi fyrir innri breytingum þar sem koma fram ýmsar breytingar í starfsmannaaðstöðu, komið er fyrir nýrri snyrtingu, ræsting er flutt  og veggir eru fjarlægðir í húsinu á lóð nr. 1 Vesturhlið.  Gjald kr. 11.000"
52157 (01.55.500.4),http://gamli.rvk.is/vefur/owa/edutils.parse_page?nafn=BN052157,Ægisíða 48,Viðbygging,Frestað. Vísað til athugasemda á umsóknarblaði.,"Sótt er um leyfi til að byggja viðbyggingu á tveimur hæðum, ásamt því að rífa núverandi bílskúr og byggja nýjan við einbýlishús á lóð nr. 48 við Ægisíðu. Stækkun: Mhl.01 x ferm., x rúmm. Mhl.02 x ferm., x rúmm. Lögð er fram umsögn skipulagsfulltrúa við fyrirspurn SN150475 dags. 09.11.2015. Gjald kr. 10.100"
52281 (01.18.431.1 02),http://gamli.rvk.is/vefur/owa/edutils.parse_page?nafn=BN052281,Bjargarstígur 6,mæliblað,Samþykkt.  Samræmist ákvæðum laga nr. 160 / 2010. Uppdrátturinn öðlast gildi þegar honum hefur verið þinglýst,"Óskað er eftir  samþykki byggingarfulltrúans á meðfylgjandi uppdrætti dagsettum 19.01.2017 sem er hluti lóðauppdráttar með  staðgr. 1.184.3.  Umsóknin er vegna Bjargarstígs 6 (staðgreinir 1.184.311, landnr. 102050) .  Við gerð uppdráttarins þá varpaði  landupplýsingadeild lóðunum í hnitakerfi Reykjavíkur eftir rannsóknarvinnu.  Við það breyttist stærð lóðarinnar lítilega. Í fasteignaskrá er lóðin skráð 257 m2 en verður eftir vörpun 256 m2. Sjá meðfylgjandi tölvupóst frá 4.10.2016 þar sem óskað er eftir gerð verksins."
52051 (05.11.480.2),http://gamli.rvk.is/vefur/owa/edutils.parse_page?nafn=BN052051,Haukdælabraut 66,"(fsp) - Stoðveggur, færa heitan pott",Jákvætt. Með vísan til umsagnar skipulagsfulltrúa dags. 19. janúar 2017.,"Spurt er hvort reisa megi steyptan, stallaðan stoðvegg með fallvörnum á lóðarmörkum að borgarlandi,  færa heitan pott að honum og byggja 25-40 m2 steypt skyggni yfir pottinn, 120 cm yfir nærliggjandi landi, með gróðurþekju að ofan og gustlokun á hliðum, við hús á lóð nr. 66 við Haukdælabraut. Útskrift úr gerðabók embættisafgreiðslufundar skipulagsfulltrúa frá 19. janúar 2017 fylgir erindinu ásamt umsögn skipulagsfulltrúa dags. 19. janúar 2017."
