nr,url,heimilisfang,tegund,nidurstada,spurning
32997 (01.14.040.6),http://gamli.rvk.is/vefur/owa/edutils.parse_page?nafn=BN032997,Austurstræti 10A,sólskáli á 5. h,Frestað. Nýjum uppdráttum vísað til umsagnar skipulagsfulltrúa. Verði framhald á málinu verður að skila nýrri skráningartöflu.,"Sótt er um leyfi til þess að byggja sólskála á hluta suðursvala íbúðar á 5. hæð fjöleignarhússins á lóð nr. 10A við Austurstræti. Bréf hönnuðar dags. 30. nóvember 2005 fylgir erindinu. Stærð: Sólskáli 23,4 ferm., 67,4 rúmm. Gjald kr. 5.700 + 3.842"
33128 (01.43.430.1),http://gamli.rvk.is/vefur/owa/edutils.parse_page?nafn=BN033128,Álfheimar 74,nýbygg. og br.,Frestað. Vísað til athugasemda á umsóknarblaði.,"Sótt er um leyfi til þess að byggja steinsteypta skrifstofu- og þjónustubyggingu allt að níu hæða með heilsuræktarstöð á neðstu hæðum (kjallarar og hluta 1. hæðar) allt einangrað að utan og klætt með steinflísum og álplötum, byggja opna bílageymslu á tveimur hæðum ásamt bílastæðum á þaki, breyta lítillega innréttingum verslunarmiðstöðvarinnar Glæsibæ og samþykkja þegar gerðar breytingar á lokun að stiga frá heilsugæslustöð á 3. hæð atvinnuhússins á lóð nr. 74 við Álfheima. Brunahönnun endurskoðuð 3. janúar 2006 fylgir erindinu. Stærð: Nýbygging (matshluti 02) neðsti kjallari tæknirými 265 ferm., neðri kjallari heilsuræktarstöð 1150,6 ferm., kjallari heilsuræktarstöð 989,8 ferm., 1. hæð heisuræktarstöð og banki 1306,2 ferm., 2. hæð 1446,9 ferm., 3. hæð 1177,3 ferm., 4. hæð 1160,7 ferm., 5. hæð 862,5 ferm., 6. hæð 845,8 ferm., 7. hæð 553,3 ferm., samtals 9758,1 ferm., 34427,2 rúmm. Bílastæðahús (matshæluti 03) neðri kjallari stigahús og lyftur 29,9 ferm., kjallari stigahús, lyftur og tæknirými 83,1 ferm., 1. hæð stigahús og lyftur 21,9 ferm., samtals 134,9 ferm., 520,4 rúmm., (B-rými) neðri kjallari bílastæði 4088,9 ferm., kjallari bílastæði 4032,1 ferm., samtals B-rými 8121 ferm., 25191,6 rúmm. Gjald kr. 6.100 + 3.636.747"
32867 (01.28.030.2),http://gamli.rvk.is/vefur/owa/edutils.parse_page?nafn=BN032867,Álftamýri 43-57,nr 47 byggt yfir svalir og bílgeymslu,Samþykkt.  Samræmist ákvæðum laga nr. 73/1997. Með vísan til samþykktar borgarráðs frá 1. september 1998 skal utanhúss- og lóðarfrágangi vera lokið eigi síðar en innan tveggja ára frá útgáfu byggingarleyfis að viðlögðum dagsektarákvæðum 57. gr. skipulags- og byggingarlaga nr. 73/1997. Framkvæmdir að aðliggjandi húsi skal vinna í samráði við þann húseiganda.,"Sótt er um leyfi til þess að byggja viðbyggingu úr timbri yfir svalir og bílgeymslu hússins nr. 47 á lóðinni nr 43-57 við Álftamýri. Útskrift úr gerðabók embættisafgreiðslufundar skipulagsfulltrúa frá 25. nóvember 2005 fylgir erindinu. Stærð: Stækkun viðbygging 2. hæð 22,6 ferm. og 100,0 rúmm. Gjald kr. 5.700 + 5.700 + 5.700"
33092 (02.42.110.7),http://gamli.rvk.is/vefur/owa/edutils.parse_page?nafn=BN033092,Bakkastaðir 53,"br., viðbygging",Frestað. Lagfæra skráningu.,"Sótt er um leyfi til þess að stækka ""miðskála"" í vestur og breyta núverandi gluggahlið suðurhliðar einbýlishússins á lóð nr. 53 við Bakkastaði. Stærð: Viðbygging 15,8 ferm., 54,3 rúmm. Gjald kr. 5.700 + 3.312"
33068 (01.19.102.8),http://gamli.rvk.is/vefur/owa/edutils.parse_page?nafn=BN033068,Barónsstígur 31,hækka þak,Frestað. Vísað til athugasemda á umsóknarblaði.,Sótt er um leyfi til þess að hækka þak og gera kvist á vesturþekju hússins á lóðinni nr. 31 við Barónsstíg. Stærð: Stækkun rishæð xx Gjald kr. 5.700 + xx
33069 (01.19.102.7),http://gamli.rvk.is/vefur/owa/edutils.parse_page?nafn=BN033069,Barónsstígur 33,hækka þak,Frestað. Vísað til athugasemda á umsóknarblaði.,"Sótt er um leyfi til þess að hækka þak, gera kvist á vesturþekju og breyta þannig áður gerðri íbúð á rishæð hússins á lóðinni nr. 33 við Barónsstíg. Jafnframt er gerð grein fyrir áður gerðri íbúð í kjallara hússins  Stærð: Stækkun rishæð xx Gjald kr. 5.700 + xx"
33028 (01.17.140.1 02),http://gamli.rvk.is/vefur/owa/edutils.parse_page?nafn=BN033028,Bergstaðastræti 1,breyting úti,Samþykkt.  Samræmist ákvæðum laga nr. 73/1997. Áskilin lokaúttekt byggingarfulltrúa. Áskilið samþykki heilbrigðiseftirlits.,Sótt er um leyfi til þess að endurnýja framhlið (vesturhlið) og breyta gluggum og útihurð nær upprunalegri gerð á húsinu á lóð nr. 1 við Bergstaðastræti. Umsögn Húsafriðunarnefndar dags. 8. desember 2005 og umsögn Minjavörslu Reykjavíkur dags. 22. desember 2005 fylgja erindinu. Gjald kr. 5.700
33035 (01.18.441.4),http://gamli.rvk.is/vefur/owa/edutils.parse_page?nafn=BN033035,Bergstaðastræti 27,breyting í kjallara,Samþykkt.  Samræmist ákvæðum laga nr. 73/1997. Skilyrt er að eignaskiptayfirlýsingu vegna breytinga í húsinu sé þinglýst til þess að samþykktin öðlist gildi.,Sótt er um leyfi til þess að breyta innra fyrirkomulagi og eignarhaldi á rýmum í kjallara hússins á lóðinni nr. 27 við Bergstaðastræti. Gjald kr. 5.700
27554 (01.19.021.8 01),http://gamli.rvk.is/vefur/owa/edutils.parse_page?nafn=BN027554,Bergþórugata 19,reyndarteikningar,Samþykkt.  Samræmist ákvæðum laga nr. 73/1997. Skilyrt er að eignaskiptayfirlýsingu vegna breytinga í húsinu sé þinglýst til þess að samþykktin öðlist gildi.,Sótt er um samþykki fyrir núverandi fyrirkomulagi í húsinu á lóðinni nr. 19 við Bergþórugötu. Innra fyrirkomulagi og útliti er breytt á öllum hæðum hússins. Brunavirðing dags. 21. nóvember 1924 ásamt kaupsamningi dags. 2. desember 2002 fylgja erindinu. Gjald kr. 5.100
33023 (04.06.400.1),http://gamli.rvk.is/vefur/owa/edutils.parse_page?nafn=BN033023,Bíldshöfði 8,breyting inni,Frestað. Lagfæra skráningu.,"Sótt er um leyfi til þess að byggja 2. hæðina yfir þjónusturými 0102 og verkstæði 0104 sem lagerhúsnæði í húsi Brimborgar á lóð nr. 8 við Bíldshöfða. Bréf hönnuðar dags. 6. desember 2005 fylgir erindinu. Stærð: Stækkun 329,5 ferm. Gjald kr. 5.700"
33087 (04.06.200.1),http://gamli.rvk.is/vefur/owa/edutils.parse_page?nafn=BN033087,Bíldshöfði 9,br. eignarhald á 7. og 8. hæð o.fl.,Frestað. Vísað til athugasemda á umsóknarblaði.,Sótt er um leyfi til að breyta eignarhaldi á sjöundu og áttundu hæð matshluta 04 á lóðinni nr. 9 við Bíldshöfða ásamt tilheyrandi geymslum í kjallara.  Jafnframt er sótt um leyfi til að koma fyrir fundar- og kaffiaðstöðu á hæðum eitt til sex og að breyta fyrirkomulagi innganga á hæðum fjögur og sex. Bréf aðalhönnuðar dags. 19. des. 2005 fylgir erindinu. Gjald kr. 5.700
33103 (01.85.400.2 03),http://gamli.rvk.is/vefur/owa/edutils.parse_page?nafn=BN033103,Bjarmaland 5,niðurrif og nýbygging,Frestað. Vísað til athugasemda á umsóknarblaði.,Sótt er um leyfi til að byggja einbýlishús úr steinsteypu með innbyggðum tvöföldum bílskúr sem hús á  nr. 5 (mhl 03) á lóðinni nr. 1-7 við Bjarmaland. Húsið verði einangrað og klætt að utan með flísum og timbri. Jafnframt er sótt um leyfi til að koma fyrir setlaug á lóðinni. Ennfremur er sótt um leyfi til að rífa núverandi hús og bílskúr ((mhl 03 og mhl 06). Niðurrif: Íbúðarhús 166 ferm og 415 rúmm.. Bílskúr 26 ferm. og 65 rúmm. Stærðir : xx Gjald kr. 5.700 + xx
28774 (01.51.330.2),http://gamli.rvk.is/vefur/owa/edutils.parse_page?nafn=BN028774,Boðagrandi 2,breyting inni,Samþykkt.  Samræmist ákvæðum laga nr. 73/1997. Frágangur á lóðamörkum verði gerður í samráði við lóðarhafa aðliggjandi lóða. Áskilin lokaúttekt byggingarfulltrúa.,"Sótt er um leyfi fyrir áður gerðum breytingum vegna lokaútektar húsanna nr. 2 og 2A við Boðagranda, þ.á.m. er uppbyggingu þaks á bílgeymslum breytt. Gjald kr. 5.400"
32764 (01.23.000.1),http://gamli.rvk.is/vefur/owa/edutils.parse_page?nafn=BN032764,Borgartún 26,nýtt verslunar/skrifstofuhús ofl.,Samþykkt.  Samræmist ákvæðum laga nr. 73/1997. Frágangur á lóðamörkum verði gerður í samráði við lóðarhafa aðliggjandi lóða. Áskilin lokaúttekt byggingarfulltrúa. Áskilið samþykki heilbrigðiseftirlits. Áskilið samþykki Vinnueftirlits ríkisins.,"Sótt er um leyfi til þess að byggja fimm og átta hæða steinsteypt skrifstofu og verslunarhús með 194 stæða bílageymslu á þremur hæðum neðanjarðar á lóðinni nr. 26 við Borgartún. Húsið er að hluta einanagrað utan og klætt málmplötum. Jafnframt er sótt um leyfi til þess að reisa dreifistöð OR (matshl. 02) á lóðinni. Brunahönnunarskýrsla dags. 18. október 2005 og tölvubréf hönnuðar dags. 14. desember 2005 fylgja erindinu. Stærðir: Matshl. 01, kjallari -02 bílageymsla 780,8 ferm., kjallari -01 2700,6 ferm., kjallari 00 bílageymsla 1972,2 ferm., 1. hæð verslanir o.fl. 1559,1 ferm., 2. hæð skrifstofur 1620,0 ferm., 3. hæð skrifstofur 1884,4 ferm., 4. hæð skrifstofur 1870,6 ferm., 5. hæð skrifstofur 1870,4 ferm., 6.hæð 1112,5 ferm., 7. hæð skrifst. 1151,1 ferm., 8.hæð skrifst. 1050,0 ferm., 9. hæð þakrými 56,3 ferm. Matshl. 01, atvinnuhúsnæði samtals 17628,0 ferm. og 71040,3 rúmm. Matshl. 02, dreifistöð 28,2 ferm. og 94,6 rúmm. Gjald 5.700 + 4.054.689"
33094 (01.23.200.1),http://gamli.rvk.is/vefur/owa/edutils.parse_page?nafn=BN033094,Borgartún 32,"viðbygging, ofanábygging",Frestað. Vísað til athugasemda á umsóknarblaði.,"Sótt er um leyfi til að byggja sex hæða viðbyggingu úr steinsteyptum einingum við vesturenda hússins nr. 32 við Borgartún. Jafnframt er sótt um leyfi til að byggja eina hæð ofaná eldra hús og inndregna hæð úr stáli (verður 7. hæð), sem nær yfir eldra hús og viðbyggingu.  Ennfremur að byggja staðsteyptan bílageymslukjallara fyrir 39 bíla austan og sunnan við húsið. Viðbygging verði einangruð að utan og klædd með múrkerfi og inndregin hæð einangruð í grind og klædd ljósgráum formuðum málmplötum. Gólf verði úr steinsteyptum holplötum. Þá er sótt um leyfi til að breyta innra fyrirkomulagi á öllum hæðum í eldra húsi og til að setja upp skilti á skyggni og á báða gafla hússins. Stækkun: xx Gjald kr. 5.700 + xx"
31938 (01.27.400.1),http://gamli.rvk.is/vefur/owa/edutils.parse_page?nafn=BN031938,Bólstaðarhlíð 20,færanlegt kennsluhúsnæði,Samþykkt.  Samræmist ákvæðum laga nr. 73/1997. Áskilin lokaúttekt byggingarfulltrúa. Áskilið samþykki heilbrigðiseftirlits.,"Sótt er um leyfi til að koma fyrir færanlegri kennslustofu við Skóla Ísaks Jónssonar á lóðinni nr. 20 við Bólstaðarhlíð.  Útskrift úr gerðabók embættisafgreiðslufundar skipulagsfulltrúa frá 8. júlí 2005 fylgir erindinu. Stærð: Færanleg kennslustofa 108 ferm., 334,8 rúmm. Gjald kr. 5.700 + 20.423"
33053 (01.81.7-9.9),http://gamli.rvk.is/vefur/owa/edutils.parse_page?nafn=BN033053,Breiðagerði 20,br á fyrirkomulagi brunavarna,Samþykkt.  Samræmist ákvæðum laga nr. 73/1997. Áskilin lokaúttekt byggingarfulltrúa. Áskilið samþykki heilbrigðiseftirlits.,Sótt er um leyfi til að breyta skilum á milli brunasamstæðna og brunahólfun í Breiðagerðisskóla á lóðinni nr. 20 við Breiðagerði. Erindinu fylgir yfirlýsing brunahönnuðar dags. 20. des. 2005. Gjald kr. 5.700
31410 (02.84.560.1),http://gamli.rvk.is/vefur/owa/edutils.parse_page?nafn=BN031410,Brekkuhús 1,opna milli 0103 - 0104,Samþykkt.  Samræmist ákvæðum laga nr. 73/1997. Áskilin lokaúttekt byggingarfulltrúa. Áskilið samþykki heilbrigðiseftirlits. Ekki er verið að samþykkja breytingu á eignaskiptingu.,Sótt er um samþykki fyrir núverandi innra skipulagi ásamt leyfi til þess að opna milli grillstaðarins í einingu 0103 og flatbökustaðarins í einingu 0104 á 1. hæð atvinnuhússins á lóð nr. 1 við Brekkuhús. Gjald kr. 5.700 + 5.700
33123 (01.81.931.7),http://gamli.rvk.is/vefur/owa/edutils.parse_page?nafn=BN033123,Bústaðavegur 101,hækka rishæð ofl.,Synjað. Samræmist ekki deiliskipulagi.,"Sótt er um leyfi til þess að hækka rishæð og gera nýjar garðsstofur á suðurhlið og stækka anddyri á norðurhlið fjölbýlishússins á lóð nr. 101 við Bústaðaveg. Stærð: Stækkun 60 ferm., 156,3 rúmm. Gjald kr. 6.100 + 9.534"
33122 (01.81.931.6),http://gamli.rvk.is/vefur/owa/edutils.parse_page?nafn=BN033122,Bústaðavegur 99,hækka rishæð ofl.,Synjað. Samræmist ekki deiliskipulagi.,"Sótt er um leyfi til þess að hækka rishæð og gera nýjar garðsstofur á suðurhlið og stækka anddyri á norðurhlið fjölbýlishússins á lóð nr. 99 við Bústaðaveg. Stærð: Stækkun 60 ferm., 156,3 rúmm. Gjald kr. 6.100 + 9.534"
33027 (01.71.022.3),http://gamli.rvk.is/vefur/owa/edutils.parse_page?nafn=BN033027,Drápuhlíð 45,reyndarteikningar,Samþykkt.  Samræmist ákvæðum laga nr. 73/1997. Skilyrt er að eignaskiptayfirlýsingu vegna breytinga í húsinu sé þinglýst til þess að samþykktin öðlist gildi.,Sótt er um leyfi til þess að loka milli sameignar í kjallara og kjallaraíbúðar sem skráð verður sem sjálfstæð íbúð ásamt samþykki fyrir breytingu við anddyri á 1. hæð í fjölbýlishúsinu á lóð nr. 45 við Drápuhlíð. Samþykki meðeiganda (á teikningu) fylgir erindinu. Gjald kr. 5.700
32243 (01.19.521.5),http://gamli.rvk.is/vefur/owa/edutils.parse_page?nafn=BN032243,Eiríksgata 15,geymsluskúr á baklóð o.fl.,Frestað. Þar sem samþykki meðeigenda og lóðarhafa aðliggjandi lóða liggur ekki fyrir hefur umsækjandi óskað eftir því að byggingarfulltrúi kynni erindið fyrir þeim.,"Sótt er um leyfi til þess að byggja steinsteyptan geymsluskúr á baklóð sem matshluta 02 og stækka íbúð 1. hæðar um áður geymslurými í fjölbýlishúsinu á lóð nr. 15 við Eiríksgötu. Stærð: Geymsluskúr 31,8 ferm., 95,9 rúmm. Gjald kr. 5.700 + 5.700 + 5.466"
33108 (01.70.130.2),http://gamli.rvk.is/vefur/owa/edutils.parse_page?nafn=BN033108,Engihlíð 7,áður gerð íb. í kjallara o.fl.,Frestað. Vísað til athugasemda á umsóknarblaði.,Sótt er um leyfi fyrir áður gerði íbúð í kjallara hússin nr. 7 við Engihlíð ásamt tengdum breytingum. Erindinu fylgir virðingargjörð dags. 20. des. 1946.  Gjald kr. 5.700
33135 (04.35.140.4),http://gamli.rvk.is/vefur/owa/edutils.parse_page?nafn=BN033135,Fagribær 14,niðurrif,Samþykkt.  Samræmist ákvæðum laga nr. 73/1997.,"Sótt er um leyfi til þess að rífa núverandi hús á lóðinni nr. 14 við Fagrabæ. Stærð: Niðurrif 105,3 ferm., fastanúmer: 204-5463.    Gjald kr. 6.100"
33089 (02.85.530.1),http://gamli.rvk.is/vefur/owa/edutils.parse_page?nafn=BN033089,Fjallkonuvegur 1,breytingar,Samþykkt.  Samræmist ákvæðum laga nr. 73/1997. Áskilin lokaúttekt byggingarfulltrúa. Áskilið samþykki heilbrigðiseftirlits.,Sótt er um leyfi til þess að sameina núverandi söluskála og bensínafgreiðslu í eitt rými með veitingasölu í suðausturhorni og breyta suður og vesturhlið afgreiðslu Olís á lóð nr. 1 við Fjallkonuveg. Gjald kr. 5.700
33120 (00.00.000.0 04),http://gamli.rvk.is/vefur/owa/edutils.parse_page?nafn=BN033120,Grensásvegur 12A,breyting á útliti,Samþykkt.  Samræmist ákvæðum laga nr. 73/1997.,Sótt er um leyfi til þess að fjölga inngöngum og breyta á 1. hæð atvinnuhúss nr. 12A á lóð nr. 12 við Grensásveg. Samþykki meðeigenda  dags. 28. desember 2005 fylgir erindinu. Gjald kr. 6.100
33082 (05.13.570.6),http://gamli.rvk.is/vefur/owa/edutils.parse_page?nafn=BN033082,Gvendargeisli 102,samræmingarteikn.,Samþykkt.  Samræmist ákvæðum laga nr. 73/1997.,Sótt er um leyfi fyrir minniháttar breytingum á samþykkt frá 13.04.04 á lóðinni nr. 102 við Gvendargeisla vegna samræmingar. Gjald kr. 5.700
33126 (02.57.630.2),http://gamli.rvk.is/vefur/owa/edutils.parse_page?nafn=BN033126,Gylfaflöt 16-18,atvinnuhús stækkað,Frestað. Vísað til athugasemda á umsóknarblaði.,"Sótt er um leyfi til þess að stækka hálfbyggt steinsteypt atvinnuhús og breyta í verslanir á 1. hæð og tónlistarskóla ásamt veislusal á 2. hæð, allt einangrað að utan og klætt með álklæðningu á lóð nr. 16-18 við Gylfaflöt. Stærð: Atvinnuhús var 986,3 ferm., 4205 rúmm., en verður 1. hæð 1013,6 ferm., 2. hæð 894,8 ferm., samtals 1908,4 ferm., 8340 rúmm. Stækkun samtals 922,1 ferm., 4135 rúmm. Gjald kr. 6.100 + 252.235"
33073 (02.57.510.3),http://gamli.rvk.is/vefur/owa/edutils.parse_page?nafn=BN033073,Gylfaflöt 5,br. á bar og fleiru,Frestað. Vísað til athugasemda á umsóknarblaði.,"Sótt er um leyfi til að breyta innra fyrirkomulagi á veitingastaðnum í notaeiningu 0101 í húsinu nr. 5 við Gylfaflöt. Breytingar varða fjölgun spilakassa, bar, starfsmannaaðstöðu o.fl. Gjald kr. 5.700"
33098 (01.14.030.3),http://gamli.rvk.is/vefur/owa/edutils.parse_page?nafn=BN033098,Hafnarstræti 18,bökunarofn,Frestað. Vísað til athugasemda á umsóknarblaði.,Sótt er um leyfi til þess að koma fyrir bökunarofni í grillaðstöðu skyndibitastaðar (rými 0103) á fyrstu hæð hússins á lóðinni nr. 18 við Hafnarstræti. Gjald kr.  5.700
32756 (01.80.121.2),http://gamli.rvk.is/vefur/owa/edutils.parse_page?nafn=BN032756,Heiðargerði 65,breyting á þaki á bílskúr,Samþykkt.  Samræmist ákvæðum laga nr. 73/1997. Frágangur á lóðamörkum verði gerður í samráði við lóðarhafa aðliggjandi lóða. Með vísan til samþykktar borgarráðs frá 1. september 1998 skal utanhúss- og lóðarfrágangi vera lokið eigi síðar en innan tveggja ára frá útgáfu byggingarleyfis að viðlögðum dagsektarákvæðum 57. gr. skipulags- og byggingarlaga nr. 73/1997.,"Sótt er um leyfi til þess að hækka þak á  bílskúr á lóðinni nr. 65 við Heiðargerði. Stækkun: Rúmmál skúrs var áður skráð 105,0 rúmmetrar verður nú 134,0 rúmmetrar sem er stækkun um 29 rúmmetra. Gjald kr. 5.700 + 1.653"
33138 (01.16.031.3),http://gamli.rvk.is/vefur/owa/edutils.parse_page?nafn=BN033138,Hólatorg 8,bílastæði,Synjað. Samræmist ekki deiliskipulagi.,Sótt er um leyfi til þess að gera tvö bílastæði á suðvesturhorni lóðar nr. 8 við Hólatorg. Gjald kr. 6.100
32951 (04.74.130.2),http://gamli.rvk.is/vefur/owa/edutils.parse_page?nafn=BN032951,Hólavað 29-43,"raðhús, 2.hæðir, 8 íb.",Frestað. Lagfæra skráningu.,"Sótt er um leyfi til þess að byggja tvílyft steinsteypt raðhús með átta íbúðum og átta innbyggðum bílgeymslum á lóð nr. 29-43 við Hólavað. Stærð: Hús nr. 29 (matshl. 01) íbúð 1. hæð 52,8 ferm., 2. hæð 66,7 ferm., bílgeymsla 27,2 ferm., samtals 146,7 ferm., 534,4 rúmm.  Hús nr. 31 (matshl. 02), hús nr. 33 (matshl. 03), hús nr. 35 (matshl. 04), hús nr. 37 (matshl. 05), hús nr. 39 (matshl. 06), hús nr. 41 (matshl. 07) og hús nr. 43 (matshl. 08) eru öll sömu stærðar og hús nr. 29 eða samtals 146,7 ferm. og 534,4 rúmm hvert.  Raðhúsið er samtals 1173,6 ferm., 4275,2 rúmm. Gjald kr. 5.700 + 243.686"
32972 (05.8-.--9.6),http://gamli.rvk.is/vefur/owa/edutils.parse_page?nafn=BN032972,Hólmsheiði fjáreig.fé,B-gata 19 - br. innra fyrirkomul. br. útlit vestur,Frestað. Með vísan til umsagnar umhverfissviðs.,Sótt er um leyfi til þess að breyta innra fyrirkomulagi og útliti vesturhliðar hesthúss nr. 19 við B-götu Hólmsheiði. Umsögn umhverfissviðs Reykjavíkurborgar dags. 2. janúar 2006 fylgir erindinu. Gjald kr. 5.700
32987 (04.34.330.1),http://gamli.rvk.is/vefur/owa/edutils.parse_page?nafn=BN032987,Hraunbær 102,nr. 102A hurð milli 0107 og 0108,Frestað. Vísað til athugasemda á umsóknarblaði.,Sótt er um leyfi til þess að gera dyr milli rýma 0107 og 0108 og innrétta matsölustað í rými 0107 þar sem áður var hárgreiðslustofa í húsinu nr. 102A á lóð nr. 102 við Hraunbæ. Gjald kr. 5.700
33109 (01.15.440.6),http://gamli.rvk.is/vefur/owa/edutils.parse_page?nafn=BN033109,Hverfisgata 105,svalir og br. íbúði á 4. hæðar,Frestað. Vísað til athugasemda á umsóknarblaði.,Sótt er um leyfi til að koma fyrir svölum á suðurhlið fjórðu hæðar hússins nr. 105 við Hverfisgötu. Jafnframt er sótt um leyfi til að breyta innra fyrirkomulagi íbúða á fjórðu hæð frá því sem samþykkt var 8. feb. 2005. Gjald kr. 6.100
33091 (05.13.040.2),http://gamli.rvk.is/vefur/owa/edutils.parse_page?nafn=BN033091,"Klausturstígur 1-11, Kapellustígur 1-13",breytingar á 2. áfanga,Samþykkt.  Samræmist ákvæðum laga nr. 73/1997. Frágangur á lóðamörkum verði gerður í samráði við lóðarhafa aðliggjandi lóða. Áskilin lokaúttekt byggingarfulltrúa.,"Sótt er um minniháttar breytingar og samræmingu á húsunum nr. 1 við Klausturstíg og nr. 1-13 við Kapellustíg á lóðinni nr. 1-11 við Klausturstíg, 1-13 við Kapellustíg. Breytingar varða m.a. tilfærslu á húsum nr. 1 við Klausturstíg og nr. 7, 9 og 11 við Kapellustíg innan byggingarreits og breytingar sem gerð er nánar grein fyrir í breytingabókhaldi á teikningum. Gjald kr. 5.700"
32949 (04.96.340.2 01),http://gamli.rvk.is/vefur/owa/edutils.parse_page?nafn=BN032949,Kleifarsel 28,viðbygging Seljaskóli,Frestað. Lagfæra skráningu.,"Sótt er um leyfi til þess að fjarlægja hluta núverandi skólahúsnæðis og byggja einlyftar steinsteyptar viðbyggingar við vesturhlið núverandi bygginga Seljaskóla og austan við íþróttahús á lóð nr. 28 við Kleifasel. Forsögn f. Seljaskóla dags. október 2003,  rýmingaráætlun Seljaskóla (bréf og teikning) dags. 18. nóvember 2005 og bréf hönnuðar dags. 22. nóvember, 12. desember  2005 og 2. janúar 2006, skýrsla vegna brunahönnunar dags. 12. des. 2005 fylgja erindinu. Stærð: Niðurrif 47,6 ferm., 155,2 rúmm. Stækkun ( hús nr. 8,9 og 10) samtals 657,7 ferm., 2725,7 rúmm. Gjald kr. 5.700 + 6.100 + 166.268"
32860 (01.33.160.1),http://gamli.rvk.is/vefur/owa/edutils.parse_page?nafn=BN032860,Korngarður 12,bygging undirst. og safnþróar fl.,Samþykkt.  Samræmist ákvæðum laga nr. 73/1997. Áskilið samþykki heilbrigðiseftirlits. Áskilin lokaúttekt byggingarfulltrúa.,"Sótt er um leyfi til þess að byggja viðbyggingu á þaki iðnaðarhúss og jafnframt byggja undirstöðu undir og koma fyrir fimm fóðurgeymum á lóðinni nr. 12 við Korngarð, skv. uppdr. Nýju Teiknistofunnar, dags. 21.10.05. Einnig lögð fram umsögn Faxaflóahafna sf, dags. 14.12.05 og útskrift úr gerðabók embættisafgreiðslufundar skipulagsfulltrúa frá 6. janúar 2006. Stærð: Viðbygging 17,5 ferm., 98 rúmm., tankar 37,5 ferm., 493,4 rúmm Gjald kr. 5.700 + 36.075"
33132 (01.72.100.1),http://gamli.rvk.is/vefur/owa/edutils.parse_page?nafn=BN033132,Kringlan  4-12,sameina 116-1 og 116-2 í 116,Samþykkt.  Samræmist ákvæðum laga nr. 73/1997. Áskilin lokaúttekt byggingarfulltrúa.,Sótt er um leyfi til þess að sameina verslunareiningar 116-1 og 116-2 í eina verslun 116 með breytta framhlið að verslanagangi 1. hæðar Kringlunnar á lóð nr. 4-12 við Kringluna. Umsögn vegna brunavarna dags. 13. desember 2005 fylgir erindinu. Gjald kr. 6.100
31865 (02.29.470.5 03),http://gamli.rvk.is/vefur/owa/edutils.parse_page?nafn=BN031865,Krosshamrar 9A,sólstofa - bílskúr,Frestað. Vísað til athugasemda á umsóknarblaði.,Sótt er um leyfi til þess að byggja bílgeymslu að vesturhlið og skála að suðurhlið hússins á lóðinni nr. 9A á lóðinni nr. 9-9A við Krosshamra. Samþykki meðlóðarhafa og samþykki eigenda húsa nr. 11 og 11A dags. 30. maí 2005 fylgir erindinu. Jafnframt lögð fram útskrift úr gerðabók embættisafgreiðslufundar skipulagsfulltrúa frá 1. júlí 2005 og umsögn skipulagsfulltrúa dags. 28. júní 2005. Stærð: Stækkun xx Gjald kr. 5.700 + xx
33118 (01.86.310.2 03),http://gamli.rvk.is/vefur/owa/edutils.parse_page?nafn=BN033118,Kvistaland 14,viðbygging ofl.,Frestað. Vísað til athugasemda á umsóknarblaði.,"Sótt er um leyfi til þess að breyta gluggum og klæða bílgeymslu með steinklæðningu, breyta innra skipulagi og stækka um inngang í kverk milli bílgeymlu og íbúðarhluta einbýlishúsið nr. 14 á lóð nr. 10-16 við Kvistarland. Stærð: Viðbygging 3,1 ferm., 8,2 rúmm. Gjald kr. 6.100 + 500"
33155 (04.99.870.4),http://gamli.rvk.is/vefur/owa/edutils.parse_page?nafn=BN033155,Lambasel 13,takmarkað byggingarleyfi,Samþykkt.  Samræmist ákvæðum laga nr. 73/1997. Samþykktin fellur úr gildi við útgáfu á endanlegu byggingarleyfi.  Vegna útgáfu á takmörkuðu byggingarleyfi skal umsækjandi hafa samband við yfirverkfræðing embættis byggingarfulltrúa.,"Ofanritaður sækir um takmarkað byggingarleyfi fyrir greftri, fyllingu og aðstöðugerð á lóðinni nr. 13 við Lambasel."
33112 (04.99.870.4),http://gamli.rvk.is/vefur/owa/edutils.parse_page?nafn=BN033112,Lambasel 13,br. einingah.í staðsteypta byggingu,Samþykkt.  Samræmist ákvæðum laga nr. 73/1997. Frágangur á lóðamörkum verði gerður í samráði við lóðarhafa aðliggjandi lóða.,Sótt er um leyfi til þess að breyta áður samþykktu einbýlishúsi úr steinsteyptum einingum í hefðbundið staðsteypt einbýlishús. Gjald kr. 6.100
33096 (04.99.871.0),http://gamli.rvk.is/vefur/owa/edutils.parse_page?nafn=BN033096,Lambasel 40,br. á sneiðm.,Samþykkt.  Samræmist ákvæðum laga nr. 73/1997. Frágangur á lóðamörkum verði gerður í samráði við lóðarhafa aðliggjandi lóða.,"Sótt er um leyfi til þess að breyta áður samþykktum límtrésbita í stálbita, fella út milliloft í herbergjum og leiðrétta hæðir á sneiðmyndum til samræmis við sérteikningar nýsamþykkts einbýlishúss á lóð nr. 40 við Lambasel. Bréf hönnuðar dags. 21. desember 2005 fylgir erindinu. Gjald kr. 6.100"
33097 (04.99.871.1),http://gamli.rvk.is/vefur/owa/edutils.parse_page?nafn=BN033097,Lambasel 42,br. á sneiðm.,Samþykkt.  Samræmist ákvæðum laga nr. 73/1997. Frágangur á lóðamörkum verði gerður í samráði við lóðarhafa aðliggjandi lóða.,"Sótt er um leyfi til þess að breyta áður límtrésbita í stálbita, fella út milliloft í herbergjum og leiðrétta hæðir á sneiðmyndum til samræmis við sérteikningar nýsamþykkts einbýlishúss á lóð nr. 42 við Lambasel. Bréf hönnuðar dags. 21. desember 2005 fylgir erindinu. Gjald kr. 6.100"
33158 (04.99.870.2),http://gamli.rvk.is/vefur/owa/edutils.parse_page?nafn=BN033158,Lambasel 9,takmarkað byggingarleyfi,Samþykkt.  Samræmist ákvæðum laga nr. 73/1997. Samþykktin fellur úr gildi við útgáfu á endanlegu byggingarleyfi.  Vegna útgáfu á takmörkuðu byggingarleyfi skal umsækjandi hafa samband við yfirverkfræðing embættis byggingarfulltrúa.,"Ofanritaður sækir um takmarkað byggingarleyfi fyrir greftri, fyllingu og aðstöðugerð á lóðinni nr. 9 við Lambasel."
33102 (01.19.701.1),http://gamli.rvk.is/vefur/owa/edutils.parse_page?nafn=BN033102,Laufásvegur 63,"2. endurn. á byggingarl.(kvistir, svalir)",Samþykkt.  Samræmist ákvæðum laga nr. 73/1997. Með vísan til samþykktar borgarráðs frá 1. september 1998 skal utanhúss- og lóðarfrágangi vera lokið eigi síðar en innan tveggja ára frá útgáfu byggingarleyfis að viðlögðum dagsektarákvæðum 57. gr. skipulags- og byggingarlaga nr. 73/1997.,"Sótt er um endurnýjun á samþykkt frá 28, sept. 2004 sem var endurnýjun á samþykkt frá 27. júlí 2003 um ""leyfi til þess að breyta innra skipulagi hússins, breyta núverandi kvisti á norðausturhlið og byggja nýja kvisti á hinum þrem hliðum ásamt svölum framan við kvist á suðvesturhlið einbýlishússins á lóð nr. 63 við Laufásveg."" Erindið var kynnt frá 12. júní til 11. júlí 2003. Engar athugasemdir bárust. Stærð: Stækkun vegna kvista samtals 9 ferm., 20,6 rúmm. Gjald kr. 5.700 + 1.174"
33025 (01.37.--9.3),http://gamli.rvk.is/vefur/owa/edutils.parse_page?nafn=BN033025,Laugardalur Ármann,breytingar,"Frestað. Vísað til athugasemda á umsóknarblaði, þar með talið samræmist byggingamagn ekki deiliskipulagi.","Sótt er um leyfi til þess að breyta nýsamþykktri viðbyggingu við félagsheilmili Þróttar á lóð félagsins í Laugardalnum. Brunahönnun Línuhönnunar endurskoðuð 6. desember 2005 og útskrift úr gerðabók embættisafgreiðslufundar skipulagsfulltrúa frá 6. janúar 2006 fylgir erindinu. Stærð: Viðbygginga var 3097,8 ferm. verður 3199,3 ferm., var 21703 rúmm. verður 22153,2 rúmm. Stækkun 101,5 ferm., 450,2 rúmm. Gjald kr. 5.700 + 25.661"
32067 (01.36.040.1),http://gamli.rvk.is/vefur/owa/edutils.parse_page?nafn=BN032067,Laugarnesvegur 34,stækkun bílageymslu,Frestað. Vísað til athugasemda á umsóknarblaði.,Sótt er um leyfi fyrir viðbyggingu að suðausturhlið bílskúrsins (matshluta 02) á lóðinni nr. 34 við Laugarnesveg. Í matshlutanum er gert ráð fyrir bílgeymslu og vinnustofu. Stækkun: xx  Gjald kr. 5.700 + xx
33130 (01.24.000.5),http://gamli.rvk.is/vefur/owa/edutils.parse_page?nafn=BN033130,Laugavegur 105,endurn. byggingarl. frá 22.12.2004,Samþykkt.  Samræmist ákvæðum laga nr. 73/1997. Áskilin lokaúttekt byggingarfulltrúa. Áskilið samþykki heilbrigðiseftirlits. Áskilið samþykki Vinnueftirlits ríkisins.,Sótt er um endurnýjun á byggingarleyfi frá 22. desember 2004 fyrir innréttingu almenningsþvottahúss og kaffistofu á fyrstu hæð suðurhluta hússins á lóð nr. 105 við Laugaveg. Gjald kr. 6.100
33137 (01.17.101.4),http://gamli.rvk.is/vefur/owa/edutils.parse_page?nafn=BN033137,Laugavegur 3,breyting á gl. 2. og 3. hæðar,Frestað. Vantar samþykki meðeigenda.,Sótt er um leyfi til þess að breyta gluggum á 2. og 3. hæð á götuhlið og bakhlið til upphaflegrar gerðar þó með tvöföldu k-gleri í fjöleignahúsinu á lóð nr. 3 við Laugaveg. Gjald kr. 6.100
33093 (01.15.320.6),http://gamli.rvk.is/vefur/owa/edutils.parse_page?nafn=BN033093,Lindargata 60,br. á hurðum 1.hæð,Samþykkt.  Samræmist ákvæðum laga nr. 73/1997.,Sótt er um leyfi til þess að koma fyrir rennihurðum og breyta staðsetningu á dyraopum á fyrstu hæð hússins nr. 60 við Lindargötu. Gjald kr. 5.700
33139 (04.77.140.3),http://gamli.rvk.is/vefur/owa/edutils.parse_page?nafn=BN033139,Lindarvað 15-21,br. byggingarlýsing,Samþykkt.  Samræmist ákvæðum laga nr. 73/1997. Áskilin lokaúttekt byggingarfulltrúa. Frágangur á lóðamörkum verði gerður í samráði við lóðarhafa aðliggjandi lóða.,Sótt er um leyfi til þess að breyta byggingarlýsingu vegna mismunar á einangrun og frágangi þaks íbúðarhluta og bílgeymslna raðhúsanna á lóð nr. 15-21 við Lindarvað. Gjald kr. 6.100
33055 (01.14.050.6),http://gamli.rvk.is/vefur/owa/edutils.parse_page?nafn=BN033055,Lækjargata 2,styrkja þak undir svölum,Samþykkt.  Samræmist ákvæðum laga nr. 73/1997. Áskilin lokaúttekt byggingarfulltrúa.,Sótt er um leyfi til að endurnýja og styrkja hluta af þakviðum hússins nr. 2 við Lækjargötu. Um er að ræða þak undir þaksvölum í nyrsta hluta húss. Umsögn Húsafriðunarnefndar ríkisins dags. 3. janúar 2006 og umsögn Minjavörslu Reykjavíkur dags. 5. janúar 2006  fylgja erindinu. Gjald kr. 5.700
33129 (04.92.850.4),http://gamli.rvk.is/vefur/owa/edutils.parse_page?nafn=BN033129,Lækjarsel 7,"br, sólstofa ofl.",Frestað. Vísað til athugasemda á umsóknarblaði.,"Sótt er um samþykki fyrir áður gerðri stækkun aukaíbúðar á 1. hæð í áður sökkulrými með nýjum gluggum á norðvesturhlið og leyfi til þess að byggja  glerskálaviðbyggingar við suðausturhlið 1. hæðar undir svölum 2. hæðar og aðra viðbygging við 2. hæð vestar við sömu hlið íbúðarhússins á lóð nr. 7 við Lækjarsel. Stærð: Áður gerð stækkun 1. hæðar xxx ferm.,  Gjald kr. 6.100 + xxx"
33140 (04.77.140.1),http://gamli.rvk.is/vefur/owa/edutils.parse_page?nafn=BN033140,Lækjarvað 15-25,br. byggingarlýsing,Samþykkt.  Samræmist ákvæðum laga nr. 73/1997. Áskilin lokaúttekt byggingarfulltrúa. Frágangur á lóðamörkum verði gerður í samráði við lóðarhafa aðliggjandi lóða.,Sótt er um leyfi til þess að breyta byggingarlýsingu vegna mismunar á einangrun og frágangi þaks íbúðarhluta og bílgeymslna raðhúsanna á lóð nr. 15-25 við Lækjarvað. Gjald kr. 6.100
33119 (01.81.541.2),http://gamli.rvk.is/vefur/owa/edutils.parse_page?nafn=BN033119,Melgerði 27,reyndarteikningar,Frestað. Vísað til athugasemda á umsóknarblaði.,"Sótt er um samþykki fyrir þegar byggðu anddyri við austurhlið einbýlishússins og fyrir bárujárnsklæddum geymsluskúr á norðausturhorni lóðar nr. 27 við Melgerði. Stærð: Áður gerð anddyrisviðbygging 3,1 ferm., 7,1 rúmm. Áður byggður geymsluskúr 21,2 ferm., 58,3 rúmm. Gjald kr. 6.100 + 3989"
33074 (01.24.781.2),http://gamli.rvk.is/vefur/owa/edutils.parse_page?nafn=BN033074,Miklabraut 15,breyta bílskúr,Frestað. Vísað til athugasemda á umsóknarblaði. Málinu vísað til umsagnar skipulagsfulltrúa.,Sótt er um leyfi til þess að breyta bílskúr í tómstundaherbergi á lóðinni nr. 15 við Miklubraut. Gjald kr. 5.700
32866 (04.02.420.3),http://gamli.rvk.is/vefur/owa/edutils.parse_page?nafn=BN032866,""">Naustabryggja 54-56",br. veitingastað í 3 íbúðir,Frestað. Vísað til athugasemda á umsóknarblaði.,"Sótt er um leyfi til þess að breyta veitingastað á 1. hæð í þrjár íbúðir, stækka lítillega 1. hæð vegna nýs anddyris við suðurhlið, setja stiga niður í kjallararými og færa áður innbyggða sorpgeymslu í skýli við inngang að syðstu íbúðinni á 1. hæð fjölbýlishússins á lóð nr. 54-56 við Naustabryggju. Staðfesting burðavirkishönnuðar á aðkomu að máli fylgir erindinu sbr. tölvupóst dags. 1. desember 2005, útreikningar u-gildis útveggja dags. 20. desember 2005 og samþykki sumra meðeigenda dags. 20. desember 2005 fylgja erindinu. Stærð: Stækkun kjallara og 1. hæðar xxx ferm., xxx rúmm. Gjald kr. 5.700 + 5.700 +  xxx"
33063 (01.19.110.9),http://gamli.rvk.is/vefur/owa/edutils.parse_page?nafn=BN033063,Njálsgata 86,br. rishæð,Frestað. Vísað til athugasemda á umsóknarblaði.,"Sótt er um samþykki fyrir leiðréttri teikningu af rishæð hússins á lóðinni nr. 86 við Njálsgötu. Ný skráningartafla fylgir erindinu.  Húsið var áður skráð 878,3 fermetrar og 2202,9 rúmmetrar en verður nú skráð 884,0 fermetrar og 2198,0 rúmmetrar. Gjald kr. 5.700"
32992 (04.73.140.1),http://gamli.rvk.is/vefur/owa/edutils.parse_page?nafn=BN032992,Norðlingabraut 12,verslunar- og lagerhúsnæði,Frestað. Vísað til athugasemda á umsóknarblaði.,"Sótt er um leyfi til þess að byggja skrifstofu- og verslunarhúsnæði á tveimur hæðum auk lagerhúsnæði við 1. hæð allt úr stálgrind klæddri með málmklæðningu og að hluta viðarklæðningu ásamt steinsteyptum  bílakjallara fyrir 43 bíla á lóð nr. 12 við Norðlingabraut. Brunahönnun Línuhönnunar dags. 13. desember 2005 fylgir erindinu. Stærð: Bílakjallari 1397,8 ferm., verslun- og skrifstofur 1. hæð 1312,6 ferm., 2. hæð 676,4 ferm., lagerhúsnæði 1484,3 ferm., samtals 4871,1 ferm., 26879,7 rúmm. Gjald kr. 5.700 + 6.100 + 1.639.662"
32940 (01.13.601.5),http://gamli.rvk.is/vefur/owa/edutils.parse_page?nafn=BN032940,Ránargata 6,breyting inni,Frestað. Lagfæra skráningu.,Sótt er um leyfi til þess að breyta innra fyrirkomulagi og eignarhaldi á geymslurýmum í kjallara hússins nr. 6-6A á lóðinni nr. 6 við Ránargötu. Gjald kr. 5.700
33081 (04.77.220.2),http://gamli.rvk.is/vefur/owa/edutils.parse_page?nafn=BN033081,Sandavað 1-5,arinn og breytingar,Frestað. Vísað til athugasemda á umsóknarblaði.,"Sótt er um leyfi til að breyta sorpgeymslu á lóðinni nr. 1-5 við Sandavað þannig að í stað stálgrindarveggja komi steyptir veggir. Jafnframt verði innréttingu íbúða 0401, 0402, 0404 og 0407 breytt og m.a. komið fyrir arni í þeirri síðast nefndu. Gjald kr. 5.700"
30528 (01.36.431.0),http://gamli.rvk.is/vefur/owa/edutils.parse_page?nafn=BN030528,Sigtún 33,reyndarteikningar,Frestað. Vísað til athugasemda á umsóknarblaði.,Sótt er um samþykki fyrir núverandi fyrirkomulagi í húsinu á lóðinni nr. 33 við Sigtún. Gerð er grein fyrir fyrirkomulagi og eignarhaldi á rishæð og  breyttu fyrirkomulagi íbúðar í kjallara. Samþykki meðeigenda dags. 6. og 20. ágúst 2004 fylgir erindinu. Bréf hönnuðar dags. 6. ágúst 2004 fylgir erindinu. Gjald kr. 5.400 + 5.700
33099 (01.36.600.1),http://gamli.rvk.is/vefur/owa/edutils.parse_page?nafn=BN033099,Sigtún 38,endurnýja tæki og br. eldh.,Samþykkt.  Samræmist ákvæðum laga nr. 73/1997. Áskilin lokaúttekt byggingarfulltrúa. Áskilið samþykki heilbrigðiseftirlits.,Sótt er um leyfi til þess að endurnýja kerfisloft og breyta innréttingum og tækjum í eldhúsi á 1. hæð Grand Hótels á lóð nr. 38 við Sigtún. Gjald kr. 5.700
33134 (01.29.540.2),http://gamli.rvk.is/vefur/owa/edutils.parse_page?nafn=BN033134,Síðumúli 33,br. inni í kj.,Frestað. Vísað til athugasemda á umsóknarblaði.,Sótt er um samþykki fyrir núverandi innra skipulagi geymslukjallara í framhúsi (matshluti 01) og vinnusal ásamt verkstæði í bakhúsi (matshluta 02) á lóð nr. 33 við Síðumúla. Gjald kr. 6.100
33059 (01.25.400.1),http://gamli.rvk.is/vefur/owa/edutils.parse_page?nafn=BN033059,Skipholt 50A,ofanábygging ofl.,Frestað. Vísað til athugasemda á umsóknarblaði.,Sótt er um leyfi til að byggja eina hæð úr steinsteypu ofan á bakbyggingu á lóðinni nr. 50A við Skipholt. Á hæðinni verði fimm íbúðir. Jafnframt verði félagsaðstöðu á neðri hæð breytt í fimm íbúðir þannig að samtals verði tíu íbúðir í bakbyggingu. Samþykki meðeigenda dags. 21. nóvember 2005 fylgir erindinu. Stærðir: xx Gjald kr. 5.700 + xx
33127 (04.91.800.1),http://gamli.rvk.is/vefur/owa/edutils.parse_page?nafn=BN033127,Skógarsel 12,gervigrasvöllur,Frestað. Gera grein fyrir ljósgjöfum og dreifingu ljóss.,Sótt er um leyfi til þess að byggja gerfigrasvöll með sex ljósmöstrum norðan við félagsheimili ÍR á lóð nr. 12 við Skógarsel. Gjald kr. 6.100
33106 (01.78.860.1),http://gamli.rvk.is/vefur/owa/edutils.parse_page?nafn=BN033106,Suðurhlíð 38A - 38D,breytingar,Frestað. Vísað til athugasemda á umsóknarblaði.,"Sótt er um samþykki fyrir breyttu innra skipulagi flestra íbúða, fyrir skjólveggjum á 1. hæð austurhliðar og á svölum á 4. hæð ásamt leyfi til þess að sameina íbúð 0405 og 0406 á 4. hæð í eina íbúð og loka svalagöngum á 4. hæð með opnanlegri glerlokun og á 2. og 3. hæð með hertu gleri sem loftar undir og yfir á svalagöngum í norður og austur á fjölbýlishúsinu á lóð nr. 38 við Suðurhlið. Bréf hönnuðar dags. 19. desember 2005 fylgir erindinu. Stærð: Stækkun vegna lokunar á 4. hæð xxx ferm., xxx rúmm. Gjald kr. 5.700 + xxx"
33086 (00.00.000.0 03),http://gamli.rvk.is/vefur/owa/edutils.parse_page?nafn=BN033086,Suðurlandsbraut 4A,veitingaaðst. í konditori o.fl.,Samþykkt.  Samræmist ákvæðum laga nr. 73/1997. Áskilin lokaúttekt byggingarfulltrúa. Áskilið samþykki heilbrigðiseftirlits.,Sótt um leyfi til að breyta innra fyrirkomulagi til samræmis við núverandi innra skipulag. Gjald kr. 5.700
33121 (01.13.021.6),http://gamli.rvk.is/vefur/owa/edutils.parse_page?nafn=BN033121,Vesturgata 54A,"bæta við kvist,gluggar,svalir",Frestað. Málinu vísað til umsagnar skipulagsfulltrúa.,"Sótt er um leyfi til þess að setja svalir fyrir framan kvist á austurhlið og stækka kvist á norðurhlið þakhæðar fjölbýlishússins á lóð nr. 54A við Vesturgötu. Stærð: Stækkun xxx ferm., xxx rúmm. Gjad kr. 6.100 + xxx"
33131 (01.17.030.4),http://gamli.rvk.is/vefur/owa/edutils.parse_page?nafn=BN033131,Þingholtsstræti 3,breyting á áður samþykktu,Frestað. Vísað til athugasemda á umsóknarblaði.,Sótt er um leyfi til þess að fjarlægja millipóst í gluggum og stækka glugga á vesturhlið 4. hæðar hótels á lóð nr. 3 við Þingholtsstræti. Gjald kr. 6.100
33133 (04.79.120.2),http://gamli.rvk.is/vefur/owa/edutils.parse_page?nafn=BN033133,Þingvað 23,br. á gl. á austurhl.,Samþykkt.  Samræmist ákvæðum laga nr. 73/1997. Frágangur á lóðamörkum verði gerður í samráði við lóðarhafa aðliggjandi lóða.,Sótt er um leyfi til þess að breyta glugga á austurhlið einbýlishússins á lóð nr. 23 við Þingvað. Gjald kr. 6.100
32947 (04.11.220.1),http://gamli.rvk.is/vefur/owa/edutils.parse_page?nafn=BN032947,Þjóðhildarstígur 2-6,viðbygging,Samþykkt.  Samræmist ákvæðum laga nr. 73/1997. Áskilin lokaúttekt byggingarfulltrúa. Áskilið samþykki heilbrigðiseftirlits.,"Sótt er um leyfi til þess að byggja léttbyggða viðbyggingu ofan á pall við suðurhlið 2. hæðar atvinnuhússins á lóð nr. 2-6 við Þjóðhildarstíg. Umsögn brunahönnuðar tölvupóstur dags. 19. desember 2005 fylgir erindinu. Stærð: Viðbygging 64,7 ferm., 213,5 rúmm. Gjald kr. 5.700 + 13.024"
33165 (02.38.670.1),http://gamli.rvk.is/vefur/owa/edutils.parse_page?nafn=BN033165,Gullengi 2 og 4,"lóðamarkabreyting, sameining lóða",Samþykkt.  Samræmist ákvæðum laga nr. 73/1997.,"Lögð fram tillaga Framkvæmdasviðs, landupplýsingadeildar, dags. 23. nóvember 2005, að sameiningu lóðanna nr. 2 og 4 við Gullengi. Gullengi 2 (stgr. 2.386.701, landnr. 178918): Lóðin er (sjá útgefið mæliblað) 2258 ferm. Gullengi 4 (stgr. 2.386.702, landnr. 178949):  Lóðin er (sjá útgefið mæliblað) 3859 ferm. Gullengi 2, 4, 6, (stgr. 2.386.703): Frá Gullengi 2 (stgr. 2.386.701) 2258 ferm Frá Gullengi 4 (stgr. 2.386.702) 3859 ferm. Lóðin verður 6117 ferm. Lóðirnar Gullengi (stgr. 2.386.701) og Gullengi (stgr. 2.386.702) verði lagðar niður og afmáðar úr skrám. Sjá deiliskipulagsbreytingu sem samþykkt var í skipulagsráði 21. september 2005 og borgarstjórn 4. október 2005."
33143 (04.97.530.5),http://gamli.rvk.is/vefur/owa/edutils.parse_page?nafn=BN033143,Jöklasel 25,Leiðrétting á máli BN021631,Samþykkt.  Samræmist ákvæðum laga nr. 73/1997.,"Á afgreiðslufundi byggingarfulltrúa þann 9. ágúst 2000, var samþykkt umsókn nr. BN031631 þar sem sótt var um samþykki fyrir leiðréttum teikningum af húsinu á lóðinni nr. 2 við Jöklasel.  Erindið var tengt lóðinni nr. 25 við Jöklasel en ekki 2, þetta er hér með leiðrétt og verður erindið fært á lóð nr. 2 við Jöklasel."
33114,http://gamli.rvk.is/vefur/owa/edutils.parse_page?nafn=BN033114,Meistari - stálvirkjameistari,staðbundin löggilding,Samþykkt er staðbundin viðurkenning með vísan til bréfs umhverfisráðuneytisins dags. 25. nóvember 2005.,Ofanritaður sækir um staðbundna löggildingu sem stálvirkjameistari í lögsagnarumdæmi Reykjavíkur.
33142,http://gamli.rvk.is/vefur/owa/edutils.parse_page?nafn=BN033142,Meistari - Veggfóðra- og dúklagningameistari,staðbundin löggilding,Samþykkt sem staðbundin viðurkenning með vísan til bréfs umhverfisráðuneytisins dags. 25. nóvember 2005.,Ofanritaður sækir um staðbundna löggildingu sem veggfóðra- og dúklagningameistari í lögsagnarumdæmi Reykjavíkur.
33116,http://gamli.rvk.is/vefur/owa/edutils.parse_page?nafn=BN033116,Meistari - veggfóðra- og dúklagningameistari,staðbundin löggilding,Samþykkt sem staðbundin viðurkenning með vísan til bréfs umhverfisráðuneytisins dags. 25. nóvember 2005.,Ofanritaður sækir um staðbundna löggildingu sem veggfóðra- og dúklagningameistari í lögsagnarumdæmi Reykjavíkur.
33162,http://gamli.rvk.is/vefur/owa/edutils.parse_page?nafn=BN033162,Meistari - Veggfóðra- og dúklagningameistari,Staðbundin löggilding,Samþykkt sem staðbundin viðurkenning með vísan til bréfs umhverfisráðuneytisins dags. 25. nóvember 2005.,Ofanritaður sækir um staðbundna löggildingu sem veggfóðra- og dúklagningameistari í lögsagnarumdæmi Reykjavíkur.
33115,http://gamli.rvk.is/vefur/owa/edutils.parse_page?nafn=BN033115,Meistari - veggfóðra- og dúklagningameistari,Staðbundin löggilding,Samþykkt sem staðbundin viðurkenning með vísan til bréfs umhverfisráðuneytisins dags. 25. nóvember 2005.,Ofanritaður sækir um staðbundna löggildingu sem veggfóðra- og dúklagningameistari í lögsagnarumdæmi Reykjavíkur.
33164 (04.91.800.1),http://gamli.rvk.is/vefur/owa/edutils.parse_page?nafn=BN033164,Skógarsel 12,lóðamarkabreyting,Samþykkt.  Samræmist ákvæðum laga nr. 73/1997.,"Lögð fram tillaga Framkvæmdasviðs, landupplýsingardeildar, dags. 9. janúar 2006, að breytingu á lóðamörkum lóðarinnar nr. 12 við Skógarsel. Lóðin er sbr. mæliblað útg. 19. desember 1994, 80789 ferm. Tekið af lóðinni og gert að borgarlandi 691 ferm. Lagt við lóðina af borgarlandi (45717 + 312) 46029 ferm. Lóðin verður 126127 ferm. Sjá deiliskipulag samþykki í borgarráði 26. september 2000 og deiliskipulagsbreytingu samþykkta í skipulagsráði 2. febrúar 2005 og borgarráði þann 10. febrúar 2005."
33166 (01.23.310.1),http://gamli.rvk.is/vefur/owa/edutils.parse_page?nafn=BN033166,Sóltún 2,lóðamarkabreyting,Samþykkt.  Samræmist ákvæðum laga nr. 73/1997.,"Lögð fram tillaga Framkvæmdasviðs, landupplýsingadeildar, dags. 21. desember 2005, að breytingu á lóðarmörkum lóðarinnar nr. 2 við Sóltún. Lóðin er 10440 ferm., sbr. lóðarleigusamning A-025971/01, dags. 21. desember 2001. Tekið af lóðinni, sbr. yfirlýsingu A-025780/2002, 52 ferm. Bætt við lóðina (Sóltún 4) 4713 ferm. Lóðin verður 15101 ferm. Lóðin verður tölusett nr. 2-4 við Sóltún. Sjá samþykkt skipulagsráðs 26. janúar 2005 og samþykkt borgarráðs 3. febrúar 2005."
33163 (04.93.030.6),http://gamli.rvk.is/vefur/owa/edutils.parse_page?nafn=BN033163,Ystasel 37,lóðamarkabreyting,Samþykkt.  Samræmist ákvæðum laga nr. 73/1997.,"Lögð fram tillaga Framkvæmdasviðs, landupplýsingardeildar, dags. 4. janúar 2006, að breytingu á lóðamörkum lóðarinnar nr. 37 við Ystasel. Ystasel 37: Lóðin er 3289 ferm., sbr. lóðarsamning nr. 37180/85, dags. 11. september 1985. Bætt við lóðina úr óútvísuðu landi 80 ferm. Bætt við lóðina úr óútvísuðu landi 183 ferm. Lóðin verður 3552 ferm. Sjá samþykkt skipulagsráðs 13. apríl 2004 og 30. nóvember 2005."
33067 (01.35.320.1),http://gamli.rvk.is/vefur/owa/edutils.parse_page?nafn=BN033067,Ásvegur 15,(fsp) bílskúr,Jákvætt. Að uppfylltum skilyrðum enda verði sótt um byggingarleyfi í samræmi við deiliskipulag.,Spurt er hvort leyft yrði að byggja steinsteyptan bílskúr með aðkomu frá Hjallavegi á lóðinni nr. 15 við Ásveg. Samþykki eigenda að Hjallavegi 11 og Ásvegi 15 dags. 14. desember 2005 fylgir erindinu. Jafnframt lögð fram útskrift úr gerðabók embættisafgreiðslufundar skipulagsfulltrúa frá 6. janúar 2006
32846 (01.18.621.7 02),http://gamli.rvk.is/vefur/owa/edutils.parse_page?nafn=BN032846,Bragagata 31B,fsp. hækka um eina hæð,Neikvætt. Með vísan til útskriftar úr gerðabók embættisafgreiðslufundar skipulagsfulltrúa.,Spurt er hvort leyft yrði að hækka um eina hæð húsið nr. 31B (bakhús) við Bragagötu. Jafnfamt lögð fram útskrift úr gerðabók embættisafgreiðslufundar skipulagsfulltrúa frá 6. janúar 2006.
33070 (01.82.601.2),http://gamli.rvk.is/vefur/owa/edutils.parse_page?nafn=BN033070,Byggðarendi 23,(fsp) viðb. til vesturs,Neikvætt. Með vísan til athugasemdar skipulagsfulltrúa.,Spurt er hvort leyft yrði að stækka anddyri og byggja við núverandi hús á lóðinni nr. 23 við Byggðarenda til vesturs. Ennfremu hvort leyft yrði að reisa skjólveggi að mestu í samræmi við meðfylgjandi teikningu.
33156 (02.34.440.4),http://gamli.rvk.is/vefur/owa/edutils.parse_page?nafn=BN033156,Dofraborgir 15,(fsp) 20 ferm gróðurskáli,Frestað. Málinu vísað til umsagnar skipulagsfulltrúa.,Spurt er hvort leyft yrði að byggja 20 ferm. gróðurskála við suðvesturhlið jarðhæðar einbýlishússins á lóð nr. 15 við Dofraborgir.
33157 (04.94.730.3),http://gamli.rvk.is/vefur/owa/edutils.parse_page?nafn=BN033157,Engjasel 70-86,(fsp) stæði í bílskýli,Nei. Samræmist ekki skipulagsskilmálum.,Spurt er hvort leyft yrði að selja bílastæði frá einni íbúð yfir til annarar á lóðinni nr. 70-86 við Engjasel.
33012 (01.24.720.5),http://gamli.rvk.is/vefur/owa/edutils.parse_page?nafn=BN033012,Flókagata 18,(fsp) hækka þak,"Nei. Miðað við framlagt erindi, en til greina kemur að hækka hús sbr. umsögn skipulagsfulltrúa.",Spurt er hvort leyft yrði að hækka hús um eina hæð í líkingu við fyrirliggjandi skissur á lóð nr. 18 við Flókagötu. Útskrift úr gerðabók embættisafgreiðslufundar skipulagsfulltrúa frá 6. janúar 2006 og umsögn skipulagsfulltrúa dags. 6. janúar 2006 fylgja erindinu.
33064 (04.61.230.7),http://gamli.rvk.is/vefur/owa/edutils.parse_page?nafn=BN033064,Fremristekkur 13,(fsp) viðbygging,Frestað. Málinu vísað til umsagnar skipulagsfulltrúa.,Spurt er hvort leyft yrði að byggja tveggja hæða viðbyggingu að norður- og austuhlið hússins nr. 13 við Fremristekk.
33110,http://gamli.rvk.is/vefur/owa/edutils.parse_page?nafn=BN033110,Giljaland 2-32 1-35,(fsp) 32 - síkka glugga kjallara,Jákvætt. Að uppfylltum skilyrðum enda verði sótt um byggingarleyfi.,Spurt er hvort leyft yrði að stækka glugga í kjallara á norðuhlið raðhúss nr. 32 á lóð nr. 26-32 við Giljaland.
33008 (01.17.422.5),http://gamli.rvk.is/vefur/owa/edutils.parse_page?nafn=BN033008,Grettisgata 53,(fsp) geymsluskúr,Jákvætt. Að uppfylltum skilyrðum enda láti fyrirspyrjandi vinna tilllögu að  deiliskipulagsbreytingu á eigin kostnað sem síðan verður grenndarkynnt af skipulagsfulltrúa.,Spurt er hvort leyft yrði að byggja um 9 ferm. geymsluskúr úr timbri klæddan bárujárnsklæðningu á baklóð einbýlishússins á lóð nr. 53 við Grettisgötu. Útskrift úr gerðabók embættisafgreiðslufundar skipulagsfulltrúa frá 6. janúar 2006 fylgir erindinu.
33151 (01.13.654.2),http://gamli.rvk.is/vefur/owa/edutils.parse_page?nafn=BN033151,Grjótagata 11,(fsp) viðbygging við kj.,Frestað. Málinu vísað til umsagnar skipulagsfulltrúa.,Spurt er hvort leyft yrði að byggja viðbyggingu milli kjallara íbúðarhúss og tómstundarstofu með aðkomu frá tómstundarstofu og með svölum fyrir íbúðarhús á þaki viðbyggingar á lóð nr. 11 við Grjótagötu.
33101 (02.86.230.3),http://gamli.rvk.is/vefur/owa/edutils.parse_page?nafn=BN033101,Hverafold 46,(fsp) ofanábygging,Jákvætt. Að uppfylltum skilyrðum enda verði sótt um byggingarleyfi og tekið tillit til athugasemda skipulagsfulltrúa.,Spurt er hvort leyfi yrði að byggja ofan á bílskúr og anddyri einbýlishússins á lóðinni nr. 46 við Hverafold.
33107 (01.17.410.8),http://gamli.rvk.is/vefur/owa/edutils.parse_page?nafn=BN033107,Hverfisgata 102B,(fsp) breytingar,Frestað. Málinu vísað til umsagnar skipulagsfulltrúa.,"Spurt er hvort leyft yrði að lyfta þak, byggja kvisti, dýpka kjallara og stækka kjallaraglugga, sameina íbúð á annari hæð og rishæð í eina íbúð í húsi nr. 102B við Hverfisgötu."
33095 (01.17.210.3),http://gamli.rvk.is/vefur/owa/edutils.parse_page?nafn=BN033095,Hverfisgata 56,(fsp) íbúð á 2. hæð,Neikvætt. Með vísan til athugasemda skipulagsfulltrúa.,Spurt er hvort leyft yrði að koma fyrir íbúð á annarri hæð hússins nr. 56 við Hverfisgötu að mestu í samræmi við meðfylgjandi hugmyndaskissu.
33152 (01.81.900.4),http://gamli.rvk.is/vefur/owa/edutils.parse_page?nafn=BN033152,Hæðargarður 36,(fsp) endurbyggja skúr,Nei. Samræmist ekki deiliskipulagi.,Spurt er hvort leyft yrði að byggja stærri skúr í stað núverandi 7 ferm. skúrbyggingar á austurlóðamörkum fjölbýlishúss á lóð nr. 36 við Hæðargarð.
33124 (01.35.511.3),http://gamli.rvk.is/vefur/owa/edutils.parse_page?nafn=BN033124,Kleppsvegur 108,(fsp)rífa hluta af húsi og byggja nýtt,Frestað. Málinu vísað til umsagnar skipulagsfulltrúa.,Spurt er hvort leyft yrði að rífa helming af húsi og byggja einingarhús á tveimur hæðum á lóð nr. 108 við Kleppsveg.
33090 (01.45.700.2),http://gamli.rvk.is/vefur/owa/edutils.parse_page?nafn=BN033090,Knarrarvogur 4,(fsp) breytingar í kj.og 1hæð,Frestað. Gera betur grein fyrir erindinu.,Spurt er hvort samþykkt yrði breyting á innréttingu í kjallara og 1. hæð fyrir smásöluverslun á vegum Olíufélagsins á lóð nr. 4 við Knarravog.
33113 (04.99.850.4),http://gamli.rvk.is/vefur/owa/edutils.parse_page?nafn=BN033113,Lambasel 24,(fsp) minna einbýlish.,Frestað. Málinu vísað til umsagnar skipulagsfulltrúa.,"Spurt er hvort leyft yrði að byggja einbýlishús í líkingu við fyrirliggjandi uppdrátt eða samtals 187,4 ferm. með innbyggðri bílgeymslu á lóð nr. 24 við Lambasel."
33104 (01.18.340.8),http://gamli.rvk.is/vefur/owa/edutils.parse_page?nafn=BN033104,Laufásvegur 22,(fsp) breyting á notkun,Nei. Samræmist ekki landnotkun.,"Spurt er hvort leyft yrði að nýta húsið nr. 22 við Laufásveg fyrir fyrir móttöku, fundi og námskeið."
33136 (00.00.000.0),http://gamli.rvk.is/vefur/owa/edutils.parse_page?nafn=BN033136,Laufásvegur 6,(fsp) br. vinnustofu í íbúð,Jákvætt. Að uppfylltum skilyrðum enda verði sótt um byggingarleyfi og svefnkrókur felldur niður.,Spurt er hvort leyft yrði að breyta séreign 0002 úr vinnustofu í einstaklingsíbúð í fjöleignarhúsinu á lóð nr. 6 við Laufásveg.
33105 (01.19.701.1),http://gamli.rvk.is/vefur/owa/edutils.parse_page?nafn=BN033105,Laufásvegur 63,"(fsp) innkeyrsla, bílastæði",Frestað. Málinu vísað til umsagnar skipulagsfulltrúa.,Spurt er hvort leyft yrði að gera innkeyrslu við suðausturmörk lóðarinnar nr. 63 við Laufásveg og koma þar fyrir tveimur bílastæðum.
33100 (01.17.301.6 02),http://gamli.rvk.is/vefur/owa/edutils.parse_page?nafn=BN033100,Laugavegur 63,(fsp) íbúðir  1hæð,Frestað. Málinu vísað til umsagnar skipulagsfulltrúa.,Spurt er hvort leyft yrði að breyta verslun í eina eða tvær íbúðir á lóð nr. 63 við Laugaveg.
33153 (01.18.130.9),http://gamli.rvk.is/vefur/owa/edutils.parse_page?nafn=BN033153,Lokastígur 28,(fsp) br. í versl. og veitingast.,Nei. Aðgengi fatlaðra skortir að veitingarstað.,Spurt er hvort leyft yrði að innrétta veitingastað á 2. og 3. hæð hússins á lóð nr. 28 við Lokastíg. Bréf fyrirspyrjanda ódags. og viðskiptaáætlun dags. 19. október 2005 fylgja erindinu.
33083 (01.19.021.2),http://gamli.rvk.is/vefur/owa/edutils.parse_page?nafn=BN033083,Njálsgata 42,(fsp) bílastæði á lóð,Nei. Samræmist ekki skipulagi.,Spurt er hvort leyft yrði að koma fyrir bílastæði á lóðinni nr. 42 við Njálsgötu.
33072 (01.18.421.6),http://gamli.rvk.is/vefur/owa/edutils.parse_page?nafn=BN033072,Óðinsgata 9,"(fsp) breyta inngangi ,byggja fram glugga",Jákvætt. Að uppfylltum skilyrðum enda verði sótt um byggingarleyfi.,"Spurt er hvort leyft yrði að breyta fyrirkomulagi á inngangi og anddyri hússins nr. 9 við Óðinsgötu, þannig að inngangur yrði úr undirgangi. Á meðfylgjandi teikningum koma fram atriði varðandi skipulag fyrstu hæðar og kjallara sem ekki hafa verið samþykkt af þar til bærum yfirvöldum."
33048 (01.29.200.6),http://gamli.rvk.is/vefur/owa/edutils.parse_page?nafn=BN033048,Síðumúli  3-5,(fsp) viðbygging,Frestað. Málinu vísað til deiliskipulagsvinnu sbr. bókun skipulagsfulltrúa.,Spurt er hvort leyft yrði að byggja um 200 ferm. viðbyggingu á einni hæð vestan við húsið á lóðinni nr. 3-5 við Síðumúla. Útskrift úr gerðabók embættisafgreiðslufundar skipulagsfulltrúa frá 6. janúar 2006 fylgir erindinu.
33141 (01.54.311.2),http://gamli.rvk.is/vefur/owa/edutils.parse_page?nafn=BN033141,Ægisíða 94,(fsp)  breytt útlit,Jákvætt. Að uppfylltum skilyrðum enda verði sótt um byggingarleyfi.,Spurt er hvort leyft yðri að setja glugga og inngang á norðurhlið 1. hæðar fjölbýlishússins á lóð nr. 94 við Ægisíðu.
