nr,url,heimilisfang,tegund,nidurstada,spurning
33584 (01.14.040.9),http://gamli.rvk.is/vefur/owa/edutils.parse_page?nafn=BN033584,Austurstræti 14,breyting inni,Frestað. Vísað til athugasemda á umsóknarblaði.,"Sótt er um leyfi til að breyta salerni f. fatlaða á fyrstu hæð, salerni f. starfsfólk í kjallara og ræstingu á tveim stöðum í kjallara, í húseigninni á lóðinni Austurstræti nr. 14. Gjald kr. 6.100"
32720 (01.26.400.5),http://gamli.rvk.is/vefur/owa/edutils.parse_page?nafn=BN032720,Ármúli 17A,skólastofur á 2 hæð,Samþykkt.  Samræmist ákvæðum laga nr. 73/1997. Áskilin lokaúttekt byggingarfulltrúa. Áskilið samþykki heilbrigðiseftirlits.,Sótt er um leyfi til að innrétta þrjár kennslustofur fyrir Fjölbrautaskólann við Ármúla á annarri hæð hússins nr. 17A við Ármúla. Stofurnar geta rúmað allt að 60 nemendur. Mótmæli dags. 8. desember 2005 fylgja erindinu. Gjald kr. 5.700
33766 (01.18.420.7),http://gamli.rvk.is/vefur/owa/edutils.parse_page?nafn=BN033766,Baldursgata 33,Takmarkað byggingarleyfi,Samþykkt.  Samræmist ákvæðum laga nr. 73/1997. Samþykktin fellur úr gildi við útgáfu á endanlegu byggingarleyfi.  Vegna útgáfu á takmörkuðu byggingarleyfi skal umsækjandi hafa samband við yfirverkfræðing embættis byggingarfulltrúa.,Ofanritaður sækir um takmarkað byggingarleyfi til að undirbúa lagnir í lóð og vinna jarðvinnu á lóðinni nr. 33 við Baldursgötu.
33211 (01.71.010.1),http://gamli.rvk.is/vefur/owa/edutils.parse_page?nafn=BN033211,Barmahlíð 34,nýjar svalir á neðri hæð,Samþykkt.  Samræmist ákvæðum laga nr. 73/1997. Í ljósi þess að einn eigandi hefur dregið fyrra samþykki sitt til baka verður ekki gefið út byggingarleyfi fyrr en að kærufresti loknum. Með vísan til samþykktar borgarráðs frá 1. september 1998 skal utanhúss- og lóðarfrágangi vera lokið eigi síðar en innan tveggja ára frá útgáfu byggingarleyfis að viðlögðum dagsektarákvæðum 57. gr. skipulags- og byggingarlaga nr. 73/1997.,"Sótt er um leyfi til að fjarlægja steyptar svalir á neðri hæð hússins nr. 34 við Barmahlið og gera í þeirra stað léttbyggðar svalir, sem verða stærri en þær upphaflegu. Handrið verði gert úr sementsplötum sem verða steinaðar á sama hátt og húsið. Erindinu fylgir samþykki eigenda Barmahlíðar 34 og 36 dags. 27. júlí 2005, áritað á teikningu, umsögn aðalhönnuðar dags. 16. jan. 2006. Jafnframt lagt fram mótmælabréf Jóns Jóhannessonar dags. 27. janúar 2006 og útskrift úr gerðabók embættisafgreiðslufundar skipulagsfulltrúa frá 3. mars 2006. Gjald kr. 6.100"
33210 (01.71.010.2),http://gamli.rvk.is/vefur/owa/edutils.parse_page?nafn=BN033210,Barmahlíð 36,nýjar svalir á neðri hæð,Samþykkt.  Samræmist ákvæðum laga nr. 73/1997. Í ljósi þess að einn eigandi hefur dregið fyrra samþykki sitt til baka verður ekki gefið út byggingarleyfi fyrr en að kærufresti loknum. Með vísan til samþykktar borgarráðs frá 1. september 1998 skal utanhúss- og lóðarfrágangi vera lokið eigi síðar en innan tveggja ára frá útgáfu byggingarleyfis að viðlögðum dagsektarákvæðum 57. gr. skipulags- og byggingarlaga nr. 73/1997.,"Sótt er um leyfi til að fjarlægja steyptar svalir á neðri hæð hússins nr. 36 við Barmahlið og gera í þeirra stað léttbyggðar svalir, sem verða stærri en þær upphaflegu. Handrið verði gert úr sementsplötum sem verða steinaðar á sama hátt og húsið. Erindinu fylgir samþykki eigenda Barmahlíðar 34 og 36 dags. 27. júlí 2005, áritað á teikningu, umsögn aðalhönnuðar dags. 16. jan. 2006. Jafnframt lagt fram mótmælabréf frá Jóni Jóhannessyni  dagsett 27.01.06  Útskrift úr gerðabók embættisafgreiðslufundar skipulagsfulltrúa frá 3. mars 2006 fylgir erindinu. Gjald kr. 6.100"
33660 (04.06.510.1),http://gamli.rvk.is/vefur/owa/edutils.parse_page?nafn=BN033660,Bíldshöfði 20,viðbygging,Frestað. Lagfæra skráningu.,"Sótt er um leyfi  til að byggja viðbyggingu, einnar hæðar stálgrindarhús klætt málmklæðningu, ásamt því að breyta innra skipulagi verslunarinnar Krónunar við Bíldshöfða 20, skv. uppdr. Ask Arkitekta, dags. 21. mars 2006. Bréf  brunavarnarhönnuðar  dags. 3. mars 2006. Stærðir 1166,6 ferm., 5016,2 rúmm. Gjald kr 6.100 + 305.988"
33512 (01.21.910.2),http://gamli.rvk.is/vefur/owa/edutils.parse_page?nafn=BN033512,Borgartún  35-37,nr. 35 breyting inni og úti,Samþykkt.  Samræmist ákvæðum laga nr. 73/1997. Áskilin lokaúttekt byggingarfulltrúa.,Sótt er um í Borgartúni 35 að breyta þaki í svalir fyrir 6. hæð  og flóttaleið bætt við út á þak.  Handrið úr hertu gleri sett upp. Yfirlýsing um brunahönnun  dags. 24. mars 2006 fylgir.  Útskrift úr gerðabók embættisafgreiðslufundar skipulagsfulltrúa frá 7. apríl 2006 fylgir erindinu. Gjald kr. 6.100
33297 (01.13.541.6),http://gamli.rvk.is/vefur/owa/edutils.parse_page?nafn=BN033297,Bræðraborgarstígur 15,stækkun á svölum,Samþykkt.  Samræmist ákvæðum laga nr. 73/1997. Með vísan til samþykktar borgarráðs frá 1. september 1998 skal utanhúss- og lóðarfrágangi vera lokið eigi síðar en innan tveggja ára frá útgáfu byggingarleyfis að viðlögðum dagsektarákvæðum 57. gr. skipulags- og byggingarlaga nr. 73/1997.,"Sótt er um að stækka svalir austanmeginn á Bræðrarborgarstíg 15, verkið er hluti af viðgerðum á húsinu. Bréf fyrir hönd eigenda fylgir. Jafnframt lagt fram bréf formanns húsfélagsins dags. 9. febrúar 2006 og bréf frá sama dags. 7. mars 2006. Gjald kr. 6.100Sótt er um að stækka svalir austanmeginn á Bræðrarborgarstíg 15, verkið er hluti af viðgerðum á húsinu. Bréf fyrir hönd eigenda fylgir. Jafnframt lagt fram bréf formanns húsfélagsins dags. 9. febrúar 2006 og bréf frá sama dags. 7. mars 2006. Gjald kr. 6.100"
33735 (01.82.600.3),http://gamli.rvk.is/vefur/owa/edutils.parse_page?nafn=BN033735,Byggðarendi 5,hækkun þaks,Samþykkt.  Samræmist ákvæðum laga nr. 73/1997. Með vísan til samþykktar borgarráðs frá 1. september 1998 skal utanhúss- og lóðarfrágangi vera lokið eigi síðar en innan tveggja ára frá útgáfu byggingarleyfis að viðlögðum dagsektarákvæðum 57. gr. skipulags- og byggingarlaga nr. 73/1997.,Sótt er um leyfi fyrir hækkun þaks og setja valmaþak á húsið á lóðinni nr. 5 við Byggðarenda. Málinu fylgir útskrift úr gerðabók skipulagsráðs frá 15. mars 2006 þar sem breyting á deiliskipulagi er samþykkt. Gjald kr. 6.100
33770 (02.57.600.1),http://gamli.rvk.is/vefur/owa/edutils.parse_page?nafn=BN033770,Bæjarflöt 1-3,takmarkað byggingarleyfi,Samþykkt.  Samræmist ákvæðum laga nr. 73/1997. Samþykktin fellur úr gildi við útgáfu á endanlegu byggingarleyfi.  Vegna útgáfu á takmörkuðu byggingarleyfi skal umsækjandi hafa samband við yfirverkfræðing embættis byggingarfulltrúa.,"Ofanritaður sækir um takmarkað byggingarleyfi fyrir greftri, fyllingu og aðstöðugerð á lóð nr. 1-3 við Bæjarflöt."
33742 (02.57.600.1),http://gamli.rvk.is/vefur/owa/edutils.parse_page?nafn=BN033742,Bæjarflöt 1-3,nr. 1 nýbygging,Frestað. Vantar yfirlýsingu brunahönnuðar. Málinu vísað til umsagnar skipulagsfulltrúa.,"Sótt er um leyfi til að breyta áður samþykktum teikningum á húsinu á lóðinni nr. 1 við Bæjarflöt. Stærðarbreyting: Var 1864,5 ferm., verður 1847,8 ferm, var 14.175 rúmm., verður 14.135 rúmm.   Minnun 16,7 ferm. og 40 rúmm. Gjald kr. 6.100"
33642 (01.41.211.0),http://gamli.rvk.is/vefur/owa/edutils.parse_page?nafn=BN033642,Efstasund 87,viðbygging,Frestað. Vísað til athugasemda á umsóknarblaði.,"Sótt er um leyfi til að byggja við einbýlishúsið á lóðinni nr. 87 við Efstasund. Stærð: Stækkun 23,9 ferm., 57,8 rúmm. Gjald kr. 6.100 + 3.526"
33615 (08.1-.--9.9 12),http://gamli.rvk.is/vefur/owa/edutils.parse_page?nafn=BN033615,"15"">Elliðavatnsland 113489",endurnýjun á rotþró,Samþykkt.  Samræmist ákvæðum laga nr. 73/1997. Áskilið samþykki heilbrigðiseftirlits.,Sótt er um endurnýjun á rotþró í Elliðavatnslandi landnúmer 113489. Hjálagt er bréf frá Línuhönnun dags. 15. mars 2006 ásamt fylgiskjölum frá Árbæjarsafni dags. 6. des. 2005 og Umhvefissviði  Reykjavíkur dags. 19. des. 2005. Gjald kr. 6.100
33551 (01.11.050.4),http://gamli.rvk.is/vefur/owa/edutils.parse_page?nafn=BN033551,Eyjarslóð 7,fjölgun eigna,Frestað. Lagfæra skráningu.,"Sótt er um að fjölga eignarhlutum í Eyjaslóð 7. Eignahlutarnir 0201 og 0202 voru áður tengdar 0101. Samþykki eigenda fylgir með dags. 7. mars 2006. Bréf frá Tækniþjónustu Ragnars G. Gunnarssonar, dags. 3.mars 2006, um burðarvirki fylgir. Gjald kr. 6.100"
33638 (01.11.500.5),http://gamli.rvk.is/vefur/owa/edutils.parse_page?nafn=BN033638,Fiskislóð 14,breyting inni,Samþykkt.  Samræmist ákvæðum laga nr. 73/1997. Áskilin lokaúttekt byggingarfulltrúa.,Sótt er um leyfi fyrir uppsetningu á EI60 skilveggjum vegna verkstæða og tveimur nýjum skrifstofum á 1. hæð hússins á lóð nr. 14 við Fiskislóð. Gjald kr. 6.100
33688 (02.46.810.1),http://gamli.rvk.is/vefur/owa/edutils.parse_page?nafn=BN033688,Fossaleynir 19-23,viðbygging,Samþykkt.  Samræmist ákvæðum laga nr. 73/1997. Frágangur á lóðamörkum verði gerður í samráði við lóðarhafa aðliggjandi lóða. Áskilin lokaúttekt byggingarfulltrúa. Þinglýsa skal breytingu á lóðarleigusamningi áður en uppdrættir verða afhentir.,"Sótt er um leyfi til þess að byggja einlyfta stálgrindarviðbyggingu milli 1. og 2. áfanga atvinnuhússins á lóð nr. 19-23 við Fossaleynir. Stærð: Stækkun 195,8 ferm., 1230,6 rúmm. Gjald kr. 6.100 + 75.067"
33613 (01.18.660.1),http://gamli.rvk.is/vefur/owa/edutils.parse_page?nafn=BN033613,Freyjugata 24,lækka gólf í kjallara,Samþykkt.  Samræmist ákvæðum laga nr. 73/1997. Áskilin lokaúttekt byggingarfulltrúa. Áskilið samþykki heilbrigðiseftirlits.,"Sótt er um leyfi til þess að lækka gólf í kjallara um 45 sm, innrétta eldhús, móttöku, skrifstofu og böð í kjallara, fjölga gistiherbergjum um tvö á 1. hæð þar sem verið hefur morgunverðaraðstaða gistiheimilisins á lóð nr. 24 við Freyjugötu. Bréf frá VHÁ verkfræðistofu um burðarvirki, dagsett 4. mars 2006 fylgir erindinu. Stærð: Rúmmálsaukning 34,8 rúmm. Gjald kr. 6.100 + 2.123"
33487 (01.18.631.2),http://gamli.rvk.is/vefur/owa/edutils.parse_page?nafn=BN033487,Freyjugata 27,breyta í íbúð o.fl.,Frestað. Vísað til athugasemda á umsóknarblaði.,"Sótt er um að breyta núverandi verslunarhúsnæði, í Freyjugötu 27, eignarhluti 0101,  í 3. herb. íbúð sem  tengist niður í kjallara með nýjum stiga. Kjallaragólf lækkað um 55 sm. Núverandi inngangi lokað með hleðsluglersteini og steinsteypu. Burðarveggur fjarlægður, biti og súla í staðinn. Gjald kr. 6.100"
33406 (04.30.230.1),http://gamli.rvk.is/vefur/owa/edutils.parse_page?nafn=BN033406,Grjótháls 5,breytingar 2 hæð,Samþykkt.  Samræmist ákvæðum laga nr. 73/1997. Áskilin lokaúttekt byggingarfulltrúa. Áskilið samþykki heilbrigðiseftirlits.,Sótt er um breytingar innanhúss á 2. hæð í húsi á lóð nr. 5 við Grjótháls. Núverandi eldhús og mötuneyti stækkað og fundarherbergi gert við enda matsalar. Bréf frá T. ark dags. 7. mars 2006 fylgir erindinu. Gjald kr. 6.100
33606 (23.86.703),http://gamli.rvk.is/vefur/owa/edutils.parse_page?nafn=BN033606,Gullengi 2-6,"tvö fjölbýlishús, 2 x 9 íb.",Samþykkt.  Samræmist ákvæðum laga nr. 73/1997. Frágangur á lóðamörkum verði gerður í samráði við lóðarhafa aðliggjandi lóða. Áskilin lokaúttekt byggingarfulltrúa.,"Sótt er um leyfi til þess að byggja tvö þrílyft fjölbýlishús ásamt geymslukjallara allt úr steinsteyptum samlokueiningum og með samtals níu íbúðum í hvoru húsi sem hús nr. 2 og 4 á lóð nr. 2-6 við Gullengi. Vottorð Rb á framleiðslu Einingaverksmiðjunnar vegna steinsteyptra eininga gildistími 25. maí 2007 og vottorð Rb á framleiðslu Einingarverksmiðjunnar vegna holplatna HP-210 og HP 265 gildistími 25. maí 2007 fylgja erindinu. Stærð: Gullengi 2 (matshluti 03) kjallari 113,1 ferm., 1. hæð 373,9 ferm., 2. hæð 361,7 ferm., 3. hæð 361,7 ferm., samtals 1210,4 ferm., 3792,8 rúmm. Svalagangar og stigahús (B-rými) samtals 78,3 ferm., 308,7 rúmm. Gullengi 4 (matshluti 02) er sömu stærðar og Gullengi 2 eða samtals 1210,4 ferm., 3792,,8 rúmm. og B-rými 78,3 ferm., 308,7 rúmm. Gjald kr. 6.100 + 500.383"
33711 (01.14.010.7),http://gamli.rvk.is/vefur/owa/edutils.parse_page?nafn=BN033711,Hafnarstræti 9,breyting inni,Frestað. Vísað til athugasemda á umsóknarblaði.,"Sótt er um breytingar á veitingarými í kjallara og á 1. hæð hússins á lóðinni nr. 9 við Hafnarstræti. Eldhús innréttað í kjallara og innra fyrirkomulagi breytt. Árituð teikning með samþykki Heimshótels ehf., fylgir. Bréf VSI dags. 4. apríl 2006 fylgir erindinu. Gjald kr. 6.100"
33529 (01.80.100.4),http://gamli.rvk.is/vefur/owa/edutils.parse_page?nafn=BN033529,Heiðargerði 7,klæðning,Samþykkt.  Samræmist ákvæðum laga nr. 73/1997. Með vísan til samþykktar borgarráðs frá 1. september 1998 skal utanhúss- og lóðarfrágangi vera lokið eigi síðar en innan tveggja ára frá útgáfu byggingarleyfis að viðlögðum dagsektarákvæðum 57. gr. skipulags- og byggingarlaga nr. 73/1997.,Sótt er um leyfi til að einangra að utan og klæða einbýlishús á lóðinni nr. 7 við Heiðargerði með Steni klæðningu. Samþykki eigenda Heiðargerðis nr. 5 og nr. 9 dags. 4. mars 2006 og ástandskönnun útveggja dags. 23. júní 2005 fylgja erindinu. Gjald kr. 6.100
33599 (04.32.320.2),http://gamli.rvk.is/vefur/owa/edutils.parse_page?nafn=BN033599,Hestháls 12,viðbygging,Frestað. Vantar yfirlýsingu frá Orkueitu vegna kvaðar.,"Sótt er um stækkun á matshluta 0101 (skrifstofuhúsnæði) fyrir fundarherbergi og kaffistofu í húsi á lóð nr. 12 við Hestháls. Stærðir: 72,9 ferm., og 247,9 rúmm.  Gjald kr. 6.100 +15.122"
33748 (01.77.720.1),http://gamli.rvk.is/vefur/owa/edutils.parse_page?nafn=BN033748,Hlíðarfótur 75 (99),nýbygging,Frestað. Vísað til athugasemda á umsóknarblaði.,"Sótt er um leyfi til að byggja veitingahús á einni hæð, að viðbættum geymslu og lagna kjallara á lóð nr. 99 við Hlíðarfót. Húsið er steinsteypt einangrað að utan timburklætt. Stærðir 391,2 ferm., 1156,2 rúmm. Gjald kr. 6.100 + 70.528"
33760 (01.54.220.1),http://gamli.rvk.is/vefur/owa/edutils.parse_page?nafn=BN033760,Hofsvallagata 53,innrétta bílgeymslu sem rannsóknarými,Samþykkt.  Samræmist ákvæðum laga nr. 73/1997. Áskilin lokaúttekt byggingarfulltrúa. Áskilið samþykki heilbrigðiseftirlits.,"Sótt er um leyfi til að byggja nýtt þak og innrétta rannsóknarstofur í nyrðri hluta bílgeymslunnar á lóðinni nr. 53 við Hofsvallagötu. Stærð: Var 769 rúmm., verður 877,6 rúmm.  Rúmmálsaukning 108,6 rúmm., er vegna hækkunar á þaki. Gjald kr. 6.100 + 6.625"
33014 (01.36.110.8),http://gamli.rvk.is/vefur/owa/edutils.parse_page?nafn=BN033014,Hraunteigur 30,breytingu á þaki o.fl.,Frestað. Vísað til athugasemda á umsóknarblaði.,"Sótt er um leyfi til að breyta þaki og innrétta rishæð íbúðarhússins á lóðinni nr. 30 við Hraunteig. Bréf hönnuðar dags. 20. nóvember 2005 og samþykki meðeigenda á teikningu fylgja erindinu. Stærð: Stækkun rishæðar 42,6 ferm., 63,4 rúmm. Gjald kr. 5.700 + 6.100 + 3.867"
33545 (01.13.921.0),http://gamli.rvk.is/vefur/owa/edutils.parse_page?nafn=BN033545,Hringbraut 92,reyndarteikning,Samþykkt.  Samræmist ákvæðum laga nr. 73/1997.,Sótt er um samþykki fyrir breytingum á stiga frá 1. hæð að 2. hæð og samþykki fyrir áður gerðri íbúð á 2. hæð íbúðarhússins á lóð nr. 92 við Hringbraut. Íbúðarskoðun byggingarfulltrúa dags. endurskoðunar 24. febrúar 2006 fylgir erindinu. Gjald kr. 6.100
33756 (02.87.420.1 01),http://gamli.rvk.is/vefur/owa/edutils.parse_page?nafn=BN033756,Hverafold  1-3,breyting inni og úti,Samþykkt.  Samræmist ákvæðum laga nr. 73/1997. Áskilin lokaúttekt byggingarfulltrúa. Áskilið samþykki heilbrigðiseftirlits.,Sótt er um leyfi til breytinga innanhúss og utan í rými 0206 í fjöleignahúsinu nr. 1-3 við Hverafold. Málinu fylgir samþykki meðeigenda dags. 4. apríl 2006. Gjald kr. 6.100
33507 (04.13.220.1),http://gamli.rvk.is/vefur/owa/edutils.parse_page?nafn=BN033507,Kirkjustétt 2-6,br. inni í húsi C+ andd.,Samþykkt.  Samræmist ákvæðum laga nr. 73/1997. Áskilin lokaúttekt byggingarfulltrúa. Áskilið samþykki heilbrigðiseftirlits.,"Sótt er um leyfi til þess að breyta innra skipulagi einingar 0101 í matshluta 03, setja nýja flóttahurð á vesturhlið og byggja anddyri ásamt skyggni við suðurhlið þjónustuhúss C (matshluta 03) á lóð nr. 2-6 við Kirkjustétt. Stærð: Anddyri 3,7 ferm., 11,2 rúmm. Gjald kr. 6.100 + 6.100 + 683"
33759 (01.72.100.1),http://gamli.rvk.is/vefur/owa/edutils.parse_page?nafn=BN033759,Kringlan  4-12,breyting viðbygging (suðurhús),Frestað. Vantar rúllustiga í snið k2-k2.,Sótt er um leyfi til breytinga á innra fyrirkomulagi og útliti á áður samþykktri viðbyggingu á tveim hæðum. Með málinu fylgir yfirlýsing frá VST varðandi brunatæknilega hönnun dags. 4. apríl 2006. Gjald kr. 6.100
33758 (01.72.100.1),http://gamli.rvk.is/vefur/owa/edutils.parse_page?nafn=BN033758,Kringlan  4-12,breyting,Samþykkt.  Samræmist ákvæðum laga nr. 73/1997. Áskilin lokaúttekt byggingarfulltrúa.,Sótt er um leyfi til að breyta innra fyrirkomulagi og fronti á verslunarrými nr. 144 í húsinu á lóðinni nr. 4-12 í Kringlunni. Málinu fylgir undirrituð yfirlýsing brunahönnuðar dags. 4. apríl 2006. Gjald kr. 6.100
33781 (02.29.470.5 03),http://gamli.rvk.is/vefur/owa/edutils.parse_page?nafn=BN033781,Krosshamrar 9A,takmarkað byggingarleyfi,Samþykkt.  Samræmist ákvæðum laga nr. 73/1997. Samþykktin fellur úr gildi við útgáfu á endanlegu byggingarleyfi.  Vegna útgáfu á takmörkuðu byggingarleyfi skal umsækjandi hafa samband við yfirverkfræðing embættis byggingarfulltrúa.,"Ofanrituð sækja um takmarkað byggingarleyfi fyrir greftri, fyllingu og aðstöðugerð á lóð nr. 9A við Krosshamra."
31585 (04.32.420.2),http://gamli.rvk.is/vefur/owa/edutils.parse_page?nafn=BN031585,Krókháls 10,breytingar,Samþykkt.  Samræmist ákvæðum laga nr. 73/1997. Áskilin lokaúttekt byggingarfulltrúa.,Sótt er um leyfi til þess að breyta útliti norðurhliðar og færa til stiga í rými 0101 í austurenda hússins á lóðinni nr. 10 við Krókháls. Gjald kr. 5.700
33659 (04.14.110.1),http://gamli.rvk.is/vefur/owa/edutils.parse_page?nafn=BN033659,Krókháls 11,breytingar,Samþykkt.  Samræmist ákvæðum laga nr. 73/1997. Frágangur á lóðamörkum verði gerður í samráði við lóðarhafa aðliggjandi lóða. Áskilin lokaúttekt byggingarfulltrúa.,"Sótt er um leyfi til þess að breyta nýsamþykktri byggingu atvinnuhúss (erindi 32857), minnka lagerbyggingu við austurhlið sleppa kjallara og breyta bæði innra skipulagi og útliti bílasölu og verkstæðis á lóð nr. 11 við Krókháls. Málinu fylgir skýrsla um brunahönnun frá verkfr.st. Línuhönnun dags. 30. mars 2006. Stærð: Hús var samþykkt samtals 6332,8 ferm., verður 4783,1 ferm., var 38440,9 rúmm., verður 29431,3 rúmm. Gjald kr. 6.100"
33645 (04.99.830.1),http://gamli.rvk.is/vefur/owa/edutils.parse_page?nafn=BN033645,Lambasel 1,einbýlishús,Samþykkt.  Samræmist ákvæðum laga nr. 73/1997. Frágangur á lóðamörkum verði gerður í samráði við lóðarhafa aðliggjandi lóða.,"Sótt er um leyfi til þess að byggja steinsteypt einlyft einbýlishús með innbyggðri bílgeymslu allt einangrað að utan og múrhúðað á lóð nr. 1 við Lambasel. Stærð: Íbúð 207,3 ferm., bílgeymsla 32,7 ferm., samtals 240 ferm., 831,5 rúmm. Gjald kr. 6.100 + 50.722"
33458 (04.99.810.2),http://gamli.rvk.is/vefur/owa/edutils.parse_page?nafn=BN033458,Lambasel 4,br./lagnakjallari,Þar sem umsókn um lagnakjallara hefur verið dregin til baka öðlast uppdrættir sem samþykktir voru 22. nóvember 2005 gildi á ný. Umsókn nr. BN032734.,Sótt er um leyfi til þess að hafa lagnakjallara undir öllu einbýlishúsinu á lóð nr. 4 við Lambasel. Útskrift úr gerðabók embættisafgreiðslufundar skipulagsfulltrúa frá 3. mars 2006 fylgir erindinu. Umboð lóðarhafa dags. 20. október 2005 fylgir erindinu.  Jafnframt lagt fram bréf dags. 6. apríl 2004 þar sem óskað er eftir að draga þessa umsókn til baka.  Gjald kr. 6.100
33726 (01.31.450.1),http://gamli.rvk.is/vefur/owa/edutils.parse_page?nafn=BN033726,Laugarnestangi 60,byggt yfir stétt,Frestað. Vísað til athugasemda á umsóknarblaði. Málinu vísað til umsagnar skipulagsfulltrúa.,"Sótt er um að byggja garðskála úr timbri einangraðan og klæddan bárujárni, ásamt heitum potti. við Laugarnestanga 60. Stærðir: 74,3 ferm., 267,3 rúmm  Gjald kr. 6.100 + 16.305"
33732 (01.17.150.3 02),http://gamli.rvk.is/vefur/owa/edutils.parse_page?nafn=BN033732,Laugavegur 20A,breyting inni,Frestað. Vísað til athugasemda á umsóknarblaði.,"Sótt er um leyfi til að breyta innréttingum á veitingastaðnum þannig að tekin verða út borð og sett dansgólf í staðinn ca 30 ferm., til að fjölga þannig leyfilegum hámarksfjölda gesta í húsinu. Málinu fylgir brunavarnalýsing og úttekt fyrir húsnæðið frá VSI dags. 24. mars 2006. Gjald kr. 6.100"
33691 (01.17.411.8),http://gamli.rvk.is/vefur/owa/edutils.parse_page?nafn=BN033691,Laugavegur 95,breytt notkun í kjallara,Frestað. Vísað til athugasemda á umsóknarblaði.,"Sótt er um leyfi til útlitsbreytinga á kjallara og breyttri notkun hans í húsinu nr. 95 við Laugaveg.  Að loka eldri opnun yfir í Laugaveg 97 og opna annars staðar, svo og að sameina bílaplönin við húsin á lóðunum nr. 95 og 97 við Laugaveg. Gjald kr. 6.100"
33692 (01.17.411.7 03),http://gamli.rvk.is/vefur/owa/edutils.parse_page?nafn=BN033692,Laugavegur 97,breytt notkun í kjallara,Frestað. Vísað til athugasemda á umsóknarblaði.,"Sótt er um leyfi fyrir breyttri notkun og útlitsbreytingu á kjallara hússins nr. 97 við Laugaveg.  Að dýpka kjallarann um 30cm., að loka opi á einum stað að Laugavegi 95 og opna annars staðar, og nýrri sorpgeymslu sem Laugavegur 95 hefur líka aðgang að. Einnig er sótt um að aflétta kvöð um bílskýli (44,3 ferm.) fyrir þrjá bíla í húsinu nr. 97 við Laugaveg.   Stækkun 75,3 rúmm. Greiða skal fyrir 3,88 stæði í flokki II vegna breyttrar notkunar húsnæðis. Gjald kr. 6.100 + 4.593"
33693 (01.17.411.6 02),http://gamli.rvk.is/vefur/owa/edutils.parse_page?nafn=BN033693,Laugavegur 99,breyting á 3. hæð,Frestað. Vísað til athugasemda á umsóknarblaði.,Sótt er um leyfi til til breytinga innanhúss í húsinu á lóðinni nr. 99 við Laugaveg. Gjald kr. 6.100
33208 (01.26.130.1),http://gamli.rvk.is/vefur/owa/edutils.parse_page?nafn=BN033208,Lágmúli 5,br á útliti og innra frkl Lyfju,Samþykkt.  Samræmist ákvæðum laga nr. 73/1997. Áskilin lokaúttekt byggingarfulltrúa.,"Sótt er um leyfi til að breyta útliti fyrstu hæðar hússins nr. 5 við Lágmúla. Inngangur í verslun Lyfju verði færður til suðurs og gerður nýr inngangur fyrir læknastofur á annarri hæð í suðvesturkverk hússins. Jafnframt verði innra fyrirkomulagi og eignaafmörkun lyfjaverslunar breytt og skráning leiðrétt. Erindinu fylgir samþykki meðeigenda dags. 21. des. 2005, bréf aðalhönnuðar dags. 16. jan. 2006. Stækkun: 1,7 ferm., 4,2 rúmm. Gjald kr. 6.100 + 256"
33714 (01.26.130.1),http://gamli.rvk.is/vefur/owa/edutils.parse_page?nafn=BN033714,Lágmúli 5,klæðning,Samþykkt.  Samræmist ákvæðum laga nr. 73/1997. Með vísan til samþykktar borgarráðs frá 1. september 1998 skal utanhúss- og lóðarfrágangi vera lokið eigi síðar en innan tveggja ára frá útgáfu byggingarleyfis að viðlögðum dagsektarákvæðum 57. gr. skipulags- og byggingarlaga nr. 73/1997. Reiknað er með að þau skilti sem samþykkt hafa verið verði áfram á húsinu en önnur verði fjarlægð. Áskilin lokaúttekt byggingarfulltrúa.,Sótt er um að klæða steypta fleti með álplötuklæðningu á Lágmúla 5. Bréf frá Verkfræðistofu Þráins og Benedikts dags. 28. mars 2006  og 10. mars 2006 fylgja erindinu.  Gjald kr. 6.100
33763 (01.26.130.2),http://gamli.rvk.is/vefur/owa/edutils.parse_page?nafn=BN033763,Lágmúli 7,líkamsræktarstöð í hluta bakhúss,Frestað. Vísað til athugasemda á umsóknarblaði.,Sótt er um leyfi til koma fyrir líkamsræktarstöð í notarými 0102 í bakhúsi (mhl 04) á lóðinni nr. 7 við Lágmúla. Jafnframt verði útihurð breytt og húsnæðið tímabundið tengt sömu starfsemi á fyrstu hæð hússins nr. 9 við sömu götu. Ennfremur verði bílastæðum á baklóð fjölgað um sjö miðað við samþ. frá 30. mars 1995. Gjald kr. 6.100
33761 (01.26.130.3),http://gamli.rvk.is/vefur/owa/edutils.parse_page?nafn=BN033761,Lágmúli 9,br. á líkamsræktarstöð,Frestað. Gera skal grein fyrir málinu í heild og ekki blanda saman umsóknum á tvær aðskildar lóðir.,"Sótt er um leyfi til að breyta innra fyrirkomulagi líkamsræktarstöðvar á fyrstu hæð hússins nr. 9 við Lágmúla. Jafnframt verði útihurð færð lítillega, gerður þakgluggi aftast í húsnæðinu og það tengt matshluta 04 á bakhluta lóðarinnar nr. 7 við sömu götu.  Stækkun: 10 rúmm., vegna þakglugga. Gjald kr. 6.100 + 610"
33129 (04.92.850.4),http://gamli.rvk.is/vefur/owa/edutils.parse_page?nafn=BN033129,Lækjarsel 7,"br, sólstofa ofl.",Frestað. Vísað til athugasemda á umsóknarblaði.,"Sótt er um samþykki fyrir áður gerðri stækkun aukaíbúðar á 1. hæð í áður sökkulrými með nýjum gluggum á norðvesturhlið og leyfi til þess að byggja  glerskálaviðbyggingar við suðausturhlið 1. hæðar undir svölum 2. hæðar og aðra viðbygging við 2. hæð vestar við sömu hlið íbúðarhússins á lóð nr. 7 við Lækjarsel. Stærð: Áður gerð stækkun 1. hæðar 40,5 ferm., viðbygging 1. hæð 4,1 ferm., viðbygging 2. hæð 19,9 ferm., stækkun samtals 64,5 ferm., 175,1 rúmm. Gjald kr. 6.100 + 10.681"
33402 (04.05.540.1),http://gamli.rvk.is/vefur/owa/edutils.parse_page?nafn=BN033402,Malarhöfði 10,niðurrif og byggja nýtt stálg.hús á 2.h,"Frestað. Málinu vísað til skipulagsfulltrúa til ákvörðunar um grenndarkynningu. Vísað er til uppdrátta M1, M2, M3A, M3B, M4A, M4B, M5A, M5B, M6A, dags. 4. apríl 2006. Vísað til athugasemda á umsóknarblaði.","Sótt er um leyfi til þess að rífa bárujárnsklæddan stálgrindarbragga og byggja tveggja hæða stálgrindarhús fyrir verslun og lager á lóð nr. 10 við Malarhöfða skv. uppdr. PK arkitekta, dags. 14. febrúar 2006. Brunahönnun Línuhönnunar dags. 14. febrúar 2006 og bréf hönnuðar dags. 1. janúar 2006 fylgja erindinu. Stærð: Niðurrif fastanúmer 204-2929 (matshluti 01) 305  ferm. Verslunar og lagerhús 1. hæð 2493,7 ferm., 2. hæð 896,9 ferm., samtals 3390,6 ferm., 23334,3 rúmm. Gjald kr. 6.100 + 1.423.392"
33641 (01.13.652.9),http://gamli.rvk.is/vefur/owa/edutils.parse_page?nafn=BN033641,Mjóstræti 2,"svalir, svalahurð",Samþykkt.  Samræmist ákvæðum laga nr. 73/1997. Með vísan til samþykktar borgarráðs frá 1. september 1998 skal utanhúss- og lóðarfrágangi vera lokið eigi síðar en innan tveggja ára frá útgáfu byggingarleyfis að viðlögðum dagsektarákvæðum 57. gr. skipulags- og byggingarlaga nr. 73/1997.,Sótt er um leyfi til að setja svalir og svalahandrið á 2. hæð á vesturhlið hússins á lóðinni nr. 2 við Mjóstræti. Málinu fylgir umsögn Árbæjarsafns dags. 27. mars 2006 og umsögn Húsafriðunarnefndar dags. 22. mars 2006. Jafnframt lögð fram útskrift úr gerðabók embættisafgreiðslufundar skiplagsfulltrúa frá 7. arpíl 2006. Gjald kr. 6.100
33561 (04.77.340.5),http://gamli.rvk.is/vefur/owa/edutils.parse_page?nafn=BN033561,Móvað 27,verönd ofl.,Synjað. Með vísan til útskriftar úr gerðabók embættisafgreiðslufundar skipulagsfulltrúa.,Sótt er um leyfi til þess að byggja verönd ásamt gufubaði og geymslu við einbýlishúsið á lóðinni nr. 27 við Móvað. Útskrift úr gerðabók embættisafgreiðslufundar skipulagsfulltrúa frá 7. apríl 2006 fylgir erindinu. Málinu fylgir bréf frá hönnuði dags. 28. mars 2006. Stærð: Stækkun xx ferm. og xx rúmm. Gjald kr. 6.100 + xx
33513 (04.02.420.3),http://gamli.rvk.is/vefur/owa/edutils.parse_page?nafn=BN033513,Naustabryggja 54-56,íbúðir á 1. hæð,Samþykkt.  Samræmist ákvæðum laga nr. 73/1997. Áskilin lokaúttekt byggingarfulltrúa.,Sótt er um leyfi til þess að breyta veitingastað í þrjár íbúðir  á 1. hæð fjölbýlishússins á lóð nr. 54-56 við Naustabryggju. Jafnframt er erindi 32866 dregið til baka. Samkomulag frá húsfundi dags. 8. mars 2005 og tölvubréf verkfræðistofu dags. 27. febrúar 2006 fylgja  erindinu. Gjald kr. 6.100
33635 (04.73.330.2),http://gamli.rvk.is/vefur/owa/edutils.parse_page?nafn=BN033635,Norðlingabraut 14,atvinnuhúsnæði,Frestað. Vísað til athugasemda á umsóknarblaði.,"Sótt er um að byggja að byggja tveggja hæða steinsteypt atvinnuhús með flötu þaki, útveggir klæddir ljósu báruáli. Bílastæði er yfirbyggt með steinsteyptri hallandi plötu sem  klædd er grasi. Stærðir: 2054,3 ferm., 8790 rúmm. Gjald kr. 6.100 + 536.190"
33753 (04.21.--9.8),http://gamli.rvk.is/vefur/owa/edutils.parse_page?nafn=BN033753,Rafstöðvarvegur 1 A,viðbygging,Frestað. Málinu vísað til umsagnar skipulagsfulltrúa. Vísað til athugasemda á umsóknarblaði.,"Sótt er um leyfi til að byggja stoðveggi við austurgafl núverandi byggingar og að nýta rýmið sem verður til fyrir inntaksklefa/þjónusturými í Rafstöðvarvegi  1A. Bréf frá hönnunar og listamiðstöðinni  dags, 30. apríl 2006 fylgir erindinu. Stækkun: 260 ferm., 650 rúmm. Gjald kr. 6.100 + 39.650"
33601 (01.52.430.4),http://gamli.rvk.is/vefur/owa/edutils.parse_page?nafn=BN033601,Reynimelur 59,reyndarteikningar,Samþykkt.  Samræmist ákvæðum laga nr. 73/1997. Afmörkun ósamþykktrar íbúðar 0001 er gerð með vísan til 15. gr. reglugerðar nr. 910/2000.,"Sótt er um leyfi fyrir áður gerðum breytingum á fjölbýlishúsinu á lóð nr. 59 við Reynimel, en á 1. hæð kemur fram ósamþykkt íbúð 0001. Málinu fylgir undirritað samþykki meðeigenda dags. 5. mars 2006. Stærð: Stækkun 24 ferm., 69,2 rúmm. 6.100 + 4.221"
33531 (01.28.400.1),http://gamli.rvk.is/vefur/owa/edutils.parse_page?nafn=BN033531,Safamýri 55,breyting inni,Samþykkt.  Samræmist ákvæðum laga nr. 73/1997.,"Sótt er um leyfi til þess að breyta innra fyrirkomulagi í kjallara, loka svölum á annarri hæð og sameina áður matshluta 70 og 71 í einn matshluta fjölbýlishússins á lóðinni nr. 55 við Safamýri. Mótmæli meðeiganda dags. 17. mars 2006 fylgir erindinu. Bréf þar sem mótmæli eru dregin til baka dags. 28. mars 2006 fylgir einnig erindinu. Stærð: Stækkun 3,8 ferm., 10,3 rúmm. Gjald kr. 6.100 + 628"
33059 (01.25.400.1),http://gamli.rvk.is/vefur/owa/edutils.parse_page?nafn=BN033059,Skipholt 50A,ofanábygging ofl.,Samþykkt.  Samræmist ákvæðum laga nr. 73/1997. Frágangur á lóðamörkum verði gerður í samráði við lóðarhafa aðliggjandi lóða. Áskilin lokaúttekt byggingarfulltrúa. Með vísan til samþykktar borgarráðs frá 1. september 1998 skal utanhúss- og lóðarfrágangi vera lokið eigi síðar en innan tveggja ára frá útgáfu byggingarleyfis að viðlögðum dagsektarákvæðum 57. gr. skipulags- og byggingarlaga nr. 73/1997.,"Sótt er um leyfi til að byggja eina hæð úr steinsteypu ofan á bakbyggingu á lóðinni nr. 50A við Skipholt. Á hæðinni verði fimm íbúðir. Jafnframt verði félagsaðstöðu á neðri hæð breytt í fimm íbúðir þannig að samtals verði tíu íbúðir í bakbyggingu.  Málið var í kynningu frá 1. febrúar til 1. mars 2006. Athugasemdir bárust. Samþykki meðeigenda dags. 21. mars 2005 og bílastæðabókhald hönnuðar móttekið 7. apríl  2006  fylgja erindinu. Stærð: Stækkun samtals 447,6 ferm., 1825,3 rúmm. Gjald kr. 5.700 + 6.100 + 111.343"
33608 (01.70.300.3),http://gamli.rvk.is/vefur/owa/edutils.parse_page?nafn=BN033608,Skógarhlíð 6,breyting kjallara,Frestað. Vísað til athugasemda á umsóknarblaði.,"Sótt er um að breyta hluta kjallara í starfsmanna, fundaraðstöðu og mötuneyti í húsinu á lóðinni nr. 6 við Skógarhlíð. Gjald kr. 6.100"
33511 (01.18.140.5),http://gamli.rvk.is/vefur/owa/edutils.parse_page?nafn=BN033511,Skólavörðustígur 42,"sameina lóðir, gistiheimili fl.","Frestað. Vísað til athugasemda á umsóknarblaði. Málinu vísað til skipulagsfulltrúa til ákvörðunar um grenndarkynningu. Vísað er til uppdrátta nr. A0 - A4, dags. 24. mars 2006.",Sótt er um að sameina lóðirnar Lokastígur 23 og Skólavörðustígur 42 og innrétta gistiheimili í Lokastíg 23. Nýta bílskúr að Lokastíg 23 sem lagerhúsnæði fyrir verslun. Byggja tengibyggingu milli Skólavörðustígs 42 og Lokastígs 23. Erindinu fylgir bréf hönnuðar dags. 28. febrúar 2006. Gjald kr. 6.100
33728 (01.15.220.3),http://gamli.rvk.is/vefur/owa/edutils.parse_page?nafn=BN033728,Skúlagata 12,vatnsst. 21 - svalalokun,Samþykkt.  Samræmist ákvæðum laga nr. 73/1997.,"Sótt er um leyfi til að loka svölum í íbúð 0901 á lóðinni nr. 21 við Vatnsstíg með póstalausu glerjunarkerfi. Málinu fylgir undirritað umboð eiganda dags. 30. mars 2006. Málinu fylgir einnig ljósrit af kaupsamningi þar sem samþykki nágranna er undanskilið. Stærð: Stækkun 16,4 ferm., 48,5 rúmm. Gjald kr. 6.100 + 2.959"
33754 (01.42.000.1),http://gamli.rvk.is/vefur/owa/edutils.parse_page?nafn=BN033754,Skútuvogur 2,"varaaflstöð,sorp - viðbygging",Frestað. Vísað til athugasemda á umsóknarblaði.  Málinu vísað til umsagnar skipulagsfulltrúa.,"Sótt er um leyfi til að byggja nýtt hús fyrir varaaflstöð og sorp, að stækka anddyri með viðbyggingu úr gleri, að breyta útliti með nýjum lit og merki, að setja upp nýtt gsm. loftnetsmastur á lóðinni nr. 2 við Skútuvog. Stærð: Sorpskýli 38,8 ferm., 128,8 rúmm., Matshl. 01, stækkun: 4,4 ferm., 14,9 rúmm. Samtals 43,2 ferm., 143,7 rúmm. Gjald kr. 6.100 + 8.766"
33549 (01.83.001.0),http://gamli.rvk.is/vefur/owa/edutils.parse_page?nafn=BN033549,Sogavegur 130,parh. úr steinst. ein.,Samþykkt.  Samræmist ákvæðum laga nr. 73/1997. Frágangur á lóðamörkum verði gerður í samráði við lóðarhafa aðliggjandi lóða. Áskilin lokaúttekt byggingarfulltrúa. Með vísan til samþykktar borgarráðs frá 1. september 1998 skal utanhúss- og lóðarfrágangi vera lokið eigi síðar en innan tveggja ára frá útgáfu byggingarleyfis að viðlögðum dagsektarákvæðum 57. gr. skipulags- og byggingarlaga nr. 73/1997.,"Sótt er um leyfi til þess að byggja tvílyft parhús úr steinsteyptum einingum með ljósum steinsalla sem ytri áferð á lóð nr. 130 við Sogaveg. Stærð: Íbúðir 1. hæð 104,4 ferm., 2. hæð 139,4 ferm., samtals 243,8 ferm., 865,2 rúmm.  Bílskýli (B-rými) 41,4 ferm., 111,8 rúmm. Gjald kr. 6.100 + 59.597"
33649 (00.00.000.0),http://gamli.rvk.is/vefur/owa/edutils.parse_page?nafn=BN033649,Sundaborg 7-9,breytingar,Samþykkt.  Samræmist ákvæðum laga nr. 73/1997. Áskilin lokaúttekt byggingarfulltrúa.,"Sótt er um að breyta eignarhlutum í 0116, 0117, 0216, 0217,0258 og 0249 í Sundaborg 7-9. Með fylgir ódagsett yfirlýsing húseigenda um höfnun á forkaupsrétti. Gjald kr. 6.100"
33596 (04.05.450.1),http://gamli.rvk.is/vefur/owa/edutils.parse_page?nafn=BN033596,Sævarhöfði 2-2A,nr. 2A breyting inni,Frestað. Vísað til athugasemda á umsóknarblaði.,Sótt er um leyfi fyrir breytingum á innréttingum í húsi á lóð nr. 2a við Sævarhöfða. Kjallari settur undir hluta verkstæðis. Gjald kr. 6.100
33721 (04.07.750.2),http://gamli.rvk.is/vefur/owa/edutils.parse_page?nafn=BN033721,Viðarhöfði 4-6,breyting inni og úti,Frestað. Vísað til athugasemda á umsóknarblaði.,"Sótt er um leyfi til breytinga innanhúss og utan, stækka milliloft, starfsmannaaðstöðu og glugga breytt í innkeyrsludyr. Stærð: Stækkun xx ferm., xx rúmm. Gjald kr. 6.100 + xx"
20495 (01.24.313.0),http://gamli.rvk.is/vefur/owa/edutils.parse_page?nafn=BN020495,Vífilsgata 20,Reyndarteikningar,Frestað. Vísað til athugasemda á umsóknarblaði.,Sótt er um samþykki fyrir teikningum af núverandi fyrirkomulagi í húsinu á lóðinni nr. 20 við Vífilsgötu vegna gerðar eignaskiptayfirlýsingar. Veðbókarvottorð dags. 19. apríl 1993 fylgir erindinu. Gjald kr. 4.800
33556 (04.93.030.3),http://gamli.rvk.is/vefur/owa/edutils.parse_page?nafn=BN033556,Vogasel 5,breytingar,Samþykkt.  Samræmist ákvæðum laga nr. 73/1997. Athygli umsækjanda er vakin á því að einungis er heimilt að nota rýmið í samræmi við umsókn.,Sótt er um í Vogaseli 5 að breyta geymslu á fyrstu hæð við stigagang í vinnustofu og setja tvo nýja glugga og nýja útidyrahurð. Reyndarteikning af öllu húsinu fylgir. Jafnframt lagt fram bréf umsækjanda dags. 16. mars 2006. Útskrift úr gerðabók embættisafgreiðslufundar skipulagsfulltrúa frá 17. mars 2006 fylgir erindinu. Gjald kr. 6.100
33783 (01.22.000.2),http://gamli.rvk.is/vefur/owa/edutils.parse_page?nafn=BN033783,Borgartún 6,leiðrétting,Samþykkt.  Samræmist ákvæðum laga nr. 73/1997.,"Á afgreiðslufundi byggingarfulltrúa var lögð fram umsókn Trésmiðju Snorra Hjaltasonar þar sem sótt var um leyfi til að byggja við, breyta útliti og breyta innra fyrirkomulagi á öllum hæðum hússins nr. 6 við Borgartún. Bókað var að greiða bæri fyrir 7,4 bílastæði en átti að vera 6,1 bílastæði. Því koma til endurgreiðslu 1,3 x 1.205.184 = 1.566.739."
33794 (02.45.610.1),http://gamli.rvk.is/vefur/owa/edutils.parse_page?nafn=BN033794,Fossaleynir 1,Lóðamarkabreyting,Samþykkt.  Samræmist ákvæðum laga nr. 73/1997.,"Lögð fram tillaga Landupplýsingadeildar, Framkvæmdasviðs dags. 10. apríl 2006, vegna stækkunar lóðar nr. 1 við Fossaleynir. Lóðin er sbr. lóðarleigusamning dags. 10. febrúar 2006, Litra S-1509-06, 47172 ferm. Lagt við lóðina af borgarlandi 913 + 46904, 47817 ferm. Lóðin verður 94989 ferm. Samanber deiliskipulagsbreytingu sem samþykkt var í skipulagsráði þann 1. mars 2006 og borgarráði þann 9. mars 2006."
33790 (01.11.2-9.9),http://gamli.rvk.is/vefur/owa/edutils.parse_page?nafn=BN033790,Grandagarður 20,lóðarmarkabreyting,Samþykkt.  Samræmist ákvæðum laga nr. 73/1997.,"Lagt fram mæliblað Faxaflóahafna dags. mars 2006 og bréf Faxaflóahafna dags, 6. apríl 2006 vegna útgáfu nýrra mæliblaða fyrir Grandagarð 20 og Granda, Norðurgarði. Grandagarður 20: Lóðin er minnkuð um 1258 ferm., og sett er inn kvöð um olíuleiðslu, einnig er ákvæði um mannvirki vegna löndunartækja í samræmi við samkomulag frá 26. október 1973 og er í fullu gildi. Grandi, Norðurgarði: Lóðin er stækkuð um 1636 ferm., sem felst í lóðarhluta við Norðurslóð og stækkun vegna þjónusturýmis við pkt. Nr. 686 að 685."
33791,http://gamli.rvk.is/vefur/owa/edutils.parse_page?nafn=BN033791,Kleppsspítali,Lóðamarkabreyting,Samþykkt.  Samræmist ákvæðum laga nr. 73/1997.,Lagt fram mæliblað Faxaflóahafna dags. mars 2006 og bréf Faxaflóahafna dags. 6. apríl 2006 vegna lóðamarkabreytingar á lóð Kleppsspítala. Land Kleppsspítala 99.417 ferm. Ekki fyrirfinnst skipulag af Kleppasvæðinu en gengið er útfrá deiliskipulagi svæða við Vatnagarða og í Kleppsvík og er mæliblaðið í samræmi við þær línur sem þar eru skilgreindar. Kvaðir eru settar inn vegna legu fráveitukerfis Reykjavíkurborgar og legu háspennustrengs Orkuveitu Reykjavíkur.
33789 (01.34.100.3),http://gamli.rvk.is/vefur/owa/edutils.parse_page?nafn=BN033789,"Kleppsvegur   2-6, Laugarnesvegur 116-118",tölusetning,Samþykkt.  Samræmist ákvæðum laga nr. 73/1997.,"Byggingarfulltrúi leggur til að tveir inngangar sunnan við aðalstigahús nr. 116 verði Laugarnesvegur 116A, fastanúmer 201-6057 og 116B, fastanúmer 227-0726."
33793,http://gamli.rvk.is/vefur/owa/edutils.parse_page?nafn=BN033793,Klettagarðar 25,Lóðarmörk,Samþykkt.  Samræmist ákvæðum laga nr. 73/1997.,Lagt fram mæliblað Faxaflóahafna dags. mars 2005 og bréf Faxaflóahafna dags. 6. apríl 2006. Klettagarðar 25: Lóðin er 6574 ferm. Kvöð er um legu holræsa og veitulagna og nauðsynlega umferð og jarðvinnu vegna viðhalds lagna.
33784,http://gamli.rvk.is/vefur/owa/edutils.parse_page?nafn=BN033784,Laugarnesvegur 112-114,tölusetning,Samþykkt.  Samræmist ákvæðum laga nr. 73/1997.,"Byggingarfulltrúi leggur til að nýjir inngangar á húsinu nr. 112-114 við Laugarnesveg  verði tölusettir þanni. Tveir inngangar norðan við aðalstigahús nr. 112 verði Laugarnesvegur 112A, fastanúmer 227-9658 og 112B, fastanúmer 201-5998. Tveir inngangar norðan við aðalstigahús nr. 114 verði Laugarnesvegur 114A, fastanúmer 227-2699 og 114B, fastanúmer 201-5997."
33787,http://gamli.rvk.is/vefur/owa/edutils.parse_page?nafn=BN033787,Meistari - stálvirkjameistari,staðbundin löggilding,Samþykkt sem staðbundin viðurkenning með vísan til bréfs umhverfisráðuneytisins dags. 25. nóvember 2005.,Ofanritaður sækir um staðbundna löggildingu sem stálsmíðameistari í lögsagnarumdæmi Reykjavíkur.
33788,http://gamli.rvk.is/vefur/owa/edutils.parse_page?nafn=BN033788,Meistari - stálvirkjameistari,staðbundin löggilding,Samþykkt sem staðbundin viðurkenning með vísan til bréfs umhverfisráðuneytisins dags. 25. nóvember 2005.,Ofanritaður sækir um staðbundna löggildingu sem stálsmíðameistari í lögsagnarumdæmi Reykjavíkur.
33786,http://gamli.rvk.is/vefur/owa/edutils.parse_page?nafn=BN033786,Meistari - stálvirkjameistari,staðbundin löggilding,Samþykkt sem staðbundin viðurkenning með vísan til bréfs umhverfisráðuneytisins dags. 25. nóvember 2005.,Ofanritaður sækir um staðbundna löggildingu sem stálsmíðameistari í lögsagnarumdæmi Reykjavíkur.
33792 (01.11.530.3),http://gamli.rvk.is/vefur/owa/edutils.parse_page?nafn=BN033792,Mýrargata 26,mæliblað,Samþykkt.  Samræmist ákvæðum laga nr. 73/1997.,Lagt fram mæliblað Faxaflóahafna dags. mars 2006 og bréf Faxaflóahafna dags. 6. apríl 2006. Mýrargata 26: Lóðin er 2410 ferm.
33737 (01.84.120.2 01),http://gamli.rvk.is/vefur/owa/edutils.parse_page?nafn=BN033737,>Aðalland 13,(fsp) sólstofa,Frestað. Málinu vísað til umsagnar skipulagsfulltrúa.,Spurt er um leyfi til að byggja létta viðbyggingu við neðri hæð í Aðallandi 13
33727 (01.14.021.3),http://gamli.rvk.is/vefur/owa/edutils.parse_page?nafn=BN033727,Austurstræti 3,(fsp) breyting inni,Jákvætt. Að uppfylltum skilyrðum og með vísan til umsagnar Húsafriðunarnefndar. Sækja verður um byggingarleyfi og því verður að fylgja umsögn Minjasafns Reykjavíkur.,Spurt er hvort leyft yrði að innrétta veitingahús á jarðhæð og kjallara hússins á lóðinni nr. 3 við Austurstræti.  Ennfremur er spurt hvort leyft yrði að dýpka kjallara sama húss um ca. 1 meter. Málinu fylgir umsögn Húsafriðunarnefndar dags. 28. febrúar 2006.
33725 (01.16.230.6 01),http://gamli.rvk.is/vefur/owa/edutils.parse_page?nafn=BN033725,Ásvallagata 7,(fsp) breyting á eignaskiptasamning (samein. tveggja íbúða),Frestað. Áður en afstaða er tekin til erindisins skal fara fram íbúðarskoðun byggingarfulltrúa.,Spurt er hvort leyft yrði að fá skráða séríbúð í risi fjölbýlishússins á lóðinni nr. 7 við Ásvallagötu.
33723 (01.18.520.2 01),http://gamli.rvk.is/vefur/owa/edutils.parse_page?nafn=BN033723,Bergstaðastræti 40,(fsp) sólskáli,Frestað. Málinu vísað til umsagnar skipulagsfulltrúa.,Spurt er um leyfi til að byggja sólskála út í bakgarð á Bergstaðarstræti 40.
33734 (01.19.032.3),http://gamli.rvk.is/vefur/owa/edutils.parse_page?nafn=BN033734,"34"">Bergþórugata 29",(fsp) fá ósamþ. íbúð í kjallara samþykkta,Nei. Of mikið niðurgrafin.,"Spurt er hvort íbúð 0001 í kjallara fengist samþykkt sem íbúð, í húsi á lóð nr. 29 við Bergþórugötu."
33764 (01.70.420.3),http://gamli.rvk.is/vefur/owa/edutils.parse_page?nafn=BN033764,Drápuhlíð 6-8,(fsp) stækkun kvista,Frestað. Málinu vísað til umsagnar skipulagsfulltrúa.,Spurt er hvort leyft yrði að fjölga og stækka kvisti á húsi á lóð nr. 6-8 við Drápuhlíð.
33673 (01.27.010.2),http://gamli.rvk.is/vefur/owa/edutils.parse_page?nafn=BN033673,Flókagata 56,"(fsp) svalir, þakgluggi",Jákvætt. Að uppfylltum skilyrðum enda verði sótt um byggingarleyfi sem grenndarkynnt verður.,"Spurt er hvort leyft yrði að setja þakglugga á mæni, og útbúa svalir í þak á fjölbýlishúsinu á lóð nr. 56 við Flókagötu. Útskrift úr gerðabók embættisafgreiðslufundar skipulagsfulltrúa frá 7. apríl 2004 og umsögn skipulagsfulltrúa dags. 7. apríl 2006 fylgja erindinu."
33731 (01.13.410.3),http://gamli.rvk.is/vefur/owa/edutils.parse_page?nafn=BN033731,Framnesvegur 19,(fsp) ofanábygging - viðbygging,Jákvætt. Að uppfylltum skilyrðum og með vísan til umsagnar skipulagsfulltrúa á fyrirspurnarblaði. Sækja verður um byggingarleyfi og verulega bæta útfærslu.,Spurt er um leyfi til að byggja við húsið á lóð nr. 19 við Framnesveg.
33772 (01.18.212.1),http://gamli.rvk.is/vefur/owa/edutils.parse_page?nafn=BN033772,Grettisgata 24,(fsp) staða íbúðar á jarðhæð,Með vísan til yfirlýsingar byggingarfulltrúa frá 4. febrúar 1985 er íbúðin samþykkt.,"Spurt er hvort íbúð á ""jarðhæð"" hússins nr. 24 við Grettisgötu sé samþykkt. Með erindinu fylgir yfirlýsing byggingarfulltrúa dags. 4. febrúar 1985 í ljósriti."
33747 (01.17.313.3),http://gamli.rvk.is/vefur/owa/edutils.parse_page?nafn=BN033747,Grettisgata 31,(fsp) gluggar og fl.,Nei. Samræmist ekki ákvæðum byggingarreglugerðar að gluggi sé í lóðarmörkum.,"Spurt er hvort leyft yrði að útbúa glugga, sem myndi jafnframt þjóna sem neyðarútgangur á vesturgafl hússins á lóðinni nr. 31 við Grettisgötu."
33639 (01.34.620.2),http://gamli.rvk.is/vefur/owa/edutils.parse_page?nafn=BN033639,Hrísateigur 22,(fsp) hækka ris og svalir,"Jákvætt. Að uppfylltum skilyrðum og með vísan til umsagnar skipulagsfulltrúa, enda verði sótt um byggingarleyfi sem grenndarkynnt verður.",Spurt er hvort leyft yrði að hækka ris og setja svalir á suðurgafl hússins á lóðinni nr. 22 við Hrísateig. Útskrift úr gerðabók embættisafgreiðslufundar skipulagsfulltrúa frá 7. apríl 2006 og umsögn skipulagsfulltrúa dags. 5. apríl 2006.
33736 (01.36.020.1),http://gamli.rvk.is/vefur/owa/edutils.parse_page?nafn=BN033736,Hrísateigur 8,"(fsp) fjarlægja vegg, stækka bað",Jákvætt. Að uppfylltum skilyrðum enda verði sótt um byggingarleyfi. Vísað er til ákvæða byggingarreglugerðar um herbergjastærðir og fleira.,"Spurt er hvort leyft yrði að fjarlægja vegg milli skála og eldhúss, skilja stofu í tvö herbergi og stækka baðherbergi með því að færa inngang og loka þeim gamla á lóðinni nr. 8 við Hrísateig."
33751 (02.86.230.3),http://gamli.rvk.is/vefur/owa/edutils.parse_page?nafn=BN033751,Hverafold 46,(fsp) þakhalli,Frestað. Málinu vísað til umsagnar skipulagsfulltrúa.,Spurt er hvort leyft yrði að byggja ofaná bílskúr og anddyri og halda sama þakhalla og efni þrátt fyrir að reglugerð krefjist meiri halla nú á lóðinni nr. 46 við Hverafold.
33719 (04.07.000.1),http://gamli.rvk.is/vefur/owa/edutils.parse_page?nafn=BN033719,Höfðabakki 1,(fsp) byggingarleyfi í gildi,Frestað. Áður en afstaða er tekin til erindisins skal fyrirspyrjandi gera grein fyrir eignarétti sínum.,Spurt er hvort byggingaleyfi sé enn í gildi. Teikningar voru samþykktar 10. september 1987. Búið er að steypa sökkla og plötu var gert 1988-89. Lóðin Höfðabakki 1.
33745 (04.99.310.3),http://gamli.rvk.is/vefur/owa/edutils.parse_page?nafn=BN033745,Jafnasel 6,(fsp) breyting efri hæð  og 1.hæð stækkun á húsi,Frestað. Málinu vísað til umsagnar skipulagsfulltrúa.,Spurt er hvort leyft yrði að breyta efri hæð í íbúðir og byggja við húsið til norðvesturs á lóðinni nr. 6 við Jafnasel.
33716 (01.17.433.0),http://gamli.rvk.is/vefur/owa/edutils.parse_page?nafn=BN033716,Laugavegur 86-94,(fsp) breytingar,"Jákvætt. Að uppfylltum skilyrðum og með vísan til útskriftar skipulagsfulltrúa, enda verði sótt um byggingarleyfi.","Spurt er hvort leyft yrði að sameina tvær íbúðir á fjórðu hæð í vesturhluta hússins og byggja við þær 70-80 ferm., til vesturs. Þakgarður til vesturs verður séreign þeirrar íbúðar.  Viðbygging er utan við núverandi byggingarreit fjórðu hæðar en nýtingarhlutfall yrði undir leyfilegum mörkum. Útskrift úr gerðabók embættisafgreiðslufundar skipulagsfulltrúa frá 7. apríl 2006 fylgir erindinu."
33739 (01.83.610.7),http://gamli.rvk.is/vefur/owa/edutils.parse_page?nafn=BN033739,Litlagerði 14,(fsp) viðbygging,Frestað. Málinu vísað til umsagnar skipulagsfulltrúa.,Spurt er hvort leyft yrði að byggja viðbyggingu við hús út í garð á lóð nr. 14 vjð Litlagerði.
33718 (01.18.130.2),http://gamli.rvk.is/vefur/owa/edutils.parse_page?nafn=BN033718,Lokastígur 18,(fsp) svalir á suðurhlið,Jákvætt. Að uppfylltum skilyrðum enda verði sótt um byggingarleyfi sem grenndarkynnt verður.,"Spurt er hvort heimilt sé að setja svalir á suðurhlið, bakhlið, hússins á lóð nr. 18 við Lokastíg."
33750 (01.70.211.5 01),http://gamli.rvk.is/vefur/owa/edutils.parse_page?nafn=BN033750,Mávahlíð 5,(fsp) taka niður burðarveggi svalahurð út í garð,Frestað. Áður en afstaða er tekin til erindisins skal liggja fyrir umsögn burðarvirkishönnuðar.,Spurt er hvort leyft yrði að taka burtu burðarveggi í minna herbergi gera hurð út í garð í fjölbýlishúsinu á lóðinni nr. 5 við Mávahlíð.
33765 (01.70.570.2),http://gamli.rvk.is/vefur/owa/edutils.parse_page?nafn=BN033765,Skógarhlíð 18,(fsp) viðbygging,Frestað. Málinu vísað til umsagnar skipulagsfulltrúa.,Spurt er hvort leyft yðri að byggja við norðvestanvert húsið á lóð nr. 18 við Skógarhlíð. Byggt verður á núverandi þvottaplani Skeljungs. Aðkoma frá Bústaðarvegi leggst af.
33273 (01.24.621.1),http://gamli.rvk.is/vefur/owa/edutils.parse_page?nafn=BN033273,Stórholt 35,(fsp) br. og stækka þakrými,Neikvætt. Ekki hefur verið tekið nægjanlegt tillit til fyrri athugasemda.,Spurt er hvort leyft yrði að byggja kvisti á norður- og suðurþekju hússins á lóðunum nr. 35 og 37 við Stórholt. Samþykki meðeigenda á uppdráttum fylgir erindinu.
33749 (04.93.050.4),http://gamli.rvk.is/vefur/owa/edutils.parse_page?nafn=BN033749,Vaðlasel 7,(fsp) stækkun,Frestað. Málinu vísað til umsagnar skipulagsfulltrúa.,Spurt er hvort leyft yrði að stækka íbúðarhús með tengibyggingu milli bílgeymslu og íbúðarhúss á lóðinni nr. 7 við Vaðlasel. Málinu fylgir samþykki nágranna á lóð nr. 5 Vaðlasel.
33598 (04.38.560.3 05),http://gamli.rvk.is/vefur/owa/edutils.parse_page?nafn=BN033598,Vesturás 39,"(fsp) kjallari, gluggar ofl.",Frestað. Málinu vísað til umsagnar skipulagsfulltrúa.,"Spurt er um leyfi til að stækka íbúð um kjallara, setja glugga, lækka lóð og koma fyrir kjallarainngangi í húsi á lóð nr. 39 við Vesturás. Bréf frá Haraldi Ingvarssyni arkitekt dags. 31. mars 2006 fylgir erindinu."
33773 (04.07.750.1),http://gamli.rvk.is/vefur/owa/edutils.parse_page?nafn=BN033773,Viðarhöfði 2,(fsp) breyta í útleiguherbergi,Frestað. Málinu vísað til umsagnar skipulagsfulltrúa.,Spurt er hvort leyft yrði að breyta skrifstofuhúsnæði á lóðinni nr. 2 við Viðarhöfða í útleiguherbergi skv. meðfylgjandi skissum.
