nr,url,heimilisfang,tegund,nidurstada,spurning
34026 (01.13.610.1),http://gamli.rvk.is/vefur/owa/edutils.parse_page?nafn=BN034026,Aðalstræti 2,"kaffihús, matsala",Samþykkt.  Samræmist ákvæðum laga nr. 73/1997. Áskilin lokaúttekt byggingarfulltrúa.  Áskilið samþykki heilbrigðiseftirlits.,Sótt er um leyfi fyrir kaffihúsi og matsölu í rými 103 á lóðinni nr. 2 við Aðalstræti. Yfirlýsing brunavarnarhönnuðar fylgir dagsett 15. júní 2006 Gjald kr. 6.100
34133 (04.63.220.1),http://gamli.rvk.is/vefur/owa/edutils.parse_page?nafn=BN034133,Arnarbakki 1-3,fjarl. og nýjar færanl.skólast.,Samþykkt.  Samræmist ákvæðum laga nr. 73/1997. Áskilin lokaúttekt byggingarfulltrúa.  Áskilið samþykki heilbrigðiseftirlits.,"Sótt er um leyfi til þess að fjarlægja 3 gamlar færanlegar kennslustofur og setja í staðinn 3 af nýrri gerðinni á lóðina nr. 1-3 við Arnarbakka. Stærð: Nýjar færanlegar kennslustofur (matshluti 06) samtals 214,6 ferm., 718,2 rúmm. Gjald kr. 6.100 + 43.810"
34253 (04.60.320.1),http://gamli.rvk.is/vefur/owa/edutils.parse_page?nafn=BN034253,Álfabakki 6-18,nr. 14A spilasalur,Frestað. Vísað til athugasemda á umsóknarblaði.,Óskað er eftir að breyta innréttingum til reksturs á spilasal í Álfabakka 14 A  Gjald kr 6.100
34199 (01.43.430.1),http://gamli.rvk.is/vefur/owa/edutils.parse_page?nafn=BN034199,Álfheimar 74,br. neðstu þrem hæðum,Samþykkt.  Samræmist ákvæðum laga nr. 73/1997. Áskilin lokaúttekt byggingarfulltrúa.  Áskilið samþykki heilbrigðiseftirlits.,"Sótt er um leyfi til þess að breyta neðstu þremur hæðum nýbyggingar lítillega bæði inni og úti með nýju anddyri og stiga í norðausturhorni og eimböðum í garði kjallara fyrir líkamsræktarstöð á lóð nr. 74 við Álfheima. Útskrift úr gerðabók embættisafgreiðslufundar skipulagsfulltrúa frá 23. júní 2006 fylgir erindinu. Stærð: Samtals stækkun viðbyggingar (matshluta 02) 3 ferm., 200,5 rúmm. Eimbað samtals 18 ferm., 55,1 rúmm. Gjald kr. 6.100 + 15.592"
34191 (47.34.101),http://gamli.rvk.is/vefur/owa/edutils.parse_page?nafn=BN034191,Árvað 3,lengj tengig. + ein stofa,Frestað. Vísað til athugasemda á umsóknarblaði.,"Sótt er um leyfi til þess að lengja tengigang og bæta við einni færanlegri stofu fyrir frístundarheimili austan við núverandi færanlegar kennslustofur á lóð nr. 3 við Árvað. Stærð: Færanleg kennslustofa 66,1 ferm., 192,9 rúmm. Gjald kr. 6.100 + 11.767"
34073 (01.81.640.5),http://gamli.rvk.is/vefur/owa/edutils.parse_page?nafn=BN034073,Bakkagerði 13,viðbygging - lyfta þaki,Samþykkt.  Samræmist ákvæðum laga nr. 73/1997. Frágangur á lóðamörkum verði gerður í samráði við lóðarhafa aðliggjandi lóða. Með vísan til samþykktar borgarráðs frá 1. september 1998 skal utanhúss- og lóðarfrágangi vera lokið eigi síðar en innan tveggja ára frá útgáfu byggingarleyfis að viðlögðum dagsektarákvæðum 57. gr. skipulags- og byggingarlaga nr. 73/1997.,"Sótt er um leyfi til þess að byggja steinsteypta viðbyggingu við suður- og austurhlið einbýlishúss, hækka þak yfir hluta íbúðarhúss, hækka þak bílskúrs, einangra þrjár hliðar bílskúrs að utan og klæða með múrkerfi á lóð nr. 13 við Bakkagerði. Samþykki lóðarhafa aðlægra lóða dags. 3. júní 2006 fylgir erindinu. Stærð: Viðbygging við einbýlishús samtals 58,9 ferm., 230,5 rúmm., stækkun bílskúrs 2,5 ferm., 45,9 rúmm. Gjald kr. 6.100 + 6.100 + 16.860"
34246 (01.81.640.1),http://gamli.rvk.is/vefur/owa/edutils.parse_page?nafn=BN034246,Bakkagerði 16,stækkun,Frestað. Vísað til athugasemda á umsóknarblaði.,"Sótt er um leyfi til þess að byggja steinsteypta viðbyggingu við austurhlið 1. hæðar einbýlishússins á lóð nr. 16 við Bakkagerði. Stærð: Stækkun 30,6 ferm., 92,4 rúmm. Gjald kr. 6.100 + 5.636"
34225 (01.18.620.1),http://gamli.rvk.is/vefur/owa/edutils.parse_page?nafn=BN034225,Baldursgata 14,breytingar,Frestað. Vísað til athugasemda á umsóknarblaði. Málinu vísað til umsagnar skipulagsfulltrúa. vegna  starfsmannaaðstöðu á Baldursgötu 11.,Sótt er um breytingar á innra skipulagi 1. hæðar á Baldursgötu 14 ásamt því að nýta íbúð 0002 á Baldursgötu 11 fyrir starfsmannaaðstöðu fyrir veitingastaðinn. Með umsókninni fylgir frá lögreglustjóra bréf dags. 8. nóv.2005 um fjölda gesta og umsögn Vinnueftirlitsins. 9.des 2005  Gjald kr. 6.100
34248 (02.42.250.1),http://gamli.rvk.is/vefur/owa/edutils.parse_page?nafn=BN034248,Barðastaðir 1-5,hamborgarastaður,Frestað. Vísað til athugasemda á umsóknarblaði.,Sótt er um leyfi til að setja upp hamborgarastað í rými 0104 í húsinu Barðastaðir 1-5  Gjald kr. 6.100
34211 (02.40.440.3),http://gamli.rvk.is/vefur/owa/edutils.parse_page?nafn=BN034211,Barðastaðir 53,reyndarteikningar,Samþykkt.  Samræmist ákvæðum laga nr. 73/1997.,Sótt er um samþykki á reyndarteikningum vegna lokaúttektar af húsinu Barðastaðir 53.  Gjald kr. 6.100
34224 (01.17.421.3),http://gamli.rvk.is/vefur/owa/edutils.parse_page?nafn=BN034224,Barónsstígur 16,gróðurhús,Frestað. Vísað til athugasemda á umsóknarblaði. Málinu vísað til skipulagsfulltrúa til ákvörðunar um grenndarkynningu. Vísað er til uppdráttar dags. 19. júní 2006.,"Sótt er umleyfi til að byggja gróðurhús með geymslu upp að steyptum vegg á lóðamörkum á Barónsstíg 16. Samþykki lóðarhafa Laugavegs 78 dagsett 19. júní 2006 fylgir. Stærð 16,9 ferm og 34,9 rúmm  Gjald kr. 6.100 + 2.129"
33647 (01.19.640.6),http://gamli.rvk.is/vefur/owa/edutils.parse_page?nafn=BN033647,Bergstaðastræti 83,"viðbygging, breytingar",Samþykkt.  Samræmist ákvæðum laga nr. 73/1997. Frágangur á lóðamörkum verði gerður í samráði við lóðarhafa aðliggjandi lóða. Með vísan til samþykktar borgarráðs frá 1. september 1998 skal utanhúss- og lóðarfrágangi vera lokið eigi síðar en innan tveggja ára frá útgáfu byggingarleyfis að viðlögðum dagsektarákvæðum 57. gr. skipulags- og byggingarlaga nr. 73/1997.,"Sótt er um leyfi til þess að byggja bílskúr, og fyrir áður gerðum breytingum í kjallara í og við einbýlishúsið á lóðinni nr. 83 við Bergstaðastræti. Málið var í kynningu frá 12. apríl til og með 10. maí 2006. Athugasemdir bárust. Stærð: Bílskúr 55,3 ferm., 144 rúmm., áður gerð stækkun kjallara 56,7 ferm., 225,7 rúmm.  Samtals 112 ferm., 369,7 rúmm. Gjald kr. 6.100 + 6.100 + 22.552"
34128 (01.23.200.1),http://gamli.rvk.is/vefur/owa/edutils.parse_page?nafn=BN034128,Borgartún 32,br. innra fyrirkomulag 6. h,Samþykkt.  Samræmist ákvæðum laga nr. 73/1997. Áskilin lokaúttekt byggingarfulltrúa.  Áskilið samþykki heilbrigðiseftirlits.,Sótt er um leyfi fyrir breytingum á innra fyrirkomulagi herbergja á 6. hæð hótelsins á lóðinni nr. 32 við Borgartún. Gjald kr. 6.100
34103 (04.23.510.4),http://gamli.rvk.is/vefur/owa/edutils.parse_page?nafn=BN034103,Bröndukvísl 14,viðbygging,Frestað. Enn hefur ekki verið gerð grein fyrir stækkun kjallara.,"Sótt er um leyfi til þess að stækka tengibyggingu milli íbúðarhúss og bílskúrs á lóðinni nr. 14 við Bröndukvísl. Stærð:  Stækkun 13,4 ferm., 34,8 rúmm. Gjald kr. 6.100 + 2.123"
34210 (04.76.540.1),http://gamli.rvk.is/vefur/owa/edutils.parse_page?nafn=BN034210,C-Tröð 1,br. á lögun á glugga,Samþykkt.  Samræmist ákvæðum laga nr. 73/1997.,Sótt erum að breyta glugga vesturgafli á hesthúsinu  C-tröð 1 Víðidal.  Gjald kr. 6.100
34186 (04.30.430.1),http://gamli.rvk.is/vefur/owa/edutils.parse_page?nafn=BN034186,Dragháls 28-30/F.....,breyta hluta af vörugeysmlu,Frestað. Enn er gerðar athugasemdir við brunavarnir.,Sótt er um leyfi til að breyta hluta af vörugeymslu í verkstæði á lóðinni nr. 28-30 við Dragháls. Gjald kr. 6.100
34173 (01.35.730.1),http://gamli.rvk.is/vefur/owa/edutils.parse_page?nafn=BN034173,Efstasund 63,sólskáli,Samþykkt.  Samræmist ákvæðum laga nr. 73/1997. Með vísan til samþykktar borgarráðs frá 1. september 1998 skal utanhúss- og lóðarfrágangi vera lokið eigi síðar en innan tveggja ára frá útgáfu byggingarleyfis að viðlögðum dagsektarákvæðum 57. gr. skipulags- og byggingarlaga nr. 73/1997.,"Sótt er um leyfi fyrir svalalokun á 1. hæð fjölbýlishússins á lóðinni nr. 63 við Efstasund. Málinu fylgir skýrsla Rannsókanarstofununar Byggingariðnaðarins dags. 22. desember 2003. Stærð:  Stækkun 8,2 fer., 21,7 rúmm., Gjald kr. 6.100 + 1.325"
34012 (01.41.012.0),http://gamli.rvk.is/vefur/owa/edutils.parse_page?nafn=BN034012,Efstasund 83,ofanábygging ofl.,Samþykkt.  Samræmist ákvæðum laga nr. 73/1997. Með vísan til samþykktar borgarráðs frá 1. september 1998 skal utanhúss- og lóðarfrágangi vera lokið eigi síðar en innan tveggja ára frá útgáfu byggingarleyfis að viðlögðum dagsektarákvæðum 57. gr. skipulags- og byggingarlaga nr. 73/1997. Skilyrt er að eignaskiptayfirlýsingu vegna breytinga í húsinu sé þinglýst fyrir útgáfu á byggingarleyfi.,"Sótt er um leyfi fyrir breyttu innra skipulagi, koma fyrir tröppum af svölum ofan í garð og  til að byggja þakhæð ofan á húsið á lóðinni nr. 83 við Efstasund. Málinu fylgir undirritað samþykki eiganda kjallaraíbúðarinnar í Efstasundi 83 dags. 18. maí 2006, og ljósrit af þinglýstum eignaskiptasamningi dags. 15. desember 1987. Stærðarbreyting:  Stækkun 58,1 ferm., 134,1 rúmm. Gjald kr. 6.100 + 6.100 + 8.180"
34115 (01.19.430.3),http://gamli.rvk.is/vefur/owa/edutils.parse_page?nafn=BN034115,Eiríksgata 6, br. á hluta íbúðar,Frestað. Vísað til athugasemda á umsóknarblaði.,Sótt er um samþykki fyrir áður gerðum breytingum á gistiheimili þar sem meðal annars hefur verið innréttað gistirými í áður bílgeymslu og gluggar á suðvesturhlið kjallara síkkaðir á húsinu á lóð nr. 6 við Eiríksgötu. Gjald kr. 6.100
31814 (32.47.370.4),http://gamli.rvk.is/vefur/owa/edutils.parse_page?nafn=BN031814,Esjugrund 7,tengibygging,Frestað. Vísað til athugasemda á umsóknarblaði.,"Sótt er um leyfi til þess að byggja tengibyggingu milli bílskúrsins og hússins á lóðinni nr. 7 við Esjugrund. Jafnframt er sótt um leyfi til þess að gera dyr að garði úr eldhúsi hússins. Stærð: Tengibygging 8,4 ferm. og 39,6 rúmm. Gjald kr. 5.700 + 2.257"
34112 (01.44.010.1),http://gamli.rvk.is/vefur/owa/edutils.parse_page?nafn=BN034112,Ferjuv. 2-Gnoðarv. 43,innrétta fyrirlestrarsal,Samþykkt.  Samræmist ákvæðum laga nr. 73/1997. Áskilin lokaúttekt byggingarfulltrúa.  Áskilið samþykki heilbrigðiseftirlits.,Sótt er um leyfi til þess að innrétta fyrirlestrasal á 1. og 2.  hæð í stað sviðs frá íþróttasal Menntaskólans við Sund á lóð nr. 2 við Ferjuvog og 43 við Gnoðarvog. Bréf hönnuðar dags. 30. maí og 6. júní 2006 fylgja  erindinu. Gjald kr. 6.100
28180 (01.24.711.7),http://gamli.rvk.is/vefur/owa/edutils.parse_page?nafn=BN028180,Flókagata 6,áður gerður skúr o.fl.,Frestað. Vísað til athugasemda á umsóknarblaði og útskriftar úr gerðabók embættisafgreiðslufundar skipulagsfulltrúa frá 23. júní s.l.,"Sótt er um leyfi fyrir viðbyggingu sem byggð hefur verið sunnan bílskúrs á lóðinni nr. 6 við Flókagötu. Jafnframt hefur bílskúr verið breytt í ""vinnuherbergi"", suðurveggur bílskúrs verið fjarlægður og mannvirkið klætt á þrjá vegu með Steni-plötum. Ennfremur er sótt um leyfi fyrir einu bílastæðum til viðbótar einu, sem fyrir er á lóðinni. Bréf umsækjanda dags. 7. okt. 2003 varðandi byggingarár skúrsins, bréf burðarvirkjahönnuðar dags. 12. nóv. 2003, umsögn skipulagsfulltrúa dags. 10. des. 2003, umsögn Verkfræðistofu RUT og samþykki meðlóðarhafa og lóðarhafa aðlægrar lóðar (á teikningu) fylgja erindinu ásamt útskrift úr gerðabók embættisafgreiðslufundar skipulagsfulltrúa dags. 23. júní 2006. Stækkun:  Áður byggð viðbygging samtals 11,9 ferm., 27,6 rúmm. Gjald kr. 5.100 + 1.684"
34232 (01.19.023.0),http://gamli.rvk.is/vefur/owa/edutils.parse_page?nafn=BN034232,Frakkastígur 17,viðbygging,Frestað. Vísað til athugasemda á umsóknarblaði. Málinu vísað til umsagnar skipulagsfulltrúa.,"Sótt er um að byggja úr steinsteypu við húsið Frakkastíg 17 ásamt breytingum á innra skipulagi á eldra húsi. Árituð teikning með samþykki meðeigenda fylgir. Stærðir 67 ferm og 228,7 rúmm.  Gjald kr. 6.100 + 13.950"
33768 (04.61.230.7),http://gamli.rvk.is/vefur/owa/edutils.parse_page?nafn=BN033768,Fremristekkur 13,viðbygging,Samþykkt.  Samræmist ákvæðum laga nr. 73/1997. Frágangur á lóðamörkum verði gerður í samráði við lóðarhafa aðliggjandi lóða. Með vísan til samþykktar borgarráðs frá 1. september 1998 skal utanhúss- og lóðarfrágangi vera lokið eigi síðar en innan tveggja ára frá útgáfu byggingarleyfis að viðlögðum dagsektarákvæðum 57. gr. skipulags- og byggingarlaga nr. 73/1997.,"Sótt er um leyfi til þess að byggja tveggja hæða steinsteypta viðbyggingu norðaustan við húsið nr. 13 við Fremristekk. Jafnframt verði svalir stækkaðar, nýjar svalir gerðar við austurhlið, fyrirkomulagi á sorpi breytt og innra fyrirkomulagi eldra húss breytt frá því sem samþykkt var 30. maí 1968. Yfirlýsing burðarvirkishönnuðar dags. 18. maí 2006 fylgir erindinu Stækkun: 60 ferm., 166,6 rúmm., Gjald kr. 6.100 + 6.100 + 10.163"
34276 (01.13.652.8),http://gamli.rvk.is/vefur/owa/edutils.parse_page?nafn=BN034276,Garðastræti 13,breyta notkun í íbúir,Frestað. Vísað til athugasemda á umsóknarblaði.,Sótt er um leyfi til þess að breyta skráðri notkun húsnæðis í íbúðir það er 1. og 2. hæð hússins á lóð nr. 13 við Garðastræti. Bréf umsækjanda dags. 21. júní 2006 og yfirlýsing varðandi skiptingu eignar dags. 2. júní 2006 fylgja erindinu. Gjald kr. 6.100
34220 (01.11.730.6),http://gamli.rvk.is/vefur/owa/edutils.parse_page?nafn=BN034220,Geirsgata 3a-7c,nr. 5 leiðréttar teikningar,Samþykkt.  Samræmist ákvæðum laga nr. 73/1997. Áskilin lokaúttekt byggingarfulltrúa.  Áskilið samþykki heilbrigðiseftirlits.,Sótt er um samþykki á reyndarteikningum af Geirsgötu 5 verbúð 8.  Gjald kr.6.100
34216 (01.43.400.2),http://gamli.rvk.is/vefur/owa/edutils.parse_page?nafn=BN034216,Gnoðarvogur 1,"lyfta, brú ofl.",Samþykkt.  Samræmist ákvæðum laga nr. 73/1997. Áskilin lokaúttekt byggingarfulltrúa.,Sótt er um að setja upp lyftu á milli gólfa á sölum A og B einnig að  saga gat á norðurvegg  og gera brú frá sal A að lyftu í húsinu Gnoðarvogur 1. Lyftan er skv Evrópustaðli.
33884 (01.43.240.5),http://gamli.rvk.is/vefur/owa/edutils.parse_page?nafn=BN033884,Goðheimar 15,svalir á 2. hæð stækkaðar,Samþykkt.  Samræmist ákvæðum laga nr. 73/1997. Með vísan til samþykktar borgarráðs frá 1. september 1998 skal utanhúss- og lóðarfrágangi vera lokið eigi síðar en innan tveggja ára frá útgáfu byggingarleyfis að viðlögðum dagsektarákvæðum 57. gr. skipulags- og byggingarlaga nr. 73/1997.,"Sótt er um leyfi til að stækka svalir 2. hæðar um 5,3 ferm  til samræmis við svalir 1. hæðar fjölbýlishússins á lóðinni nr. 15 við Goðheima. Samþykki meðeigenda fylgir. Útskriftir úr gerðabók embættisafgreiðslufundar skipulagsfulltrúa frá 9. maí 2006 og 16. júní 2006 fylgja erindinu. Gjald kr. 6.100"
34144 (01.46.110.2),http://gamli.rvk.is/vefur/owa/edutils.parse_page?nafn=BN034144,Grensásvegur 11,reyndarteikning,Frestað. Vísað til athugasemda eldvarnaeftirlits.,Sótt er um leyfi fyrir áður gerðum breytingum á verslunarrými á 1. hæð í húsinu á lóðinni nr. 11 við Grensásveg. Gjald kr. 6.100
33225 (01.36.020.9),http://gamli.rvk.is/vefur/owa/edutils.parse_page?nafn=BN033225,Gullteigur 4,nýbygging 2 hæðir og ris,Samþykkt.  Samræmist ákvæðum laga nr. 73/1997. Frágangur á lóðamörkum verði gerður í samráði við lóðarhafa aðliggjandi lóða. Áskilin lokaúttekt byggingarfulltrúa. Með vísan til samþykktar borgarráðs frá 1. september 1998 skal utanhúss- og lóðarfrágangi vera lokið eigi síðar en innan tveggja ára frá útgáfu byggingarleyfis að viðlögðum dagsektarákvæðum 57. gr. skipulags- og byggingarlaga nr. 73/1997. Umsækjandi skal fá samþykki lóðarhafa aðliggjandi lóða vegna frágangs á þéttingu milli eigna.,"Sótt er um leyfi til að byggja tveggja hæða steinsteypt hús með íbúðarrisi, ásamt steyptri bílgeymslu á lóðina nr. 4 við Gullteig.  Á teikningu eru sýndar þrjár íbúðir í húsinu. Stærðir: Íbúðir, 504,8 ferm, 1497,3 rúmm, bílg. 29,6 ferm, 99,1 rúmm. Samtals: 534,4 ferm, 1596,4 rúmm. Gjald kr.  6.100 + 97.380"
34136 (05.13.470.1),http://gamli.rvk.is/vefur/owa/edutils.parse_page?nafn=BN034136,Gvendargeisli 168,færanlegar kennslustofur,Samþykkt.  Samræmist ákvæðum laga nr. 73/1997. Áskilin lokaúttekt byggingarfulltrúa.  Áskilið samþykki heilbrigðiseftirlits.,"Sótt er um leyfi til þess að setja upp þrjár færanlegar kennslustofur ásamt miðrými tengt með tengigangi  við vesturhlið núverandi færanlegra kennslustofa (matshluti 01) Sæmundarsels á lóð nr. 168 við Gvendargeisla. Stærð: Stækkun matshluta 01 samtals 301,7 ferm., 873,4 rúmm. Gjald kr. 6.100 + 53.277"
33098 (01.14.030.3),http://gamli.rvk.is/vefur/owa/edutils.parse_page?nafn=BN033098,Hafnarstræti 18,bökunarofn,Frestað. Sjá fyrri athugasemdir.,Sótt er um leyfi til þess að koma fyrir bökunarofni í grillaðstöðu skyndibitastaðar (rými 0103) á fyrstu hæð hússins á lóðinni nr. 18 við Hafnarstræti. Gjald kr.  5.700
34218 (01.23.530.3),http://gamli.rvk.is/vefur/owa/edutils.parse_page?nafn=BN034218,Hátún 6C,borholuhús yfir borholu,Frestað. Málinu vísað til umsagnar skipulagsfulltrúa.,"Sótt er um að endurnýja  borholuhús við holu RG-38 við Hátún 6c. Steinsteypt álklætt hús kemur í stað tréhúss. Stærð 20,7 ferm og 59,8 rúmm    Gjald kr.6.100 + 3.647"
34122 (01.80.100.8),http://gamli.rvk.is/vefur/owa/edutils.parse_page?nafn=BN034122,Heiðargerði 15,endurnýjun á byggingarleyfi,Samþykkt.  Samræmist ákvæðum laga nr. 73/1997.,"Sótt er um endurnýjun á byggingarleyfi  fyrir áður gerðri yfirbyggingu yfir hluta svala á 2. hæð og fyrir áður gerðu anddyri við austurhlið ásamt leyfi til þess að stækka svalaskýli og hækka bílskúr og stækka að útvegg íbúðarhússins á lóð nr. 15 við Heiðargerði. Samþykki eigenda Heiðargerðis nr. 17 (á teikningu) og útskrift úr gerðabók embættisafgreiðslufundar skipulagsfulltrúa frá 18. júlí 2003 fylgja erindinu.  Einnig samþykki eiganda Heiðargerðis 13 á teikningu, dags. 24. júní 2006. Stærð: Áður gert anddyri 5,7 ferm., áður gert svalaskýli 7,5 ferm., samtals áður gert 13,2 ferm., 35 rúmm. Stækkun 2. hæðar 3,9 ferm., 9 rúmm., bílskúrs 5,5 ferm., 15,5 rúmm. Gjald kr. 6.100 + 3.081"
33795 (01.80.100.9),http://gamli.rvk.is/vefur/owa/edutils.parse_page?nafn=BN033795,Heiðargerði 17,viðbygging o.fl.,Samþykkt.  Samræmist ákvæðum laga nr. 73/1997. Með vísan til samþykktar borgarráðs frá 1. september 1998 skal utanhúss- og lóðarfrágangi vera lokið eigi síðar en innan tveggja ára frá útgáfu byggingarleyfis að viðlögðum dagsektarákvæðum 57. gr. skipulags- og byggingarlaga nr. 73/1997.,"Sótt er um leyfi til að byggja við húsið nr. 17 við Heiðargerði. Viðbygging verði gerð úr steinsteypu með steyptri þakplötu og svölum á þaki. Jafnframt verði innra fyrirkomulagi beggja hæða eldra húss breytt, þaki yfir anddyri breytt og komið fyrir geymslu í bílskúr. Álit burðarvirkishönnuðar dagsett 22. maí 2006 fylgir Stærðir: 14,7 ferm, 38,5 rúmm Gjald kr. 6.100 + 2.348"
34215 (01.54.321.1),http://gamli.rvk.is/vefur/owa/edutils.parse_page?nafn=BN034215,Hjarðarhagi 45-47,reyndarteikningar,Frestað. Vísað til athugasemda á umsóknarblaði.,Sótt er um samþykki á reyndarteikningum á matshluta 01 á Hjarðarhaga 45  Gjald kr. 6.100
34110 (01.62.880.1),http://gamli.rvk.is/vefur/owa/edutils.parse_page?nafn=BN034110,Hlíðarendi 2-6 / Valur,stoðveggur o.fl.,"Frestað. Vísað til athugasemda á umsóknarblaði.

Sveinbjörn Steingrímsson vék af fundi við afgreiðslu málsins",Sótt er um  leyfi til þess að breyta dyrum milli heiðursstúku og útistúku og reisa stoðveggi og girðingar á lóð Knattspyrnufélagsins Vals við Hlíðarenda 2-6. Útskrift úr gerðabók embættisafgreiðslufundar skipulagsfulltrúa frá 23. júní 2006 fylgir erindinu. Gjald kr. 6.100
33901 (05.8-.--9.6),http://gamli.rvk.is/vefur/owa/edutils.parse_page?nafn=BN033901,Hólmsheiði fjáreig.fé,B-14 - hesthús,Frestað. Vísað til athugasemda á umsóknarblaði.,"Sótt er um leyfi til þess að byggja hesthús með 13 stíum og litla hlöðu á 1. hæð ásamt kaffistofu á millipalli allt steinsteypt, einangrað að utan og klætt með báraðri klæðningu sem hús nr. 14B við Surtlugötu á lóð við Hólmsheiði. Stærð: Hesthús 1. hæð 200 ferm., millipallur 49 ferm., samtals 249 ferm., 666,9 rúmm. Gjald kr. 6.100 + 6.100 + 40.681"
33900 (05.8-.--9.6),http://gamli.rvk.is/vefur/owa/edutils.parse_page?nafn=BN033900,Hólmsheiði fjáreig.fé,B-9 - hesthús,Frestað. Vísað til athugasemda á umsóknarblaði.,"Sótt er um leyfi til þess að byggja hesthús með 13 stíum og litla hlöðu á 1. hæð ásamt kaffistofu á millipalli allt steinsteypt, einangrað að utan og klætt með báraðri klæningu sem hús nr. 9B við Surtlugötu á lóð við Hólmsheiði. Stærð: Hesthús 1. hæð 200 ferm., 2. hæð 49 ferm., samtals 249 ferm., 666,9 rúmm. Gjald kr. 6.100 + 6.100 + 40.681"
30584 (01.81.800.7),http://gamli.rvk.is/vefur/owa/edutils.parse_page?nafn=BN030584,Hæðargarður 14,"klæða húsið, byggja anddyri o.fl.","Frestað. Ekki kemur til greina að klæða með trapizujárni þrátt fyrir að slíkt hafi verið gert á sambærilegum húsum, vísað er til ákvæða í grein 12.6 í byggingarreglugerð nr. 441/1998.","Sótt er um leyfi til þess að byggja anddyrisviðbyggingu að norðurhlið, byggja verönd að suðurhlið og klæða utan með trapisujárni húsið á lóðinni nr. 14 við Hæðargarð. Á teikningum er gerð grein fyrir áður gerðu bílastæði á lóð.  Útskrift úr gerðabók embættisafgreiðslufundar skipulagsfulltrúa frá 3. desember 2004, samþykki meðeigenda að húsi dags. 2. maí 2006, bréf hönnuðar dags. 12. og 19. júní 2006 ásamt umsögn burðarvirkishönnuðar vegna klæðningar dags. 26. nóvember 2004. Stærð: Stækkun, anddyri 12,1 ferm. og 37,4 rúmm. Gjald kr. 5.400 + 6.100 + 2.281"
34075 (01.81.800.8),http://gamli.rvk.is/vefur/owa/edutils.parse_page?nafn=BN034075,>Hæðargarður 16,"nýtt andd., sólp., klæðning","Frestað. Ekki kemur til greina að klæða með trapizujárni þrátt fyrir að slíkt hafi verið gert á sambærilegum húsum, vísað er til ákvæða í grein 12.6 í byggingarreglugerð nr. 441/1998.","Sótt er um leyfi til þess að byggja nýtt anddyri við norðurhlið, stækka einn glugga, setja hurð að garði á suðurhlið 1. hæðar og sólpall fyrir utan og klæða allt húsið með galvanhúðuðu trapetsustáli á lóð nr. 16 við Hæðargarð. Bréf hönnuðar dags. 24. maí, 12. og 19. júní 2006, bréf og samþykki meðeigenda að húsi dags. 2. maí 2006 og ástandskönnun útveggja dags. 26. nóvember 2004 fylgja erindinu. Stærð: Anddyrisviðbygging 12,1 ferm., 37,7 rúmm. Gjald kr. 6.100 + 2.300"
33851 (01.15.030.7),http://gamli.rvk.is/vefur/owa/edutils.parse_page?nafn=BN033851,Ingólfsstræti 1,stækkun 8. h fleiri br.,Frestað. Vísað til athugasemda á umsóknarblaði.,"Sótt er um leyfi til þess að breyta byggingaraðferð nýsamþykktrar ofánábyggingar úr steinsteypu í stálvirki klætt með forsteyptum einingum, stækka  8. hæð meira en samþykkt var 20. desember 2005 ásamt leyfi til þess að gera kjallara undir móttöku hótelsins ásamt hluta af bílaplani hússins á lóðinni nr. 1 við Ingólfsstræti. Jafnframt er erindi nr. 33185 dregið til baka. Brunahönnun endurskoðuð 16. maí 2006, bréf hönnuðar dags. 20. júní 2006 og Rb- vottorð á framleiðslu holplatna gildistími 25. maí 2007 fylgja erindinu. Stærð: Stækkun 223,1 ferm., xx rúmm. Gjald kr. 6.100 + 6.100 + 6.100 + xx"
34239 (04.13.220.1),http://gamli.rvk.is/vefur/owa/edutils.parse_page?nafn=BN034239,Kirkjustétt 2-6,reyndarteikningar,Samþykkt.  Samræmist ákvæðum laga nr. 73/1997. Áskilin lokaúttekt byggingarfulltrúa.  Áskilið samþykki heilbrigðiseftirlits.,Sótt er um samþykki á reyndarteikninugm ásamt breytingum á innréttingum og nýju anddyri á suðurhlið í matshluta 03 .  Gjald kr. 6.100
34231 (04.34.670.1),http://gamli.rvk.is/vefur/owa/edutils.parse_page?nafn=BN034231,Klettháls 13,bæta við tveim opnum millifl.,Frestað. Vísað til athugasemda á umsóknarblaði.,"Sótt er um leyfi til að bæta við tveimur opnum milliflötum í sýningarsal verslunarhúss á lóð nr. 13 við Klettháls. Stærð:  Millifletir (01.08) 214,2 ferm. og  (1.09) 102,5 ferm., samtals 306,7 ferm. Gjald kr. 6.100"
34241,http://gamli.rvk.is/vefur/owa/edutils.parse_page?nafn=BN034241,Krummahólar 49-59,(53) endurn á byggingarl bílskúr dags. 19/4 2005,Samþykkt.  Samræmist ákvæðum laga nr. 73/1997. Frágangur á lóðamörkum verði gerður í samráði við lóðarhafa aðliggjandi lóða. Með vísan til samþykktar borgarráðs frá 1. september 1998 skal utanhúss- og lóðarfrágangi vera lokið eigi síðar en innan tveggja ára frá útgáfu byggingarleyfis að viðlögðum dagsektarákvæðum 57. gr. skipulags- og byggingarlaga nr. 73/1997.,"Sótt erum endurnýjun á byggingaleyfi, áður samþykkt 19.apríl 2005, á bílskúr úr steinsteypu á lóðinni nr 53 Krummahóla. Stærð bílskúr : 29 ferm. 104,3 rúmm.  Gjald kr. 6.100 + 6.362"
33972 (01.83.210.7),http://gamli.rvk.is/vefur/owa/edutils.parse_page?nafn=BN033972,Langagerði 52,viðbygging ofl.,Frestað. Lagfæra skráningartöflu. Nýjum uppdráttum vísað til skipulagsfulltrúa til ákvörðunar um grenndarkynningu.,"Sótt er um leyfi til þess að byggja við íbúðarhús og gera við og klæða bílskúr við einbýlishúsið á lóðinni nr. 52 við Langagerði. Stærð: Stækkun 33,7 ferm., 105,5 rúmm. Gjald kr. 6.100 + 6.436"
33984 (01.17.302.6),http://gamli.rvk.is/vefur/owa/edutils.parse_page?nafn=BN033984,Laugavegur 49,breyta innra fyrirkomulagi fl.,Frestað. Vísað er til bókunar skipulagsfulltrúa frá 23. júní 2006 en þar kemur fram að umsækjandi skal láta vinna breytingu á deiliskipulagi vegna málsins.,"Sótt er um leyfi til að breyta innra fyrirkomulagi, innrétta uppá nýtt og stækka, bæta aðgengi og gera þaksvalir við húsið á lóðinni nr. 49 við Laugaveg. Útskrift úr gerðabók embættisafgreiðslufundar skipulagsfulltrúa frá 26. maí 2006 og 23. júní 2006 fylgja erindinu  Málinu fylgir samþykki meðeigenda undirritað af formanni húsfélagsins, dags. 4. maí 2006. Einnig fylgir undirritað samþykki eigenda Laugavegs 49A, dags. 27. maí 2006 og bréf Sigurðar Halldórssonar arkitekts dags. 30. maí 2006. Stærð: Stækkun 2,8 ferm., 20,1 rúmm. Gjald kr. 6.100 + 1.226"
33818 (01.17.402.4),http://gamli.rvk.is/vefur/owa/edutils.parse_page?nafn=BN033818,Laugavegur 71,færa glugga - stækka verslanir,Frestað. Lagfæra skráningu.,"Sótt er um leyfi til að stækka fyrstu hæð með því að færa glugga fram á húsinu á lóð nr. 71 við Laugaveg. Stærð: 11,6 ferm., 37,1 rúmm.  Gjald kr. 6.100 + 2.263"
33408 (01.17.420.7),http://gamli.rvk.is/vefur/owa/edutils.parse_page?nafn=BN033408,Laugavegur 74,endurbygging/nýbygging,Frestað. Gera grein fyrir tengingu timburþaks að millibyggingu. Sjá úlit að Laugavegi.,"Sótt er um á lóðinni Laugavegur 74 að flytja núverandi hús af lóðinni (matshl.01) og byggja nýtt og stærra hús í staðinn. Nýja húsið verður steinsteypt, klætt loftræstum klæðningum. Enfremur að rífa geymslu og vinnuskúr (matshl 02 . 77 ferm og matshl 03. 35 ferm). Verslun verður á 1. hæð en íbúðir á  2. og 3. hæð. Kjallari er undir hluta hússins. Einnig lagt fram bréf Zeppelin arkitekta, mótt. 8. mars 2006 og bréf frá sömu aðilum dags. 3. apríl 2006 og  5. maí, ásamt bréfi Húsafriðunarnefndar ríkisins, dags. 7. mars 2006. og bréf móttekið 21 júní 2006 um flutning á gamla húsinu. Stærðir: Kjallari 176,9 ferm., 427,4 rúmm., 1. hæð  418,0 ferm., 1403,1 rúmm. 2. hæð 298,0 ferm.,  857,3 rúmm., 3. hæð 250,6 ferm., 866,5 rúmm. Samtals 1144,1 ferm., 3.706,8 rúmm. Gjald kr. 6.100 + 226.114"
33989 (01.26.130.1),http://gamli.rvk.is/vefur/owa/edutils.parse_page?nafn=BN033989,Lágmúli 5,innrétta verslunarrými,Frestað. Vísað til athugasemda á umsóknarblaði.,"Sótt er um leyfi til þess að innrétta verslunarrými í tenglum við núverandi lyfjaverslun á 1. hæð, breyta inngangi á vesturhlið og setja nýjan glugga á norðurhlið 1. hæðar atvinnuhússins á lóð nr. 5 við Lágmúla. Samþykki meðeigenda dags. 14. maí 2006 og bréf hönnuðar dags. 6. júní  og 14. júní 2006 fylgja erindinu. Gjald kr. 6.100 + 6.100"
33848 (01.14.150.3),http://gamli.rvk.is/vefur/owa/edutils.parse_page?nafn=BN033848,Lækjargata 14A,færa aðalinngang,Samþykkt.  Samræmist ákvæðum laga nr. 73/1997. Áskilin lokaúttekt byggingarfulltrúa.  Áskilið samþykki heilbrigðiseftirlits.,Sótt er um leyfi til að færa aðalinngang hússins á lóðinni nr. 14B við Lækjargötu.  Bréf frá Húsfriðunarnefnd ríkisins dags. 2. mars 2005 fylgir erindinu. Gjald kr. 6.100
34209 (01.14.051.0),http://gamli.rvk.is/vefur/owa/edutils.parse_page?nafn=BN034209,Lækjargata 8,endurnýjun á byggingarleyfi frá 14.06.05,Samþykkt.  Samræmist ákvæðum laga nr. 73/1997. Áskilin lokaúttekt byggingarfulltrúa.  Áskilið samþykki heilbrigðiseftirlits.,Sótt er um endunýjun á byggingaleyfi  samþykktu 14.  júní 2005  vegna innréttinga á veitingastað í Lækjargötu 8  Gjald kr.6.100
34235 (01.71.000.4),http://gamli.rvk.is/vefur/owa/edutils.parse_page?nafn=BN034235,Miklabraut 74,stækkun kvista,Frestað. Vísað til athugasemda á umsóknarblaði. Umsækjandi skal óska eftir skoðun á húsnæðinu.,Sótt er um að stækka kvisti á Miklubraut 74 Stærðir  15 rúmm. Samþykki eigenda Miklubrautar 74-78 fylgir  Gjald kr 6.100 + 915
34238 (01.71.000.5),http://gamli.rvk.is/vefur/owa/edutils.parse_page?nafn=BN034238,Miklabraut 76,stækkun kvista,Frestað. Vísað til athugasemda á umsóknarblaði. Umsækjandi skal óska eftir skoðun á húsnæðinu.,Sótt er um að stækka kvisti á Miklubraut 76 Stækkun 15 rúmm. Samþykki meðeigenda Miklubrautar 74-78 fylgir  Gjald kr. 6.100 + 915
34240 (01.71.000.6),http://gamli.rvk.is/vefur/owa/edutils.parse_page?nafn=BN034240,Miklabraut 78,stækkun kvista,Frestað. Vísað til athugasemda á umsóknarblaði. Umsækjandi skal óska eftir skoðun á húsnæðinu.,Sótt er um að breyta kvistum Miklubraut 7. Samþykki meðeigenda Miklubrautar 74-78 fylgir   Gjald kr. 6.100
34221 (01.51.701.9),http://gamli.rvk.is/vefur/owa/edutils.parse_page?nafn=BN034221,Nesvegur 70,stækkun bílskúrs,Frestað. Vísað til athugasemda á umsóknarblaði. Málinu vísað til umsagnar skipulagsfulltrúa.,"Sótt er um að byggja geymslu áfastri við bílskúr á lóðinni Nesvegur 70. Samþykki eigenda Granaskjóls 21, dagsett  11. maí 2006 fylgir. Stærðir 12,0 ferm og 32,4 rúmm.  Gjald kr. 6.100 +1.976"
33904 (01.44.511.3),http://gamli.rvk.is/vefur/owa/edutils.parse_page?nafn=BN033904,Nökkvavogur 31,reyndarteikningar,Frestað. Vísað til athugasemda á umsóknarblaði.,Sótt er um samþykki fyrir áður gerðri íbúð í kjallara og  breytingum á innra skipulagi beggja hæða íbúðarhússins  á lóðinni nr. 31 við Nökkvavog. Tengipappírar dags. 1951og athugasemdir eftirlits Rafmagnsveitu Reykjavíkur dags. 15. júlí 1961 ásamt íbúðarskoðun byggingarfulltrúa fylgja erindinu. Gjald kr. 6.100
34242 (01.74.410.5 02),http://gamli.rvk.is/vefur/owa/edutils.parse_page?nafn=BN034242,Ofanleiti 17,"pallur, skjólgirðing","Frestað. Vantar samþykki meðeigenda í nr. 17, samanber ákvæði fjöleignahúsalaga   nr. 26/1994.",Sótt er um leyfi til að gera sólpall með girðingu á sérafnotafleti neðstu hæðar í Ofanleiti 17. Samþykki frá húsfélagi Ofanleitis 15 dagsett 10.  maí 2006 fylgir.  Gjald kr.6.100
30842 (01.18.452.0),http://gamli.rvk.is/vefur/owa/edutils.parse_page?nafn=BN030842,Óðinsgata 13,reyndarteikning mhl. 01,Frestað. Vísað til athugasemda á umsóknarblaði.,"Sótt er um samþykki fyrir núverandi fyrirkomulagi matshluta 01 á lóðinni nr. 13 við Óðinsgötu. Gerð er grein fyrir breyttu innra fyrirkomulagi og tveimur áður gerðum íbúðum í húsinu. Samþykki meðeigenda (á teikn.) ásamt umboði eins eigenda dags. 26. ágúst 2005, íbúðarskoðun byggingarfulltrúa dags. 20. október 2005 og 13. júní 2006 ásamt virðingargjörð dags. 1. apríl 1943  fylgja erindinu. Gjald kr. 5.700 + 5.700"
32461 (01.35.820.5),http://gamli.rvk.is/vefur/owa/edutils.parse_page?nafn=BN032461,Skipasund 43,garðhýsi,Frestað. Málinu vísað til umsagnar skipulagsfulltrúa.,"Sótt er um leyfi til þess að setja upp óeinangrað garðhýsi úr bjálkum á norðausturhorni lóðar nr. 43 við Skipasund. Stærð: 9 ferm., 21,4 rúmm. Gjald kr. 5.700 + 1.220"
34247 (01.24.221.2),http://gamli.rvk.is/vefur/owa/edutils.parse_page?nafn=BN034247,Skipholt 17,"stækkun, br. inni og klæða hús að utan",Frestað. Vísað til athugasemda á umsóknarblaði. Málinu vísað til umsagnar skipulagsfulltrúa.,"Sótt er um leyfi til að breyta núverandi skrifstofuhúsnæði í íbúðarhúsnæði, og fá leyfi til að byggja eina hæð ofan á húsið Samfara þessum breytingum er sótt um leyfi til að klæða húsið að utan með Steni/málm/timbur -klæðninguog endurnýja glugga. Stækkun 29,34 +190,0=219,3 ferm. 711,4 rúmm  Gjald kr.6.100 +43.395"
34229 (01.25.011.2),http://gamli.rvk.is/vefur/owa/edutils.parse_page?nafn=BN034229,Skipholt 29,lyfta,Frestað. Vísað til athugasemda á umsóknarblaði.,Sótt er um leyfi til þess að setja lyftu í húsið Skipholt 29. Gjald kr. 6.100
34188 (04.36.300.2),http://gamli.rvk.is/vefur/owa/edutils.parse_page?nafn=BN034188,Skólabær 6,viðbygging við leikskóla,Samþykkt.  Samræmist ákvæðum laga nr. 73/1997. Áskilin lokaúttekt byggingarfulltrúa.  Áskilið samþykki heilbrigðiseftirlits.,"Sótt er um leyfi til að byggja einlyfta steinsteypta viðbyggingu og tengibyggingu úr gleri við leikskólann ásamt minniháttar breytingum í eldra húsi á lóðinni nr. 6 við Skólabæ. Stærð:  Stækkun 334,9 ferm., 1066,5 rúmm. Gjald kr. 6.100 + 65.056"
34263 (01.15.230.1 01),http://gamli.rvk.is/vefur/owa/edutils.parse_page?nafn=BN034263,Skúlagata 14-16,"Takmarkað byggingarleyfi
",Samþykkt.  Samræmist ákvæðum laga nr. 73/1997.,Ofanritaður sækir um takmarkað byggingarleyfi til þess að girða af vinnusvæði og koma fyrir aðstöðusköpun á lóðinni nr. 14 - 16 við Skúlagötu.
33235 (01.22.000.8),http://gamli.rvk.is/vefur/owa/edutils.parse_page?nafn=BN033235,Skúlagata 51,viðbygging,Samþykkt.  Samræmist ákvæðum laga nr. 73/1997. Frágangur á lóðamörkum verði gerður í samráði við lóðarhafa aðliggjandi lóða. Áskilin lokaúttekt byggingarfulltrúa.,"Sótt er um samþykki fyrir áður gerðum gólfum, leyfi til þess að byggja steinsteypta viðbyggingu við 2. og 3. hæð, inndregna léttbyggða 4. hæð yfir allt atvinnuhúsið og bílskýli undir viðbyggingu við suðausturhluta hússins á lóð nr. 51 við Skúlagötu. Húsið verður innréttað fyrir skrifstofur á neðri hæðum og gistirými á 4. hæð. Greinagerð Línuhönnunar vegna hljóðmælinga fyrir Skúlagötu 51 dags. í mars 2006 og bréf frá borgarstjórn dags. 23. júní  2006 fylgja erindinu. Stærð: Áður gerð stækkun 284,2 ferm.  Viðbygging 2. hæð 324,5 ferm., 3. hæð 324,5 ferm., 4. hæð 699,6 ferm., samtals 1348,6 ferm., 4499 rúmm. Bílskýli (B-rými) 325,1 ferm., 1170,4 rúmm. Gjald kr. 6.100 + 6.100 + 345.833"
34107 (01.19.740.9),http://gamli.rvk.is/vefur/owa/edutils.parse_page?nafn=BN034107,Smáragata 16,breikka glugga á garðskála,Samþykkt.  Samræmist ákvæðum laga nr. 73/1997. Áskilin lokaúttekt byggingarfulltrúa.  Áskilið samþykki heilbrigðiseftirlits.,"Sótt er um leyfi fyrir áður gerðu snyrtiherbergi í móttöku, til að breikka glugga á garðskála, bæta við tveim baðherbergjum á 2. hæð og til að breyta innihurðum vegna eldvarna í einbýlishúsinu á lóðinni nr. 16 við Smáragötu þar sem rekið er gistiheimili með allt að 20 gestum. Gjald kr. 6.100"
34085 (01.24.750.8),http://gamli.rvk.is/vefur/owa/edutils.parse_page?nafn=BN034085,Snorrabraut 77,niðurrif bílsk. og hjólag.,Samþykkt.  Samræmist ákvæðum laga nr. 73/1997. Frágangur á lóðamörkum verði gerður í samráði við lóðarhafa aðliggjandi lóða. Með vísan til samþykktar borgarráðs frá 1. september 1998 skal utanhúss- og lóðarfrágangi vera lokið eigi síðar en innan tveggja ára frá útgáfu byggingarleyfis að viðlögðum dagsektarákvæðum 57. gr. skipulags- og byggingarlaga nr. 73/1997.,"Sótt er um leyfi til þess að rífa núverandi bílskúr úr timbri og reisa steinsteyptan garðvegg að Auðarstræti ásamt sorp- og reiðhjólageymslu á lóð nr. 77 við Snorrabraut. Jafnframt er erindi 25534 dregið til baka. Samþykki nágranna dags. 23 .júní 2006 (á teikningu) fylgir erindinu. Stærð: Niðurrif fastanúmer 201-2156 matshluti 02 stærð 17,1 ferm., 38 rúmm. Reiðhjólageymsla 7,8 ferm., 18,6 rúmm. Gjald kr. 6.100 + 6.100 + 1.135"
34226 (01.23.300.1),http://gamli.rvk.is/vefur/owa/edutils.parse_page?nafn=BN034226,Sóltún íþróttahús,niðurrif,Samþykkt.  Samræmist ákvæðum laga nr. 73/1997.,"Sótt er um að rífa íþróttahús Ármanns við Sóltún  Landnúmer.   102922  Matshluti 11,  fastanúmer 201-0067 Stærð 4.732 ferm., 4.820 rúmm.  Gjald  kr. 6.100"
33596 (04.05.450.1),http://gamli.rvk.is/vefur/owa/edutils.parse_page?nafn=BN033596,Sævarhöfði 2-2A,nr. 2A breyting inni,Samþykkt.  Samræmist ákvæðum laga nr. 73/1997. Áskilin lokaúttekt byggingarfulltrúa.,Sótt er um leyfi fyrir breytingum á innréttingum í húsi á lóð nr. 2a við Sævarhöfða. Kjallari settur undir hluta verkstæðis. Gjald kr. 6.100
34250 (01.53.102.1),http://gamli.rvk.is/vefur/owa/edutils.parse_page?nafn=BN034250,Sörlaskjól 74,sameining íbúða og br. innan húss,Samþykkt.  Samræmist ákvæðum laga nr. 73/1997.,"Sótt er um að sameina 2 íbúðir í eina ,snúa stiga auk minniháttar skipulagsbreytinga innanhús í húsinu Sörlaskjól 74. Samþykki meðeigenda dagsett 20. júní 2006 fylgir.  Gjald kr. 6.100"
33819 (04.34.210.1),http://gamli.rvk.is/vefur/owa/edutils.parse_page?nafn=BN033819,Tunguháls 8,viðbygging til norðurs,Frestað. Vísað til athugasemda á umsóknarblaði.,"Sótt er um leyfi til að byggja við norðurenda hússins  tveggja hæða stálgrindarbyggingu í sama lit og sama frágangi utanhúss og eldra hús á lóð. Jafnframt er sótt um leyfi til að koma fyrir nýju millilofti í hluta eldra húss og breyta matshlutaskiptingu á lóð nr. 8 við Tunguháls. Samkomulag lóðarhafa Tunguháls 8 dags. 5. maí 2006, samþykki hönnuðar viðbyggingar við suðurenda dags. 10. maí 2006, samþykki lóðarhafa Klettháls 3 og 5 dags. 10. apríl 2006 og samþykki lóðarhafa Tunguháls 10 vegna frágangs á lóðamörkum dags. 18. júní 2006 fylgja erindinu. Stærð: Viðbygging og stækkun millilofts í eldri hluta samtals 1714,7 ferm., 6346,3 rúmm. Gjald kr. 6.100 + 6.100 + 387.124"
33803 (04.34.210.1),http://gamli.rvk.is/vefur/owa/edutils.parse_page?nafn=BN033803,Tunguháls 8,viðbygging til suðurs,Frestað. Vísað til athugasemda á umsóknarblaði.,"Sótt er um leyfi til að byggja teggja hæða viðbyggingu úr stálgrind klæddri með samlokueiningum með lóðréttri báru við suðurenda núverandi atvinnuhúss sem skipt verður í tvo matshluta á lóð nr. 8 við Tunguháls. Jafnframt er erindi nr. 33361 dregið til baka.  Samkomulag eigenda dags. 5. maí 2006, yfirlýsing hönnuðar vegna samræmingar erindis 33819 dags. 10. maí 2006, samþykki eigenda Klettháls 3 og 5 dags. 10. apríl 2006 og samþykki eigenda Tunguháls 10 dags. 6. júní 2006 fylgja erindinu. Stærð: Viðbygging samtals 2369,8 ferm., 4028,7 rúmm. Gjald kr. 6.100 + 6.100 + 245.751"
34179 (01.13.730.8),http://gamli.rvk.is/vefur/owa/edutils.parse_page?nafn=BN034179,Túngata 34,"gistiheimili, reyndarteikn.",Frestað. Lagfæra skráningu Umsækjandi  skal leggja fram samþykki nágranna samkvæmt meðfylgjandi  lista.,"Sótt er um leyfi fyrir breytingum vegna reksturs gistiheimilis fyrir sex gistirými í húsinu, starfsmannaaðstöðu í áður bílskúr og fyrir fjölgun bílastæða  á lóð nr. 34 við Túngötu. Bréf hönnuðar dags 9. júní 2006 fylgir erindinu. Gjald kr. 6.100"
34203 (01.18.600.4),http://gamli.rvk.is/vefur/owa/edutils.parse_page?nafn=BN034203,Urðarstígur 8A,stækkun á einbýlishúsi,"Frestað. Vísað til athugasemda á umsóknarblaði, hvað lóðarstærð varðar skal umsækjandi snúa sér til mælingadeildar Framkvæmdasviðs. Málinu vísað til umsagnar skipulagsfulltrúa.","Sótt er um leyfi til þess að stækka, og byggja ofan á einbýlishúsið á lóðinni nr. 8a við Urðarstíg.  Ennfremur er óskað eftir skilgreiningu á lóð þar sem misræmi er í upplýsingum um lóðastærð. Stærð:  Stækkun xx ferm. xx rúmm. Gjald kr. 6.100 + xx"
34251 (04.06.310.2),http://gamli.rvk.is/vefur/owa/edutils.parse_page?nafn=BN034251,Vagnhöfði 19,neyðarútgangur,Frestað. Málinu vísað til umsagnar skipulagsfulltrúa.,Sótt er um leyfi til að gera neyðarútgang úr einingu 0102 á norðurhlið hússins á lóðinni nr. 19 við Vagnhöfða. Gjald. kr. 6.100
34252 (01.15.241.9),http://gamli.rvk.is/vefur/owa/edutils.parse_page?nafn=BN034252,Veghúsastígur 7,ofanábygging ofl.,Frestað. Bæta skal gögn áður en hægt er að fjalla um málið.,"Sótt er um að gera 2 íbúðir á efri hæð, lyfta norðurhlið þaks og byggja ofan á hluta norðurhliðar húseignar að Veghúsastíg 7 Stærðir xx Gjald kr. 6.100 + xx"
34214 (01.13.600.1),http://gamli.rvk.is/vefur/owa/edutils.parse_page?nafn=BN034214,Vesturgata 27,breyttar teikningar,Frestað. Vísað til athugasemda á umsóknarblaði.,Sótt er um samþykki leiðréttinga vegna breyttrar útfærslu stiga einbýlishússins á lóð nr. 27 við Vesturgötu. Gjald kr. 6.100
34113 (01.13.610.2),http://gamli.rvk.is/vefur/owa/edutils.parse_page?nafn=BN034113,Vesturgata 3,reyndarteikningar,Frestað. Vísað til athugasemda á umsóknarblaði.,"Sótt er um samþykki fyrir breyttu innra skipulagi í kjallara viðbyggingar við Hlaðvarpann (matshluta 02), breytingum mest við eldhús á 2. hæð eldri hluta, breytingum á gangi milli húsa og breyttu innra skipulagi 3. hæðar, fyrir fjölgun kvista á austurhluta eldra húss og leiðréttingu hæða hússins á lóð nr. 3 við Vesturgötu. Stærð: Leiðrétt stækkun og stærðaraukning samtals 7,7  ferm., 43,3 rúmm. Gjald kr. 6.100 + 2.641"
33994 (04.11.210.1),http://gamli.rvk.is/vefur/owa/edutils.parse_page?nafn=BN033994,Þjóðhildarstígur 1,veitingastaður,Samþykkt.  Samræmist ákvæðum laga nr. 73/1997. Frágangur á lóðamörkum verði gerður í samráði við lóðarhafa aðliggjandi lóða. Áskilin lokaúttekt byggingarfulltrúa.  Áskilið samþykki heilbrigðiseftirlits.,"Sótt er um leyfi til þess að byggja steinsteypt einlyft hús fyrir veitingastað allt einangrað að utan og klætt með gráum steinflísum og sléttu áli ásamt sorpskýli með pressugám úr 2,3m háum steinveggjum, stoðvegg á lóðamörkum að Reynisvatnsvegi og skiltastand allt að 8m háan auk skilta á húsveggjum (skilti samtals 19,7 ferm.) á lóð nr. 1 við Þjóðhildarstíg. Útskrift úr gerðabók embættisafgreiðslufundar skipulagsfulltrúa frá 2. júní 2006, umsögn skipulagsfulltrúa dags. 1. júní 2006 og bréf hönnuðar dags. 6. júní 2006 fylgja erindinu. Stærð: 499,7 ferm., 2207,9 rúmm. Gjald kr. 6.100 + 6.100 + 134.682"
34138 (04.72.430.7),http://gamli.rvk.is/vefur/owa/edutils.parse_page?nafn=BN034138,Þverás 14,byggja nýja rishæð og fleira,Samþykkt.  Samræmist ákvæðum laga nr. 73/1997. Frágangur á lóðamörkum verði gerður í samráði við lóðarhafa aðliggjandi lóða. Áskilin lokaúttekt byggingarfulltrúa.,"Sótt er um leyfi til þess að byggja nýja rishæð, breyta innra fyrirkomulagi, endurnýja og breyta gluggum og  einangra hús að utan og klæða með múrkerfi á lóð nr. 14 við Þverás. Útskrift úr gerðabók embættisafgreiðslufundar skipulagsfulltrúa frá 16. júní 2006 fylgir erindinu. Stærð: Stækkun samtals 100,7 ferm., 319,3 rúmm. Gjald kr. 6.100 + 19.477"
34264 (01.43.020.8),http://gamli.rvk.is/vefur/owa/edutils.parse_page?nafn=BN034264,Álfheimar  2-6,,Samþykkt.  Samræmist ákvæðum laga nr. 73/1997.,"Lögð fram tillaga Framkvæmdasviðs Landupplýsingadeildar, dags. 22. júní 2006, að breytingu lóðarmarka  lóðarinnar nr. 2-6 við Álfheima. Álfheimar 2-6 (stgr. 1.430.208, landnr. 105199): Lóðin er 2133 ferm., sbr. óútgefið mæliblað frá árinu 1958. Lóðin er skráð hjá FMR 2259 ferm. Lóðin reynist 2122 ferm. Tekið af lóðinni vestan við húsið -156 ferm. Bætt við lóðina austan við húsið 88 ferm. Bætt við lóðinar norðan við húsið 404 ferm.  Lóðin verður 2458 ferm. Sjá samþykkt afgreiðslufundar skipulagsfulltrúa  7. apríl 2006."
34262 (01.67.310.4),http://gamli.rvk.is/vefur/owa/edutils.parse_page?nafn=BN034262,Einarsnes 78,,Samþykkt.  Samræmist ákvæðum laga nr. 73/1997.,"Lögð fram tillaga Framkvæmdasviðs Landupplýsingadeildar, dags. 22. júní 2006, að breytingu lóðarmarka lóðarinnar nr. 78 við Einarsnes. Einarsnes 78:  Lóðin er talin 1500 ferm. Lóðin reynist 1498 ferm. Tekið af lóðinni undir götu  101 ferm. Lóðin verður 1397 ferm. Sjá samþykkt skipulagsnefndar 20. febrúar 1989 og samþykkt borgarráðs 21. febrúar 1989."
34223 (01.35.702.1),http://gamli.rvk.is/vefur/owa/edutils.parse_page?nafn=BN034223,Efstasund 26,(fsp) íbúð í kjallara,Nei. Samræmist ekki reglum um áður gerðar íbúðir m.a. vegna niðurgraftrar og lofthæðar.,Spurt er hvort samþykkt yrði áður gerð íbúð í kjallara hússins á lóð nr. 26 við Efstasund. Virðingargjörð dags. 16. maí 1951 og íbúðarskoðun byggingarfulltrúa dags. 21. júní 2006 fylgja erindinu.
34256 (01.55.301.7),http://gamli.rvk.is/vefur/owa/edutils.parse_page?nafn=BN034256,Fálkagata 32,"(fsp) hækka þak, íbúð á 4. hæð",Frestað. Málinu vísað til umsagnar skipulagsfulltrúa.,Spurt er um leyfi til að hækka þak á Fálkagötu 32
34261 (01.82.440.3),http://gamli.rvk.is/vefur/owa/edutils.parse_page?nafn=BN034261,Garðsendi 3,(fsp) stækka bílskúr,Frestað. Málinu vísað til umsagnar skipulagsfulltrúa.,Spurt er hvort leyft yrði að stækka bílskúr inn á baklóð fjölbýlishússins á lóð nr. 3 við Garðsenda.
34244 (00.03.200.9),http://gamli.rvk.is/vefur/owa/edutils.parse_page?nafn=BN034244,Í landi Hrafnhóla 125699,(fsp) óskað eftir fasteignamati á sumarbústað (sjá umsókn),Frestað. Skoðað milli funda.,Spurt er hvort samþykktur yrði sumarbústaður og geymsluskúr á landi nr. 9 við Hrafnhóla á Kjalarnesi.
34227 (01.35.300.1),http://gamli.rvk.is/vefur/owa/edutils.parse_page?nafn=BN034227,Kambsvegur 1,(fsp) stækkun á svölum,Frestað. Málinu vísað til umsagnar skipulagsfulltrúa.,Spurt er hvort leyft yrði að stækka svalir við 1. og 2. hæð í líkingu við fyrirliggjandi skissu á lóð nr. 1 við Kambsveg.
34213 (01.86.140.1 29),http://gamli.rvk.is/vefur/owa/edutils.parse_page?nafn=BN034213,Kúrland 28,(fsp) bílastæði,Frestað. Málinu vísað til umsagnar skipulagsfulltrúa.,Spurt er hvort leyft yrði að setja bílastæði á svæði norðan við raðhúsin nr. 23-28 við Kúrland.
34212 (01.44.510.1),http://gamli.rvk.is/vefur/owa/edutils.parse_page?nafn=BN034212,Langholtsvegur 176,"(fsp) stækkun kjallara, sólstofa 1.hæð",Frestað. Málinu vísað til umsagnar skipulagsfulltrúa.,Spurt er hvort leyft yrði að byggja um 30 ferm sólstofu við vesturhlið 1. hæðar ásamt stækkun kjallara fjöleignarhússins á lóð nr. 176 við Langholtsveg.
34269 (01.34.610.6),http://gamli.rvk.is/vefur/owa/edutils.parse_page?nafn=BN034269,Laugarnesvegur 62,(fsp) breyting girðing,Jákvætt. Að uppfylltum skilyrðum enda verði sótt um byggingaleyfi og samþykki lóðarahaf aðliggjandi lóðar liggi fyrir sjá einnig gr. 67 í byggingarreglugerð nr. 441/1998.,Spurt er hvort leyft yrði að hækka girðingu á lóðamörkum úr 100 cm í 185 cm og breyta útliti hennar þannig að ekki sjáist í gegnum hana.
34189 (01.55.500.1),http://gamli.rvk.is/vefur/owa/edutils.parse_page?nafn=BN034189,Lynghagi 13,(fsp) viðbygging,Jákvætt. Að uppfylltum skilyrðum enda verði sótt um byggingarleyfi samanber útskrift úr gerðabók embættisafgreiðslufundar skipulagsfulltrúa dags. 23. júní 2006.,"Spurt er hvort leyft yrði að byggja við til vesturs, endurnýja þak bílskúrs,  grafa frá kjallarahæð að sunnanverðu, stækka glugga  kjallarahæðar og koma fyrir verönd skv. meðfylgjandi tillögum að húsinu á lóðinni nr. 13 við Lynghaga. Útskrift úr gerðabók embættisafgreiðslufundar skipulagsfulltrúa frá 23. júní fylgir erindinu."
34077 (01.34.120.1),http://gamli.rvk.is/vefur/owa/edutils.parse_page?nafn=BN034077,Rauðalækur 19,(fsp) bílastæði fyrir aftan hús,Jákvætt.  Að uppfylltum skilyrðum enda verði sótt um byggingarleyfi að öðru leyti vísast til umsagnar  útskriftar úr gerðabók embættisafgreiðslufundar skipulagsfulltrúa dags. 23. júní 2006.,Spurt er hvort leyft yrði að útbúa tvö bílastæði fyrir aftan hús norðanvert á lóðinni nr. 19 við Rauðalæk. Útskrift úr gerðabók embættisafgreiðslufundar skipulagsfulltrúa dags. 23. júní 2006 fylgir erindinu.
33997 (01.13.601.9),http://gamli.rvk.is/vefur/owa/edutils.parse_page?nafn=BN033997,Ránargata 10,(fsp) breytingar,"Jákvætt. Að uppfylltum skilyrðum enda verði sótt um byggingarleyfi sem grenndarkynnt verður, gera grein fyrir hvort bílastæði fylgir íbúðinni.","Spurt er hvort leyft yrði að setja svalir á norðurhlið þaksins á íbúðarhúsinu á lóðinni nr. 10 við Ránargötu. Einnig er spurt hvort tilteknar endurbætur gerðu íbúð í risi samþykkjanlega. Málinu fylgja íbúðarskoðun dags. 23. nóvember 2000, bréf fyrirspyrjanda dags. 16. maí 2006 og virðingargjörð dags. 1. apríl 1942."
34219 (04.66.620.1 03),http://gamli.rvk.is/vefur/owa/edutils.parse_page?nafn=BN034219,Vesturberg 36,(fsp) bílskúr,"Jákvætt.  Að byggja bílskýli ef óskað er eftir að byggja bílskúr þarf að breyta deiliskiplagi svæðisins, í báðum tilvikum ber að sækja um byggingarleyfi.",Spurt er hvort leyft yrði að byggja bílskúr fyrir raðhús nr. 36 á lóð nr. 32-44 við Vesturberg.
34245 (01.13.021.7),http://gamli.rvk.is/vefur/owa/edutils.parse_page?nafn=BN034245,Vesturgata 56,(fsp) viðbygging,Frestað. Málinu vísað til umsagnar skipulagsfulltrúa.,Spurt er hvort leyft yrði að byggja viðbyggingu við norðausturhlið í líkingu við fyrirliggjandi tillögu við allar hæðir fjölbýlishússins á lóð nr. 56 við Vesturgötu.
34086 (05.15.--8.3),http://gamli.rvk.is/vefur/owa/edutils.parse_page?nafn=BN034086,Vesturlandsv. Reynisv 113414,(fsp) sumarhús,Frestað. Málinu vísað til umsagnar skipulagsfulltrúa.,Spurt er hvort leyft yrði að byggja sumarhús skv. meðfylgjandi teikningum á landi Reynisvatns nr. 113414 við Vesturlandsveg.
34228 (01.19.010.1),http://gamli.rvk.is/vefur/owa/edutils.parse_page?nafn=BN034228,Vitastígur 17,(fsp) svalir,"Jákvætt. Miðað við tillögu 1, enda verði sótt um byggingarleyfi sem grenndarkynnt verður.",Spurt er hvort leyft yrði að byggja svalir í líkingu við fyrirliggjandi tillögu 1 eða 2 við suðausturhlið fjölbýlishússins á lóð nr. 17 við Vitastíg.
