nr,url,heimilisfang,tegund,nidurstada,spurning
22356 (01.14.050.1),http://gamli.rvk.is/vefur/owa/edutils.parse_page?nafn=BN022356,Austurstr. 16-Póst. 7,br. á útloftun eldh. og flóttaleið,Frestað. Vísað til athugasemda á umsóknarblaði.,"Sótt er um leyfi til þess að breyta innra skipulagi kjallara, inngangi á 1. hæð, innra skipulagi á 1. hæð, loftræstingu frá eldhúsi og flóttaleiðum á 1. hæð og í kjallara hússins á lóð nr. 16 við Austurstræti. Mat á flóttaleiðum frá VSI dags. 13. desember 2000 fylgir erindinu. Gjald kr. 4.100"
23233 (01.14.050.2),http://gamli.rvk.is/vefur/owa/edutils.parse_page?nafn=BN023233,Austurstræti 18,Breytingar,Frestað. Lagfæra skráningu.,"Sótt er um leyfi til þess að loka opi í gólfi milli kjallara og fyrstu hæðar í húsinu á lóðinni nr. 18 við Austurstræti. Stækkun: 1. hæð 4,2 ferm. Gjald kr. 4.100"
23131 (04.23.360.1),http://gamli.rvk.is/vefur/owa/edutils.parse_page?nafn=BN023131,Álakvísl  21-43,Nr.21-25 - grindverk,Samþykkt.  Samræmist ákvæðum laga nr. 73/1997. Frágangur á lóðamörkum verði gerður í samráði við lóðarhafa aðliggjandi lóða.,Sótt er um leyfi til þess að byggja grindverk og stoðvegg að lóðarmörkum við húsið nr. 21-25 á lóðinni nr. 21-43 við Álakvísl. Stoðveggur er 100 cm hár þar sem hann er hæstur og grindverkið er mest 160 cm hátt. Samþykki meðlóðarhafa og eigenda aðlægra lóða  (ódags.)  og útskrift úr gerðabók embættisafgreiðslufundar skipulagsstjóra frá 22. júní 2001 fylgja erindinu. Gjald kr. 4.100
23666 (01.26.520.1 01),http://gamli.rvk.is/vefur/owa/edutils.parse_page?nafn=BN023666,Ármúli 31,"skilti á lóð, merk. á hús",Frestað. Vísað til athugasemda á umsóknarblaði.,"Sótt er um leyfi til að koma fyrir stakstæðu skilti með baklýstum bókstöfum vestan við matshluta 01 á lóðinni nr. 34 við Suðurlandsbraut. Skiltið verði byggt ú álplötum, mesta hæð þess 350 cm, mesta breidd 200 cm og auglýsingarflötur um 2 x 2 ferm.  Jafnframt er sótt um leyfi til að koma fyrir flóðlýstum bókstöfum á matshlutanum, annarsvegar á tveimur stöðum nærri veturenda og hins vegar nærri austurenda. Gjald kr. 4.100"
23081 (01.26.210.1),http://gamli.rvk.is/vefur/owa/edutils.parse_page?nafn=BN023081,Ármúli 7 ,fjölgun eignarhluta,Frestað. Vísað til athugasemda á umsóknarblaði.,Sótt er um leyfi fyrir reyndarteikningum af útliti vesturhliðar og leyfi til þess að fjölga eignarhlutum úr einum í þrjá í matshluta 02 á lóðinni nr. 7 við Ármúla. Samþykki meðlóðarhafa dags 13. júní og 30. júlí 2001 fylgir erindinu. Gjald kr. 4.100
23682 (04.94.420.3),http://gamli.rvk.is/vefur/owa/edutils.parse_page?nafn=BN023682,Bakkasel 19-35,Nýja gl. á nr. 35,Samþykkt.  Samræmist ákvæðum laga nr. 73/1997.,Sótt er um leyfi til þess að setja kjallaraglugga á norðausturgafl og viðbótarglugga á 1. hæð sömu hliðar húss nr. 35 á lóð nr. 19-35 við Bakkasel. Bréf umsækjanda dags. 3. september 2001 og samþykki meðlóðarhafa dags. 27. ágúst 2001 fylgja erindinu. Gjald kr. 4.100
23227 (02.40.710.4),http://gamli.rvk.is/vefur/owa/edutils.parse_page?nafn=BN023227,Bakkastaðir 111,Einbýlishús m. innb. bílg.,Samþykkt.  Samræmist ákvæðum laga nr. 73/1997. Frágangur á lóðamörkum verði gerður í samráði við lóðarhafa aðliggjandi lóða.,"Sótt er um leyfi til þess að byggja einlyft einbýlishús með innbyggðri bílgeymslu á lóðinni nr. 111 við Bakkastaði. Húsið er steinsteypt, einangrað og klætt utan með ál- og timburklæðningu. Bréf hönnuðar dags. 3. apríl 2001 fylgir erindinu. Stærð: Íbúð 233,7 ferm., bílg. 25,9 ferm. Samtals 259,6 ferm., 874 rúmm. Gjald kr. 4.100 + 35.834"
23684 (16.74.110),http://gamli.rvk.is/vefur/owa/edutils.parse_page?nafn=BN023684,"Baugatangi, Austurnes",reyndarteikningar,Frestað. Vísað til athugasemda á umsóknarblaði. Málinu vísað til umsagnar Borgarskipulags.,Sótt er um samþykki fyrir reyndarteikningum af húsinu Austurnes sem er tvílyft timburhús á steinsteyptum kjallara á lóð nr. 5A við Baugatanga. Gjald kr. 4.100
23579 (01.18.030.9),http://gamli.rvk.is/vefur/owa/edutils.parse_page?nafn=BN023579,Bergstaðastræti 13,Viðbygging og br.,Samþykkt 5. september 2001. Frágangur á lóðamörkum verði gerður í samráði við lóðarhafa aðliggjandi lóða. Áskilin lokaúttekt byggingarfulltrúa. Með vísan til samþykktar borgarráðs frá 1. september 1998 skal utanhúss- og lóðarfrágangi vera lokið eigi síðar en innan tveggja ára frá útgáfu byggingarleyfis að viðlögðum dagsektarákvæðum 57. gr. skipulags- og byggingarlaga nr. 73/1997.,"Sótt er um leyfi til þess að byggja þriggja hæða steinsteypta viðbyggingu að norðurhlið, einangra viðbyggingu að utan og klæða liggjandi bárujárni, klæða núverandi hús að utan með sléttum harðplastplötum og innrétta íbúðir á 2. og 3. hæð svo íbúðir verði samtals 8 á lóð nr. 13 við Bergstaðastræti. Ástandslýsing TSÓ dags. 15. júlí 2001fylgir erindinu. Stærð: Viðbygging 1. hæð 149,9 ferm., 2. hæð 154,2 ferm., 3. hæð 154,2 ferm., stækkun samtals 458,3 ferm., 1429,4 rúmm. Gjald kr. 4.100 + 58.605"
23583 (04.30.300.1),http://gamli.rvk.is/vefur/owa/edutils.parse_page?nafn=BN023583,Bitruháls 1,stækkun lagnag.-verkst.,Samþykkt.  Samræmist ákvæðum laga nr. 73/1997. Áskilin lokaúttekt byggingarfulltrúa.,"Sótt er um leyfi til þess að stækka lagnagang og breyta í verkstæði fyrir ísvélar ísgerðar Mjólkursamsölunnar á lóð nr. 1 við Bitruháls. Stærð: Núverandi lagnagangur 173,5 ferm., 763,4 rúmm., stækkun 180,2 ferm., 792,9 rúmm., samtals verður verkstæði 353,7 ferm., 1556,3 rúmm. Gjald kr. 4.100 + 32.509"
23251 (01.21.900.1),http://gamli.rvk.is/vefur/owa/edutils.parse_page?nafn=BN023251,Borgartún 31,Breyting inni/úti,Samþykkt.  Samræmist ákvæðum laga nr. 73/1997. Áskilið samþykki Vinnueftirlits ríkisins. Áskilið samþykki heilbrigðiseftirlits. Áskilin lokaúttekt byggingarfulltrúa.,"Sótt er um leyfi til þess að breyta innra fyrirkomulagi í kjallara og á fyrstu, annarri og þriðju hæð verslunar- og skrifstofuhúss (matshluta 05) á lóðinni nr. 31 við Borgartún. Á suðurhlið er gluggasetningu fyrstu hæðar lítillega breytt og á suðurhlið og austurgafli er skyggni breytt. Gerð er grein fyrir skiltum á suður- og austurhlið hússins. Stærð skilta er samtals 25,6 ferm. en lóðin er 5070 fermetrar að stærð. Samþykki meðeigenda (á teikn.) fylgir erindinu. Bréf hönnuðar (ódags.) fylgir erindinu. Gjald kr. 4.100"
23654 (04.72.320.1),http://gamli.rvk.is/vefur/owa/edutils.parse_page?nafn=BN023654,Brekknaás 4,leikskóli - reyndarteikningar,Frestað. Vísað til athugasemda á umsóknarblaði.,Sótt er um leyfi fyrir minniháttar breytingum til samræmis við verkteikningar og útfærslu leikskólans á lóðinni nr. 4 við Brekknaás. Skráning og stærðir verði óbreyttar. Gjald kr. 4.100
23687 (01.35.100.1),http://gamli.rvk.is/vefur/owa/edutils.parse_page?nafn=BN023687,Brúnavegur Hrafnista ,klæðning - lagfæra svalir,Frestað. Vísað til athugasemda á umsóknarblaði.,Sótt er um leyfi til þess að klæða suðurhlið D-álmu hússins með Stenex plötum og lagfæra handrið á svölum húss Hrafnistu á lóð við Brúnaveg.  Ástandsskýrsla útveggja dags. 21. ágúst 2001 fylgir erindinu. Gjald kr. 4.100
23606 (01.73.810.1),http://gamli.rvk.is/vefur/owa/edutils.parse_page?nafn=BN023606,Bústaðavegur 9,30 bílastæði,Frestað. Vísað til athugasemda á umsóknarblaði.,Sótt er um leyfi til að gera 30 bílastæði á lóð Veðurstofu Íslands nr. 9 við Bústaðaveg. Gjald kr. 4.100
23586 (01.82.630.5),http://gamli.rvk.is/vefur/owa/edutils.parse_page?nafn=BN023586,Byggðarendi 10,íbúð á neðri hæð ofl,Frestað. Vísað til athugasemda á umsóknarblaði. Málinu vísað til Borgarskipulags til ákvörðunar um grenndarkynningu. Vísað er til uppdrátta nr. 1 og 2 dags. 7. september 2001.,Að lokinni afgreiðslu embættisafgreiðslufundar skipulagsstjóra 31. ágúst 2001 er lögð fram að nýju umsókn um leyfi til að koma fyrir íbúð í austurhluta neðri hæðar hússins nr. 10 við Byggðarenda. Jafnframt er sótt um leyfi til að taka í notkun áður uppfyllt rými milli sökkla í vesturhluta og tengja það efri hæð með stiga og koma fyrir glugga á norðuhlið þess. Útskrift úr gerðabók embættisafgreiðslufundar skipulagsstjóra frá 31. ágúst 2001 fylgir erindinu.  Stækkun: xx Gjald kr. 4.100 + xx
23614 (02.84.120.1),http://gamli.rvk.is/vefur/owa/edutils.parse_page?nafn=BN023614,Dalhús 2,Girðing,Frestað. Vísað til athugasemda á umsóknarblaði. Vantar umsögn gatnamálastjóra.,"Sótt er um leyfi til að girða lóð Ungmennafélagsins Fjölnis við Dalhús 2 með tveggja til þriggja metra hárri girðingu. Erindinu fylgir bréf hönnuða dags. 21. ágúst 2001, umsögn garðyrkjustjóra dags. 4. september 2001. Gjald kr. 4.100"
23664 (01.19.340.4),http://gamli.rvk.is/vefur/owa/edutils.parse_page?nafn=BN023664,Egilsgata 3,"Br. á klæðningu, útv.",Frestað. Vísað til athugasemda á umsóknarblaði.,Sótt er um leyfi fyrir minniháttar breytingum á fyrirkomulagi utanhúsklæðningar sem samþykkt var 10. apríl 2001 fyrir húsið nr. 3 við Egilsgötu. Bréf hönnuðar dags. 1. ágúst 2001 fylgir erindinu. Gjald kr. 4.100
22903 (01.36.650.1),http://gamli.rvk.is/vefur/owa/edutils.parse_page?nafn=BN022903,Engjateigur 7 ,"Br. kjallara, bílg. ofl.",Samþykkt.  Samræmist ákvæðum laga nr. 73/1997. Frágangur á lóðamörkum verði gerður í samráði við lóðarhafa aðliggjandi lóða. Áskilið samþykki Vinnueftirlits ríkisins. Áskilin lokaúttekt byggingarfulltrúa.,"Sótt er um leyfi til að gera ýmsar breytingar á útfærslu hússins á lóðinni nr. 7 við Engjateig frá því sem samþykkt var 31. okt. 2000. Meðal annarrs er sótt um leyfi til þess að breyta uppfylltu sökklarými í geymslu, um undanþágu varðandi bílastæðakröfu fyrir það húsnæði, að bílgeymsla verði opið rými (B-rými), sbr. einnig  símbréf mótt. 5. apríl 2001 og í breytingaskrá á teikningum.   Erindinu fylgir símbréf hönnuðar frá 5. apríl 2001, bréf Ístaks dags. 5. apríl 2001, símbréf brunavarnahönnuðar mótt. 23. apríl 2001, bréf borgarstjóra dags. 15. maí 2001. Stærð: Stækkun kjallara 135,2 ferm., 382,6 rúmm.  Gjald kr. 4.100 + 15.686"
23670 (00.02.610.5),http://gamli.rvk.is/vefur/owa/edutils.parse_page?nafn=BN023670,Esjumelur 5,"Br. bygg.lýsing v. vottunar Rb
",Frestað.,Sótt er um leyfi til þess að bæta í byggingarlýsingu að húsið sé í flokki C samkvæmt gr. 128 í byggingarreglugerð á lóð nr. 5 við Esjumel. Bréf hönnuðar dags. 28. ágúst 2001 Gjald kr. 4.100
23607 (00.00.000.0),http://gamli.rvk.is/vefur/owa/edutils.parse_page?nafn=BN023607,Framnesvegur 31B,tengibygging,Frestað. Málinu vísað til Borgarskipulags til ákvörðunar um grenndarkynningu. Vísað er til uppdráttar A100 dags. ágúst 2001.,"Sótt er um leyfi til að byggja tengibyggingu milli hússins nr. 31B á lóðinni nr. 31 við Framnesveg (matshl. 03) og bakhúss (matshl. 02) á lóðinni nr. 70 við Sólvallagötu. Jafnframt verði innra fyrirkomulagi beggja húsa breytt, opnað milli matshlutanna yfir lóðarmörk. Erindinu fylgir bréf umsækjanda dags. 20. ágúst 2001 samþykki meðlóðarhafa og lóðarhafa að Sólvallagötu 68 og Sólvallagötu 70 dags. 30. jan. 2001, umsögn borgarskipulags dags. 15. feb. 2001, bréf Steindórs Einarssonar dags. 30. des. 1925, bréf byggingarnefndar og bæjarstjórnar dags. 6. jan. 1926, bréf byggingarnefndar og bæjarstjórnar dags. 10. mars 1927 ásamt uppdrætti. Stækkun:  10.5 ferm. og 32,3 rúmm Gjald kr. 4.100 + 1.324"
23613 (04.61.220.5),http://gamli.rvk.is/vefur/owa/edutils.parse_page?nafn=BN023613,Geitastekkur 2,Heitur pottur o.fl.,Samþykkt.  Samræmist ákvæðum laga nr. 73/1997.,"Sótt er um leyfi til þess að setja upp heitan pott ásamt steinsteyptum skjólvegg, sturtu og fl. sunnan og vestan við einbýlishúsið á lóð nr. 2 við Geitastekk. Bréf hönnuðar dags. 3. apríl 2001 fylgir erindinu. Gjald kr. 4.100"
23689 (04.11.250.1),http://gamli.rvk.is/vefur/owa/edutils.parse_page?nafn=BN023689,Grænlandsleið 17-21,hækka gólfkóta,Samþykkt.  Samræmist ákvæðum laga nr. 73/1997. Frágangur á lóðamörkum verði gerður í samráði við lóðarhafa aðliggjandi lóða.,Sótt er um leyfi til þess að hækka gólfkóta á efri og neðri hæð raðhússins nr. 17-21 við Grænlandsleið um 15 cm. Gjald kr. 4.100
23537 (04.11.250.2),http://gamli.rvk.is/vefur/owa/edutils.parse_page?nafn=BN023537,Grænlandsleið 23-27,einbýlishús nr. 23,Samþykkt.  Samræmist ákvæðum laga nr. 73/1997. Frágangur á lóðamörkum verði gerður í samráði við lóðarhafa aðliggjandi lóða.,"Sótt er um leyfi til þess að byggja tvílyft steinsteypt einbýlishús með innbyggðri bílgeymslu allt einangrað að utan og múrhúðað með ljósum marmarasalla sem yfirborðsáferð á lóð nr. 23 við Grænlandsleið. Stærð: Íbúð 1. hæð 117,4 ferm., 2. hæð 93,6 ferm., bílgeymsla 43,7 ferm.,samtals 254,7 ferm, 758,7 rúmm. Gjald kr. 4.100 + 31.107"
23539 (04.11.250.2),http://gamli.rvk.is/vefur/owa/edutils.parse_page?nafn=BN023539,>Grænlandsleið 23-27,einbýlishús nr. 27,Samþykkt.  Samræmist ákvæðum laga nr. 73/1997. Frágangur á lóðamörkum verði gerður í samráði við lóðarhafa aðliggjandi lóða.,"Sótt er um leyfi til þess að byggja tvílyft steinsteypt einbýlishús með innbyggðri bílgeymslu allt einangrað að utan og múrhúðað með ljósum marmarasalla sem yfirborðsáferð á lóð nr. 27 við Grænlandsleið. Stærð: Íbúð 1. hæð 117,4 ferm., 2. hæð 93,6 ferm., bílgeymsla 43,7 ferm., samtals 254,7 ferm., 758,7 rúmm. Gjald kr. 4.100 + 31.107"
23538 (04.11.250.2),http://gamli.rvk.is/vefur/owa/edutils.parse_page?nafn=BN023538,Grænlandsleið 23-27,einbýlishús nr. 25,Samþykkt.  Samræmist ákvæðum laga nr. 73/1997. Frágangur á lóðamörkum verði gerður í samráði við lóðarhafa aðliggjandi lóða.,"Sótt er um leyfi til þess að byggja tvílyft steinsteypt einbýlishús með innbyggðri bílgeymslu allt einangrað að utan og múrhúðað með ljósum marmarasalla sem yfirborðsáferð á lóð nr. 25 við Grænlandsleið. Stærð: Íbúð 1. hæð 117,4 ferm., 2. hæð 93,6 ferm., bílgeymsla 43,7 ferm., samtals 254,7 ferm., 758,7 rúmm. Gjald kr. 4.100 + 31.107"
22776 (01.14.000.5),http://gamli.rvk.is/vefur/owa/edutils.parse_page?nafn=BN022776,Hafnarstræti  1-3,Austurendi- Veitingahús,Frestað. Vísað til athugasemda á umsóknarblaði.,Sótt er um leyfi til þess að innrétta veitingastað á 1. hæð í austurenda Fálkahússins og fjölga gluggum á  viðbyggingu á norðurhlið hússins á lóð nr. 1-3 við Hafnarstræti. Umsögn Húsafriðunarnefndar dags. 6. september 2001 og umsögn Árbæjarsafns dags. 4. september 2001 fylgja erindinu. Gjald kr. 4.100
23425 (02.35.230.4),http://gamli.rvk.is/vefur/owa/edutils.parse_page?nafn=BN023425,Hamravík 86,breyting úti og inni,Samþykkt.  Samræmist ákvæðum laga nr. 73/1997.,"Sótt er um leyfi til þess að stækka 1. hæð yfir í óuppfyllt sökkulrými, breyta útliti norður- og austurhliðar, færa inntök og lækka gólfkóta bílgeymslu nýsamþykkts einbýlishúss á lóð nr. 86 við Hamravík. Stærð: Stækkun íbúð 1. hæð 9,8 ferm., samtals 108,5 rúmm. Gjald kr. 4.100 + 4.449"
23665 (01.24.530.5),http://gamli.rvk.is/vefur/owa/edutils.parse_page?nafn=BN023665,Háteigsvegur 30,Br reyndarteikn,Frestað. Lagfæra skráningu.,Sótt er um leyfi fyrir breytingum á reyndarteikningum sem samþykktar voru 24. júlí 2001 og breytingar á skráningu hússins nr. 30 við Háteigsveg. Gjald kr. 4.100
22858 (04.32.180.1),http://gamli.rvk.is/vefur/owa/edutils.parse_page?nafn=BN022858,Hestháls 14 ,Br. innra skipulag og útlit (hætt við færslu á vöruskemmu - sjá athugasemdir í samantektarlista).,Samþykkt.  Samræmist ákvæðum laga nr. 73/1997.,"Sótt um Leyfi til þess að koma fyrir fundarherbergi og skjalageymslu á efri hæð,  tveimur gluggum á vesturhlið og innkeyrsludyrum á suðurhlið skrifstofubyggingarinnar (matshl. 01) á lóðinni nr. 14 við Hestháls.  Gjald kr. 4.100"
21622 (01.35.430.6),http://gamli.rvk.is/vefur/owa/edutils.parse_page?nafn=BN021622,Hjallavegur 15 ,anddyri fyrir 1.hæð og svalir fyrir 2.hæð. Klæðning að utan,Frestað. Lagfæra skráningu.,"Sótt er um leyfi til þess að byggja anddyri úr timbri að norðurhlið húss, koma fyrir svölum á suðurhlið annarrar hæðar og einangra og klæða að utan með hvítum stálpanel húsið á lóðinni nr. 15 við Hjallaveg. Málið var í kynningu frá 13. september til 12. október 2000. Engar athugasemdir bárust. Bréf hönnuðar dags. 1. ágúst 2000 og samþykki meðeigenda dags. 20. ágúst 2000 fylgja erindinu.  Stærð: Stækkun anddyri 8,53 ferm. og 20,7 rúmm. Gjald kr 4.100 + 849"
23603,http://gamli.rvk.is/vefur/owa/edutils.parse_page?nafn=BN023603,Hólmsheiði B-18,"Hesthús, B-18",Samþykkt.  Samræmist ákvæðum laga nr. 73/1997. Frágangur á lóðamörkum verði gerður í samráði við lóðarhafa aðliggjandi lóða.,"Sótt er um leyfi til þess að byggja hesthús og hlöðu úr timbri og bárujárni á lóð nr. 18 við B-götu, Hólmsheiði. Stærð: Hesthús og hlaða samtals 177,7 ferm., 694 rúmm. Gjald kr. 4.100 + 28.454"
23688 (04.11.360.1),http://gamli.rvk.is/vefur/owa/edutils.parse_page?nafn=BN023688,Jónsgeisli 1-5,Raðhús m.3 íb. og innb. bílg.,Frestað. Vísað til athugasemda á umsóknarblaði.,"Sótt er um leyfi til þess að byggja tvílyft raðhús með þremur íbúðum og innbyggðum bílgeymslum allt úr forsteyptum einingum á lóð nr. 1-5 við Jónsgeisla. Stærð: Hús nr. 1 (matshluti 01) íbúð 1. hæð 77,6 ferm., 2. hæð 79,2 ferm., bílgeymsla 25,9 ferm., samtals 182,7 ferm., 594,3 rúmm. Hús nr. 3 (matshluti 02) og hús nr. 5 (matshluti 03) eru sömu stærðar og hús nr. 1. Samtals á lóð 548,1 ferm. 1782,9 rúmm.  Gjald kr. 4.100 + 73.099"
23646 (01.72.100.1),http://gamli.rvk.is/vefur/owa/edutils.parse_page?nafn=BN023646,Kringlan  4-12,"Rými 338, barnaland",Samþykkt.  Samræmist ákvæðum laga nr. 73/1997. Áskilin lokaúttekt byggingarfulltrúa. Áskilið samþykki Vinnueftirlits ríkisins. Áskilið samþykki heilbrigðiseftirlits. Sigurður Pálmi Ásbergsson vék af fund við afgreiðslu málsins,Sótt er um leyfi til þess að innrétta leiksvæði fyrir börn í rými 338 (áður Eldhúsið) á 3. hæð og á millipalli (4. hæð) Kringlunnar á lóð nr. 4-12 við Kringluna. Greinargerð VST vegna brunamála dags. 29. ágúst 2001 fylgir erindinu. Gjald kr. 4.100
23662 (01.34.320.1),http://gamli.rvk.is/vefur/owa/edutils.parse_page?nafn=BN023662,Laugarnesvegur 78-86,Reyndarteikn.,Frestað. Vísað til athugasemda á umsóknarblaði.,"Sótt er um leyfi fyrir núvernadi innra fyrirkomulagi í  húsum nr. 78,  80,  82,  84 og 86 (matshl. 01-05)  lóðinni nr. 78-86 við Laugarnesveg. Jafnframt er sótt um breytta skráningu þ.m.t. afmörkun séreignarýmis í kjallara matshl. 05. Gjald kr. 4.100"
23683 (01.24.000.5),http://gamli.rvk.is/vefur/owa/edutils.parse_page?nafn=BN023683,Laugavegur 105,"flóttaleið, nýjar dyr á útvegg",Frestað. Vísað til athugasemda á umsóknarblaði.,Sótt er um leyfi til að koma fyrir nýjum dyrum á austurhlið hússins nr. 105 við Laugaveg (Hlemmur 1-5).  Gjald kr. 4.100
20256 (01.15.380.1),http://gamli.rvk.is/vefur/owa/edutils.parse_page?nafn=BN020256,Lindargata 57-66,Stækkun eldhúss á 2. hæð,Samþykkt.  Samræmist ákvæðum laga nr. 73/1997. Áskilið samþykki heilbrigðiseftirlits.,Sótt er um leyfi til að breyta innra fyrirkomulagi við eldhús á annarri hæð í matshluta 01 á lóðinni nr. 57-66 við Lindargötu. Jafnframt er sótt um leyfi til að breyta notkun á hluta af geymslu 0205 og breyta skráningu hússins til samræmis við breytingarnar. Ennfremur verði dyrum á vesturvegg annarrar hæðar breytt lítillega.  Gjald kr. 2.500
23196 (02.87.700.6),http://gamli.rvk.is/vefur/owa/edutils.parse_page?nafn=BN023196,Logafold 62 ,Breyting inni/úti,Frestað. Vísað til athugasemda á umsóknarblaði.,"Sótt er um leyfi til þess að breyta gluggasetningu á öllum hliðum, breyta innra fyrirkomulagi  og taka í notkun óuppfyllt rými á fyrstu hæð hússins á lóðinni nr. 62 við Logafold. Á lóð er bílastæðum fjölgað úr þremur í fjögur. Bréf hönnuðar varðandi stækkun og skráningu hússins dags. 29. ágúst 2001 fylgir erindinu. Stærð: Stækkun 1. hæð (óútf. rými) 138,3 ferm. og 373,4 rúmm.  Gjald kr. 4.100 +15.309"
23678 (01.71.011.8),http://gamli.rvk.is/vefur/owa/edutils.parse_page?nafn=BN023678,Mávahlíð 35,Reyndarteikn. áður gerðar íb.,Frestað. Vísað til athugasemda á umsóknarblaði.,Sótt er um samþykki fyrir reyndarteikningum og áður gerðum íbúðum í kjallara og á rishæð hússins á lóðinni nr. 35 við Mávahlíð. Virðingargjörð dags. 20. janúar 1948 fylgir erindinu. Samþykki meðeigenda dags. 3. september 2001 fylgir erindinu. Skoðunarskýrsla byggingarfulltrúa (íb. í kjallara) dags. 10. september 2001 fylgir erindinu. Gjald kr. 4.100
23663 (01.41.300.5),http://gamli.rvk.is/vefur/owa/edutils.parse_page?nafn=BN023663,Njörvasund 20,Breyt. inni og úti,Frestað. Vísað til athugasemda á umsóknarblaði.,Sótt er um leyfi fyrir áður gerðum breytingum á innra fyrirkomulagi kjallara og áður gerðum útlitsbreytingum á húsinu á lóðinni nr. 20 við Njörvasund.  Samþykki meðlóðarhafa dags. 9. ágúst 2001 fylgir erindinu. Gjald kr 4.100
23336 (01.22.211.2),http://gamli.rvk.is/vefur/owa/edutils.parse_page?nafn=BN023336,Rauðarárstígur 11,reyndarteikningar,Frestað. Vísað til athugasemda á umsóknarblaði.,"Sótt er um leyfi fyrir áður gerðum breytingum á fyrirkomulagi og skráningu hússins nr. 11 við Rauðarárstíg, vegna eignaskipta. Jafnframt er sótt um afmörkun tveggja séreigna í kjallara sem ekki hafa verið samþykktar áður.  Gjald kr. 4.100"
23655 (01.29.230.5),http://gamli.rvk.is/vefur/owa/edutils.parse_page?nafn=BN023655,Síðumúli 2,fjölgun eigna 2. hæð,Frestað. Vísað til athugasemda á umsóknarblaði.,Sótt er um leyfi til að breyta innra fyrirkomulagi og fjölga eignum á annarri hæð hússins nr. 2 við Síðumúla. Gjald kr. 4.100
18298 (01.29.510.7),http://gamli.rvk.is/vefur/owa/edutils.parse_page?nafn=BN018298,Síðumúli 27,Klæðning og reyndart.,Samþykkt.  Samræmist ákvæðum laga nr. 73/1997.,"Sótt er um leyfi til þess að klæða hús nr. 27 með álpanelklæðningu, breyta þakkanti og byggja skyggni yfir inngangi ásamt samþykki fyrir áður gerðum dyrum á norðurgafli 1. hæðar, fyrir glugga á norðurgafli 2. og 3. hæðar ásamt fleiri breytingum á útliti og fyrir innra skipulagi á öllum þremur hæðum hússins nr. 27 á lóðinni nr. 27 við Síðumúla. Bréf hönnuðar varðandi bílastæði dags. 29. júní 1999,  umsögn Borgarskipulags dags. 27. júlí 1999, samþykki meðlóðarhafa (á teikningu) og ástandsskýrsla útveggja dags. 10. júlí 2001 fylgja erindinu. Gjald kr. 2.500"
23601 (01.25.520.8),http://gamli.rvk.is/vefur/owa/edutils.parse_page?nafn=BN023601,Skipholt 70,stækkun veitingastaðar,Samþykkt.  Samræmist ákvæðum laga nr. 73/1997. Áskilið samþykki heilbrigðiseftirlits.,Sótt er um leyfi til að stækka veitingastað í norðurhluta  fyrstu hæðar hússins nr. 70 við Skipholt og breyta skráningu. Gjald kr. 4.100
22939 (01.18.224.2),http://gamli.rvk.is/vefur/owa/edutils.parse_page?nafn=BN022939,Skólavörðustígur 25 ,innri br.,Samþykkt.  Samræmist ákvæðum laga nr. 73/1997.,"Sótt er um leyfi til þess að breyta innra fyrirkomulagi og skráningu matshluta 01 á lóðinni nr. 25 við Skólavörðustíg. Matshlutinn verður skráður sem ein eign en er nú skráður sem skrifstofa og tvær íbúðir.  Jafnframt er sótt um leyfi til þess að breyta nöfnum matshluta á lóðinni þannig að matshluti 01 verði kallaður Skólavörðustígur 25 og matshluti 02 verði kallaður Skólavörðustígur 25A. Bréf hönnuðar dags. 9. apríl 2001, umsögn Árbæjarsafns dags. 24. apríl 2001 og umsögn Húsafriðunarnefndar ríkisins dags. 23. apríl 2001 fylgja erindinu. Samþykki eiganda matshl. 02 á lóðinni dags. 2. júlí 2001 fylgir erindinu. Gjald kr. 4.100"
23686 (01.23.210.1),http://gamli.rvk.is/vefur/owa/edutils.parse_page?nafn=BN023686,Sóltún 24-26,skipulagsbreytingar á lóð,Frestað. Vísað til athugasemda á umsóknarblaði. Málinu vísað til umsagnar Borgarskipulags.,Sótt er um leyfi til þess að hafa útkeyrslu frá norðausturhorni lóðar og breyta skipulagi lóðar við norðurhlið skrifstofu-  og verslunarhússins á lóð nr. 24-26 við Sóltún. Bréf hönnðar dags. 23. ágúst 2001 fylgir erindinu. Gjald kr. 4.100
23676 (01.13.451.1),http://gamli.rvk.is/vefur/owa/edutils.parse_page?nafn=BN023676,Sólvallagata 70,br. á bakhúsi,Frestað. Málinu vísað til Borgarskipulags til ákvörðunar um grenndarkynningu. Vísað er til uppdráttar A100 dags. ágúst 2001.,Sótt er um leyfi til að breyta innra fyrirkomulagi í bakhúsi (matshl. 02) á lóðinni nr. 70 við Sólvallagötu. Jafnframt er sótt um leyfi til að koma fyrir dyrum á norðurvegg og tengja þannig húsið við bakhús (matshl. 03) á lóðinni nr. 31B við Framnesveg. Erindinu fylgja eftir atvikum sömu gögn og erindi nr. 23607 varðandi Framnesveg 31B. Gjald kr. 4.100
23003 (01.80.300.2),http://gamli.rvk.is/vefur/owa/edutils.parse_page?nafn=BN023003,Stóragerði 28-32,br.á innra skipul.,Frestað. Vísað til athugasemda eldvarnaeftirlits.,Sótt er um samþykki fyrir breyttum uppdráttum af bílgeymslum og kjallara vegna gerðar eignaskiptayfirlýsingar á lóð nr. 28-32 við Stóragerði. Gjald kr. 4.100
23615 (01.14.220.1),http://gamli.rvk.is/vefur/owa/edutils.parse_page?nafn=BN023615,Suðurgata 35,Hækkun á vegg,Frestað. Með vísan til umsagnar gatnamálastjóra.,Sótt er um leyfi til þess að byggja timburvegg innan á núverandi steinsteyptann vegg að Skothúsvegi þannig að veggur hækki um 70 sm og reisa 180 sm skjólvegg inni á lóð nr. 35 við Suðurgötu. Umsögn gatnamálastjóra dags. 3. september 2001 fylgir erindinu. Gjald kr. 4.100
23694 (01.26.300.4),http://gamli.rvk.is/vefur/owa/edutils.parse_page?nafn=BN023694,Suðurlandsbr. 12,br. 2. hæð o.fl.,Frestað. Vísað til athugasemda á umsóknarblaði.,"Sótt er um leyfi til þess að breyta innra skipulagi 2. hæðar bak- og framhúss, breyta opum frá bakhúsi að bílageymlu og samþykki fyrir  breyttum þakkúplum á bakhúsi og tæknirýmum að suðurhlið bakhúss á lóð nr. 12 við Suðurlandsbraut. Greinagerð um brunavarnir frá VSI endurskoðuð 20. ágúst 2001 fylgir erindinu. Gjald kr. 4.100"
23690 (01.21.610.1),http://gamli.rvk.is/vefur/owa/edutils.parse_page?nafn=BN023690,Sætún 1,Veggskilti,Samþykkt.  Samræmist ákvæðum laga nr. 73/1997.,"Sótt er um leyfi til að koma fyrir þremur skiltum á vesturhlið og þremur á austurhlið hússins nr. 1 við Sæbraut. Skiltin verði flóðlýst og hvert um sig innan við 1,5 ferm. að stærð. Gjald kr. 4.100"
23533 (01.15.110.3),http://gamli.rvk.is/vefur/owa/edutils.parse_page?nafn=BN023533,Sölvhólsgata 10,Niðurrif.,Samþykkt.  Samræmist ákvæðum laga nr. 73/1997.,"Sótt er um leyfi til þess að flytja eða rífa húsið nr. 10 við Sölvhólsgötu. (Landnr. 100977, fastanr. 200-2984) Bréf Framkvæmdasýslu ríkisins dags. 30. júlí 2001 og umsögn ÁRbæjarsafns dags. ?  fylgja erindinu. Gjald kr. 4.100"
22861 (01.55.322.1),http://gamli.rvk.is/vefur/owa/edutils.parse_page?nafn=BN022861,Tómasarhagi 16B,Viðbygging.,Frestað. Vantar mæliblað.,"Að lokinni grenndarkynningu á óverulegri breytingu á deiliskipulagi frá 21. júní til 20 júli 2001 og afgreiðslu skipulags- og byggingarnefndar 25. júlí 2001, er sótt er um leyfi til þess að byggja einnar hæðar timburviðbyggingu að austurhlið hússins á lóðinni nr. 16B við Tómasarhaga. Einnig er sótt um leyfi til þess að rífa að hluta gamalt hesthús á lóðinni. Umsögn Húsafriðunarnefndar ríkisins dags. 11. apríl 2001, umsögn Árbæjarsafns dags. 11. apríl 2001 og útskrift úr gerðabók skipulags- og umferðarnefndar frá 25. júlí 2001 fylgja erindinu. Stærð: Viðbygging 80 ferm. og 311,3 rúmm. Niðurrif á hesthúsi 20,0 ferm. og 45,0 rúmm. Gjald kr. 4.100 + 12.763"
23698 (04.13.530.1),http://gamli.rvk.is/vefur/owa/edutils.parse_page?nafn=BN023698,Þorláksgeisli 38-42,raðhús,Frestað. Vísað til athugasemda á umsóknarblaði.,"Sótt er um leyfi til þess að byggja raðhús með þremur íbúðum og þremur innbyggðum bílgeymslum á lóðinni nr. 38-42 við Þorláksgeisla. Húsið er tvílyft, neðri hæðin er steinsteypt en efri hæðin úr timburgrind sem klædd er utan með bárustáli og viðarklæðningu. Stærð: Hús nr. 38 (matshl. 01): Íbúð 173,2 ferm., bílgeymsla 30,8 ferm. Matshlutinn er 598,8 rúmm. Hús nr. 40 (matshl. 02): Íbúð 160,1ferm., bílgeymsla 30,2 ferm. Matshlutinn er 559,5 rúmm. Hús nr. 42 (matshl. 03): Íbúð 172,1 ferm., bílgeymsla 30,4 ferm. Matshlutinn er 594,5 rúmm. Alls samtals 596,8 ferm. og 1752,8 rúmm. Gjald kr. 4.100 + 71.865"
23697 (04.13.530.2),http://gamli.rvk.is/vefur/owa/edutils.parse_page?nafn=BN023697,Þorláksgeisli 44-50,raðhús,Frestað. Vísað til athugasemda á umsóknarblaði.,"Sótt er um leyfi til þess að byggja raðhús með fjórum íbúðum og fjórum innbyggðum bílgeymslum á lóðinni nr. 44-50 við Þorláksgeisla. Húsið er tvílyft, neðri hæðin er steinsteypt en efri hæðin úr timburgrind sem klædd er utan með bárustáli og viðarklæðningu. Stærð: Hús nr. 44 (matshl. 01): Íbúð 173,8 ferm., bílgeymsla 31,1 ferm. Matshlutinn er 600,0 rúmm. Hús nr. 46 (matshl. 02): Íbúð 161,1 ferm., bílgeymsla 30,4 ferm. Matshlutinn er 563,1 rúmm. Hús nr. 48 (matshl. 03): Íbúð 160,3 ferm., bílgeymsla 31,6 ferm. Matshlutinn er 564,4 rúmm. Hús nr. 50 (matshl. 04): Íbúð 171,3 ferm., bílgeymsla 31,6 ferm. Matshlutinn er 595,8 rúmm. Alls samtals 791,2 ferm. og 2323,3 rúmm. Gjald kr. 4.100 + 95.255"
23696 (04.13.560.4),http://gamli.rvk.is/vefur/owa/edutils.parse_page?nafn=BN023696,Þorláksgeisli 98-102,raðhús,Frestað. Vísað til athugasemda á umsóknarblaði.,"Sótt er um leyfi til þess að byggja raðhús með þremur íbúðum og þremur innbyggðum bílgeymslum á lóðinni nr. 98-102 við Þorláksgeisla. Húsið er tvílyft, neðri hæðin er steinsteypt en efri hæðin úr timburgrind sem klædd er utan með bárustáli og viðarklæðningu. Stærð: Hús nr. 98 (matshl. 01): Íbúð 173,2 ferm., bílgeymsla 30,8 ferm. Matshlutinn er 598,8 rúmm. Hús nr. 100 (matshl. 02): Íbúð 160,1ferm., bílgeymsla 30,2 ferm. Matshlutinn er 559,5 rúmm. Hús nr. 102 (matshl. 03): Íbúð 171,0 ferm., bílgeymsla 31,1 ferm. Matshlutinn er 593,4 rúmm. Alls samtals 596,4 ferm. og 1751,7 rúmm. Gjald kr. 4.100 + 71.820"
23201 (01.18.131.1),http://gamli.rvk.is/vefur/owa/edutils.parse_page?nafn=BN023201,Þórsgata 29 ,br. á þakglugga,Samþykkt.  Samræmist ákvæðum laga nr. 73/1997.,Sótt er um leyfi til þess að breyta þakglugga á suðurhlið hússins á lóðinni nr. 29 við Þórsgötu. Breytingin felur í sér lokun glerflatar á stórum hluta Gjald kr. 4.100
23611 (01.54.330.3),http://gamli.rvk.is/vefur/owa/edutils.parse_page?nafn=BN023611,Ægisíða 78,Færa hús í uppr. horf (3 íbúðir),Samþykkt.  Samræmist ákvæðum laga nr. 73/1997.,"Sótt er um leyfi til þess að skipta húsinu upp í þrjár íbúðir, áður gerð íbúð í kjallara , íbúð á 1. hæð og íbúð á 2. og 3. hæð hússins á lóð nr. 78 við Ægisgötu. Bréf umsækjanda dags. 3. og 5. september 2001og virðingargjörð dags. 5. mars 1954 fylgja erindinu. Gjald kr. 4.100"
23651 (01.19.620.2),http://gamli.rvk.is/vefur/owa/edutils.parse_page?nafn=BN023651,Sjafnargata 4,Fella tré,Synjað. Með vísan til umsagnar garðyrkjustjóra.,Sótt er um leyfi til þess að fella tré á lóðinni nr. 4 við Sjafnargötu. Umsögn garðyrkjustjóra dags. 4. september 2001 fylgir erindinu.
23652 (01.55.320.5),http://gamli.rvk.is/vefur/owa/edutils.parse_page?nafn=BN023652,Tómasarhagi 20,Fella tré,"Synjað um að fella hlyn, erindið samþykkt að öðru leiti með vísan til umsagnar garðyrkjustjóra.",Sótt er um leyfi til þess að fella tré á lóðinni nr. 20 við Tómasarhaga. Umsögn garðyrkjustjóra dags.  4. september 2001 fylgir erindinu.
23685 (01.18.111.6),http://gamli.rvk.is/vefur/owa/edutils.parse_page?nafn=BN023685,Þórsgata 1,Stærðir ,Samþykkt.  Samræmist ákvæðum laga nr. 73/1997.,"Á afgreiðslufundi byggingarfulltrúa þann 28. ágúst s.l., var samþykkt umsókn frá Hótel Óðinsvé hf., þar sem sótt var um leyfi til þess að lyfta mæni hússins nr. 1 við Þórsgötu og koma þar fyrir tveimur hótelherbergjum ofl., byggja þrjár hæðir ofaná tveggja hæða bakbyggingu og innrétta þrjú hótelherbergi. Vegna samþykktarinnar láðist að bóka stækkun sem er: 3. hæð 19,2 ferm., 4. hæð 19,2 ferm., 5. hæð 19,2 ferm., samtals 57,6 ferm., 372,9 rúmm."
23097 (01.14.021.2),http://gamli.rvk.is/vefur/owa/edutils.parse_page?nafn=BN023097,Austurstræti 5 ,Fsp. ofaná- og viðbygging,Jákvætt. Með vísað til umsagnar Borgarskipulags. Sjá ennfremur athugasemdir á umsóknarblaði.,"Spurt er hvort leyft yrði að byggja fimm hæðir ofan á einnar hæðar bygginu í húsagarði skrifstofuhúss Búnaðarbankans á lóðinni nr. 5 við Austurstræti. Hver hæð viðbyggingarinnar yrði skv. teikningum 62,2 ferm. Stækkun hússins yrði því um 311 fermetrar. Umsögn Borgarskipulags dags. 3. september 2001 fylgir erindinu."
23680 (01.13.911.4),http://gamli.rvk.is/vefur/owa/edutils.parse_page?nafn=BN023680,Ásvallagata 40,(fsp). Dyr út í garð.,Frestað. Ekki er hægt að taka afstöðu til erindisins fyrr en afstaða meðeigenda liggur fyrir.,Spurt er hvort leyft yrði að koma fyrir dyrum úr stofu út í garð á suðurhlið hússins nr. 40 við Ásvallagötu.
23692 (01.19.640.8),http://gamli.rvk.is/vefur/owa/edutils.parse_page?nafn=BN023692,Bergstaðastræti 79,(fsp) Breyta gluggum,Jákvætt. Að uppfylltum skilyrðum.,Spurt er hvort leyft yrði að breyta gluggum viðbyggingar til samræmis við glugga eldri hluta einbýlishússins á lóð nr. 79 við Bergstaðastræti.
23658 (04.67.330.3),http://gamli.rvk.is/vefur/owa/edutils.parse_page?nafn=BN023658,Hraunberg 11,(fsp) br. í íbúð,Neikvætt. Samræmist ekki skipulagsskilmálum.,Spurt er hvort leyft yrði að innrétta íbúð í stað verkstæðis í húsi ætluðu atvinnustarfsemi (matshluta 02) á lóð nr. 11 við Hraunberg.
23569 (01.16.240.1),http://gamli.rvk.is/vefur/owa/edutils.parse_page?nafn=BN023569,Hringbraut 50/ Brávallagata 30,(fsp) Tengigangur,Jákvætt. Með vísan til umsagnar Borgarskipulags.,Spurt er hvort leyft yrði að tengja húsin nr. 50 við Hringbraut (Dvalar og hjúkrunarheimilið Grund) og húsið nr. 30 við Brávallagötu (Litla Grund) með gangi sem yrði í nokkurri hæð yfir Brávallagötu. Umsögn Borgarskipulags dags. 10. september 2001 fylgir erindinu.
23598 (01.80.241.0),http://gamli.rvk.is/vefur/owa/edutils.parse_page?nafn=BN023598,Hvammsgerði 14,(fsp) viðbygging,Jákvætt. Með vísan til umsagnar Borgarskipulags.,Spurt er hvort leyft yrði að byggja við langhliðar hússins nr. 14 við Hvammsgerði að mestu í samræmi við meðfylgjandi uppdrætti. Umsögn Borgarskipulags dags. 10. september 2001 fylgir erindinu.
22696 (04.13.520.1),http://gamli.rvk.is/vefur/owa/edutils.parse_page?nafn=BN022696,Kirkjustétt 15-21,(fsp) Fjölbýlishús m 22 íbúðum,Jákvætt. Að uppfylltum skilyrðum og með vísan til athugasemda á fyrirspurnarblaði.,"Að lokinni grenndarkynningu á óverulegri breytingu á deiliskipulagi frá 28. júní til 14. júlí 2001 og afgreiðslu skipulags- og byggingarnefndar 25. júlí 2001, er spurt hvort leyft yrði að byggja fjölbýlishús að mestu á þremur hæðum auk kjallara með 22 íbúðum á lóðinni nr. 15-21 við Kirkjustétt, þar sem skipulag lóðar og fyrirkomulag bygginga væri ekki í samræmi við deiliskipulag sbr. meðfylgjandi uppdrætti dags. feb. 2001. Útskrift úr gerðabók skipulags- og byggingarnefndar frá 25. júlí 2001 fylgir erindinu."
23451 (01.15.150.6),http://gamli.rvk.is/vefur/owa/edutils.parse_page?nafn=BN023451,Klapparstígur 18,"(fsp)Skyggni, svalskýli, svalir og kvistur",Jákvætt. Með vísan til umsagnar Borgarskipulags.,"Spurt er hvort leyft yrði að setja upp skyggni yfir hluta svala á 2. hæð, stækka 2. hæð um ca 1,5 ferm., byggja svalaskýli yfir hluta svala 3. og 4. hæðar, framlengja þak rislofts yfir svalir 4. hæðar, byggja nýjar svalir og kvist á rislofti (5. hæð) hússins á lóð nr. 18 við Klapparstíg. Bréf hönnuðar dags. 3. júlí 2001 og umsögn Borgarskipulags dags. 7. september 2001 fylgja erindinu."
19820 (00.04.000.4 01),http://gamli.rvk.is/vefur/owa/edutils.parse_page?nafn=BN019820,Kollafjörður 125711 - Arnarhóll,(fsp) Kolbeinsstaðir í Kollafirði,Frestað. Málinu vísað til umsagnar Borgarskipulags sbr. fyrri vísun.,Spurt er hvort leyft verði að breyta sumarbústað við Kolbeinsstaði í Kollafirði í heils árs íbúðarhús. Bréf fyrirspyrjanda dags. 3. september 2001 fylgir erindinu.
23369 (04.06.130.2),http://gamli.rvk.is/vefur/owa/edutils.parse_page?nafn=BN023369,Smiðshöfði 8,(fsp) Gistiheimili,Jákvætt. Að uppfylltum skilyrðum. Ennfremur er vísan til athugasemda á umsóknarblaði.,Spurt er hvort leyft yrði að koma fyrir gistiheimili á efri hæð hússins nr. 8 við Smiðshöfða að mestu í samræmi við meðfylgjandi teikningu. Útskrift úr gerðabók embættisafgreiðslufundar skipulagsstjóra  frá 10. ágúst 2001 fylgir erindinu.
23660 (01.71.530.6),http://gamli.rvk.is/vefur/owa/edutils.parse_page?nafn=BN023660,Stigahlíð 48,(fsp.) tvö bílast.,Frestað. Málinu vísað til umsagnar gatnamálastjóra.,Spurt er hvort leyft yrði að koma fyrir tveimur viðbótarbílastæðum á vesturhlið lóðarinnar nr. 48 við Stigahlíð.
23693 (04.08.180.1),http://gamli.rvk.is/vefur/owa/edutils.parse_page?nafn=BN023693,Stórhöfði 17,(fsp) veitingahús á 2.hæð,Jákvætt. Að uppfylltum skilyrðum.,Spurt er hvort leyft yrði að koma fyrir veitingastað  í norðurhluta annarrar hæðar hússins nr. 17 við Stórhöfða.
23695 (01.14.041.8),http://gamli.rvk.is/vefur/owa/edutils.parse_page?nafn=BN023695,Austurv Póstur og Sím ,(fsp) veitingahús,Frestað. Málinu vísað til umsagnar Borgarskipulags. Ennfremur er vísað til athugasemda á umsóknarblaði.,Spurt er hvort leyft yrði að innrétta veitingastað á fyrstu hæð hússins nr. 2 við Thorvaldsenstræti. Í húsinu var áður mötuneyti Landssímans.
23674 (01.33.770.1),http://gamli.rvk.is/vefur/owa/edutils.parse_page?nafn=BN023674,Vatnagarðar 10,(fsp). Vegna stækkunar,Frestað. Málinu vísað til umsagnar Borgarskipulags.,Spurt er hvort leyft yrði að byggja við húsið nr. 10 við Vatnagarða til suðurs að mestu í samræmi við meðfylgjandi uppdrætti.
