nr,url,heimilisfang,tegund,nidurstada,spurning
24030 (01.14.050.1),http://gamli.rvk.is/vefur/owa/edutils.parse_page?nafn=BN024030,Austurstr. 16-Póst. 7,veitingast á 5. hæð,Frestað. Vísað til athugasemda eldvarnaeftirlits.,Sótt er um leyfi til að breyta innra fyrirkomulagi og koma fyrir funda- og veitingasölum fyrir allt að 150 manns á 5.  hæð sem viðbót við rekstur veitingastaðar á 1. hæð hússins nr. 16 við Austurstræti.  Erindinu fylgir bréf húseiganda dags. 29. okt. 20001 og bréf leigutaka dags. sama dag. Gjald kr. 4.100
24086 (01.14.041.8),http://gamli.rvk.is/vefur/owa/edutils.parse_page?nafn=BN024086,Austurvöllur P&S,breytingar inni,Frestað. Vísað til athugasemda á umsóknarblaði.,"Sótt er um leyfi til þess að breyta innra fyrirkomulagi í húsinu Thorvaldsenstræti 2 á lóðinni Austurvöllur Póstur & Sími. Starfsmannaaðstaða veitingastaðar er færð úr kjallara og upp á 2. hæð hússins, einnig er salerni fatlaðra á fyrstu hæð breytt. Bréf hönnuðar dags. 18. nóvember 2001 fylgir erindinu. Gjald kr. 4.100"
23751 (01.29.530.6),http://gamli.rvk.is/vefur/owa/edutils.parse_page?nafn=BN023751,Ármúli 44,Neyðarútgangur frá 3. hæð,Frestað. Vísað til athugasemda á umsóknarblaði. Helga Guðmundsdóttir vék af fundi við afgreiðslu málsins.,Sótt er um leyfi til þess að koma fyrir neyðarútgangi með stálpalli og stálstiga frá suðvesturhlið þriðju hæðar hússins á lóðinni nr. 44 við Ármúla. Samþykki meðeiganda dags. 8. nóvember 2001 fylgir erindinu. Gjald kr. 4.100
23221 (01.83.420.3),http://gamli.rvk.is/vefur/owa/edutils.parse_page?nafn=BN023221,Ásgarður  18-24,nr. 22-24 - íbúðir í stað verslunarrýmis,Frestað. Á milli funda.,"Sótt er um leyfi til að breyta verslunarhúsnæði á annarri hæð matshluta 03 á lóðinni nr. 18-22 við Ásgarð í þrjár sjálfstæðar íbúðir með geymslum á fyrstu hæð. Bréf Steinþórs Steingrímssonar dags. 27. maí 2001 og fundargerðir húsfélagsins Ásgarði 22-24 dags. 9. maí 2001, 21. maí 2001, bréf Öldu Viggósdóttur dags. 9. júlí 2001 og dags. 13. nóvember 2001 og bréf Jörgens Þ. Þráinssonar dags. 11. júlí 2001 og dags. 22. nóvember 2001 fylgja erindinu. Skjöl varðandi álit kærunefndar fjöleignarhúsamála móttekin  5. nóvember 2001 fylgja erindinu. Gjald kr. 4.100"
23851 (01.17.120.1),http://gamli.rvk.is/vefur/owa/edutils.parse_page?nafn=BN023851,Bankastræti 12,Viðbygging og brunastigi,Samþykkt.  Samræmist ákvæðum laga nr. 73/1997. Áskilið samþykki heilbrigðiseftirlits. Áskilin lokaúttekt byggingarfulltrúa.,"Sótt er um leyfi til þess að koma fyrir svölum með brunastiga og byggja viðbyggingu að suðurhlið þakhæðar veitingastaðar á lóðinni nr. 12 við Bankastræti. Gert er ráð fyrir að veitingastaðurinn geti eftir breytingu rúmað allt að 140 gesti, þ.e. 50 á fyrstu hæð og 90 á þakhæð. Umsögn Húsafriðunarnefndar ríkisins dags. 15. október 2001, umsögn Árbæjarsafns dags. 23. október 2001 og bréf hönnuðar dags. 23. október 2001 fylgja erindinu. Umboð eiganda (ódags.) fylgir erindinu. Stækkun: Viðbygging 2,3 ferm. og 4,1 rúmm. Gjald kr. 4.100 + 168"
24129 (02.40.420.4),http://gamli.rvk.is/vefur/owa/edutils.parse_page?nafn=BN024129,Barðastaðir 85,Breytingar,Frestað. Vísað til athugasemda á umsóknarblaði.,"Sótt er um leyfi til þess að koma fyrir geymslu í óuppfylltu sökkulrými undir bílgeymslu, hækka dyr á bílgeymslu um 20 cm (í 245 cm), fella niður gestasalerni og breyta gluggasetningu á austurhlið hússins á lóðinni nr. 85 við Barðastaði. Umboð lóðarhafa dags. 19. nóvember 2001 fylgir erindinu. Bréf burðarvirkishönnuðar og verðandi eigenda  dags. 6. nóvember 2001 fylgir erindinu. Stærð: Stækkun, geymsla í kjallara 45,8 ferm. og 114,5 rúmm Gjald kr. 4.100 + 4.695"
24085 (01.82.420.6),http://gamli.rvk.is/vefur/owa/edutils.parse_page?nafn=BN024085,Básendi 11,V. eignaskipta,Samþykkt.  Samræmist ákvæðum laga nr. 73/1997.,Sótt er um samþykki fyrir smávægilegum breytingum í húsinu vegna gerðar eignaskiptayfirlýsingar á lóð nr. 11 við Básenda. Samþykki meðeigenda (á teikningu) fylgir erindinu. Gjald kr. 4.100
24115 (01.21.810.3),http://gamli.rvk.is/vefur/owa/edutils.parse_page?nafn=BN024115,Borgartún 29,Br. á innra norðurhluta,Frestað. Vísað til athugasemda á umsóknarblaði.,"Sótt er um leyfi til að breyta innra fyrirkomulagi, útliti, afmörkun eignarhluta og skráningu norðurhluta hússins nr. 29 við Borgartún. Samþykki allra nema eins húseigenda dags. 10. okt. 2001 og ódags. samþykki eins eiganda fylgir erindinu.  Gjald kr. 4.100"
24151 (02.84.120.1),http://gamli.rvk.is/vefur/owa/edutils.parse_page?nafn=BN024151,Dalhús 2,Br. - aðgangshlið,Samþykkt.  Samræmist ákvæðum laga nr. 73/1997.,Sótt er um leyfi til þess að setja upp aðgangshlið í forsal Grafarvogssundlaugar á lóð nr. 2 við Dalhús. Bréf hönnuðar dags. 22. nóvember 2001 fylgir erindinu. Gjald kr. 4.100
23614 (02.84.120.1),http://gamli.rvk.is/vefur/owa/edutils.parse_page?nafn=BN023614,Dalhús 2,Girðing,Frestað. Ljúka þarf við breytingar á skipulagi í samræmi við bréf gatnamálastjóra dags. 15. nóvember 2001 og garðyrkjustjóra dags. 22. nóvember 2001 og skal umsækjandi gera grein fyrir breytingum svo hægt sé að breyta mæliblaði..,"Sótt er um leyfi til að girða lóð Ungmennafélagsins Fjölnis við Dalhús 2 með tveggja til þriggja metra hárri girðingu. Erindinu fylgir bréf hönnuða dags. 21. ágúst 2001, umsagnir garðyrkjustjóra dags. 4. september 2001 og dags. 22. nóvember 2001, umsagnir gatnamálastjóra dags. 15. október 2001 og 15. nóvember 2001. Gjald kr. 4.100"
23858 (04.94.860.1),http://gamli.rvk.is/vefur/owa/edutils.parse_page?nafn=BN023858,Engjasel 29-43,reyndarteikningar,Samþykkt.  Samræmist ákvæðum laga nr. 73/1997.,"Sótt er um samþykki fyrir áður gerðri stækkun kjallara yfir í sökkulrými húss nr. 31 og áður gerðum stigum upp á loft og samþykki fyrir nýtingu lofts (efri hluta þakhæðar) í húsi nr. 31 á lóð nr. 29-43 við Engjasel. Útskrift úr gerðabók embættisafgreiðslufundar skipulagsstjóra frá 19. október 2001 fylgir erindinu. Stærð: Áður gerð stækkun kjallara 78,8 ferm., efri hluti þakhæðar 55,4 ferm., samtals áður gerð stækkun 134,2 ferm., 212,8 rúmm. Gjald kr. 4.100 + 8.725"
23998 (01.36.650.1),http://gamli.rvk.is/vefur/owa/edutils.parse_page?nafn=BN023998,Engjateigur 7,"Stækkun kj, br. sorp bílast. ofl",Frestað. Vísað til athugasemda á umsóknarblaði. Málinu vísað til umsagnar Borgarskipulags vegna tæknirýmis á lóð.,"Sótt er um leyfi til að koma fyrir tæknirými neðanjarðar norðan við húsið nr. 7 við Engjateig. Jafnframt er sótt um leyfi til að breyta fyrirkomulagi sorpgeymslu, breyta geymslurými 0002 í kaffi- og matstofu með eldhúsi, koma fyrir geymslu í rými sem áður var sýnt sem uppfyllt sökklarými og fleiri tiheyrandi breytingar. Ennfremur er sótt um leyfi til að fella niður  áhvílandi kvöð um notkun og undanþágu frá almennum reglum um bílastæði fyrir rými 0002, sbr. samþ. borgarráðs 15. maí 2001, og undanþágu frá sömu reglum fyrir rými 0003 . Einnig er sótt um leyfi til að breyta fyrirkomulagi bílastæða og útliti hússins til samræmis við aðrar breytingar.  Fyrirspurn nr. 23866 er um leið dregin til baka. Erindinu fylgir umboð til handa umsækjanda dags. 30. okt. 2001, bréf borgarstjóra dags. 7. nóv. 2001 varðandi bílastæði o.fl., greinargerð vegna brunahönnunar endurskoðuð 15. okt. 2001. Stækkun: xx Gjald kr. 4.100 + xx"
24132 (01.62.--9.0),http://gamli.rvk.is/vefur/owa/edutils.parse_page?nafn=BN024132,Flugvöllur 106643,Tækjahús og fjarskiptamöstur,Frestað. Vísað til athugasemda á umsóknarblaði.,"Sótt er um leyfi til að koma fyrir um 2 metra háum og um 18 m löngum LLZ-loftnetum ásamt tilheyrandi tækjahúsum úr timbri (A) við austurenda flugbrautar 13-31 og við suðurenda flugbrautar 01-61 á Reykjavíkurflugvelli. Jafnframt er sótt um leyfi til að reisa tvö 12 m há möstur fyrir fjarskiptabúnað, annað skammt austan Fluggarða og hitt skammt vestan við suðurenda flugbrautar 01-61, ásamt tveimur tilheyrandi tækjahúsum úr timbri (B). Erindinu fylgir bréf umsækjanda dags. 16. okt. 2001. Stærðir: Tækjahús A  xx; tækjahús B  xx Gjald kr. 4.100 + xx"
23889 (04.06.020.3),http://gamli.rvk.is/vefur/owa/edutils.parse_page?nafn=BN023889,Funahöfði 10,Reyndarteikn. og br.,Frestað. Vísað til athugasemda á umsóknarblaði.,"Sótt er um samþykki fyrir áður gerðu millilofti, leyfi til þess að breyta útliti og skiptingu atvinnuhússins í tvær eignir á lóð nr. 10 við Funahöfða. Stærð: Áður gert milliloft 160,5 ferm.  Gjald kr. 4.100"
23977 (01.44.540.6),http://gamli.rvk.is/vefur/owa/edutils.parse_page?nafn=BN023977,Gnoðarvogur 78,"br. inni, ný íbúð 0101",Samþykkt.  Samræmist ákvæðum laga nr. 73/1997.,Sótt er um leyfi til þess að innrétta nýja íbúð sem skráð yrði 0101 garðmeginn á jarðhæð fjöleignahússins á lóð nr. 78 við Gnoðarvog. Samþykki meðeigenda (á teikningu) og umboð vegna umsækjanda fylgja erindinu. Gjald kr. 4.100
24072 (01.54.030.7),http://gamli.rvk.is/vefur/owa/edutils.parse_page?nafn=BN024072,Grenimelur 23,Áður gerð íb. í kj.,Frestað. Lagfæra skráningu.,Sótt er um samþykki fyrir áður gerðri íbúð í kjallara hússins á lóðinni nr. 23 við Grenimel. Einnig er sótt um samþykki fyrir nýrri skráningu matshluta 01 (hús) og 02 (bílskúr) á lóðinni. Bréf hönnuðar dags. 5. nóvember 2001 og samþykki meðeigenda dags. 3. nóvember 2001 fylgir erindinu. Skoðunarskýrsla byggingarfulltrúa dags. 1. nóvember 2001 fylgir erindinu. Afsalsbréf dags. 20 mars 1945 fylgir erindinu. Virðingargjörð dags. 26. apríl 1945 fylgir erindinu. Gjald kr. 4.100
24141 (01.46.110.2),http://gamli.rvk.is/vefur/owa/edutils.parse_page?nafn=BN024141,Grensásvegur 11,breyting úti og inni,Frestað. Vísað til athugasemda á umsóknarblaði.,Sótt er um leyfi til að breyta innra fyrirkomulagi fyrstu hæðar og útliti fyrstu hæðar til vesturs á húsinu nr. 11 við Grensásveg.  Gjald kr. 4.100
24116 (01.85.510.1),http://gamli.rvk.is/vefur/owa/edutils.parse_page?nafn=BN024116,Grundarland 2-8,nr. 4 - þak+sólstofa,Frestað. Vísað til athugasemda á umsóknarblaði að þeim uppfylltum verður málið sent Borgarskipulagi til ákvörðunar um grenndarkynningu.,"Sótt er um leyfi til þess að hækka og breyta þaki og byggja sólstofu við suðurhlið  hússins nr. 4 (matshl 02) á lóðinni nr. 2-8 við Grundarland. Stærð: Stækkun, sólstofa xx, þak xx Gjald kr 4.100 + xx"
24124 (01.41.140.1),http://gamli.rvk.is/vefur/owa/edutils.parse_page?nafn=BN024124,Hólmasund 4-20,breyting á sorpgeymslum,Frestað. Vísað til athugasemda á umsóknarblaði.,"Sótt er um leyfi til að koma fyrir sorptunnuskýlum úr steinsteypu og timbri á átta stöðum á lóðinni nr. 4-20 við Hólmasund. Erindinu fylgir bréf húsfélagsins dags. 12. nóv. 2001, fundargerð frá húsfundi 6. sept. 2001. Gjald kr. 4.100"
23807 (01.17.411.4),http://gamli.rvk.is/vefur/owa/edutils.parse_page?nafn=BN023807,Hverfisgata 108,Reyndarteikningar,Frestað. Vísað til athugasemda á umsóknarblaði.,"Sótt er um samþykki fyrir áður gerðri stækkun kjallara,  breytingum á innra skipulagi kjallara og fyrir afmörkun séreignar á 4. hæð vegna gerðar eignaskiptayfirlýsingar á lóð nr. 108 við Hverfisgötu. Ljósrit af afsali vegna eignar á 4. hæð innfærð 6. febrúar 1995 fylgir erindinu. Stærð: Áður gerð stækkun kjallara 29,7 ferm., 50,5 rúmm. Gjald kr. 4.100 + 2.071"
24137 (01.17.100.5),http://gamli.rvk.is/vefur/owa/edutils.parse_page?nafn=BN024137,Hverfisgata 18,"Br. inni, Alþjóðahús",Frestað. Vísað til athugasemda á umsóknarblaði. Málinu vísað til umsagnar Borgarskipulags. Málinu vísað til umsagnar gatnamálastjóra vegna bílastæða. Sigurður Pálmi Ásbergsson vék af fundi við afgreiðslu málsins.,"Sótt er um leyfi til þess að breyta innra skipulagi á öllum hæðum fyrir rekstur Alþjóðahúss með veitinga og fundaraðstöðu á 1. hæð, skrifstofum á 2. hæð, viðtalsherbergjum í risi og eldhúsi og tölvuveri í kjallara, sótt er um leyfi til þess að lækka gólf í hluta kjallara og byggja skábraut upp á pall við suðurhlið hússins á lóð nr. 18 við Hverfisgötu. Stærð: Rúmmálsaukning vegna kjallara xxx rúmm. Gjald kr. 4.100 + xxx"
22455 (01.17.300.3),http://gamli.rvk.is/vefur/owa/edutils.parse_page?nafn=BN022455,Hverfisgata 66A,reyndarteikningar,Synjað. Samræmist ekki ákvæðum byggingarreglugerðar.,"Sótt er um samþykki fyrir afmörkun séreignar í kjallara, áður gerðri dýpkun kjallara og samþykki fyrir áður gerðri íbúð á 1. hæð í matshluta 02 á lóð nr. 66A við Hverfisgötu. Ljósrit af þinglesnu skjali um skilyrði tengd samþykki fyrir kvistum dags. 18. mars 1960, virðingargjörð dags. 7. nóvember 1906, samþykki meðeiganda (á teikningu) fylgja erindinu. Stærð: Áður gerð hækkun salarhæðar kjallara xxx rúmm. Gjald kr. 4.100 + xxx"
24139 (01.73.030.2),http://gamli.rvk.is/vefur/owa/edutils.parse_page?nafn=BN024139,Hörgshlíð 22,bílgeymsla - stækkun,Frestað. Vísað til athugasemda á umsóknarblaði að þeim uppfylltum verður málið sent Borgarskipulagi til ákvörðunar um grenndarkynningu.,Sótt er um leyfi til þess að byggja við og tvöfalda bílgeymslu hússins á lóðinni nr. 22 við Hörgshlíð.  Stærð: Stækkun xx Gjald kr. 4.100 + xx
24114 (01.63.570.5),http://gamli.rvk.is/vefur/owa/edutils.parse_page?nafn=BN024114,Hörpugata 12,2. endurn. á byggingal. frá 1999,Frestað. Gera grein fyrir samþykki meðeigenda og lóðarhafa á Hörpugötu 10.,Sótt er um endurnýjun á byggingarleyfi fyrir bílgeymslu sem upphaflega var samþykkt 14. okt. 1999 á lóðinni nr. 12 við Hörpugötu. Stærð: xx Gjald kr. 4.100 + xx
24105 (04.11.360.4),http://gamli.rvk.is/vefur/owa/edutils.parse_page?nafn=BN024105,Jónsgeisli 7-9,parhús,Samþykkt.  Samræmist ákvæðum laga nr. 73/1997. Frágangur á lóðamörkum verði gerður í samráði við lóðarhafa aðliggjandi lóða.,"Sótt er um leyfi til þess að byggja tvílyft steinsteypt parhús að hluta klætt sedrusviði með tveimur innbyggðum bílgeymslum á lóðinni nr. 7-9 við Jónsgeisla.  Stærð: Nr. 7 (matshl. 01) 1. hæð íbúð 109,7 ferm., 2. hæð 87,7 ferm., bílgeymsla 29,3 ferm.  Nr. 9 (matshl. 02) 1. hæð íbúð 109,7 ferm., 2. hæð 87,7 ferm., bílgeymsla 29,3 ferm.  Samtals 453,4 ferm. og 1443,6 rúmm. Gjald kr. 4.100 + 59.188"
23906 (32.4-.--5.4),http://gamli.rvk.is/vefur/owa/edutils.parse_page?nafn=BN023906,Jörfagrund 46-52,fjölb.h. á 2 hæðum með 8 íb,Frestað. Vísað til athugasemda á umsóknarblaði.,"Sótt er um leyfi til að byggja tvílyft fjölbýlishús úr steinsteypu með svalagangi og samtals átta íbúðum á lóðinni nr. 46-52 við Jörfagrund. Stærðir: 1. hæð 372,7 ferm., 2. hæð 366,8 ferm., samtals 739 ferm. og 2245,9 rúmm. Gjald kr. 4.100 + 92.081"
23641 (04.13.220.1),http://gamli.rvk.is/vefur/owa/edutils.parse_page?nafn=BN023641,Kirkjustétt 2-6,verslunarhúsnæði,Frestað. Vísað til athugasemda á umsóknarblaði.,"Sótt er um leyfi til þess að byggja tvílyft verslunar- og þjónustuhúsnæði úr forsteyptum einingum með yfirbyggðri göngugötu á lóðinni nr. 2-6 við Kirkjustétt. Í norðvesturhorni lóðarinnar er sýnd fyrirhuguð aðstaða fyrir bensínafgreiðslu.  Skýrsla um brunahönnun dags. 15. október 2001 fylgir erindinu. Vottorð RB vegna holplatna dags. 20. júlí 2001 fylgir erindinu. Stærð: 1. hæð verslanir 2222,8 ferm., 2. hæð verslanir 788,0 ferm. Samtals 3010,8 ferm. og 11240,2 rúmm.  Gjald kr. 4.100 + 460.848"
24152 (04.11.440.1),http://gamli.rvk.is/vefur/owa/edutils.parse_page?nafn=BN024152,Kristnibraut 43-47,fjölbýlishús,Frestað. Vísað til athugasemda á umsóknarblaði.,"Sótt er um leyfi til þess að byggja tvö steinsteypt fjölbýlishús, matshluta 01 og 02, með samtals tuttugu og tveim íbúðum á lóðinni nr. 43-47 við Kristnibraut. Húsin eru bæði þriggja hæða, kjallari með tólf bílgeymslum er í matshluta 01. Stærð: xx Gjald kr. 4.100 + xx"
24078 (01.41.400.3),http://gamli.rvk.is/vefur/owa/edutils.parse_page?nafn=BN024078,Langholtsvegur 115,br. í fjölbýlishús,Frestað. Vísað til athugasemda á umsóknarblaði.,Sótt er um leyfi til þess að breyta skrifstofuhúsnæði á lóðinni nr. 115 við Langholtsveg í fjölbýlishús með fjórum íbúðum. Einnig er sótt um leyfi til þess að byggja tvær bílgeymslur að norðurhlið hússins. Bílgeymsla er á tveimur hæðum. Kaupsamningur dags. 16. júlí 2001 fylgir erindinu. Stærð: Stækkun bílgeymslur xx Gjald kr. 4.100 + xx
23997 (01.35.500.2),http://gamli.rvk.is/vefur/owa/edutils.parse_page?nafn=BN023997,Langholtsvegur 9,einbýlishús og bílskúr,Frestað. Vísað til athugasemda á umsóknarblaði að þeim uppfylltum verður málið sent Borgarskipulagi til ákvörðunar um grenndarkynningu.,"Sótt er um leyfi til að byggja tvílyft einbýlishús og bílgeymslu á lóðinni nr. 9 við Langholtsveg. Neðri hæð hússins og austur- og norðurveggur bílgeymslu verði úr steinsteypu en efri hæð og aðrir veggir bílgeymslu verði úr timbri. Jafnframt er sótt um leyfi til að rífa núverandi hús á lóðinni. Útskrift úr gerðabók embættisafgreiðslufundar skipulagsstjóra frá 16. nóvember 2001 fylgir erindinu. Núverandi hús: 49,4 ferm. og 167 rúmm. Stærðir: xx Gjald kr. 4.100 + xx"
24046 (01.34.920.9),http://gamli.rvk.is/vefur/owa/edutils.parse_page?nafn=BN024046,Laugarnesvegur 67,Dyr út í garð.,Frestað. Ákveðið að leita álits eiganda íbúðar 0101.,Sótt er um samþykki fyrir áður gerðri verönd og garðdyrum úr stofu kjallaraíbúðar á norðvesturhlið hússins nr. 67 við Laugarnesveg.  Bréf hönnuðar dags. 22. nóvember 2001 fylgir erindinu. Samþykki meðeigenda (vantar einn) fylgir erindinu. Fundargerð húsfundar dags. 2. október 2001 fylgir erindinu. Umsögn burðarvirkishönnuðar dags. 3. október 2001 fylgir erindinu. Gjald kr. 4.100
24125 (01.17.111.0 01),http://gamli.rvk.is/vefur/owa/edutils.parse_page?nafn=BN024125,Laugavegur 19,skyggni og súlur,Frestað. Málinu vísað til umsagnar gatnamálastjóra. Vísað til athugasemda á umsóknarblaði.,Sótt er um leyfi til þess að byggja skyggni úr trefjaplasti yfir inngang veitingastaðarins á lóðinni nr. 19 við Laugaveg. Skyggnið er borið uppi af tveimur súlum. Gjald kr. 4.100
24061 (02.35.670.4),http://gamli.rvk.is/vefur/owa/edutils.parse_page?nafn=BN024061,Ljósavík 56-60,Sótt um breytingar,Samþykkt.  Samræmist ákvæðum laga nr. 73/1997. Frágangur á lóðamörkum verði gerður í samráði við lóðarhafa aðliggjandi lóða. Áskilin lokaúttekt byggingarfulltrúa.,Sótt er um leyfi til þess að breyta stoðvegg og tröppum að bílgeymslum við norðvesturhorn fjölbýlishússins og breyta eignartenginu bílgeymslna á lóð nr. 56-60 við Ljósuvík. Jafnframt er lagt til að húsið verði framvegis nr. 56 og 58 við Ljósuvík. Gjald kr. 4.100
24120,http://gamli.rvk.is/vefur/owa/edutils.parse_page?nafn=BN024120,Mávahlíð 48,reyndarteikningar,Frestað. Vísað til athugasemda á umsóknarblaði.,"Sótt er um samþykki fyrir áður gerðum breytingum í kjallara húss og í bílskúr á lóðinni nr. 48 við Mávahlíð. Sólpalli við kjallaraíbúð og innra fyrirkomulagi kjallara er breytt og sýndur er veggur milli bílgeymsla í bílskúr. Kaupsamningar dags. 23. janúar 1997, 9. desember 1997 og 16. nóvember 2000 fylgja erindinu. Gjald kr. 4.100"
23990,http://gamli.rvk.is/vefur/owa/edutils.parse_page?nafn=BN023990,Miklabraut Shell 107286,"þakskilti, afgr.lúgur ofl.",Frestað. Ekki er hægt að samþykkja skilti á þaki.,"Sótt er um leyfi til að fjölga afgreiðslulúgum úr einni í þrjár, breyta útliti og koma fyrir þremur ljósaskiltum á þaki og fjórum á útveggi söluturnsins á lóð Skeljungs norðan Miklubrautar og austan Kringlumýrarbrautar. Skiltin verði samanlagt um 29 ferm. Gjald kr. 4.100"
23345 (01.18.220.9),http://gamli.rvk.is/vefur/owa/edutils.parse_page?nafn=BN023345,Njálsgata 10,reyndarteikningar,Frestað. Lagfæra skráningu.,"Sótt er um samþykki fyrir reyndarteikningum og áður gerðri íbúð á þriðju hæð hússins á lóðinni nr. 10 við Njálsgötu vegna eignaskiptayfirlýsingar. Innra skipulagi er breytt á öllum hæðum, gerð er grein fyrir notkun rishæðar og útlit suðurhliðar er breytt (kvistur, gluggasetning og dyr á fyrstu hæð). Sameignarsamningur dags. 29. október 1958,  íbúðarskoðun byggingarfulltrúa dags. 26. september 2001 og bréf LAG dags. 21. nóvember 2001 fylgja erindinu. Stærð: Stækkun kvistur 1,1 rúmm. Gjald kr. 4.100 + 46"
23886 (01.44.120.6),http://gamli.rvk.is/vefur/owa/edutils.parse_page?nafn=BN023886,Nökkvavogur 32,reyndarteikningar,Frestað. Lagfæra skráningu.,"Sótt er um samþykki fyrir reyndarteikningum og leyfi til þess að afmarka séreignarrými í rishæð hússins nr. 32 við Nökkvavog. Þakhæð hússins er breytt og sýndur er áður gerður kvistur á suðurhlið. Sýnd eru tvö bílastæði á lóðinni. Jafnframt er erindi nr. 23740 dregið til baka. Erindinu fylgir veðbókarvottorð dags. 13. sept. 2001. Samþykki meðeigenda (ódags.) fylgir erindinu. Samþykki nágranna á lóðum nr. 30 og 34 við Nökkvavog fylgir erindinu. Stærð: Stækkun, kvistur 3,0 ferm. og 28,5 rúmm.  Gjald kr. 4.100 + 1.169"
24134 (01.24.310.6),http://gamli.rvk.is/vefur/owa/edutils.parse_page?nafn=BN024134,Rauðarárstígur 24,reyndarteikningar,Frestað. Vísað til athugasemda á umsóknarblaði.,Sótt er um samþykki fyrir áður gerðum breytingum á öllum hæðum vegna gerðar eignaskiptayfirlýsingar á lóð nr. 24 við Rauðarárstíg. Gjald kr. 4.100
24126 (01.22.211.0),http://gamli.rvk.is/vefur/owa/edutils.parse_page?nafn=BN024126,Rauðarárstígur 7,br. reyndarteikningar,Samþykkt.  Samræmist ákvæðum laga nr. 73/1997.,Sótt er um leyfi til að fjarlægja sturtu í sameign í kjallara hússins nr. 7 við Rauðarárstíg. Erindinu fylgir fundargerð húsfundar frá 16. okt. 2001 og viðveruskrá sama fundar. Gjald kr. 4.100
23883 (01.29.540.7 01),http://gamli.rvk.is/vefur/owa/edutils.parse_page?nafn=BN023883,Síðumúli 37,breyting inni og úti,Frestað. Lagfæra skráningu.,"Sótt er um leyfi til þess að breyta innra skipulagi 3. hæðar Síðumúla 37 fyrir Bridgesamband Íslands, setja brunastiga við norðausturhorn hússins og sótt um að felld verði niður kvöð um umferð sem er að hluta undir núverandi byggingu nr. 37 á lóð nr. 37-39 við Síðumúla og 16A við Grensásveg. Samþykki meðeigenda dags. 2. október 2001, samþykki meðlóðarhafa dags. 30. október 2001, bréf hönnuðar dags. 1. október 2001 og útskrift úr gerðabók embættisafgreiðslufundar skipulagsstjóra frá 9. nóvember 2001 fylgja erindinu. Gjald kr. 4.100"
24070 (01.67.600.3),http://gamli.rvk.is/vefur/owa/edutils.parse_page?nafn=BN024070,Skildinganes 40,"Br. hæð, gluggum o.fl. ",Frestað. Vísað til athugasemda á umsóknarblaði.,"Sótt er um leyfi til þess að hækka vegg á mörkum byggingareits að götu, hækka lítillega gólfkóta og breyta gluggum nýsamþykkts einbýlishúss á lóð nr. 40 við Skildinganes. Gjald kr. 4.100"
24130 (01.67.421.1),http://gamli.rvk.is/vefur/owa/edutils.parse_page?nafn=BN024130,Skildinganes 47,Áður gerð viðbygging,Frestað. Vísað til athugasemda á umsóknarblaði.,Sótt er um samþykki fyrir áður gerðu anddyri úr steinsteypu og timbri á suðurhlið hússins á lóðinni nr. 47 við Skildinganes. Stærð: Anddyri xx Gjald kr. 4.100 + xx
24040 (01.67.421.2),http://gamli.rvk.is/vefur/owa/edutils.parse_page?nafn=BN024040,Skildinganes 49,einbýlishús ,Samþykkt.  Samræmist ákvæðum laga nr. 73/1997. Frágangur á lóðamörkum verði gerður í samráði við lóðarhafa aðliggjandi lóða.,"Að lokinni afgreiðslu skipulags- og byggingarnefndar 14. nóv. 2001 er sótt um leyfi til þess að byggja einbýlishús úr steinsteypu í einangrunamótum með innbyggðri tvöfaldri bílageymslu á lóðinni nr. 49 við Skildinganes. Húsið verði að hluta tvílyft og neðri hæð stölluð. Útveggir verði pússaðir og málaðir í ljósum lit og dekkri lit í þynningum. Byggingarleyfi frá 3. apríl 2001 var fellt úr gildi þann 14. nóvember 2001. Erindinu fylgir bréf hönnuðar dags. 30. okt. 2001. Stærð: Bílgeymsla 39,9 ferm, 1. hæð 188,9 ferm. 2. hæð 83,7 ferm. Samtals 312,5 ferm. og 1077,4 rúmm. Gjald kr. 4.100 + 44.173"
23816 (01.25.400.1),http://gamli.rvk.is/vefur/owa/edutils.parse_page?nafn=BN023816,Skipholt 50A,Reyn.t. og skipting eigna,Frestað. Lagfæra skráningu.,"Sótt er um leyfi fyrir áður gerðar breytingar á innra fyrirkomulagi og breyttri skráningu hússins nr. 50A við Skipholt. Á meðal breytinga er að íbúð á annarri hæð hefur verið breytt í atvinnuhúsnæði. Jafnframt er sótt um leyfi til  að skipta eign á annari hæð í tvær sjálfstæðar eignir. Erindinu fylgir bréf hönnuðar dags. 12. okt. s.l., samþykki lóðarhafa dags. 12. okt. s.l. Gjald kr. 4.100"
24131 (01.18.224.3),http://gamli.rvk.is/vefur/owa/edutils.parse_page?nafn=BN024131,Skólavörðustígur 23,Reyndarteikn.,Frestað. Vísað til athugasemda á umsóknarblaði.,Sótt er um samþykki fyrir reyndarteikningum af húsinu á lóðinni nr. 23 við Skólavörðustíg. Innra fyrirkomulagi er breytt á öllum hæðum hússins. Gjald kr. 4.100
24136 (01.17.111.7),http://gamli.rvk.is/vefur/owa/edutils.parse_page?nafn=BN024136,Smiðjustígur 6,reyndarteikningar,Frestað. Vísað til athugasemda eldvarnaeftirlits.,Sótt er um samþykki fyrir núverandi innréttingu á 1. og 2. hæð Grandrokk á lóð nr. 6 við Smiðjustíg. Gjald kr. 4.100
23969 (01.71.400.2),http://gamli.rvk.is/vefur/owa/edutils.parse_page?nafn=BN023969,Stakkahlíð 17,"stækkun, 12 námsm.íbúðir",Frestað. Vísað til athugasemda á umsóknarblaði. Málinu vísað til Borgarskipulags til ákvörðunar um grenndarkynningu. Vísað er til uppdrátta nr. 101-105 dags. 15. nóvember 2001.,"Sótt er um leyfi til að gera tólf námsmannaíbúðir á lóðinni nr. 17 við Stakkahlíð. Byggð verði ein hæð ofan á núverandi einnar hæðar  verslunar- og skrifstofuhús og komið fyrir sex íbúðum á hvorri hæð. Í kjallara verði þvottahús, hjóla- og vagnageymsla og sorpgeymsla. Stækkun: 557,9 ferm. og 1728,3 rúmm. Gjald kr. 4.100 + 70.869"
24065 (04.23.220.2 02),http://gamli.rvk.is/vefur/owa/edutils.parse_page?nafn=BN024065,Stangarhylur 3A,Húsvarðaríbúð.,Frestað. Vísað til athugasemda á umsóknarblaði.,Sótt er um leyfi til þess að byggja svalir á austurhlið og koma fyrir húsvarðaríbúð á efri hæð hússins nr. 3 (matshl. 01) á lóðinni nr. 3-3A við Stangarhyl. Yfirlýsing umsækjanda dags. 17. október 2001 fylgir erindinu. Skoðunarskýrsla byggingarfulltrúa dags. 5. september 2001 fylgir erindinu.
24148 (01.28.300.1),http://gamli.rvk.is/vefur/owa/edutils.parse_page?nafn=BN024148,Starmýri 2,breyting úti,Samræmist ákvæðum laga nr. 73/1997. Var samþykkt 21. nóvember 2001.,Sótt er um að fella niður sérafnotalóð framan við suður- og austurhlið fyrstu hæðar hússins nr. 2B- 2C (matshl. 01) á lóðinni nr. 2 við Starmýri. Gjald kr. 4.100
23799 (04.08.180.1),http://gamli.rvk.is/vefur/owa/edutils.parse_page?nafn=BN023799,Stórhöfði 17,veitingahús norðurhl 2. h,Frestað. Vísað til athugasemda á umsóknarblaði.,"Sótt er um leyfi til að breyta innra fyrirkomulagi og koma fyrir veitingastað fyrir allt að 350 gesti í norðurhluta annarrar hæðar hússins nr. 17 við Stórhöfða. Jafnframt verði fyrirkomulagi útihurða breytt og komið fyrir loftstokki á vesturgafli. Enn fremur er sótt um leyfi til að byggja að hluta niðurgrafna sorpgeymslu úr steinsteypu og timbri norðvestanvert á lóðinni. Erindinu fylgir samþykki lóðarhafa dags. 20. sept. og 14. nóv. 2001. Stærð sorpgeymslu: 13 ferm. og 28,5 rúmm. Gjald kr. 4.100 + 1.168"
23514 (01.60.--9.9),http://gamli.rvk.is/vefur/owa/edutils.parse_page?nafn=BN023514,Suðurgata 41,br. viðbygg. við austurhlið o.fl.,Frestað. Vísað til athugasemda á umsóknarblaði.,"Sótt er um leyfi til þess að breyta viðbyggingu fyrir  kaffistofu við austurhlið 1. hæðar, byggja út aðstöðu fyrir húsvörð við vesturhlið 1. hæðar ásamt sorpgeymslu og öryggisporti á sama stað, breyta innra skipulagi allra hæða, styrkja burðarkerfi Þjóðminjasafnsins og koma fyrir 11 bílastæðum vestan við safnhúsið á lóð nr. 41 við Suðurgötu. Brunahönnun VST dags. 23. júlí 2001, bréf hönnuðar dags. 13. ágúst 2001 og umsögn Árbæjarsafns dags. 28. september 2001 fylgja erindinu. Stærð: Stækkun var 418 ferm. verður samtals 606 ferm., var 2226 rúmm. verður 2666 rúmm. Gjald kr. 4.100 + 18.040"
24064 (01.78.860.1),http://gamli.rvk.is/vefur/owa/edutils.parse_page?nafn=BN024064,Suðurhlíð 38,flutningur á húsum,Samþykkt.  Samræmist ákvæðum laga nr. 73/1997.,"Sótt er um leyfi til þess að flytja núverandi hús Landgræðslusjóðs af lóð nr. 38 við Suðurhlíð. Bréf f.h. umsækjanda ódags. fylgir erindinu. Stærð: Matshluti 01(matsnr. 203-3078) 227,4 ferm., 754 rúmm., matshluti 02 (matsnr. 203-2834) 218,3 ferm., 545 rúmm., matshluti 03 (matsnr. 203-2835) 176 ferm., 628 rúmm."
23901 (04.68.620.1),http://gamli.rvk.is/vefur/owa/edutils.parse_page?nafn=BN023901,Torfufell 44-50,(44) gerfihnattardiskur,Samþykkt.  Samræmist ákvæðum laga nr. 73/1997.,"Sótt er um leyfi til þess að setja upp gervihnattadisk á vesturhlið hússins nr. 44 á lóðinni nr. 44-50 við Torfufell. Diskurinn er 120 cm í þvermál. Samþykki nokkurra meðeigenda og meðlóðarhafa (ódags.) fylgir erindinu.  Samþykki f.h. húsfélagsins Torfufelli 44 dags. 19. október 2001, f.h. húsfélagsins Torfufelli 46 dags. 21. október 2001, f.h húsfélagsins Torfufelli 48 dags. 17. nóvember 2001 og f.h. húsfélagsins Torfufelli 50 dags. 18. október 2001 fylgja erindinu. Gjald kr. 4.100"
24133 (04.32.920.1),http://gamli.rvk.is/vefur/owa/edutils.parse_page?nafn=BN024133,Tunguháls 10,reyndarteikningar,Frestað. Vísað til athugasemda á umsóknarblaði.,"Sótt er um leyfi fyrir áður gerðum breytingum á innra fyrirkomulagi fyrstu hæðar hússins nr. 10 við Tunguháls. Breytingar fela m.a. í sér breytta eignaafmörkun og fjölgun eigna, breytt útlit og milligólf í einingu 0107. Stækkun: 50.5 ferm. Gjald kr. 4.100"
23596 (01.13.211.2),http://gamli.rvk.is/vefur/owa/edutils.parse_page?nafn=BN023596,Vesturgata 18,leikhús,Samþykkt.  Samræmist ákvæðum laga nr. 73/1997. Áskilið samþykki Vinnueftirlits ríkisins. Áskilið samþykki heilbrigðiseftirlits. Áskilin lokaúttekt byggingarfulltrúa.,Sótt er um leyfi til þess að saga niður úr glugga og setja tvöfaldan inngang á suðurhlið og leyfi til þess að nýta hús tímabundið fyrir leikhússtarfsemi á lóð nr. 18 við Vesturgötu. Gjald kr. 4.100
24113 (01.24.312.7),http://gamli.rvk.is/vefur/owa/edutils.parse_page?nafn=BN024113,Vífilsgata 21,reyndarteikningar,Frestað. Vísað til athugasemda á umsóknarblaði.,"Sótt er um leyfi til þessi að setja inngangsdyr á norðurhlið kjallara, breyta innra fyrirkomulagi kjallara,  lækka jarðveg við suðurhlið húss og samþykki fyrir áður gerðri íbúð í kjallara hússins á lóðinni nr. 21 við Vífilsgötu. Skoðunarskýrsla byggingarfulltrúa dags. 18. júlí 2001 fylgir erindinu. Virðingargjörð dags. 21. nóvember 1936 fylgir erindinu. Bréf f.h. umsækjenda dags. 23. ágúst 2001 fylgir erindinu. Gjald kr. 4.100"
24138,http://gamli.rvk.is/vefur/owa/edutils.parse_page?nafn=BN024138,Vínlandsleið 18,Dreifistöð OR,Samþykkt.  Samræmist ákvæðum laga nr. 73/1997. Frágangur á lóðamörkum verði gerður í samráði við lóðarhafa aðliggjandi lóða. Helga Guðmundsdóttir vék af fundi við afgreiðlu málsins.,"Sótt er um leyfi til þess að byggja dreifistöð Orkuveitu Reykjavíkur úr steinsteyptum einingum á lóðinni nr. 18 við Vínlandsleið. Stærð: Dreifistöð 15,3 ferm. og 52,0 rúmm.  Gjald kr. 4.100 + 2.132"
24118 (01.17.030.3),http://gamli.rvk.is/vefur/owa/edutils.parse_page?nafn=BN024118,Þingholtsstræti 5,Br. á hurð í kj.,Samþykkt.  Samræmist ákvæðum laga nr. 73/1997. Áskilin lokaúttekt byggingarfulltrúa. Áskilið samþykki heilbrigðiseftirlits.,Sótt er um leyfi til þess að breyta sveifluhurð í anddyri veitingastaðar í kjallara í eldvarnarhurð í húsinu á lóð nr. 5 við Þingholsstræti. Gjald kr. 4.100
23882 (01.18.131.5),http://gamli.rvk.is/vefur/owa/edutils.parse_page?nafn=BN023882,Þórsgata 21,Br. innra skipulagi,Samþykkt.  Samræmist ákvæðum laga nr. 73/1997.,Sótt er um samþykki fyrir reyndarteikningum af húsi (matshl. 01) og geymsluskúr (matshl. 02) á lóðinni nr. 21 við Þórsgötu. Gert er grein fyrir áður gerðri íbúð á fyrstu hæð hússins. Skoðunarskýrsla byggingarfulltrúa dags. 16. nóvember 2001 fylgir erindinu. Afsalsbréf dags. 13. apríl 1961 fylgir erindinu. Gjald kr. 4.100
24158 (01.43.020.6),http://gamli.rvk.is/vefur/owa/edutils.parse_page?nafn=BN024158,Langholtsvegur 96,Lóðamarkabreyting,Samþykkt.  Samræmist ákvæðum laga nr. 73/1997.,"Skrifstofustjóri borgarverkfræðings óskar eftir f.h., borgarverkfræðings breytingu á mörkum lóðarinnar nr. 96 við Langholtsveg samkvæmt meðfylgjandi mæliblaði mælingadeildar borgarverkfræðings dags.  19. febrúar 1997. Lóðin er skv. áritun á leigusamning dags. 5. júní 1952, Litra F7 nr. 83  764 ferm. Tekið af lóðinni, ráðstafað fyrir Álfheimar 5 - 4 - 6, 123 ferm. Viðbót úr óútvísuðu landi borgarsjóðs 260 ferm. Lóðin verður 901 ferm."
24150,http://gamli.rvk.is/vefur/owa/edutils.parse_page?nafn=BN024150,Prestastígur 11,Leiðrétting,Samþykkt.  Samræmist ákvæðum laga nr. 73/1997.,"Á fundi skipulags- og byggingarnefndar þann 21. nóvember s.l., var samþykkt umsókn frá Mótás hf þar sem sótt var um leyfi til þess að byggja fimm hæða fjölbýlishús með tuttugu íbúðum ásamt bílgeymslukjallara fyrir fjórtán bíla á lóð nr. 11 við Prestastíg. Stærðir voru bókaðar samtals 262,6 ferm. og 77544,6 rúmm., en eiga að vera 2626,7 ferm. og 7544,6 rúmm."
24160 (02.34.260.1),http://gamli.rvk.is/vefur/owa/edutils.parse_page?nafn=BN024160,Vættaborgir 84-96,lagt fram bréf,Nei. Með vísan til afgreiðslu Borgarskipulags.,Lagt fram bréf Arnars Úlfars Andréssonar þar sem óskað er eftir leyfi til að breyta raðhúsum við Vættaborgir 84-96 þannig að í hverju húsi verðir tvær íbúðir í stað einnar. Útskrift úr gerðabók embættisafgreiðslufundar skipulagsstjóra frá 16. nóvember 2001 fylgir erindinu.
23996 (01.29.210.1),http://gamli.rvk.is/vefur/owa/edutils.parse_page?nafn=BN023996,Ármúli 24,(fsp) viðbygging,Jákvætt. Með vísan til bréf Borgarskipulags. Vísað er til athugasemda á umsóknarblaði.,Spurt er hvort leyft yrði að byggja um 33 ferm. lagerhúsnæði sem viðbyggingu við bakhús á lóðinni nr. 24 við Ármúla. Útskrift úr gerðabók embættisafgreiðslufundar skipulagsstjóra frá 16. nóvember 2001 fylgir erindinu.
24097 (04.35.100.9),http://gamli.rvk.is/vefur/owa/edutils.parse_page?nafn=BN024097,Heiðarbær 6,(fsp) breyting á þaki bílskúrs,Jákvætt. Að uppfylltum skilyrðum.,Spurt er hvort leyft yrði að að framlengja þak einbýlishúss yfir flatt þak sambyggðs bílskúrs á lóð nr. 6 við Heiðarbæ.
23946 (01.17.411.4),http://gamli.rvk.is/vefur/owa/edutils.parse_page?nafn=BN023946,Hverfisgata 108,(fsp) Breyta versl.húsn. í íbúð,Jákvætt. Þó er vakin athygli á umsögn Borgarskipulags dags. 26. nóvember 2001.,Spurt er hvort leyft yrði að breyta verslun á 1. hæð  Snorrabrautarmegin í íbúð á lóð nr. 108 við Hverfisgötu. Umsögn Borgarskipulags dags. 26. nóvember 2001 fylgir erindinu.
24156 (01.17.411.4),http://gamli.rvk.is/vefur/owa/edutils.parse_page?nafn=BN024156,Hverfisgata 108,(fsp) íbúð á 1. hæð,Jákvætt. Þó er vakin athygli á umsögn Borgarskipulags dags. 26. nóvember 2001.,Spurt er hvort leyft yrði að innrétta íbúð í stað verslunar á 1. hæð Snorrabrautarmegin á lóð nr. 108 við Hverfisgötu. Umsögn Borgarskipulags dags. 26. nóvember 2001 fylgir erindinu. Ljósmyndir fylgja erindinu
24004 (01.38.200.2),http://gamli.rvk.is/vefur/owa/edutils.parse_page?nafn=BN024004,Laugarásvegur 24,fsp.viðbygging ofl.,Jákvætt. Að uppfylltum skilyrðum.,"Spurt er hvort leyft yrði að byggja bílgeymslu að vesturhlið húss, breyta gluggum á norðurhlið fyrstu hæðar og stækka svalir á annarri hæð hússins á lóðinni nr. 24 við Laugarásveg. Bréf umsækjanda dags. 17. október 2001 og útskrift úr gerðabók embættisafgreiðslufundar skipulagsstjóra frá 16. nóvember 2001 fylgja erindinu."
24140 (01.17.101.2),http://gamli.rvk.is/vefur/owa/edutils.parse_page?nafn=BN024140,Laugavegur 7,(fsp)  Br. á 1.h götuhlið,Frestað. Málinu vísað til umsagnar Borgarskipulags. Jafnframt er vísað til athugasemda eldvarnareftirlits.,"Spurt er hvort leyft yrði að stækka 1. hæð á móti aðlægri húshlið í austur, skipta 1. hæð upp í minni einingar með því að fjöga inngöngum frá Laugaveginum og innrétta súpu- og kaffihús í miðeiningunni á götuhæð hússins á lóð nr. 7 við Laugaveg. Bréf fyrirspyrjanda dags. 21. nóvember 2001 og béf væntanlegs rekstraraðila veitingastaðar dags. 21. nóvember 2001 fylgja erindinu."
24127 (01.54.012.1),http://gamli.rvk.is/vefur/owa/edutils.parse_page?nafn=BN024127,Reynimelur 38,(fsp) ósamþykkt íbúð,Frestað. Vantar nýja skoðunarskýrslu.,Spurt er hvort samþykki fengist fyrir áður gerðri íbúð í kjallara hússins á lóðinni nr. 38 við Reynimel. Skoðunarskýrsla byggingarfulltrúa dags. 15. nóvember 2001 fylgir erindinu. Bréf umsækjanda dags. 19. nóvember 2001 fylgir erindinu. Virðingargjörð dags. 21. september 1939 fylgir erindinu.
