nr,url,heimilisfang,tegund,nidurstada,spurning
20838 (01.13.340.2),http://gamli.rvk.is/vefur/owa/edutils.parse_page?nafn=BN020838,Ánanaust 15,Klæðning á gafl að hluta,Frestað. Vísað til athugasemda á umsóknarblaði.,"Sótt er um leyfi til að klæða þann hluta suðausturgafls hússins nr. 15 við Ánanaust, sem ekki er byggt upp að, með ljósum plastplötum (Duropal). Gjald kr. 4.100"
20619 (04.02.410.1 05),http://gamli.rvk.is/vefur/owa/edutils.parse_page?nafn=BN020619,Básbryggja 23-49 - Básbryggja 31,Br. inni í nr. 31,Samþykkt. Samræmist ákvæðum laga nr. 73/1997. Þrátt fyrir að eldunaraðstaða sé sýnd á 1. hæð hússins er ekki verið að samþykkja tvær íbúðir í húsinu.,Sótt er um leyfi til þess að breyta innra skipulagi 1. hæðar raðhúss nr. 31 á lóð nr. 23-49 við Básbryggju. Gjald kr. 4.100 Erindinu fylgir yfirlýsing umsækjanda dags. 14. mars 2000.
20781 (04.06.500.1),http://gamli.rvk.is/vefur/owa/edutils.parse_page?nafn=BN020781,Bíldshöfði 16,"Matshl.01, reyndart.  eignaafmörkun",Frestað. Vísað til athugasemda á umsóknarblaði.,"Sótt er um leyfi fyrir áður gerðum breytingum og eignaafmörkun í matshluta 01 (bakhús) á lóðinni nr. 16 við Bíldshöfða. Meðal breytinga eru áður ósamþykkt milligólf. Stækkun: xx Eftir breytingu verður matshlutinn samtals 2433,2 ferm., 9213,1 rúmm. Gjald kr. 4.100 + xx"
20774 (01.23.200.1),http://gamli.rvk.is/vefur/owa/edutils.parse_page?nafn=BN020774,Borgartún 32,Breyta rishæð,Frestað. Vísað til athugasemda á umsóknarblaði.,Sótt er um leyfi til þess að breyta rishæð hússins á lóðinni nr. 32 við Borgartún úr geymslu í fundarsal fyrir 15-20 manns. Gjald kr. 4.100
20775,http://gamli.rvk.is/vefur/owa/edutils.parse_page?nafn=BN020775,Brautarholt 10-14,Hækkun á risi,Frestað. Vantar skráningartöflu.,"Sótt er um leyfi til þess að hækka þak um 30 sm vegna lyftu á lóðinni nr. 10-14 við Brautarholt. Stærð: Rúmmálsaukning 4. hæð 170,5 rúmm. Gjald kr. 4.100 + 6.991 Bréf umsækjanda dags. 16. mars 2000 fylgir erindinu."
20811 (01.24.120.5),http://gamli.rvk.is/vefur/owa/edutils.parse_page?nafn=BN020811,Brautarholt 8,"leiðrétting v/eldvarna-sótt er um að byggja sólpall á 
þak 1.hæð",Samþykkt. Samræmist ákvæðum laga nr. 73/1997.,Sótt er um samþykki fyrir leiðréttum teikningum vegna eldvarna og sólpalli á þaki 1. hæðar hússins á lóðinni nr. 8 við Brautarholt. Gjald kr. 4.100 Samþykki meðeigenda dags. 28. mars 2000 fylgir erindinu.
20848 (04.03.570.1),http://gamli.rvk.is/vefur/owa/edutils.parse_page?nafn=BN020848,Breiðhöfði 10,Verksmiðjuhús,Frestað. Vísað til athugasemda á umsóknarblaði.,Sótt er um leyfi til þess að byggja verksmiðjuhús úr forsteyptum einingum sunnan við núverandi verksmiðju á lóðinni nr. 10 við Breiðhöfða. Stærð: xx Gjald 4.100 + xx
20839 (04.02.840.2),http://gamli.rvk.is/vefur/owa/edutils.parse_page?nafn=BN020839,Breiðhöfði 11,Breytingar/ eldvarnarteikningar,Frestað. Vísað til athugasemda á umsóknarblaði.,Sótt er um samþykki fyrir breytingum á verksmiðjuhúsi (gasstöð) á lóðinni nr. 11a við Breiðhöfða. Gjald kr. 4.100
20788 (01.73.1-9.3),http://gamli.rvk.is/vefur/owa/edutils.parse_page?nafn=BN020788,Bústaðavegur 7A,Fjarskiptaloftnet Íslandssími,Samþykkt. Samræmist ákvæðum laga nr. 73/1997.,"Sótt er um leyfi til þess að staðsetja fjarskiptaloftnet á lóðinni nr. 7a við Bústaðaveg (lóð Orkuveitu Reykjavíkur). Gjald kr. 4.100 Samþykki Orkuveitu Reykjavíkur dags. 21. mars 2000, samþykki Veðurstofu Íslands dags. 21 mars 2000 og samþykki Landsvirkjunar dags. 21. mars 2000 fylgir erindinu."
20717 (01.41.410.3),http://gamli.rvk.is/vefur/owa/edutils.parse_page?nafn=BN020717,Drekavogur 10,Ofanábygging,Frestað. Málinu vísað til skipulags- og umferðarnefndar til ákvörðunar um grenndarkynningu. Vísað til athugasemda á umsóknarblaði.,"Sótt er um leyfi til þess að byggja hæð ofan á húsið á lóðinni nr. 10 við Drekavog. Stærð: Stækkun 2. hæð, 93,0 ferm., 312 rúmm. Gjald kr. 4.100 +12.792 Bréf hönnuðar dags. 22. mars 2000 fylgir erindinu."
20796 (04.76.570.6),http://gamli.rvk.is/vefur/owa/edutils.parse_page?nafn=BN020796,D-Tröð 6,Endurnýjun á byggingarleyfi,Frestað. Vísað til athugasemda á umsóknarblaði.,"Sótt er um endurnýjun á byggingarleyfi frá 31. maí 1990, stækkun og breytingu á hesthúsi nr. 6 við D-tröð í Selási. Gjald kr. 4.100"
20826 (01.45.440.9),http://gamli.rvk.is/vefur/owa/edutils.parse_page?nafn=BN020826,Dugguvogur 23,Fjölgun séreignahl. og skilti,Frestað. Vísað til athugasemda á umsóknarblaði.,Sótt er um leyfi til að breyta eignamörkum og fjölga eignum í húsinu nr. 23 við Dugguvog. Eftir breytingu verða níu sjálfstæðar eignir í húsinu. Jafnframt er sótt um leyfi til að setja skilti á húsið. Gjald kr. 4.100
19631 (01.41.011.3),http://gamli.rvk.is/vefur/owa/edutils.parse_page?nafn=BN019631,Efstasund 69,bílskúr og geymsla,Samþykkt. Samræmist ákvæðum laga nr. 73/1997. Frágangur á lóðamörkum verði gerður í samráði við lóðarhafa aðliggjandi lóða. Þinglýsa skal kvöð á lóðina nr. 67 við Efstasund vegna þaks á bílskúr. Með vísan til samþykktar borgarráðs frá 1. september 1998 skal utanhúss- og lóðarfrágangi vera lokið eigi síðar en innan tveggja ára frá útgáfu byggingarleyfis að viðlögðum dagsektarákvæðum 57. gr. skipulags- og byggingarlaga nr. 73/1997.,"Sótt er um leyfi til þess að byggja steinsteypta bílgeymslu á norðausturhorni lóðarinnar nr. 69 við Efstasund. Stærð: Bílgeymsla 36 ferm., 102,6 rúmm. Gjald kr. 2.500 + 2.565 Samþykki nágranna dags. 20. mars 1998 fylgir erindinu. Jafnframt lögð fram útskrift úr gerðabók skipulags- og umferðarnefndar frá 20. desember 1999. Borgarskipulag kynnti erindið til 9. desember 1999, engar athugasemdir bárust."
20805 (01.24.410.3),http://gamli.rvk.is/vefur/owa/edutils.parse_page?nafn=BN020805,Einholt 6,Breyting á innra skipulagi,Frestað. Skoðist á staðnum á milli funda.,Sótt er um samþykki fyrir breyttu innra fyrirkomulagi í húsinu á lóðinni nr. 6 við Einholt. Gjald kr. 4.100 Bréf dags. 16. ágúst 1947 fylgir málinu.
20587 (04.94.860.1),http://gamli.rvk.is/vefur/owa/edutils.parse_page?nafn=BN020587,Engjasel 29-43,"#33-35 klæðning,endurnýjun á byggingarl.",Samþykkt. Samræmist ákvæðum laga nr. 73/1997.,"Sótt er um  endurnýjun á byggingarleyfi frá 1991 til þess að einangra og klæða að utan með garðastáli húsið nr. 33-35 á lóðinni nr. 29- 45 við Engjasel. Eftir er að klæða vesturhlið (framhlið) hússins. Gjald kr. 4.100 Bréf húsfélagsstjórna Engjasels 33 og Engjasels 35 dags. í febrúar 2000 fylgir erindinu, bréf Sveins Karlssonar byggingartæknifræðings dags. 8. mars 2000 og 4. apríl 2000 fylgir erindinu."
20622 (04.94.730.1),http://gamli.rvk.is/vefur/owa/edutils.parse_page?nafn=BN020622,Engjasel 52-68,Klæðning,Frestað. Höfundur hafi samband við embættið.,Sótt er um leyfi til þess að klæða efri hluta hússins nr. 52-54 á lóðinni nr. 52-68 við Engjasel með lituðu bárujárni. Gjald kr. 4.100 Ástandsskýrsla dags. 25 apríl 1998 með viðbót dags. 5. apríl 2000 fylgir erindinu.
20842 (01.36.640.3),http://gamli.rvk.is/vefur/owa/edutils.parse_page?nafn=BN020842,Engjateigur 3-5,#5-Breytingar,Frestað. Vísað til athugasemda á umsóknarblaði.,"Sótt er um leyfi til þess að staðsetja glugga á austurgafl og inngangshurð á suðurhlið, einnig er sótt um samþykki fyrir leiðréttum teikningum af kjallara og fyrstu hæð hússins nr. 5 (mhl. 02) á lóðinni nr. 3-5 við Engjateig. Gjald kr. 4.100"
20314,http://gamli.rvk.is/vefur/owa/edutils.parse_page?nafn=BN020314,Engjavegur 6,Eldvarnauppdrættir o.fl.,Frestað. Bæta skal frágang og skýrleika teikninga.,Sótt er um samþykki fyrir endurbótum á eldvörnum og fyrir áður gerðum breytingum á innra skipulagi aðalega á 1. hæð húss 3 þar sem gistirými er breytt í skrifstofur í  Íþróttarmiðstöðinni í Laugardal. Gjald kr. 4.100
20563 (01.11.150.2),http://gamli.rvk.is/vefur/owa/edutils.parse_page?nafn=BN020563,Eyjarslóð 1,Ljúka byggingu,Var samþykkt 4. apríl 2000. Samræmist ákvæðum laga nr. 73/1997. Áskilin lokaúttekt byggingarfulltrúa.,"Sótt er um leyfi til að ljúka byggingu matshluta 1 (að mestu skv. teikningum samþykktum 13. október 1983) í húsinu á  lóðinni nr. 1 við Eyjarslóð.  Stærð: Tengibygging 1.hæð 220,0 ferm., 924,0 rúmm., 2.hæð 220 ferm., 946,0 rúmm.  Ný ofanábygging 416,0 ferm., 1809,6 rúmm.  Samtals 856,0 ferm., 3679,6 rúmm.   Gjald kr. 4.100 + 150.864. Samþykki meðeigenda og nágranna í Hólmaslóð 2 og 4 dags. 6. mars 2000 fylgir erindinu."
20734 (04.97.120.3),http://gamli.rvk.is/vefur/owa/edutils.parse_page?nafn=BN020734,Flúðasel 79-95,Klæðning hús nr. 93-95,Samþykkt. Samræmist ákvæðum laga nr. 73/1997.,"Sótt er um leyfi til þess að einangra að utan og klæða með ""Steni"" klæðningu vesturgafl hússins nr. 93-95 á lóðinni nr. 79-95 við Flúðasel. Gjald kr 4.100  Samþykki meðeigenda dags. 22. mars 2000, ástandslýsing dags. 21. mars 2000, yfirlýsing vegna steinsteypu dags. 31. mars 2000 og umsókn um úttektarumboð dags. 31. mars 2000 fylgir erindinu."
20828 (01.52.250.1),http://gamli.rvk.is/vefur/owa/edutils.parse_page?nafn=BN020828,Flyðrugrandi 2-20,#14/ Svalaskýli á 2. hæð,Frestað. Vísað til athugasemda á umsóknarblaði.,"Sótt er um leyfi til að byggja svalaskýli á hluta svala annarrar hæðar hússins nr. 14 á lóðinni nr. 2-20 við Flyðrugranda. Stækkun: 10,2 ferm., 21 rúmm. Gjald kr. 4.100 + 861"
20832 (01.18.632.0),http://gamli.rvk.is/vefur/owa/edutils.parse_page?nafn=BN020832,Freyjugata 15,Br. verslunarrými í íbúðir,Frestað. Vísað til athugasemda á umsóknarblaði.,Sótt er um leyfi til þess að breyta tveimur verslunarrýmum í þrjár íbúðir í húsinu á lóðinni nr. 15 við Freyjugötu. Gjald kr. 4.100 Samþykki meðeigenda (ódagsett) fylgir erindinu.
20854 (04.06.010.4),http://gamli.rvk.is/vefur/owa/edutils.parse_page?nafn=BN020854,Funahöfði 15,Breytingar á 1. og 2.hæð,Frestað. Vísað til athugasemda á umsóknarblaði.,Sótt er um leyfi til að koma fyrir stiga og innrétta skrifstofur á milllofti í vesturenda hússins á lóðinni nr. 15 við Funahöfða. Stækkun: xx Gjald kr. 4.100 + xx
20856 (01.16.110.9),http://gamli.rvk.is/vefur/owa/edutils.parse_page?nafn=BN020856,Garðastræti 37,Br. á eldvörnum,Samþykkt. Samræmist ákvæðum laga nr. 73/1997.,Sótt er um leyfi til þess að breyta eldvörnum á 1. og 2. hæð og setja fellistiga á austurhlið frá 2. hæð hússins á lóðinni nr. 37 við Garðastræti. Gjald kr. 4.100
20779 (02.42.720.4),http://gamli.rvk.is/vefur/owa/edutils.parse_page?nafn=BN020779,Garðsstaðir 38,Breytingar,Frestað. Lagfæra teikningu.,Sótt er um leyfi til þess að opna á milli anddyris og bílskúrs og setja dyr úr geymslu út í garð í húsinu á lóðinni nr. 38 við Garðsstaði. Gjald kr. 4.100
20730 (02.35.710.4),http://gamli.rvk.is/vefur/owa/edutils.parse_page?nafn=BN020730,Gautavík 41-45 ,Breytingar í húsi nr. 41-45,Var samþykkt 31. mars 2000. Samræmist ákvæðum laga nr. 73/1997. Frágangur á lóðamörkum verði gerður í samráði við lóðarhafa aðliggjandi lóða.,"Sótt er um leyfi til þess að færa eldhús og þvottaherbergi, loka á milli bílgeymslu og íbúðar og breyta svefnherbergjum í húsi nr. 41 á lóðinni nr. 41-45 við Gautavík. Gjald kr. 4.100"
20837 (02.35.700.2),http://gamli.rvk.is/vefur/owa/edutils.parse_page?nafn=BN020837,Gautavík 8-10,#8 innanhúsbreyting.,Samþykkt. Samræmist ákvæðum laga nr. 73/1997. Frágangur á lóðamörkum verði gerður í samráði við lóðarhafa aðliggjandi lóða.,"Sótt er um leyfi til þess að breyta einu baðherbergi í tvö, færa geymslu og koma fyrir fataherbergi inn af hjónaherbergi í húsinu á lóðinni nr. 8 á lóðinni nr. 8-10 við Gautavík. Gjald kr. 4.100"
20647 (01.46.110.2),http://gamli.rvk.is/vefur/owa/edutils.parse_page?nafn=BN020647,Grensásvegur 11,Breyta innra fyrirkomulagi,Samþykkt. Samræmist ákvæðum laga nr. 73/1997. Áskilin lokaúttekt byggingarfulltrúa. Áskilið samþykki Vinnueftirlits ríkisins. Áskilið samþykki heilbrigðiseftirlits.,Sótt er um leyfi til þess að breyta útidyrum við stigahús og breyta innra fyrirkomulagi í hluta kjallara og hluta fyrstu hæðar hússins á lóðinni nr. 11 við Grensásveg.  Gjald kr. 4.100 Bréf umsækjanda til Vinnueftirlits ríkisins dags. 16. mars 2000 fylgir erindinu.
20489 (01.46.100.1),http://gamli.rvk.is/vefur/owa/edutils.parse_page?nafn=BN020489,Grensásvegur 3-7,viðbygging og innri breyting,Frestað. Uppgefnar stærðir ekki réttar.,"Sótt er um leyfi til þess að byggja viðbyggingu úr gleri við 1. hæð húss nr. 3, rífa spónaskúr og breyta bílastæðum á lóðinni nr. 3-7 við Grensásveg. Stærð: Viðbygging 1. hæð 51 ferm., 175,9 rúmm., niðurrif 24 ferm. Gjald kr. 4.100 + 7.212 Bréf hönnuðar dags. 27. janúar 2000, samþykki sumra meðlóðarhafa dags 2. febrúar 2000 og ljósrit af kaupsamningi dags. 7. janúar 2000  fylgja erindinu ásamt útskrift úr gerðabók skipulags- og umferðarnefndar frá 27. mars 2000."
19226 (01.24.711.0),http://gamli.rvk.is/vefur/owa/edutils.parse_page?nafn=BN019226,Gunnarsbraut 36,áður gerð íbúð í kjallara,Frestað. Skoðist á staðnum.,"Sótt er um samþykki fyrir áður gerðri viðbyggingu og áður gerðri íbúð í kjallara hússins á lóðinni nr. 36 við Gunnarsbraut. Stærð: Áður gerð viðbygging 18 ferm., 48,6 rúmm. Gjald kr. 2.500 + 1.215 Virðingargjörð dags. 21. maí 1939, íbúðarskoðun byggingarfulltrúa dags. 25. janúar 1999 og samþykki meðeigenda (á teikningu) fylgja erindinu. Umsögn Borgarskipulags dags. 25. október 1999 og bréf umsækjanda dags. 29. janúar 2000 fylgja erindinu."
20723 (01.86.410.1 03),http://gamli.rvk.is/vefur/owa/edutils.parse_page?nafn=BN020723,Haðaland 13 - Einbýlishús,Viðbygging og nýtt þak,Samþykkt. Samræmist ákvæðum laga nr. 73/1997. Frágangur á lóðamörkum verði gerður í samráði við lóðarhafa aðliggjandi lóða. Með vísan til samþykktar borgarráðs frá 1. september 1998 skal utanhúss- og lóðarfrágangi vera lokið eigi síðar en innan tveggja ára frá útgáfu byggingarleyfis að viðlögðum dagsektarákvæðum 57. gr. skipulags- og byggingarlaga nr. 73/1997.,"Sótt er um leyfi til þess að breyta þaki og byggja við húsið nr. 13 á lóðinni nr. 9-15 við Haðaland. Stærð: Viðbygging,  28,0 ferm., 76,4 rúmm. Samþykki meðlóarhafa ódags. fylgir erindinu. Gjald kr. 4.100 + 3.132"
20823 (01.80.111.1),http://gamli.rvk.is/vefur/owa/edutils.parse_page?nafn=BN020823,Heiðargerði 39,Bílskúr stækkaður,Samþykkt. Samræmist ákvæðum laga nr. 73/1997.,"Sótt er um leyfi til þess að stækka bílskúr og tengja hann við húsið á lóðinni nr. 39 við Heiðargerði.  Stærð: Stækkun bílskúr 6,0 ferm. og 17,1 rúmm. Gjald kr. 4.100 + 701 Samþykki nágranna í Heiðargerði 37 (á teikn.) fylgir erindinu."
20768 (01.80.221.2),http://gamli.rvk.is/vefur/owa/edutils.parse_page?nafn=BN020768,Heiðargerði 86,breyting á gluggum,Samþykkt. Samræmist ákvæðum laga nr. 73/1997.,Sótt er um leyfi til þess að minnka opnanleg gluggafög í húsinu á lóðinni nr. 86 við Heiðargerði.  Gjald kr. 4.100
20371 (01.36.101.7),http://gamli.rvk.is/vefur/owa/edutils.parse_page?nafn=BN020371,Hraunteigur 23,Reyndarteikningar vegna eignaskiptasamnings.,Samþykkt. Samræmist ákvæðum laga nr. 73/1997. Bjarni Þór Jónsson vék af fundi við afgreiðslu málsins.,Sótt er um samþykki fyrir teikningum af núverandi fyrirkomulagi í húsinu á lóðinni nr. 23 við Hraunteig vegna gerðar eignaskiptayfirlýsingar. Gjald kr. 4.100  Samþykki meðeigenda (á teikningu) og álit kærunefndar fjöleignahúsamála varðandi rými 0004 og 0006 dags. 23. apríl 1999 fylgir erindinu.
20776 (01.72.430.5),http://gamli.rvk.is/vefur/owa/edutils.parse_page?nafn=BN020776,Hvassaleiti 36,Reyndarteikningar,Frestað. Vísað til athugasemda á umsóknarblaði.,"Sótt er um samþykki fyrir núverandi innra skipulagi og útliti matshluta 01(þríbýlishús) og 02 (bílskúr) á lóðinni nr. 36 við Hvassaleiti vegna gerðar eignaskiptayfirlýsingar.  Stærð: Stækkun, þvottahús á 1.h. 6,1 ferm. og 16,5 rúmm. Gjald kr. 4.100 + 677 Samþykki meðeigenda dags. 30. mars 2000 fylgir erindinu."
20814 (02.87.420.1),http://gamli.rvk.is/vefur/owa/edutils.parse_page?nafn=BN020814,Hverafold 1-5,Opna vegg milli sjoppu og vídeóleigu,Frestað. Vísað til athugasemda á umsóknarblaði.,Sótt er um leyfi til þess að opna milli eigna 02-06 og 02-07 (söluturn og myndbandaleiga) í húsinu á lóðinni nr. 1-5 við Hverafold. Gjald kr. 4.100 Bréf hönnuðar dags. 4. apríl 2000 fylgir erindinu.
20815 (02.87.420.1),http://gamli.rvk.is/vefur/owa/edutils.parse_page?nafn=BN020815,Hverafold 1-5,Samþykkt felld úr gildi.,Frestað. Vísað til athugasemda eldvarnaeftirlits.,Sótt er um að samþykkt frá 11. mars 1997 verði felld úr gildi og rými 02-04 og 02-05 í húsinu á lóðinni 1-5 við Hverafold verði aðskilin. Gjald kr. 4.100 Bréf hönnuðar dags. 4. apríl 2000 fylgir erindinu.
20763 (01.02.874.401 01),http://gamli.rvk.is/vefur/owa/edutils.parse_page?nafn=BN020763,Hverafold 19-23 ,19 svalaskýli,Frestað. Vísað til athugasemda á umsóknarblaði.,"Sótt er um leyfi til þess að byggja sólskýli á svölum hússins nr. 19 á lóðinni nr. 19-21 við Hverafold. Stærð: Sólskýli 6,5 x 6= 39,0 ferm., 104,8 rúmm. Gjald kr. 4.100 + 4.297 Samþykki sumra meðlóðarhafa dags. 18. febrúar 2000 fylgir erindinu."
20831 (01.15.141.1),http://gamli.rvk.is/vefur/owa/edutils.parse_page?nafn=BN020831,Hverfisgata 15,"Þjóðmenningarhús, samræmingarteikningar",Frestað. Vísað til athugasemda á umsóknarblaði.,"Sótt er um samþykkt á breytingum sem gerðar hafa verið á verktíma á Þjóðmenningarhúsi á lóðinni nr. 15 við Hverfisgötu. Breytingarnar varða m.a. fyrirkomulag á brunavörnum, frágang á öryggisatriðum við stiga þar sem handrið eru friðuð og aðgengi fatlaðra um aðalinngang. Jafnframt er sótt um að koma fyrir sorpgeymslu á lóð. Gjald kr. 4.100"
20046 (04.07.040.1),http://gamli.rvk.is/vefur/owa/edutils.parse_page?nafn=BN020046,Höfðabakki 7,Viðbygging,Samþykkt. Samræmist ákvæðum laga nr. 73/1997.,"Sótt er um leyfi til að byggja skúr úr timbri og áli  við norðurhlið hússins á lóðinni nr. 7 við Höfðabakka. Jafnframt er sótt um breytt fyrirkomulag á lóð, m.a. á vörumóttöku við norðuhlið og bílastæðum. Ennfremur er sótt um leyfi til að samnýta lóðir nr. 5 og 7 við Höfðabakka. Stærð skúrs: 20,2 ferm., 68 rúmm. Gjald kr. 2.500 + 1.700 Erindinu fylgir bréf hönnuðar dags. 29 október 1999 og útskrift úr gerðabók skipulags- og umferðarnefndar frá 10. janúar 2000."
20039 (01.51.330.1),http://gamli.rvk.is/vefur/owa/edutils.parse_page?nafn=BN020039,Keilugrandi 1,"Br. á frkl á lóð, þám 2 gámar",Frestað. Vísað til athugasemda á umsóknarblaði.,Sótt er um leyfi til að breyta fyrirkomulagi á framhluta lóðarinnar nr. 1 við Keilugranda. Þar á meðal verði 2 gámar staðsettir framan við húsið. Gjald kr. 2.500
20780 (01.34.100.3),http://gamli.rvk.is/vefur/owa/edutils.parse_page?nafn=BN020780,Kleppsvegur 2-6,2 íbúðir í stað verslana,Frestað. Vísað til athugasemda á umsóknarblaði.,Sótt er um leyfi til að koma fyrir tveimur  íbúðum í suðurhluta  fyrstu hæðar hússins nr. 116 við Laugarnesveg (matshl. 04) á lóðinni nr. 2-6 við Kleppsveg. Í húsnæðinu var áður verslun.  Gjald kr. 4.100 Erindinu fylgir yfirlýsing stjórnar húsfélagsins dags. febrúar 2000.
20829 (04.32.340.1),http://gamli.rvk.is/vefur/owa/edutils.parse_page?nafn=BN020829,Krókháls 5-5F,ýmsar breytingar á lóð og húsum,Frestað. Vísað til athugasemda á umsóknarblaði.,"Sótt er um leyfi fyrir ýmsum breytingum á húsum og á frágangi lóðarinnar nr. 5-5F við Krókháls.  Helstu breytingar eru að skyggni á norðuhlið húsanna nr. 5C-5F verði felld niður, hurðum fjölgað á suður- og norðurhlið og millipallur gerður ofan á snyrtingar  í húsi nr. 5C, jarðhýsi á vesturlóð stækkað, gluggum breytt og bætt við  hurðum. Jafnframt verði stoðvegg við lóðarmörk til austurs breytt, skipulagi og fjölda bílastæða og skráning leiðrétt miðað við áorðnar breytingar. Stækkun: xx Gjald kr. 4.100 + xx Erindinu fylgir yfirlit hönnuðar um breytingar dags. 5. apríl 2000."
20800 (01.86.300.1),http://gamli.rvk.is/vefur/owa/edutils.parse_page?nafn=BN020800,Kvistaland 18-24,"#24 viðbygging, valmaþak og breytingar.",Samþykkt. Samræmist ákvæðum laga nr. 73/1997. Með vísan til samþykktar borgarráðs frá 1. september 1998 skal utanhúss- og lóðarfrágangi vera lokið eigi síðar en innan tveggja ára frá útgáfu byggingarleyfis að viðlögðum dagsektarákvæðum 57. gr. skipulags- og byggingarlaga nr. 73/1997. Frárennsli tengist frárennsli frá lóð.,"Sótt er um samþykki fyrir steinsteyptum viðbyggingum, valmaþaki í stað flats þaks, nýju sorpskýli, sólverönd með setlaug og ýmsum áður gerðum útlitsbreytingum í húsi nr. 24 (matshl. 04) á lóðinni nr. 18-24 við Kvistaland. Stærð: Stækkun v. viðbygginga og valmaþaks 60 ferm., 325,6 rúmm.  Gjald kr. 4.100 + 13.350 Samþykki meðlóðarhafa fylgir erindinu."
20207 (01.32.--9.6),http://gamli.rvk.is/vefur/owa/edutils.parse_page?nafn=BN020207,Köllunarklettsvegur 4,Utanhússkl úr málmi og br. á gluggum,Frestað. Vísað til athugasemda á umsóknarblaði.,"Sótt er um leyfi til að einangra og klæða húsið á lóðinni nr. 4 við Köllunarklettsveg að utan með málmklæðningu. Jafnframt er sótt um leyfi til að breyta gluggum.  Gjald kr. 2.500 Erindinu fylgir yfirlýsing dags. 3. desember 1999, bréf Þorgríms Eiríkssonar dags. 30. nóvember 1999."
20804 (04.68.520.1),http://gamli.rvk.is/vefur/owa/edutils.parse_page?nafn=BN020804,Kötlufell 1-11,Breytingar,Samþykkt. Samræmist ákvæðum laga nr. 73/1997.,Sótt er um leyfi til þess að breyta uppdeilingu álklæðningar á 1. hæð og austurhlið og breyta útliti svalaskýla á vesturhlið húsanna nr. 1-11 á lóðinni nr. 1-11 við Kötlufell.  Gjald kr. 4.100 Bréf hönnuðar dags. 2. apríl 2000 fylgir erindinu.
20778 (01.43.210.4),http://gamli.rvk.is/vefur/owa/edutils.parse_page?nafn=BN020778,Langholtsvegur 106,Reyndarteikningar,Frestað. Vísað til athugasemda á umsóknarblaði.,Sótt er um samþykki fyrir áður gerðri íbúð í kjallara og núverandi fyrirkomulagi í matshluta 01 og 02 á lóðinni nr. 106 við Langholtsveg vegna gerðar eignaskiptayfirlýsingar. Gjald kr. 4.100
20799 (01.41.400.2),http://gamli.rvk.is/vefur/owa/edutils.parse_page?nafn=BN020799,Langholtsvegur 113,Raunteikningar,Frestað. Vísað til athugasemda á umsóknarblaði.,Sótt er um samþykki fyrir núverandi innra skipulagi hússins á lóðinni nr. 113 við Langholtsveg. Gjald kr. 4.100
20729 (01.25.110.2),http://gamli.rvk.is/vefur/owa/edutils.parse_page?nafn=BN020729,",Laugavegur 178",Innanhússbreytingar,Samþykkt. Samræmist ákvæðum laga nr. 73/1997. Áskilin lokaúttekt byggingarfulltrúa.,Sótt er um leyfi til þess að breyta innra fyrirkomulagi á 4. hæð (eign 0402) hússins á lóðinni nr. 178 við Laugaveg. Gjald kr. 4.100 Leigusamningur dags. 23. mars 2000 fylgir erindinu.
20835 (01.25.110.2),http://gamli.rvk.is/vefur/owa/edutils.parse_page?nafn=BN020835,Laugavegur 178,Breyting á skráningu,Frestað. Vísað til athugasemda á umsóknarblaði.,"Sótt er um samþykki fyrir leiðréttum teikningum (stækkun ketilhúss) og skráningu fyrstu hæðar matshluta 01 á lóðinni nr. 178 við Laugaveg. Stærð: Stækkun 1. hæð 18 ferm., 65,5 rúmm. Gjald kr. 4.100 +2.686"
20732 (01.17.420.2),http://gamli.rvk.is/vefur/owa/edutils.parse_page?nafn=BN020732,Laugavegur 66-68,Breyting utanhúss,Frestað. Vantar samþykki meðeigenda.,Sótt er um leyfi til þess að breyta og klæða með sandblásnu gleri framhlið hússins nr. 66-68 við Laugaveg. Gjald kr. 4.100
20846 (01.15.220.9),http://gamli.rvk.is/vefur/owa/edutils.parse_page?nafn=BN020846,Lindargata 25,Svalir á 2. hæð,Frestað. Vantar umsagnir Húsafriðunarnefndar ríkisins og Árbæjarsafns.,Sótt er um leyfi til að byggja svalir úr stáli og timbri í suðaustur horni á annarri hæð hússins nr. 25 við Lindargötu.  Gjald kr. 4.100 Erindinu fylgir samþykki meðlóðarhafa dags. 5. apríl 2000.
20762 (04.32.400.1),http://gamli.rvk.is/vefur/owa/edutils.parse_page?nafn=BN020762,Lyngháls 5,"Br innanhúss, stækkun tengibygg",Frestað. Vísað til athugasemda á umsóknarblaði.,"Sótt er um leyfi til að breyta innra fyrirkomulagi hússins nr. 5 við Lyngháls. Jafnframt er sótt um leyfi fyrir áður gerðri stækkun tengibyggingar og breyttri skráningu. Ennfremur er sótt um leyfi til að samnýta lóðina með lóðinni nr. 6 við Krókháls tímabundið vegna fyrirkomulags bílastæða. Stækkun: xx Stærðir eftir breytingu, 1. hæð 1401,8 ferm., 2. hæð 1308,2 ferm., 3. hæð 813,1 ferm., samtals 3523,1 ferm., 11458,7 rúmm. Gjald kr. 4.100 + xx"
20822 (01.24.781.1),http://gamli.rvk.is/vefur/owa/edutils.parse_page?nafn=BN020822,Miklabraut 13,Reyndarteikning v/eignaskipta,Frestað. Vísað til athugasemda eldvarnaeftirlits.,Sótt er um samþykki fyrir reyndarteikningum af húsinu á lóðinni nr. 13 við Miklubraut vegna gerðar eignaskiptayfirlýsingar. Gjald kr. 4.100
20794 (01.77.--9.5),http://gamli.rvk.is/vefur/owa/edutils.parse_page?nafn=BN020794,Nauthólsvík ,Búningsaðstaða og snyrting,Samþykkt. Samræmist ákvæðum laga nr. 73/1997. Áskilin lokaúttekt byggingarfulltrúa. Áskilið samþykki heilbrigðiseftirlits.,Sótt er um samþykki fyrir endurbótum á búningsaðstöðu og snyrtingum í húsi Siglingaklúbbs Nauthólsvíkur við Nauthólsvík. Gjald kr. 4.100 Bréf hönnuðar dags. 30. mars 2000 fylgir erindinu.
20771 (01.13.201.4),http://gamli.rvk.is/vefur/owa/edutils.parse_page?nafn=BN020771,Norðurstígur 5,Endurnýjun á byggingarleyfi,Frestað. Uppfæra skal teikningar miðað við nýja byggingarreglugerð.,Sótt er um endurnýjun byggingarleyfis frá 7. maí 1997 (fjögurra íbúða hús nr. 5b) á lóðinni nr. 5 við Norðurstíg. Gjald kr. 4.100
20084 (01.18.100.3),http://gamli.rvk.is/vefur/owa/edutils.parse_page?nafn=BN020084,Óðinsgata 1,Reyndarteikningar,Samþykkt. Samræmist ákvæðum laga nr. 73/1997.,Sótt er um samþykki fyrir áður gerðum breytingum á innra skipulagi á öllum hæðum vegna gerðar eignaskiptayfirlýsingar á lóðinni nr. 1 við Óðinsgötu. Gjald kr. 2.500
20789 (01.18.452.1),http://gamli.rvk.is/vefur/owa/edutils.parse_page?nafn=BN020789,Óðinsgata 11,Reyndarteikningar v/eignaskipta,Frestað. Lagfæra teikningar. Vísað til athugasemda á umsóknarblaði.,Sótt er um samþykki fyrir núverandi innra fyrirkomulagi í húsinu nr. 11 við Óðinsgötu vegna gerðar eignaskiptayfirlýsingar. Gjald kr. 4.100
20689 (01.13.010.5),http://gamli.rvk.is/vefur/owa/edutils.parse_page?nafn=BN020689,Seljavegur 2,Leikhússtarfsemi,Frestað. Sjá athugasemd heilbrigðiseftirlits.,Sótt er um samþykki fyrir núverandi notkun 2. hæðar matshluta 02 þ.e. fyrir leikhússtarfsemi með um 400 sætum í sal á lóðinni nr. 2 við Seljaveg. Gjald kr. 4.100
20680 (00.04.400.7),http://gamli.rvk.is/vefur/owa/edutils.parse_page?nafn=BN020680,Sigtún      (Kjalarnes),Bílageymsla,Frestað. Vantar yfirlitsmynd.,"Sótt er um leyfi til þess að byggja steinsteyptan bílskúr fyrir tvo bíla á lóðinni við Sigtún á Kjalarnesi. Stærð: Bílskúr 58,5 ferm., 212,8 rúmm. Gjald kr. 4.100 + 8.725 Samþykki nágranna dags. 4. apríl 2000 fylgir erindinu."
20827 (01.36.220.3),http://gamli.rvk.is/vefur/owa/edutils.parse_page?nafn=BN020827,Silfurteigur 6,Kvistar 4.stk,Frestað. Málinu vísað til skipulags- og umferðarnefndar til ákvörðunar um grenndarkynningu.,"Sótt er um leyfi til þess að byggja fjóra kvisti á húsið á lóðinni nr. 6 við Silfurteig. Stærð: Stækkun 23,5 ferm., 105,6 rúmm. Gjald kr. 4.100 + 4.330 Samþykki meðeigenda  og samþykki nágranna (Silfurteigi 4 og Gullteigi 18) dags. 24. mars 2000 fylgir erindinu."
20817 (01.29.210.6),http://gamli.rvk.is/vefur/owa/edutils.parse_page?nafn=BN020817,Síðumúli 17,"Rými 0003 verði sérgreint 
geymsluhúsnæði",Samþykkt. Samræmist ákvæðum laga nr. 73/1997.,Sótt er um samþykki fyrir reyndarteikningum og breyttri skráningu (rými 00-03 verði sérgreint geymsluhúsnæði) í húsinu á lóðinni nr. 17 við Síðumúla. Gjald kr. 4.100 Bréf umsækjanda dags. 4. apríl 2000 fylgir erindinu.
20385 (01.41.010.2),http://gamli.rvk.is/vefur/owa/edutils.parse_page?nafn=BN020385,Skipasund 60,viðbygging,Samþykkt. Samræmist ákvæðum laga nr. 73/1997.,"Sótt er um leyfi til þess að byggja viðbyggingu úr timbri við suðvesturhlið 2. hæðar, setja svalahurð og pall við suðvesturhlið kjallara, breyta svölum 1. hæðar, byggja svalir á 2. hæð, einangra allt húsið að utan og klæða með múrkerfi á lóðinni nr. 60 við Skipasund. Borgarskipulag kynnti erindið frá 9. febrúar til 9. mars 2000 og engar athugasemdir bárust. Stærð: Viðbygging 2. hæð 10,5 ferm., 26,2 rúmm. Gjald kr. 4.100 + 1074 Ástandskönnun útveggja dags. 14. janúar 2000, samþykki nágranna við Skipasund 58 (á  teikningu) og útskrift úr gerðabók skipulags- og umferðarnefndar fylgja erindinu."
20455 (01.25.010.8),http://gamli.rvk.is/vefur/owa/edutils.parse_page?nafn=BN020455,Skipholt 21,Breytt skráning og reyndarteikningar,Samþykkt. Samræmist ákvæðum laga nr. 73/1997. Áskilið samþykki heilbrigðiseftirlits.,Sótt er um samþykki fyrir breyttri skráningu og reyndarteikningum af húsinu á lóðinni nr. 21 við Skipholt Gjald kr. 4.100 Samþykki meðeiganda dags. 4. apríl 2000 (og á teikn.) fylgir erindinu.
20802 (01.25.400.2),http://gamli.rvk.is/vefur/owa/edutils.parse_page?nafn=BN020802,Skipholt 50B,"Innrétta apótek,samkv. meðfylg.teikningu.",Frestað. Vantar samþykki meðeigenda.,"Sótt er um leyfi til þess að innrétta apótek og koma fyrir dyrum milli þess og stigahúss á fyrstu hæð hússins á lóðinni nr. 50b við Skipholt. Ennfremur er sótt um leyfi fyrir upplýstu nafnskilti yfir aðalinngangi apóteksins (á norðausturhorni húss). Skiltið er 0,6m hátt og 7,5m á lengd með grænum stöfum á hvítum grunni. Gjald kr. 4.100 Samþykki meðeigenda (á teikn.) fylgir erindinu (tvo meðeig. vantar)."
20851 (02.37.520.1),http://gamli.rvk.is/vefur/owa/edutils.parse_page?nafn=BN020851,Spöngin 9-31,Hans Petersen (nr. 21),Samþykkt. Samræmist ákvæðum laga nr. 73/1997. Áskilið samþykki heilbrigðiseftirlits. Áskilin lokaúttekt byggingarfulltrúa.,Sótt er um leyfi fyrir breytingu innra skipulags verslunar Hans Petersen í einingu 0105 í húsi nr. 21 á lóðinni nr. 9-31 við Spöngina. Gjald kr. 4.100
20857 (04.23.220.1),http://gamli.rvk.is/vefur/owa/edutils.parse_page?nafn=BN020857,Stangarhylur 1-1a,"#1-Byggja við anddyri, eldvarnir",Frestað. Vísað til athugasemda á umsóknarblaði.,Sótt er um leyfi til þess að byggja við anddyri og breyta innra skipulagi vegna eldvarna í húsinu nr. 1 á lóðinni nr. 1-1a við Stangarhyl.  Gjald kr. 4.100
20824 (01.16.120.3),http://gamli.rvk.is/vefur/owa/edutils.parse_page?nafn=BN020824,Suðurgata 18,Reyndarteikning,Frestað. Vísað til athugasemda á umsóknarblaði.,Sótt er um samþykki fyrir reyndarteikningum af húsinu á lóðinni nr. 18 við Suðurgötu vegna gerðar eignaskiptayfirlýsingar. Gjald kr. 4.100
20699 (01.14.131.2),http://gamli.rvk.is/vefur/owa/edutils.parse_page?nafn=BN020699,Suðurgata 7,Breytingar,Samþykkt. Samræmist ákvæðum laga nr. 73/1997. Áskilin lokaúttekt byggingarfulltrúa.,"Sótt er um leyfi til þess að breyta skrifstofuhúsnæði á fyrstu hæð (eign 0103) í íbúð, einnig er sótt um að breyta gluggum og staðsetja útidyr á vesturhlið (bakhlið) hússins á lóðinni nr. 7 við Suðurgötu. Gjald kr. 4.100 Samþykki meðeigenda dags. 20. mars 2000 fylgir erindinu."
20808 (04.67.030.1),http://gamli.rvk.is/vefur/owa/edutils.parse_page?nafn=BN020808,Suðurhólar 26-30,# 28/ Klæðning með trapezustáli,Samþykkt. Samræmist ákvæðum laga nr. 73/1997.,"Sótt er um leyfi til að klæða gafla hússins nr. 28 á lóðinni nr. 26-30 við Suðurhóla með ljósu trapizuformuðu stáli. Jafnframt verði klætt inná norðurhlið að hluta og stigahús klætt.  Gjald kr. 4.100 Erindinu fylgir greinargerð um ástand útveggja dags. 3. apríl 2000, yfirlýsing formanns húsfélags dags. 3. apríl 2000."
20470 (01.26.510.1 01),http://gamli.rvk.is/vefur/owa/edutils.parse_page?nafn=BN020470,Suðurlandsbr. 32 ,endurnýjun á bygg.leyfi,Frestað. Með vísan til útskriftar úr gerðabók skipulags- og umferðarnefndar frá 27. mars 2000.,"Sótt er um endurnýjun á byggingarleyfi frá 14. nóvember 1996 fyrir steinsteypta 3. hæð bakhúss og léttbyggða 5. hæð framhúss á lóðinni nr. 32 við Suðurlandsbraut. Stærð: Stækkun 3. hæð 248,4 ferm., 5. hæð 384,2 ferm., samtals 632,6 ferm., 2078,8 rúmm. Gjald kr. 4.100 + 85.231 Bréf hönnuðar dags. 31. janúar 2000, samþykki eigenda Ármúla 29 dags. 14. mars 2000, útskrift úr gerðabók skipulags- og umferðarnefndar frá 27 mars 2000 fylgja erindinu."
20769 (01.33.670.2),http://gamli.rvk.is/vefur/owa/edutils.parse_page?nafn=BN020769,Sundaborg 8,"Stækkun vörugeymslu.
",Samþykkt. Samræmist ákvæðum laga nr. 73/1997. Frárennslislögn tengist núverandi frárennsli frá lóð. Áskilin lokaúttekt byggingarfulltrúa. Frágangur á lóðamörkum verði gerður í samráði við lóðarhafa aðliggjandi lóða.,"Sótt er um leyfi til þess að byggja viðbyggingu á einni hæð úr límtré og yleiningum við vörugeymslu á lóðinni nr. 8 við Sundaborg. Stærð: Stækkun vörugeymslu 429,6 ferm., 1923 rúmm. Gjald kr. 4.100 + 78.843 Samþykki sumra nágranna ódags. fylgir erindinu"
20456 (01.18.101.1),http://gamli.rvk.is/vefur/owa/edutils.parse_page?nafn=BN020456,Týsgata 4B,Breyting,Samþykkt. Samræmist ákvæðum laga nr. 73/1997.,Sótt er um leyfi til þess að breyta stigapalli og aðkomu að íbúð á 2. hæð í húsinu á lóðinni nr. 4B við Týsgötu. Gjald kr. 4.100 Samþykki meðeigenda (á teikn.) fylgir erindinu.
20807 (04.64.860.2),http://gamli.rvk.is/vefur/owa/edutils.parse_page?nafn=BN020807,Ugluhólar 8-12,# 10/ klæðning með sléttu áli,Samþykkt. Samræmist ákvæðum laga nr. 73/1997.,"Sótt er um leyfi ti að klæða húsið nr. 10 á lóðinni nr. 8-12 við Ugluhóla að utan með sléttum álplötum, sem næst hvítum og zinkgráum að lit. Gjald kr. 4.100 Erindinu fylgir greinargerð um ástand útveggja dags. 3. apríl 2000, yfirlýsing formanns húsfélags dags. 21. mars 2000."
20760 (04.06.310.3),http://gamli.rvk.is/vefur/owa/edutils.parse_page?nafn=BN020760,Vagnhöfði 21,"Viðbygging, klæðning og br. á 2. hæð",Synjað. Samræmist ekki skipulagi.,"Sótt er um leyfi til þess að einangra og klæða að utan,stækka milliloft og byggja við húsið á lóðinni nr. 21 við Vagnhöfða. Stærð: Stækkun -viðbygging 55 ferm., 192,5 rúmm., -milliloft stækkun 19,7 ferm. Gjald kr. 4.100 + 7.893"
20855 (01.15.241.8),http://gamli.rvk.is/vefur/owa/edutils.parse_page?nafn=BN020855,Veghúsastígur 9,"Kjallari, kjallaratröppur, útipallur",Frestað. Vísað til athugasemda á umsóknarblaði.,"Sótt er um samþykki fyrir áður gerðum kjallara, breytingum á kjallaratröppum, stækkun á útipalli og breyttri eignaafmörkun í húsinu á lóðinni nr. 9 við Veghúsastíg. Gjald kr. 4.100"
20801 (00.08.100.0),http://gamli.rvk.is/vefur/owa/edutils.parse_page?nafn=BN020801,Vellir,"Frístundahús, Vellir 4",Frestað. Vísað til athugasemda á umsóknarblaði.,"Sótt er um leyfi fyrir frístundahúsi úr timbri á jörð Guðrúnar Sonju Guðmundsdóttur úr landi Valla á Kjalarnesi, landnr. 125769. Jafnframt er sótt um leyfi til að koma fyrir rotþró um 10 m sunnan við húsið. Ennfremur er sótt um leyfi til að skrá jörðina sem Velli 4. Með erindi þessu er fyrra erindi nr. 17156 dregið til baka. Stærð: 47,6 ferm., 128,5 rúmm. Gjald kr. 4.100 + 5.268"
20818 (01.13.200.7),http://gamli.rvk.is/vefur/owa/edutils.parse_page?nafn=BN020818,Vesturgata 28,Kvistur,Frestað. Vantar samþykki meðlóðarhafa.,"Sótt er um leyfi til þess að byggja kvist til suðurs í matshl. 01 (austurhluta) hússins nr. 28 við Vesturgötu. Stærð: Stækkun 4,5 rúmm. Gjald kr. 4.100 + 185 Bréf Borgarskipulags dags. 19. júní 1998 og samþykki meðeigenda í matshl. 01 dags. 2. mars 2000 fylgir erindinu."
20834 (02.99.--9.8),http://gamli.rvk.is/vefur/owa/edutils.parse_page?nafn=BN020834,Vesturlandsv. Gr.hl ,Stækkun dælust. Orkuv. Rvk,Samþykkt. Samræmist ákvæðum laga nr. 73/1997. Frágangur á lóðamörkum verði gerður í samráði við lóðarhafa aðliggjandi lóða.,"Sótt er um leyfi til að byggja til suðvesturs við dælustöð Orkuveitu Reykjavíkur í Grafarholti við Vínlandsleið. Húsið verði úr steinsteypu á einni hæð og að mestu í jörðu. Stækkun: 182,2 ferm., 792,6 rúmm. Stærð húss eftir stækkun: 626 ferm., 2961,2 rúmm. Gjald kr. 4.100 + 32.496"
20806 (01.24.312.9 01),http://gamli.rvk.is/vefur/owa/edutils.parse_page?nafn=BN020806,Vífilsgata 18 ,Br. inni í 01-01+ loka stigagangi o. fl.,Frestað. Vísað til athugasemda á umsóknarblaði.,Sótt er um samþykki fyrir áður gerðri íbúð í kjallara hússins á lóðinni nr. 18 við Vífilsgötu. Einnig er sótt um leyfi til þess að færa inntaksrými og loka stigahúsi milli kjallara og fyrstu hæðar. Skoðunarskýrsla byggingarfulltrúa dags. 8. mars 2000 og samþykki meðeigenda dags. 28. mars 2000 fylgir erindinu. Gjald kr. 2.500
20793 (01.18.330.2),http://gamli.rvk.is/vefur/owa/edutils.parse_page?nafn=BN020793,Þingholtsstræti 25,"Nýtt eldhús á 2.hæð, girðing.",Frestað. Vantar umsögn Árbæjarsafns.,"Sótt er um leyfi til þess að innrétta eldhús á annarri hæð, staðsetja girðingar á lóð og loka undirgangi með rimlagrind í húsinu á lóðinni nr. 25 við Þingholtsstræti. Gjald kr. 4.100 Bréf hönnuðar dags. 28. mars 2000  og bréf Húsafriðunarnefndar ríkisins dags. 30. mars 2000 fylgir erindinu."
20791 (01.18.330.1),http://gamli.rvk.is/vefur/owa/edutils.parse_page?nafn=BN020791,Þingholtsstræti 27,"sótt um leyfi til að breyta 2.h. nýbyggingar  aftur í íbúð
",Frestað. Vísað til athugasemda á umsóknarblaði.,Sótt er um leyfi til þess að breyta annarri hæð í matshluta 03 á lóðinni nr. 27 við Þingholtsstræti úr skrifstofuhúsnæði í íbúð. Gjald kr 4.100
20812 (01.24.440.7),http://gamli.rvk.is/vefur/owa/edutils.parse_page?nafn=BN020812,Flókagata 23,Fella tré,Samþykkt. Með vísan til umsagnar garðyrkjustjóra.,Sótt er um leyfi til þess að fella tré á lóðinni nr. 23 við Flókagötu. Umsögn garðyrkjustjóra dags. 28. mars 2000 fylgir með umsókninni.
20859 (01.71.020.4),http://gamli.rvk.is/vefur/owa/edutils.parse_page?nafn=BN020859,Mávahlíð 32,Fella tré,Samþykkt. Með vísan til umsagnar garðyrkjustjóra.,Sótt er um leyfi til þess að fella tré á lóðinni nr. 32 við Mávahlíð. Umsögn garðyrkjustjóra dags. 7. apríl 2000 fylgir erindinu.
20865 (01.77.720.1),http://gamli.rvk.is/vefur/owa/edutils.parse_page?nafn=BN020865,Nauthólsvík ,Stöðuleyfi fyrir gám,Samþykkt. Til tveggja ára. Samræmist ákvæðum laga nr. 73/1997.,Sótt er um stöðuleyfi fyrir 20 feta gám við veitingahúsið Kaffi Nauthól í Nauthólsvík.
20858 (01.34.700.4),http://gamli.rvk.is/vefur/owa/edutils.parse_page?nafn=BN020858,Otrateigur 44-56,Fella tré hjá húsi nr. 50,Samþykkt. Með vísan til umsagnar garðyrkjustjóra.,Sótt er um leyfi til þess að fella tré á lóðinni nr. 50 við Otrateig. Umsögn garðyrkjustjóra dags. 7. apríl 2000 fylgir erindinu.
20797 (01.28.420.6),http://gamli.rvk.is/vefur/owa/edutils.parse_page?nafn=BN020797,Safamýri 75,Fella tré,Samþykkt. Með vísan til umsagnar Borgarskipulags.,Sótt er um leyfi til þess að fella tré á lóðinni nr. 75 við Safamýri. Umsögn garðyrkjustjóra dags. 31. mars 2000 fylgir erindinu.
20798 (02.34.400.4),http://gamli.rvk.is/vefur/owa/edutils.parse_page?nafn=BN020798,Dofraborgir 23,Breyta einbýli í tvíbýli,Nei. Samræmist ekki deiliskipulagi.,Spurt er hvort leyft yrði að breyta einbýlishúsi í tvíbýli á lóðinni nr. 23 við Dofraborgir.
20786 (01.82.430.7),http://gamli.rvk.is/vefur/owa/edutils.parse_page?nafn=BN020786,Garðsendi 11,(fsp) Áður gerð íbúð,Neikvætt. Með vísan til skoðunarskýrslu og framlagðra gagna.,Spurt er hvort samþykki fáist fyrir áður gerðri íbúð í kjallara hússins á lóðinni nr. 11 við Garðsenda. Skoðunarskýrsla byggingarfulltrúa dags. 29. mars 2000 og virðingargjörð dags. 30. september 1960 fylgir erindinu.
20803 (01.27.000.8),http://gamli.rvk.is/vefur/owa/edutils.parse_page?nafn=BN020803,Háteigsvegur 52,(Fsp.) risíbúð,Frestað. Vantar íbúðarskoðun.,Spurt er hvort samþykki fengist fyrir risíbúð í húsinu á lóðinni nr. 52 við Háteigsveg.
20792 (01.38.410.1),http://gamli.rvk.is/vefur/owa/edutils.parse_page?nafn=BN020792,Hjallavegur 37,(fsp) Viðbygging,Frestað. Vísað til athugasemda á umsóknarblaði.,Spurt er hvor leyft yrði að bæta hæð ofan á húsið á lóðinni nr. 37 við Hjallaveg. Bréf umsækjanda dags. 20. mars 2000 fylgir erindinu.
20756 (01.17.210.1),http://gamli.rvk.is/vefur/owa/edutils.parse_page?nafn=BN020756,Hverfisgata 52,(fsp)Svalir,Nei. Fer út fyrir lóðarmörk. Vísað til athugasemda eldvarnaeftirlits.,Spurt er hvort leyft yrði að staðsetja suðursvalir á rishæð hússins nr. 52 við Hverfisgötu.
20600 (01.17.300.8),http://gamli.rvk.is/vefur/owa/edutils.parse_page?nafn=BN020600,Hverfisgata 74,Fá íbúð samþykkta.,Jákvætt. Enda uppfylli íbúð öll viðeigandi ákvæði byggingarreglugerðar nr. 441/1998. Vakin er athygli á umsögn Borgarskipulags.,Spurt er hvort leyft yrði að innrétta íbúð í stað verslunar í eign 0101á lóðinni nr. 74 við Hverfisgötu. Bréf hönnuðar dags. 27. janúar 2000 fylgir erindinu. Umsögn Borgarskipulags dags. 28. mars 2000 fylgir erindinu.
20825 (01.44.131.1),http://gamli.rvk.is/vefur/owa/edutils.parse_page?nafn=BN020825,Langholtsvegur 174,br. verslun í íbúð,Frestað. Skoðist á staðnum.,Spurt er hvort leyft yrði að breyta verslunarrými á fyrstu hæð í tvær íbúðir og innrétta íbúð í risi í húsinu á lóðinni nr. 174 við Langholtsveg. Bréf umsækjanda dags. 5. apríl 2000 fylgir erindinu.
20816 (01.36.600.1),http://gamli.rvk.is/vefur/owa/edutils.parse_page?nafn=BN020816,Sigtún 38,(fsp) Breyta útfærslu glerþaks,Jákvætt. Að uppfylltum skilyrðum.,Spurt er hvort leyft yrði að breyta útfærslu á glerþaki yfir væntanlegum innigarði hótelsins á lóðinni nr. 38 við Sigtún. Notaðir yrðu stálbogar sem festir yrðu ofan á veggi fjórðu hæðar í stað stálbita sem festir yrðu milli þriðju of fjórðu hæðar. Mesta hækkun á húsi yrði um 2 metrar.
20464 (01.27.420.1),http://gamli.rvk.is/vefur/owa/edutils.parse_page?nafn=BN020464,""">Skaftahlíð 24",(fsp) Br. útlit og fl. mhl 02,Neikvætt. Með vísan til umsagna.,"Spurt er hvort leyft yrði að breyta útliti norður og suðurhliðar matshluta 02 á lóðinni nr. 24 við Skaftahlíð að mestu í samræmi við meðfylgjandi teikningar. Jafnframt verði innra fyrirkomulagi breytt og hluti kjallara nýttur með hluta fyrstu hæðar.  Erindinu fylgir bréf hönnuðar dags. 2. febrúar 2000, umsögn Borgarskipulags dags. 21. mars 2000, umsögn umferðardeildar mótt. 10. apríl 2000 og umsögn gatnamálastjóra dags. 3. apríl 2000."
20790 (01.63.631.0),http://gamli.rvk.is/vefur/owa/edutils.parse_page?nafn=BN020790,Skerplugata 10,"(fsp) Bílskúr- stækkun og tilfærsla á bygg.reit.
",Frestað. Málinu vísað til umsagnar Borgarskipulags.,Spurt er hvort leyft yrði að færa til og stækka byggingarreit fyrirhugaðs bílskúrs á lóðinni nr. 10 við Skerplugötu.
20698 (01.14.130.1),http://gamli.rvk.is/vefur/owa/edutils.parse_page?nafn=BN020698,Tjarnargata 20,Upplýsingatafla og merki.(fsp),Nei. Með vísan til umsagna Árbæjarsafns og Borgarskipulags.,"Spurt er hvort leyft yrði að setja upp stand fyrir tilkynningar framan við hús og lítið merki á austurhlið hússins á lóðinni nr. 20 við Tjarnargötu. Bréf umsækjanda dags. 17. mars 2000, umsögn Árbæjarsafns dags. 24. mars 2000 og mótmælabréf íbúa við Tjarnargötu dags. 4. mars 2000 og umsögn Borgarskipulags dags. 11. apríl 2000 fylgja erindinu."
20705 (01.13.460.2),http://gamli.rvk.is/vefur/owa/edutils.parse_page?nafn=BN020705,Vesturvallagata 5,Hækka bakhús.,Nei. Með vísan til umsagnar Borgarskipulags.,Spurt er hvort leyft yrði að hækka norðurhluta bakhúss  um eina hæð á lóðinni nr. 5 við Vesturvallagötu. Bréf umsækjanda dags. 13. mars 2000 fylgir erindinu. Umsögn Borgarskipulags dags. 10. apríl 2000 fylgir erindinu.
