nr,url,heimilisfang,tegund,nidurstada,spurning
21535 (01.13.650.5),http://gamli.rvk.is/vefur/owa/edutils.parse_page?nafn=BN021535,Aðalstræti 12 ,Breyting inni,Samþykkt.  Samræmist ákvæðum laga nr. 73/1997. Áskilin lokaúttekt byggingarfulltrúa. Áskilið samþykki heilbrigðiseftirlits. Áskilið samþykki Vinnueftirlits ríkisins.,Sótt er um leyfi til þess að breyta skráningu og innrétta veitingastað í kjallara og á fyrstu hæð hússins á lóðinni nr. 12 við Aðalstræti. Húsnæðið er skráð sem verslunarhúsnæði. Bréf hönnuðar dags. 19. júlí 2000 fylgir erindinu. Samþykki aðalhönnuða hússins dags. 24. júlí 2000 fylgir erindinu. Leigusamningur dags. 9. maí 2000 fylgir erindinu. Umsögn Borgarskipulags dags. 16. ágúst 2000 fylgir erindinu. Gjald kr. 4.100
21682 (01.14.040.6),http://gamli.rvk.is/vefur/owa/edutils.parse_page?nafn=BN021682,Austurstræti 10A,br á innra frkl á 2.h og skráningu,Frestað. Vísað til athugasemda á umsóknarblaði.,Sótt er um leyft til þess að breyta innra fyrirkomulagi annarrar hæðar hússins á lóðinni nr. 10A við Austurstræti og breyta skráningu. Jafnframt er erindi nr. 20645 dregið til baka. Gjald kr. 4.100
21678 (01.14.030.8),http://gamli.rvk.is/vefur/owa/edutils.parse_page?nafn=BN021678,Austurstræti 17 ,Heilsurækt.,Frestað. Vísað til athugasemda á umsóknarblaði.,Sótt er um leyfi til þess að innrétta heilsuræktarstöð á fimmtu og sjöttu hæð hússins nr. 17 við Austurstræti. Í tengslum við heilsuræktarstöðina verður starfrækt lítil snyrtistofa og veitingar verða seldar í móttökurými. Gjald kr. 4.100
21577 (01.14.040.4),http://gamli.rvk.is/vefur/owa/edutils.parse_page?nafn=BN021577,Austurstræti 8-10,"Br. kj og 1. hæð, líkamsrækt.",Frestað. Vísað til athugasemda á umsóknarblaði.,Sótt er um leyfi til þess að innrétta líkamsræktarstöð í kjallara og á hluta 1. hæðar hússins á lóðinni nr. 8-10 við Austurstræti. Gjald kr. 4.100
21681 (01.14.040.4),http://gamli.rvk.is/vefur/owa/edutils.parse_page?nafn=BN021681,Austurstræti 8-10,br á 2.-5. hæð og skráningu,Frestað. Vísað til athugasemda á umsóknarblaði.,"Sótt er um leyfi fyrir innra fyrirkomulagi á annarri, þriðju, fjórðu og fimmtu hæð hússins nr. 8-10 við Austurstræti, til samræmis við framlagða uppdrætti. Jafnframt verði brunavarnauppdrættir fyrir áður nefndar hæðir í húsinu, sem samþykktir voru 15. apríl 1999, felldir úr gildi. Ennfremur er sótt um leyfi til að leiðrétta og breyta skráningu. Leiðréttar stærðir: Kjallari 520,5 ferm. (- 12,6), 1. hæð 505,7 ferm. (+1,8), 2. hæð 514,6 ferm. (+3,8), 3. hæð 511,1 ferm. (+1,7), 4. hæð 511,1 ferm. (+1,7), 5. hæð 400,3 ferm. (+2,3), samtals 2966 ferm. (+4,9) og 10634 rúmm. (+173,2). Gjald kr. 4.100 + 7.104"
21523,http://gamli.rvk.is/vefur/owa/edutils.parse_page?nafn=BN021523,Álftamýri 1-3 ,Sjúkraþj á 2. h,Samþykkt.  Samræmist ákvæðum laga nr. 73/1997. Áskilin lokaúttekt byggingarfulltrúa. Áskilið samþykki heilbrigðiseftirlits.,Sótt er um leyfi til að breyta innra fyrirkomulagi á annarri hæð í austurhluta matshluta 01 (Álftamýri 1) á lóðinni nr. 1-5 við Álftamýri og koma þar fyrir sjúkraþjálfunarþjónustu. Jafnframt er erindi nr. 20201 dregið til baka. Gjald kr. 4.100
21666 (01.29.020.1),http://gamli.rvk.is/vefur/owa/edutils.parse_page?nafn=BN021666,Ármúli 12 ,Raunteikningar 1.h.,Samþykkt.  Samræmist ákvæðum laga nr. 73/1997. Áskilin lokaúttekt byggingarfulltrúa. Áskilið samþykki heilbrigðiseftirlits.,Sótt er um leyfi til að breyta innra skipulagi stjórnunarrýmis á 1. hæð  Ármúlaskóla á lóðinni nr. 12 við Ármúla. Um er að ræða lagfæringar og lítils háttar breytingar á teikningum sem samþykktar voru 22. febrúar 2000. Gjald kr. 4.100
21333 (01.17.010.1),http://gamli.rvk.is/vefur/owa/edutils.parse_page?nafn=BN021333,Bankastræti 2 ,Brunavarnir,Samþykkt.  Samræmist ákvæðum laga nr. 73/1997. Áskilin lokaúttekt byggingarfulltrúa. Áskilið samþykki heilbrigðiseftirlits.,Sótt er um leyfi fyrir bættum brunavörnum og breyttu innra skipulagi aðallega á 2. hæð hússins við Amtmannsstíg 1 á lóð nr. 2 við Bankastræti. Gjald kr. 4.100
21557 (01.13.630.2),http://gamli.rvk.is/vefur/owa/edutils.parse_page?nafn=BN021557,Bárugata 13 ,Raunteikn. -Núv. fyrirkomulag,Frestað. Vísað til athugasemda á umsóknarblaði.,Sótt er um samþykki fyrir áður gerðri íbúð og núverandi innra fyrirkomulagi í húsinu á lóðinni nr. 13 við Bárugötu. Virðingargjörð dags. 21. febrúar 1942 og afrit úr manntali árið 1952 fylgja erindinu. Skoðunarskýrsla byggingarfulltrúa dags. 15. ágúst 2000 fylgir erindinu. Gjald kr. 4.100
21649 (04.02.440.4),http://gamli.rvk.is/vefur/owa/edutils.parse_page?nafn=BN021649,Básbryggja 5-11,Ýmsar br úti og inni,Frestað. Vísað til athugasemda á umsóknarblaði.,Sótt er um leyfi fyrir breytingum til samræmis við verkteikningar á húsinu á lóðinni nr. 5-11 við Básbryggju. Í breytingum felst m.a. breyting á afsetningu húss innan lóðar og breyting á stærðum og skráningu. Stærðarbreytingar: xx Gjald kr. 4.100 + xx
21433 (01.22.100.2),http://gamli.rvk.is/vefur/owa/edutils.parse_page?nafn=BN021433,Borgartún 20 ,Atvinnuhúsnæði - breyting inni og úti,Frestað. Vísað til athugasemda á umsóknarblaði. Umsögn Borgarskipulags ókomin.,"Sótt er um leyfi til þess að klæða að utan með sléttum Stenex plötum, breyta vörugeymslum í skrifstofur og byggja einlyfta viðbyggingu úr steinsteypu og gleri við suðurhluta (matshl. 01) hússins á lóðinni nr. 20 við Borgartún. Vegna breyttrar starfsemi verður gluggum bætt við á öllum úthliðum hússins og einnig verða settir þakgluggar á húsið. Ástandsskýrsla dags. 14. júlí 2000 og 22. janúar 1999 fylgir erindinu. Stærð: Viðbygging xx Gjald kr. 4.100 + xx"
21672 (01.21.810.2),http://gamli.rvk.is/vefur/owa/edutils.parse_page?nafn=BN021672,Borgartún 23 ,Breytingar á áður samþykktum teikningum,Samþykkt.  Samræmist ákvæðum laga nr. 73/1997. Áskilin lokaúttekt byggingarfulltrúa.,"Sótt er um leyfi til þess að koma fyrir glugga á austurgafli og breyta innra skipulagi (skrifstofum fjölgar, fundaraðstaða og salerni breytast) á þakhæð hússins á lóðinni nr. 23 við Borgartún.  Gjald kr. 4.100"
21495 (04.30.430.1),http://gamli.rvk.is/vefur/owa/edutils.parse_page?nafn=BN021495,Dragháls 28-30/F.....,"(Foss 27) Innra frkl, stokkur, skilti",Samþykkt.  Samræmist ákvæðum laga nr. 73/1997. Áskilin lokaúttekt byggingarfulltrúa. Áskilið samþykki Vinnueftirlits ríkisins. Áskilið samþykki heilbrigðiseftirlits. Skiltun hússins og skráningu verði gerð skil innan 30 daga frá samþykkt á deiliskipulagi.,"Sótt er um leyfi fyrir innra fyrirkomulagi á annarri hæð húss nr. 27 við Fossháls á lóðinni Dragháls 28-30/Fossháls 27-29 í samræmi við meðfylgjandi uppdrætti. Jafnframt er sótt um leyfi fyrir áður gerðum loftræsistokk upp úr þaki, um 15 ferm., áður gerðu skilti á þaki hússins og um 5 ferm., áður gerðu skilti sunnan megin á húsi. Erindinu fylgir skilyrt samþykki meðlóðarhafa dags. 20. júlí 2000, bréf hönnuðar dags. 17. ágúst 2000. Gjald kr. 4.100"
20918 (01.45.400.1),http://gamli.rvk.is/vefur/owa/edutils.parse_page?nafn=BN020918,Dugguvogur 6,Reyndarteikningar,Samþykkt.  Samræmist ákvæðum laga nr. 73/1997.,"Sótt er um samþykki fyrir reyndarteikningum og sameiningu matshluta (matshlutar 02, 03 og 04 skráðir saman sem matshluti 02) á lóðinni nr. 6 við Dugguvog vegna gerðar eignaskiptayfirlýsingar. Gjald kr. 4.100  Samþykki meðeigenda dags. 26. mars 1999 fylgir erindinu."
21450 (01.35.530.1),http://gamli.rvk.is/vefur/owa/edutils.parse_page?nafn=BN021450,Efstasund 25 ,Blómaskáli og reyndarteikningar af húsinu,Frestað. Umögn Borgarskipulags ókomin.,"Sótt er um leyfi til þess að byggja glerskála úr állistum og gleri að suðausturhlið hússins á lóðinni nr. 25 við Efstasund. Einnig fylgja erindinu teikningar af áður gerðum ósamþykktum geymsluskúr á lóðinni. Stærð: Stækkun, skáli 8,0 ferm. og 20,1 rúmm., geymsluskúr 20,6 ferm. og 50,5 rúmm. Samtals 28,6 ferm. og 70,6 rúmm. Gjald kr. 4.100 + 2.895"
21115 (01.35.501.1),http://gamli.rvk.is/vefur/owa/edutils.parse_page?nafn=BN021115,Efstasund 6,Skyggni,Samþykkt.  Samræmist ákvæðum laga nr. 73/1997.,Sótt um leyfi til þess að byggja 150 cm langt skyggni fram fyrir bílskúr á lóðinni nr. 6 við Efstasund til samræmis við aðliggjandi skúr (á lóð nr. 8). Ekki er um stækkun að ræða. Samþykki nágranna í Efstasundi 8 (á teikn.) fylgir eindinu. Gjald kr. 4.100
21671 (01.67.110.2),http://gamli.rvk.is/vefur/owa/edutils.parse_page?nafn=BN021671,Einarsnes 12-18,#18 -Sólstofa,Frestað. Málinu vísað til umsagnar Borgarskipulags. Vísað til athugasemda á umsóknarblaði.,"Sótt er um leyfi til þess að byggja einlyfta viðbyggingu úr timbri og gleri að vesturhlið húss nr. 18 (matshl. 04) á lóðinni nr. 12-18 við Einarsnes. Samþykki meðlóðarhafa (á teikn.) fylgir erindinu. Stærð: Viðbygging 23,79 ferm. og xx rúmm. Gjald kr. 4.100 + xx"
21669 (01.67.210.3),http://gamli.rvk.is/vefur/owa/edutils.parse_page?nafn=BN021669,Einarsnes 54 ,Þakgluggi á bílsk.,Samþykkt.  Samræmist ákvæðum laga nr. 73/1997.,Sótt er um leyfi til þess að setja tvo þakglugga á þak bílskúrs á lóðinni nr. 54 við Einarsnes. Gjald kr. 4.100
21615 (01.70.121.5),http://gamli.rvk.is/vefur/owa/edutils.parse_page?nafn=BN021615,Eskihlíð 15 ,breytingar á rishæð og fyrirkomulag stiga frá 2.hæð,Samþykkt.  Samræmist ákvæðum laga nr. 73/1997.,Sótt er um leyfi til þess að breyta innra skipulagi íbúðar á rishæð (inngangur risíbúðar færist niður á aðra hæð) hússins á lóðinni nr. 15 við Eskihlíð. Samþykki meðeigenda dags. 16. ágúst 2000 fylgir erindinu. Gjald kr. 4.100
21614 (43.04.503 03),http://gamli.rvk.is/vefur/owa/edutils.parse_page?nafn=BN021614,Fossháls  5-7,Viðbygging  5-11,Frestað. Vísað til athugasemda á umsóknarblaði.,"Sótt er um leyfi til þess að byggja þakhýsi á þak 1.hæðar á norðurhlið, byggja aðkomupalla fyrir gámabíla á norðurhlið, fjarlægja stigahús (í módúllínu C og 5), færa til hurð (í módúllínu 2 á fyrstu hæð), bæta við brunavarnarhurðum (í módúllínu 5 á 1. og 2. hæð og módúllínu C á 1. hæð), opna milli rýma á 2. hæð (í módúllínu C) og setja brunavarnarhurðir í op. Undirskrift burðarvirkishönnuðar fylgir erindinu á teikningum. Greinargerð um brunavarnir dags. 2. ágúst 2000 fylgir erindinu. Stærð: Stækkun þakhýsi 109,33 ferm. og 114,8 rúmm. Gjald kr. 4.100 + 4.707"
21562 (04.06.010.4),http://gamli.rvk.is/vefur/owa/edutils.parse_page?nafn=BN021562,Funahöfði 15 ,Breyta rýmisnúmerum,Frestað. Bílastæði skiptist rétt eftir eignahlutum.,"Sótt er um samþykki fyrir leiðréttum teikningum af húsinu á lóðinni nr. 15 við Funahöfða. Sett eru rýmisnúmer á kjallaratröppu, og á grunnmynd og sneiðingu annarrar hæðar. Gjald kr. 4.100"
21478 (01.13.652.7),http://gamli.rvk.is/vefur/owa/edutils.parse_page?nafn=BN021478,Garðastræti 13A,Br. innra frkl og skráning,Frestað. Vísað til athugasemda á umsóknarblaði.,Sótt er um leyfi til að breyta innra fyrirkomulagi og skráningu hússins á lóðinni nr. 13A við Garðastræti. M.a. verði hluta fyrstu hæðar breytt í atvinnuhúsnæði (tannlæknastofa) og íbúðir á annarri og þriðju hæð sameinaðar. Gjald kr. 4.100
21627,http://gamli.rvk.is/vefur/owa/edutils.parse_page?nafn=BN021627,Garðsstaðir 27-31,"#27 br. gluggar, innra fyrirkomulag",Samþykkt.  Samræmist ákvæðum laga nr. 73/1997. Frágangur á lóðamörkum verði gerður í samráði við lóðarhafa aðliggjandi lóða.,Sótt er um leyfi til þess að breyta innra fyrirkomulagi (eldhús og stofa) og fella niður glugga á vesturgafli í húsi nr. 27 á lóðinni nr. 27-31 við Garðsstaði. Samþykki meðeiganda dags. 14. ágúst 2000 fylgir erindinu. Gjald kr. 4.100
21655 (01.52.120.5),http://gamli.rvk.is/vefur/owa/edutils.parse_page?nafn=BN021655,Grandavegur 37 ,reyndarteikningar,Frestað. Vísað til athugasemda á umsóknarblaði.,"Sótt er um samþykki fyrir reyndarteikningum, áður gerðum íbúðum (húsið var áður einbýli) og áður gerðri viðbyggingu (matshl. 02) við húsið á lóðinni nr. 37 við Grandaveg. Afsalsbréf dags. 20. febrúar 1998 (eign 0002), 30. nóvember 1989 (eign 0001), 2. október 1957 (eign 0101), 3. júní 1957 (eign 0001) og 1. ágúst 1956 fylgja erindinu. Stærð: Matshl. 02 1. hæð 9,1 ferm., 2. hæð 9,1 ferm. Samtals 18,2 ferm. og 40,7 rúmm. Gjald kr. 4.100 + 1.669"
21688 (01.29.540.6),http://gamli.rvk.is/vefur/owa/edutils.parse_page?nafn=BN021688,Grensásvegur 12 ,Atvinnuhúsnæði - staðfæring á 1.hæð,Frestað. Vísað til athugasemda á umsóknarblaði.,Sótt er um samþykki fyrir reyndarteikningum af fyrstu hæð matshluta 01 á lóðinni nr. 12 við Grensásveg. Gjald kr 4.100
21417 (01.46.100.1),http://gamli.rvk.is/vefur/owa/edutils.parse_page?nafn=BN021417,Grensásvegur 3-7,(3) Veitingast og loftræsist.,Frestað. Vísað til athugasemda á umsóknarblaði.,Sótt er um leyfi til að breyta innra fyrirkomulagi nyrsta hluta annarrar hæðar (fyrsta hæð frá Grensásvegi) hússins nr. 3 á lóðinni nr. 3-7 við Grensásveg. Í húsnæðinu verði komið fyrir veitingastað og settur loftútkastsstokkur úr blikki upp fyrir þakbrún á bakhlið.  Óljós samþykki árituð á teikningu fylgja erindinu. Gjald kr. 4.100
21685 (02.57.510.3),http://gamli.rvk.is/vefur/owa/edutils.parse_page?nafn=BN021685,Gylfaflöt 5 ,breyting inni -efri hæð,Samþykkt.  Samræmist ákvæðum laga nr. 73/1997. Áskilið samþykki Vinnueftirlits ríkisins. Áskilin lokaúttekt byggingarfulltrúa. Áskilið samþykki heilbrigðiseftirlits.,"Sótt er um leyfi til þess að breyta skráningu (fækka rýmum), fella niður tvo stiga og breyta  innra fyrirkomulagi á efri hæð hússins á lóðinni nr. 5 við Gylfaflöt.  Bréf hönnuðar dags. 7. júlí 2000 fylgir erindinu. Gjald kr. 4.100"
21673 (01.14.010.8),http://gamli.rvk.is/vefur/owa/edutils.parse_page?nafn=BN021673,Hafnarstræti 7 ,Opnað milli lóða í kjallara,Frestað. Vantar samþykki húseigenda að Hafnarstræti 7.,Sótt er um leyfi til að tengja húsið á lóðinni nr. 7 við Hafnarstræti við húsið nr. 5 við Hafnarstræti og húsið nr. 28 við Tryggvagötu. Tenging verði gegnum eldvarnardyr og brunastúkur milli kjallara húsanna.  Gjald kr. 4.100
21466 (01.54.210.1),http://gamli.rvk.is/vefur/owa/edutils.parse_page?nafn=BN021466,Hagamelur 1 ,"Melaskóli, br. í kj. og á 2.hæð.",Samþykkt.  Samræmist ákvæðum laga nr. 73/1997. Áskilin lokaúttekt byggingarfulltrúa. Áskilið samþykki heilbrigðiseftirlits.,"Sótt er um leyfi til þess að stækka eldhús og innrétta matsal í kjallara, innrétta snyrtingar við stigagang og breyta skrifstofum ásamt smávægilegum innri breytingum í kjallara, á 1. hæð og 2. hæð eldra húss Melaskóla á lóð nr. 1 við Hagamel. Gjald kr. 4.100"
21622 (01.35.430.6),http://gamli.rvk.is/vefur/owa/edutils.parse_page?nafn=BN021622,Hjallavegur 15 ,anddyri fyrir 1.hæð og svalir fyrir 2.hæð. Klæðning að utan,Frestað. Málinu vísað til skipulags- og umferðarnefndar til ákvörðunar um grenndarkynningu.,"Sótt er um leyfi til þess að byggja anddyri úr timbri að norðurhlið húss, koma fyrir svölum á suðurhlið annarrar hæðar og einangra og klæða að utan með hvítum stálpanel húsið á lóðinni nr. 15 við Hjallaveg. Bréf hönnuðar dags. 1. ágúst 2000 og samþykki meðeigenda dags. 20. ágúst 2000 fylgja erindinu.  Stærð: Stækkun anddyri 8,53 ferm. og 20,7 rúmm. Gjald kr 4.100 + 849"
19718 (01.36.220.6),http://gamli.rvk.is/vefur/owa/edutils.parse_page?nafn=BN019718,Hofteigur 21,Nýr bílskúr,Samþykkt.  Samræmist ákvæðum laga nr. 73/1997. Frágangur á lóðamörkum verði gerður í samráði við lóðarhafa aðliggjandi lóða.,"Sótt er um leyfi til að byggja bílgeymslu úr steinsteypu á lóðinni nr. 21 við Hofteig. Bílgeymslan verði múruð með kvartssalla til samræmis við íbúðarhús að utan. Samþykki meðeigenda fylgir ýmist áritað á teikningu eða á ódagsettu fylgiskjali ásamt útskrift úr gerðabók skipulags- og umferðarnefndar frá 10. júlí 2000. Borgarskipulag kynnti erindið frá 5. júní til 4. júlí 2000. Stærðir: 36.8 ferm. og 95,6 rúmm. Gjald kr. 2.500 +  2.390"
21677 (01.11.150.1),http://gamli.rvk.is/vefur/owa/edutils.parse_page?nafn=BN021677,Hólmaslóð 2 ,br. á innra fyrirkomulagi og útliti,Frestað. Vísað til athugasemda á umsóknarblaði.,"Sótt er um leyfi til þess að breyta útliti (fellihurðir, gluggar) og breyta innra skipulagi og skráningu á báðum hæðum hússins á lóðinni nr. 2 við Hólmaslóð. Gjald kr. 4.100"
21684 (01.52.020.2),http://gamli.rvk.is/vefur/owa/edutils.parse_page?nafn=BN021684,Hringbraut 121 ,br. innra skipul. 2. hæð.,Frestað. Vísað til athugasemda á umsóknarblaði.,Sótt er um leyfi til þess að breyta skráningu og innrétta kennslu- og vinnustofur fyrir Myndlistaskólann í Reykjavík á annarri hæð hússins á lóðinni nr. 121 við Hringbraut.  Gjald kr 4.100
21563 (32.47.230.5),http://gamli.rvk.is/vefur/owa/edutils.parse_page?nafn=BN021563,Jörfagrund 34-36,Fjórbýlishús,Samþykkt.  Samræmist ákvæðum laga nr. 73/1997. Frágangur á lóðamörkum verði gerður í samráði við lóðarhafa aðliggjandi lóða. Áskilin lokaúttekt byggingarfulltrúa.,"Sótt er um leyfi til þess að byggja tvílyft, steinsteypt fjórbýli á lóðinni nr. 34-36 við Jörfagrund. Stærð: 1. hæð íbúðir 180,8 ferm., geymslur 10,4 ferm. 2. hæð íbúðir 181,6 ferm. Samtals 372,8 ferm. og 1199,6 rúmm. Gjald kr. 4.100 + 49.184"
21073 (01.36.111.4),http://gamli.rvk.is/vefur/owa/edutils.parse_page?nafn=BN021073,Kirkjuteigur 31,Kvistir,Frestað. Vísað til athugasemda á umsóknarblaði.,"Sótt er um leyfi til þess að byggja kvisti á norður-, suður- og vesturhlið og setja þakglugga á norður- og austurhlið hússins á lóðinni nr. 31 við Kirkjuteig. Einnig er sótt um samþykki fyrir nýrri skráningu matshluta 01 og 02 á lóðinni. Stærð: Stækkun xx rúmm. Samþykki meðeigenda dags. 15. maí 2000,  umsögn Borgarskipulags dags. 20. júní 2000 og umsögn Árbæjarsafns dags. 19. júní 2000 og útskrift úr gerðabók skipulags- og umferðarnefndar frá 21. ágúst 2000 fylgja erindinu. Gjald kr. 4.100 + xx"
20780 (01.34.100.3),http://gamli.rvk.is/vefur/owa/edutils.parse_page?nafn=BN020780,Kleppsvegur 2-6,2 íbúðir í stað verslunar,Samþykkt.  Samræmist ákvæðum laga nr. 73/1997. Áskilin lokaúttekt byggingarfulltrúa.,Sótt er um leyfi til að koma fyrir tveimur  íbúðum í suðurhluta  fyrstu hæðar hússins nr. 116 við Laugarnesveg (matshl. 04) á lóðinni nr. 2-6 við Kleppsveg. Í húsnæðinu var áður verslun.  Gjald kr. 4.100 Erindinu fylgir yfirlýsing stjórnar húsfélagsins dags. febrúar 2000.
21637,http://gamli.rvk.is/vefur/owa/edutils.parse_page?nafn=BN021637,Thorsvegur 1,Aðst. f. nemendur í þakrými o.fl.,Frestað. Vísað til fyrri athugasemda á umsóknarblaði.,"Sótt er um leyfi til þess að taka í notkun og innrétta ónotað þakrými í skólahluta byggingarinnar að Korpúlfsstöðum, einnig er sótt um leyfi til þess að fjölga þakgluggum og breyta handriðum skábrauta. Gjald kr. 4.100"
21415 (18.63.302 02),http://gamli.rvk.is/vefur/owa/edutils.parse_page?nafn=BN021415,Kvistaland 11 ,Hækka þak,Samþykkt 14. ágúst 2000.,"Sótt er um leyfi til þess að setja valmaþak á húsið nr. 11 á lóðinni nr. 9-15 við Kvistaland. Bréf umsækjanda (ódags.) og bréf hönnuðar dags. 18. ágúst 2000 fylgir erindinu. Samþykki meðlóðarhafa lóðarinnar nr. 9-15 (á teikn.) ásamt samþykki eiganda húss nr. 5 við Kvistaland (á teikn.)  fylgir erindinu.  Stærð: Stækkun 245,5 rúmm. Gjald kr. 4.100 + 10.066"
21278 (01.83.311.1),http://gamli.rvk.is/vefur/owa/edutils.parse_page?nafn=BN021278,Langagerði 124 ,Stækkun bílskúrs,Frestað. Vísað til athugasemda á umsóknarblaði.,"Sótt er um leyfi til að endurbyggja, breikka og hækka bílageymslu á lóðinni nr. 124 við Langagerði.  Stækkun: 7,7 ferm., 26 rúmm. Útskrift úr gerðabók skipulags- og umferðarnefndar frá 21. ágúst 2000 fylgir erindinu. Gjald kr. 4.100 + 1.066"
20989 (01.43.210.1),http://gamli.rvk.is/vefur/owa/edutils.parse_page?nafn=BN020989,Langholtsvegur 100,Bílskúr,Samþykkt.  Samræmist ákvæðum laga nr. 73/1997. Frágangur á lóðamörkum verði gerður í samráði við lóðarhafa aðliggjandi lóða. Þinglýsa skal yfirlýsingu vegna þakbrúnar.,"Sótt er um leyfi til þess að byggja tvöfaldan steinsteyptan bílskúr á lóðinni nr. 100 við Langholtsveg. Stærð: Bílskúr 56,2 ferm., 165,7 rúmm. Samþykki nágranna dags. 3. maí 2000 og útskrift úr gerðabók skipulags- og umferðarnefndar frá 21. ágúst 2000 fylgja erindinu. Gjald kr. 4.100 + 6.794"
21247 (01.44.110.6),http://gamli.rvk.is/vefur/owa/edutils.parse_page?nafn=BN021247,Langholtsvegur 142 ,Veggsvalir,Samþykkt.  Samræmist ákvæðum laga nr. 73/1997.,Sótt er um leyfi til að setja veggsvalir á vesturgafl hússins nr. 142 við Langholtsveg. Erindinu fylgir samþykki meðlóðarhafa áritað á teikningu. Útskrift úr gerðabók skipulags- og umferðarnefndar frá 21. ágúst 2000 fylgir erindinu. Gjald kr. 4.100
21081 (01.35.500.5),http://gamli.rvk.is/vefur/owa/edutils.parse_page?nafn=BN021081,Langholtsvegur 3,Stækkun og breytingar,Frestað. Málinu vísað til umsagnar Borgarskipulags.,"Sótt er um leyfi til þess að byggja  viðbyggingar vestur-, austur- og suðurhlið, klæða hús með standandi viðarklæðningu (húsið er forskalað að hluta og hlaðið að hluta)  og setja reykháf á þak hússins á lóðinni nr. 3 við Langholtsveg. Ástandsskýrsla vegna útveggja dags. 16. ágúst 2000 fylgir erindinu. Stærð: Viðbyggingar 29,7 ferm., 90,3 rúmm. Gjald kr. 4.100 + 3.702"
21700,http://gamli.rvk.is/vefur/owa/edutils.parse_page?nafn=BN021700,Laufásvegur Valur,Br. staðsetn flettiskilitis,Samþykkt.  Samræmist ákvæðum laga nr. 73/1997. Ítrekuð fyrri bókun frá 13. júlí s.l.,Sótt er um leyfi til að færa stakstætt auglýsingaskilti sem samþykkt var 13. júli 2000 á lóð Knattspyrnufélagsins Vals við Laufásveg (Hlíðarendi). Breytingin felur í sér færslu á skilti um  20 m til norðurs.  Gjald kr. 4.100
21520 (01.17.222.3),http://gamli.rvk.is/vefur/owa/edutils.parse_page?nafn=BN021520,Laugavegur 42 ,Br. á versl.húsn. og veitingast.,Erindið var samþykkt 18. ágúst 2000. Áskilin lokaúttekt byggingarfulltrúa. Áskilið samþykki heilbrigðiseftirlits.,Sótt er um leyfi til að breyta innra fyrirkomulagi fyrstu hæðar húsanna á lóðinni nr. 42 við Laugaveg. Í breytingum felst m.a. að fjarlægð verða buðarvirki og komið fyrir veitingastað.  Erindinu fylgir umsögn Borgarskipulags dags. 17. ágúst 2000 og umsögn burðarvirkishönnuðar dags. 17. ágúst 2000. Gjald kr. 4.100
21679 (01.19.520.3),http://gamli.rvk.is/vefur/owa/edutils.parse_page?nafn=BN021679,Leifsgata 8 ,Reyndarteikningar,Frestað. Vísað til athugasemda á umsóknarblaði.,Sótt er um leyfi til þess að breyta innra skipulagi íbúðar í kjallara (íbúð stækkar) og staðsetja geymslur allra íbúða á rishæð hússins á lóðinni nr. 8 við Leifsgötu. Gjald kr. 4.100
21496 (46.42.701 01),http://gamli.rvk.is/vefur/owa/edutils.parse_page?nafn=BN021496,Lóuhólar 2-4,Reyndarteikningar,Samþykkt.  Samræmist ákvæðum laga nr. 73/1997. Áskilin lokaúttekt byggingarfulltrúa.,"Sótt er um samþykki fyrir reyndarteikningum og leyfi til þess að byggja einlyfta viðbyggingu sem hýsir verslanir að suðurhlið hússins nr. 2-4 (matshl. 01) á lóðinni nr. 2-6 við Lóuhóla. Samþykki meðeiganda dags. 19. júlí fylgir erindinu Stærð: Stækkun viðbygging 74 ferm., 252 rúmm. Gjald kr. 4.100 + 10.332"
21525 (01.13.653.9),http://gamli.rvk.is/vefur/owa/edutils.parse_page?nafn=BN021525,Mjóstræti 3 ,Reyndarteikningar v/ eignaskipta,"Synjað. Samkvæmt samþykktum uppdráttum frá 9. apríl 1992 er innrétting kjallara geymslur, nú er sótt um leyfi fyrir áður gerðri íbúð í kjallara sem ekki fær staðist og er því málinu synjað.  Sjá einnig umsögn Borgarskipulags.","Sótt er um samþykki fyrir áður gerðri íbúð í kjallara, breyttu innra skipulagi á 1., 2. og 3. hæð, leyfi til þess að endurbyggja kjallaratröppur við vesturhlið hússins nr. 3 við Mjóstræti. Íbúðarskoðun byggingarfulltrúa dags.23. júní 2000, samþykki meðeigenda (á teikningu), virðingargjörð dags. 16. janúar 1917, umsögn Húsfriðunarnefndar dags. 20. júlí 2000, umsögn Árbæjarsafns dags. 4. ágúst 2000 og bréf hönnuðar dags. 17. júlí og 1. ágúst 2000 og umsögn Borgarskipulags dags. 21. ágúst 2000 fylgja erindinu. Gjald kr. 4.100"
21702 (02.37.610.1),http://gamli.rvk.is/vefur/owa/edutils.parse_page?nafn=BN021702,Mosavegur skóli,Br í eldhúsi og uppf eldvarnir,Samþykkt.  Samræmist ákvæðum laga nr. 73/1997. Áskilin lokaúttekt byggingarfulltrúa. Áskilið samþykki heilbrigðiseftirlits.,Sótt er um leyfi fyrir breytingum á innra fyrirkomulagi í eldhúsi á fyrstu hæð fjórða áfanga Borgarholtsskóla við Mosaveg og að hurðir í vindfangi opnist út. Jafnframt er sótt um samþykki fyrir uppfærðum brunavarnauppdráttum fyrir allt húsið. Gjald kr. 4.100
21488 (01.77.--9.6),http://gamli.rvk.is/vefur/owa/edutils.parse_page?nafn=BN021488,Nauthólsvík ,"Þjónustuhús f. strandgesti
",Frestað. Skipulagsferli ólokið.,"Sótt er um leyfi til þess að byggja þjónustuhús með aðstöðu fyrir strandgesti í Nauthólsvík. Húsið er  á einni hæð, burðarvirki er úr steinsteypu. Bréf gatnamálastjóra dags. 18. ágúst 2000 fylgir erindinu Stærð: Þjónustuhús 1. hæð 525,0 ferm. og 1829,3 rúmm. Gjald kr 4.100 + 75.00"
21491 (01.18.661.4),http://gamli.rvk.is/vefur/owa/edutils.parse_page?nafn=BN021491,Njarðargata 27 ,Gróðurhús m. heitum potti,Frestað. Hönnuður án tryggingar.,"Sótt er um leyfi til þess að byggja lítið gróðurhús úr áli og plexigleri með heitum potti á baklóð hússins á lóðinni nr. 27 við Njarðargötu. Stærð: Gróðurhús 7 ferm., 14,3 rúmm. Samþykki meðlóðarhafa og samþykki lóðarhafa að Nönnugötu 7 og lóðarhafa að Haðarstíg 2 fylgja erindinu. Gjald kr. 4.100 + 603"
21640 (04.12.310.2),http://gamli.rvk.is/vefur/owa/edutils.parse_page?nafn=BN021640,Ólafsgeisli 13-23,Raðhús m 6 íb.,Samþykkt.  Samræmist ákvæðum laga nr. 73/1997. Frágangur á lóðamörkum verði gerður í samráði við lóðarhafa aðliggjandi lóða. Áskilin lokaúttekt byggingarfulltrúa.,"Sótt er um leyfi til þess að byggja tvílyft steinsteypt raðhús með sex íbúðum og innbyggðum bílgeymslum. Gólfkótar eru hækkaðir um 30 sm fyrir hús nr. 19-23, 20 sm fyrir hús nr. 17 og 10 sm fyrir hús nr. 15 á lóð nr. 13-23 við Ólafsgeisla. Stærð: Nr. 13 (matshl. 01): 1. hæð íbúð 92,7 ferm. 2. hæð  73,9 ferm., bílgeymsla 32,8 fem. Samtals 199,4 ferm. og 603,1 rúmm. Nr. 15 (matshl. 02): Sjá nr. 13. Nr. 17 (matshl. 03): Sjá nr. 13. Nr. 19 (matshl. 04): 1. hæð íbúð 97,0 ferm. 2. hæð 73,7 ferm., bílgeymsla 32,6 ferm. Samtals 203,3 ferm. og 613,4 rúmm. Nr. 21 (matshl. 05): Sjá nr. 19. Nr. 23 (matshl. 06): Sjá nr. 19. Byggingarmagn samtals á lóð: 1208,1 ferm. og 3649,5 rúmm. Gjald kr. 4.100 + 149.630"
21582 (04.12.660.1),http://gamli.rvk.is/vefur/owa/edutils.parse_page?nafn=BN021582,Ólafsgeisli 20 - 28,Tvíbýlishús nr. 20,Samþykkt.  Samræmist ákvæðum laga nr. 73/1997. Frágangur á lóðamörkum verði gerður í samráði við lóðarhafa aðliggjandi lóða.,"Sótt er um leyfi til þess að byggja steinsteypt tvíbýlishús (matshluti 01) að hluta á 3. hæðum og með innbyggðum bílgeymslum á lóð nr. 20-28 við Ólafsgeisla. Stærð: Hús nr. 20 (matshluti 01) Íbúð 1. hæð 50,7 ferm., 2. hæð 124,4 ferm., íbúð 3. hæð 157,3 ferm., bílgeymslur 56,8 ferm., samtals 389 ferm., 1.189,6 rúmm. Gjald kr. 4.100 + 48.774"
21580 (04.12.660.1),http://gamli.rvk.is/vefur/owa/edutils.parse_page?nafn=BN021580,Ólafsgeisli 20 - 28,Tvíbýlishús nr. 24,Samþykkt.  Samræmist ákvæðum laga nr. 73/1997. Frágangur á lóðamörkum verði gerður í samráði við lóðarhafa aðliggjandi lóða.,"Sótt er um leyfi til þess að byggja steinsteypt tvíbýlishús (matshluta 03) að hluta á þrem hæðum og með innbyggðum bílgeymslum á lóð nr. 20-28 við Ólafsgeisla. Stærð: Hús nr. 24 (matshluti 03) íbúð 1. hæð 50,7 ferm., 2. hæð 131,8 ferm., íbúð 3. hæð 137,9 ferm., bílgeymslur 54,2 ferm., samtals 374,6 ferm., 1166,2 rúmm. Gjald kr. 4.100 + 47.814"
21585 (04.12.660.1),http://gamli.rvk.is/vefur/owa/edutils.parse_page?nafn=BN021585,Ólafsgeisli 20 - 28,Tvíbýlishús nr. 26,Samþykkt.  Samræmist ákvæðum laga nr. 73/1997. Frágangur á lóðamörkum verði gerður í samráði við lóðarhafa aðliggjandi lóða.,"Sótt er um leyfi til þess að byggja tvílyft steinsteypt tvíbýlishús (matshluta 04) með innbyggðum bílgeymslum á lóð nr. 20- 28 við Ólafsgeisla. Stærð: Hús nr. 26 (matshluti 04) íbúð 1. hæð 145,3 ferm., íbúð 2. hæð 137,9 ferm., bílgeymslur 54,2 ferm., samtals 337,4 ferm., 1081,5 rúmm. Gjald kr. 4.100 + 44.342"
21583 (04.12.660.1),http://gamli.rvk.is/vefur/owa/edutils.parse_page?nafn=BN021583,Ólafsgeisli 20 - 28,Tvíbýlishús nr. 28,Samþykkt.  Samræmist ákvæðum laga nr. 73/1997. Frágangur á lóðamörkum verði gerður í samráði við lóðarhafa aðliggjandi lóða.,"Sótt er um leyfi til þess að byggja tvílyft steinsteypt tvíbýlishús( matshluti 05) með innbyggðum bílgeymslum á lóð nr. 20-28 við Ólafsgeisla. Stærð: Hús nr. 28 (matshluti 05) íbúð 1. hæð 137,9 ferm., íbúð 2. hæð 144,5 ferm., bílgeymslur 56,8 ferm., samtals 339,2 ferm., 1047,3 rúmm. Gjald kr. 4.100 + 42.939"
21581 (04.12.660.1),http://gamli.rvk.is/vefur/owa/edutils.parse_page?nafn=BN021581,Ólafsgeisli 20 - 28,Tvíbýlishús nr. 22,Samþykkt.  Samræmist ákvæðum laga nr. 73/1997. Frágangur á lóðamörkum verði gerður í samráði við lóðarhafa aðliggjandi lóða.,"Sótt er um leyfi til þess að byggja tvílyft steinsteypt tvíbýlishús (matshluti 02) með innbyggðum bílgeymslum á lóð nr. 20-28 við Ólafsgeisla. Stærð: Hús nr. 22 (matshluti 02) Íbúð 1. hæð 145,3 ferm., íbúð 2. hæð 137,9 ferm., bílgeymslur 54,2 ferm., samtals 337,4 ferm., 1081,5 rúmm. Gjald kr. 4.100 + 44.342"
21611 (04.12.320.1),http://gamli.rvk.is/vefur/owa/edutils.parse_page?nafn=BN021611,Ólafsgeisli 25 ,Einbýlish. m. bílg.,Samþykkt.  Samræmist ákvæðum laga nr. 73/1997. Frágangur á lóðamörkum verði gerður í samráði við lóðarhafa aðliggjandi lóða.,"Sótt er um leyfi til þess að byggja tvílyft steinsteypt einbýlishús með innbyggðri bílgeymslu á neðri hæð á lóðinni nr. 25 við Ólafsgeisla. Stærð: 1. hæð bílgeymsla 24,7 ferm., íbúð 87,3 ferm., 2. hæð 96,2 ferm., samtals 208,2 ferm. og  719,4 rúmm. Gjald kr. 4.100 + 29.495"
21683 (04.12.360.1),http://gamli.rvk.is/vefur/owa/edutils.parse_page?nafn=BN021683,Ólafsgeisli 2-6,breyting á húsi nr. 6,Samþykkt.  Samræmist ákvæðum laga nr. 73/1997. Frágangur á lóðamörkum verði gerður í samráði við lóðarhafa aðliggjandi lóða.,"Sótt er um leyfi til að koma fyrir geymslum í rými milli sökkla undir bifreiðageymslum húss nr. 6 (matshl. 03) á lóðinni nr. 2-6 við Ólafsgeisla. Stækkun: 59,6 ferm. og 178,8 rúmm. Gjald kr. 4.100 + 7.330"
21522 (04.12.650.1),http://gamli.rvk.is/vefur/owa/edutils.parse_page?nafn=BN021522,Ólafsgeisli 8-12,Tvíbýlishús nr. 8,Samþykkt.  Samræmist ákvæðum laga nr. 73/1997. Frágangur á lóðamörkum verði gerður í samráði við lóðarhafa aðliggjandi lóða.,"Sótt er um leyfi til að byggja tvíbýlishús nr. 8 á lóðinni nr. 8-12 við Ólafsgeisla. Húsið verði tvílyft með tveimur innbyggðum bílgeymslum á efri hæð, útveggir ýmist pússaðir með salla úr náttúrusteini, klæddir timbri eða klæddir bárujárni og þak lagt pappa. Stærðir: Neðri hæð (1. hæð) 186 ferm., efri hæð íbúð 130 ferm.,  bílgeymslur 51 ferm. Samtals 367 ferm., 1081 rúmm. Gjald kr. 4.100 + 44.345"
21560 (04.12.650.1),http://gamli.rvk.is/vefur/owa/edutils.parse_page?nafn=BN021560,Ólafsgeisli 8-12,Tvíbýlishús nr. 12,Samþykkt.  Samræmist ákvæðum laga nr. 73/1997. Frágangur á lóðamörkum verði gerður í samráði við lóðarhafa aðliggjandi lóða.,"Sótt er um leyfi til að byggja tvíbýlishús nr. 12 á lóðinni nr. 8-12 við Ólafsgeisla. Húsið verði þrílyft með tveimur innbyggðum bílgeymslum á efstu hæð, útveggir ýmist pússaðir með salla úr náttúrusteini, klæddir timbri eða klæddir bárujárni og þak lagt pappa. Stærðir: 1. hæð 46,8 ferm., 2. hæð 180,5 ferm., 3. hæð íbúð 130 ferm.,  bílgeymslur 51, ferm., samtals 408,3 ferm., 1210 rúmm. Gjald kr. 4.100 + 49.622"
21559 (04.12.650.1),http://gamli.rvk.is/vefur/owa/edutils.parse_page?nafn=BN021559,Ólafsgeisli 8-12,Tvíbýlishús nr. 10,Samþykkt.  Samræmist ákvæðum laga nr. 73/1997. Frágangur á lóðamörkum verði gerður í samráði við lóðarhafa aðliggjandi lóða.,"Sótt er um leyfi til að byggja tvíbýlishús nr. 10 á lóðinni nr. 8-12 við Ólafsgeisla. Húsið verði þrílyft með tveimur innbyggðum bílgeymslum á efstu hæð, útveggir ýmist pússaðir með salla úr náttúrusteini, klæddir timbri eða klæddir bárujárni og þak lagt pappa. Stærðir: 1. hæð 46,8 ferm., 2. hæð 180,5 ferm., 3. hæð íbúð 130 ferm.,  bílgeymslur 51 ferm., samtals 408,3 ferm., 1210 rúmm. Gjald kr. 4.100 + 49.622"
21574 (04.12.610.8),http://gamli.rvk.is/vefur/owa/edutils.parse_page?nafn=BN021574,Ólafsgeisli 73 ,Einbýlishús m. bílg.,Samþykkt.  Samræmist ákvæðum laga nr. 73/1997. Frágangur á lóðamörkum verði gerður í samráði við lóðarhafa aðliggjandi lóða.,"Sótt er um leyfi til þess að byggja tvílyft steinsteypt einbýlishús með innbyggðri bílgeymslu á lóð nr. 73 við Ólafsgeisla. Stærð: Íbúð 1. hæð 84,4 ferm., 2. hæð 102,9 ferm., bílgeymsla 22,5 ferm., samtals 209,8 ferm., 632,7 rúmm. Gjald kr. 4.100 + 25.941"
21462 (04.25.720.3),http://gamli.rvk.is/vefur/owa/edutils.parse_page?nafn=BN021462,Rafstöðvarv. 33 -33A,Vinnustofa til vesturs,Samþykkt.  Samræmist ákvæðum laga nr. 73/1997. Frágangur á lóðamörkum verði gerður í samráði við lóðarhafa aðliggjandi lóða.,"Sótt er um leyfi til að byggja vinnustofu vestan við húsið á lóðinni nr. 33-33A við Rafstöðvarveg. Vinnustofan, sem verður að mestu í jörðu, verði byggð úr steinsteypu og klædd að utan með timburklæðningu. Innangengt verði úr kjallara húss nr. 33A en á þaki verði verönd. Jafnframt er sótt um breytingu á skráningu hússins og að hús nr. 33 verði matshluti 01, hús nr. 33A verði matshluti 02 og viðbygging verði matshluti 03. Samþykki meðlóðarhafa ódagsett  fylgir erindinu. Stærð: Samtals 74,6 ferm., 307,2 rúmm. Gjald kr. 4.100 + 12.595"
21399 (01.24.400.1 05),http://gamli.rvk.is/vefur/owa/edutils.parse_page?nafn=BN021399,Rauðarárst 31-Þverh18,"Br innra frkl, brunavarnir, milligólf",Frestað. Gera grein fyrir bílastæðum vegna stækkunar.,"Sótt er um leyfi til að breyta innra fyrirkomulagi í húsinu nr. 18 við Þverholt (matshluta 05 og 06) á lóðinni Rauðarárstígur 31-Þverholt 18. Breytingar varða m.a. brunavarnir og ný milligólf. Stækkun matshl. 05: 45,9 ferm. Gjald kr. 4.100"
21497 (01.13.601.5),http://gamli.rvk.is/vefur/owa/edutils.parse_page?nafn=BN021497,Ránargata 6 ,Breytingar inni og úti,Frestað. Málinu vísað til skipulags- og umferðarnefndar til ákvörðunar um grenndarkynningu. Vísað til athugasemda á umsóknarblaði.,Sótt er um leyfi til þess að breyta innra skipulagi og innrétta þrjár íbúðir í húsinu á lóðinni nr. 6 og 6Avið Ránargötu. Breytingar felast aðallega í því að stigar eru færðir út úr húsinu og byggður sameiginlegur stigi fyrir Ránargötu 6 og 6A í bakgarði húsanna. Virðingargjörð dags. 1. júní 1947 fylgir erindinu. Bréf hönnuðar dags. 18. júlí 2000 fylgir erindinu. Skoðunarskýrsla byggingarfulltrúa dags. 3. ágúst 2000 fylgir erindinu. Gjald kr. 4.100
21499 (01.13.601.6),http://gamli.rvk.is/vefur/owa/edutils.parse_page?nafn=BN021499,Ránargata 6A,Breytingar úti og inni,Frestað. Málinu vísað til skipulags- og umferðarnefndar til ákvörðunar um grenndarkynningu. Vísað til athugasemda á umsóknarblaði.,"Sótt er um leyfi til þess að breyta innra skipulagi og innrétta þrjár íbúðir í húsinu á lóðinni nr. 6 og 6A við Ránargötu. Breytingar felast aðallega í því að stigar eru færðir út úr húsinu og byggður sameiginlegur stigi fyrir Ránargötu 6 og 6A í bakgarði húsanna. Virðingargjörð dags. 1. apríl 1942 fylgir erindinu. Bréf hönnuðar dags. 18. júlí 2000 fylgir erindinu. Skoðunarskýrsla byggingarfulltrúa (fyrir rísíbúð í húsi nr. 6, sem er eins hús) dags. 3. ágúst 2000 fylgir erindinu. Gjald kr. 4.100"
21463 (02.54.600.1),http://gamli.rvk.is/vefur/owa/edutils.parse_page?nafn=BN021463,Rósarimi 11 ,Færanlegar kennslustofur,Samþykkt.  Samræmist ákvæðum laga nr. 73/1997. Frágangur á lóðamörkum verði gerður í samráði við lóðarhafa aðliggjandi lóða. Áskilin lokaúttekt byggingarfulltrúa. Áskilið samþykki heilbrigðiseftirlits.,"Sótt er um leyfi til þess að koma fyrir tveimur færanlegum kennslustofum með tengibyggingu á lóð Rimaskóla nr. 11 við Rósarima.Stofurnar verði úr timbri og staðsettar norðvestan við fimm færanlegar kennslustofur sem fyrir eru á lóðinni. Erindinu fylgir samþykki ellefu lóðarhafa í Rósarima, að hluta með skilyrðum, dags. ágúst 2000. Stærð: 137,7 ferm. og 433,9 rúmm. Gjald kr. 4.100 + 17.791"
21429 (01.19.340.3),http://gamli.rvk.is/vefur/owa/edutils.parse_page?nafn=BN021429,Snorrabraut 60 ,Viðbygging,Samþykkt.  Samræmist ákvæðum laga nr. 73/1997. Frágangur á lóðamörkum verði gerður í samráði við lóðarhafa aðliggjandi lóða. Áskilin lokaúttekt byggingarfulltrúa. Áskilið samþykki Vinnueftirlits ríkisins. Áskilið samþykki heilbrigðiseftirlits. Gera skal sérstaka úttekt á hljóðstigi frá útblæstri frá varaaflstöðinni. Mánaðarlegar prófunartími skal ákveðin í samráði við byggingarfulltrúa.,"Sótt er um leyfi til þess að byggja einnar hæðar steinsteypta viðbyggingu fyrir varaaflstöð og gaskúta við norðurgafl 1. hæðar á lóð nr. 60 við Snorrabraut. Samþykki nágranna (með fyrirvara) dags. 5. júlí 2000 fylgir erindinu. Stærð: Viðbygging 47,3 ferm., 143,9 rúmm. Gjald kr. 4.100 + 5.900"
21612 (01.23.220.2),http://gamli.rvk.is/vefur/owa/edutils.parse_page?nafn=BN021612,Sóltún 30 ,Br. úti - afnotaréttur lóðar,Samþykkt.  Samræmist ákvæðum laga nr. 73/1997.,Sótt er um leyfi fyrir afmörkun sérnotaflata sunnan við íbúðir 1. hæðar og breyttum frágangi lóðar að norðurhlið húss á lóð nr. 30 við Sóltún. Erindinu fylgir skriflegt samþykki 36 húseigenda og yfirlýsing formanns húsfélags dags. 16. ágúst 2000. Gjald kr. 4.100
21686 (04.08.470.1),http://gamli.rvk.is/vefur/owa/edutils.parse_page?nafn=BN021686,Stórhöfði 25-27,"br á innra frkl, eignaafmörkun ofl",Frestað. Vísað til athugasemda á umsóknarblaði.,"Sótt er um leyfi til að breyta innra fyrirkomulagi, eignaafmörkun og skráningu húsanna nr. 25 og 27 (matshl. 01 og 02) á lóðinni nr. 25-27 við Stórhöfða. Gjald kr. 4.100"
21186 (04.92.230.7),http://gamli.rvk.is/vefur/owa/edutils.parse_page?nafn=BN021186,Strýtusel 13 ,Viðbygging,Samþykkt.  Samræmist ákvæðum laga nr. 73/1997.,"Sótt er um leyfi til þess að byggja viðbyggingu úr steinsteypu að norðurhlið hússins nr. 13 við Strýtusel. Stærð: Viðbygging 30,7 ferm., 107,4 rúmm. Útskrift úr gerðabók skipulags- og umferðarnefndar frá 21. ágúst 2000 fylgir erindinu. Gjald kr. 4.100 + 4.403"
21381 (01.26.400.1),http://gamli.rvk.is/vefur/owa/edutils.parse_page?nafn=BN021381,Suðurlandsbr. 18 ,Klæðning og gluggar.,Samþykkt.  Samræmist ákvæðum laga nr. 73/1997.,"Sótt er um leyfi til þess að breyta gluggum á fyrstu og fimmtu hæð og klæða að utan húsið á lóðinni nr. 18 við Suðurlandsbraut. Fyrsta hæð og stigahús byggingarinnar verða klæddar flísum úr slípuðu gabbrói, aðrar hæðir verða klæddar ljósbrúnum steinflísum. Greinargerð vegna ástands steinsteypu dags. 9. maí 2000 og bréf hönnuðar dags. 28. júní 2000 fylgir erindinu. Gjald kr. 4.100"
21644 (01.53.101.3),http://gamli.rvk.is/vefur/owa/edutils.parse_page?nafn=BN021644,Sörlaskjól 90 ,Tveir kvistir,"Frestað. Vantar stærðir í ferm., og rúmm.","Sótt er um leyfi til þess að byggja tvo kvisti, einn á norðurhlið og hinn á suðurhlið hússins á lóðinni nr. 90 við Sörlaskjól. Samþykki meðeigenda dags. 1. ágúst 2000 fylgir erindinu. Gjald kr. 4.100"
21516 (01.14.310.5),http://gamli.rvk.is/vefur/owa/edutils.parse_page?nafn=BN021516,Tjarnargata 47 ,"Innra frkl, áður gerð íb í kj, br. á kjgluggum ofl",Frestað. Vísað til athugasemda á umsóknarblaði.,"Sótt er um leyfi fyrir breytingum á  innra fyrirkomulagi  hússins nr. 47 við Tjarnargötu í samræmi við meðfylgjandi teikningar. Í breytingunum felast m.a. breytingar á innra fyrirkomulagi allra hæða, þ.á.m. rishæðar, breytingar á burðarvirki, stækkun kjallaraglugga á austurhlið, breyting á afmörkun eigna og samþykki fyrir áður gerðri íbúð í kjallara og fyrirhuguðum breytingum á henni.  Erindinu fylgir bréf hönnuðar dags. 17. júlí 2000, skoðunarskýrsla byggingarfulltrúa dags. 8. júní 2000, staðfesting um starfsábyrgðartryggingu dags. 17. ágúst 2000, virðingargjörð dags. 2. janúar 1943 og samþykki meðeigenda dags. 7. ágúst 2000. Gjald kr. 4.100"
21537 (01.45.410.1),http://gamli.rvk.is/vefur/owa/edutils.parse_page?nafn=BN021537,Tranavogur 5 ,Breytingar,Samþykkt.  Samræmist ákvæðum laga nr. 73/1997.,"Sótt er um leyfi til þess að fjarlægja skorstein á þaki og skyggni yfir inngangi, stækka inngangsdyr og setja svalir á suðurhlið, breyta innra skipulagi og klæða utan með loftræstri Duropal klæðningu húsið á lóðinni nr. 5 við Tranavog. Ástandsskýrsla dags. 19. júlí 2000 fylgir erindinu. Bréf hönnuðar dags. 7. júní 2000 fylgir erindinu. Gjald kr. 4.100"
21674 (01.83.311.5),http://gamli.rvk.is/vefur/owa/edutils.parse_page?nafn=BN021674,Tunguvegur 28 ,Breytingar úti. Nýjar svalir og útistigi,Frestað. Vísað til athugasemda á umsóknarblaði.,Sótt er um leyfi til þess að byggja svalir að suðurhlið annarrar hæðar hússins á lóðinni nr. 28 við Tunguveg. Svalir í líkingu við þessar voru samþykktar á fundi byggingarnefndar 25. maí 1982 en hafa ekki verið byggðar. Skilyrt samþykki meðeigenda (á teikn.) fylgir erindinu. Gjald kr. 4.100
19980 (01.15.241.6),http://gamli.rvk.is/vefur/owa/edutils.parse_page?nafn=BN019980,Vatnsstígur 11,Reyndarteikningar,Frestað. Vísað til athugasemda á umsóknarblaði. Umsækjandi sameini mál nr. 17739 og 19980.,Sótt er um samþykki fyrir núverandi innra skipulagi og fyrir svölum á norðurhlið hússins á lóðinni nr. 11 við Vatnsstíg.  Gjald kr. 2.500
17739 (01.15.241.6),http://gamli.rvk.is/vefur/owa/edutils.parse_page?nafn=BN017739,Vatnsstígur 11,"Kvistir, svalir ofl.",Frestað. Vísað til athugasemda á umsóknarblaði. Umsækjandi sameini mál nr. 17739 og 19980.,"Sótt er um leyfi til þess að byggja kvisti og svalir, breyta gluggum og fyrir samþykki íbúða 1., 2. hæðar og rishæðar hússins nr. 11 við Vatnsstíg. Stærð: Sjö kvistir samtals 19,3 rúmm. Gjald kr. 2.500 + 483 Bréf Félagsmálastofnunar dags. 19. október 1998 fylgir erindinu. Útskrift úr gerðabók skipulags- og umferðarnefndar frá 7. desember 1998 fylgir erindinu ásamt umsögn Borgarskipulags dags. 1. desember 1998."
21480 (01.13.610.2),http://gamli.rvk.is/vefur/owa/edutils.parse_page?nafn=BN021480,Vesturgata 3 ,breytingar,Frestað. Vísað til athugasemda á umsóknarblaði.,"Sótt er um leyfi fyrir breytingum á útliti norðurhliðar kjallara  (inngangi breytt), stækkun kjallara (óútgrafið rými) og breyttu innra skipulagi í kjallara (Tabasbar) og á fyrstu hæð Hlaðvarpans á lóðinni nr. 3 við Vesturgötu. Bréf Húsafriðunarnefndar dags. 20. júlí 2000 og bréf umsækjanda dags. 17. júlí fylgja erindinu. Bréf Árbæjarsafns dags. 18. ágúst 2000 og bréf Íbúasamtaka Grjótaþorps dags. 18. ágúst 2000, umsögn Borgarskipulags dags. 21. ágúst 2000 og bréf Kolbeins Árnasonar dags. 21. ágúst 2000 fylgja erindinu. Stærð: Stækkun kjallari (sorpgeymsla) 8,4 ferm. og 21,5 rúmm. Gjald kr. 4.100 + 882"
21680 (01.18.320.9),http://gamli.rvk.is/vefur/owa/edutils.parse_page?nafn=BN021680,Þingholtsstræti 24 ,Reyndarteikningar,Frestað. Vísað til athugasemda á umsóknarblaði.,Sótt er um samþykki fyrir reyndarteikningum og áður gerðum íbúðum (húsið er byggt 1905 og var upphaflega einbýli) í húsinu á lóðinni nr. 24 við Þingholtsstræti vegna gerðar eignaskiptayfirlýsingar.  Virðingargjörð dags. 8. apríl 1927 fylgir erindinu. Gjald kr. 4.100
21690 (01.24.370.5),http://gamli.rvk.is/vefur/owa/edutils.parse_page?nafn=BN021690,Flókagata 9 ,Fella tré,Samþykkt. Með vísað til umsagnar garðyrkjustjóra.,Sótt er um leyfi til þess að fella tré á lóðinni nr. 9 við Flókagötu. Umsögn garðyrkjustjóra dags. 18. ágúst 2000 fylgir erindinu.
21692 (01.82.430.2),http://gamli.rvk.is/vefur/owa/edutils.parse_page?nafn=BN021692,Garðsendi 21 ,Fella tré,Samþykkt. Með vísað til umsagnar garðyrkjustjóra.,Sótt er um leyfi til þess að fella tré á lóðinni nr. 21 við Garðsenda. Umsögn garðyrkjustjóra dags. 21. ágúst 2000 fylgir erindinu.
21693 (01.38.010.6),http://gamli.rvk.is/vefur/owa/edutils.parse_page?nafn=BN021693,Laugarásvegur 5 ,Fella tré,Samþykkt. Með vísað til umsagnar garðyrkjustjóra.,Sótt er um leyfi til þess að fella tré á lóðinni nr. 5 við Laugarásveg. Umsögn garðyrkjustjóra dags. 18. ágúst 2000 fylgir erindinu.
21694 (01.18.443.8),http://gamli.rvk.is/vefur/owa/edutils.parse_page?nafn=BN021694,Óðinsgata 30 ,Fella tré,Samþykkt. Með vísað til umsagnar garðyrkjustjóra.,Sótt er um leyfi til þess að fella tré á lóðinni nr. 30 við Óðinsgötu. Umsögn garðykjustjóra dags. 18. ágúst 2000 fylgir erindinu.
21299 (01.18.030.9),http://gamli.rvk.is/vefur/owa/edutils.parse_page?nafn=BN021299,Bergstaðastræti 13 ,(fsp) Endurnýjun á byggingarleyfi,Frestað. Byggingarleyfi frá 31. maí 1990 er fallið úr gildi en byggingarleyfi gildir einungis í eitt ár frá útgáfu þess. Að öðru leyti vísast til meðfylgjandi umsagnar Borgarskipulags.,F. h. dánarbús Vilhjálms H. Vilhjálmssonar er spurt hvort byggingarleyfi fyrir Bergstaðastræti 13 í samræmi við uppdrætti sem samþykktir voru í byggingarnefnd Reykjavíkur hinn 31. maí 1990 sé í gildi. Ef svo er ekki er spurt hvort hægt sé að fá það endurnýjað. Umsögn Borgarskipulags dags. 15. ágúst 2000 fylgir erindinu.
21665 (01.13.500.1),http://gamli.rvk.is/vefur/owa/edutils.parse_page?nafn=BN021665,Bræðraborgarst 1 ,fsp. dagheimili o.fl.,Frestað. Málinu vísað til umsagnar Borgarskipulags og til Leikskóla Reykjavíkur.,Spurt er hvort leyft yrði að breyta atvinnuhúsnæði á fyrstu hæð í dagheimili og koma fyrir tveimur bílastæðum á lóðinni nr. 1 við Bræðraborgarstíg.
21670 (01.45.430.1),http://gamli.rvk.is/vefur/owa/edutils.parse_page?nafn=BN021670,Dugguvogur 12 ,"fsp. br. innra fyrirkomul. á 4.hæð. 
Fyrirhugað að setja upp líkamsrætarstöð",Frestað. Málinu vísað til umsagnar Borgarskipulags.,Spurt er hvort leyft yrði að innrétta líkamsræktarstöð í húsnæði sem skráð er sem skrifstofuhúsnæði á fjórðu hæð hússins á lóðinni nr. 12 við Dugguvog.
21641 (01.54.140.4),http://gamli.rvk.is/vefur/owa/edutils.parse_page?nafn=BN021641,Grenimelur 3 ,(Fsp) Stækka kvist,Frestað. Málinu vísað til umsagnar Borgarskipulags.,Spurt er hvort leyft yrði að stækka og breyta kvistum og útbúa svalir til suðurs (garðhlið) á þaki hússins nr. 3 við Grenimel. Samþykki meðeigenda (á teikn.) fylgir erindinu. Bréf umsækjanda dags. 3. ágúst og 15. ágúst 2000 fylgir erindinu.
21482 (01.15.150.6),http://gamli.rvk.is/vefur/owa/edutils.parse_page?nafn=BN021482,Klapparstígur 18 ,"lokun svala, kvistir og svalir á rislofti",Frestað. Málinu vísað til umsagnar skipulags- og umferðarnefndar. Vísað til athugasemda á umsóknarblaði.,"Spurt er hvort leyft yrði að loka svölum að hluta á annarri og þriðju hæð, loka svölum fjórðu hæðar, stækka áður samþykktan kvist á austurhlið fimmtu hæðar (sjá samþ. frá 11. maí 1999) og  byggja kvist og svalir á vesturhlið fimmtu hæðar hússins á lóðinni nr. 18 við Klapparstíg. Bréf umsækjanda dags. 13. júlí 2000 fylgir erindinu. Minnisblað / vinnuskjal til borgarlögmanns dags. 28. apríl 2000 og bréf byggingarfulltrúaembættisins dags. 28. mars 2000 fylgja erindinu."
21668 (01.18.110.1),http://gamli.rvk.is/vefur/owa/edutils.parse_page?nafn=BN021668,Lokastígur 2 ,Breytingar,Frestað. Málinu vísað til umsagnar Borgarskipulags.,Spurt er hvort leyft yrði að byggja garðskála að suðvesturhlið hússins nr. 2 við Lokastíg.
21689 (01.18.101.3),http://gamli.rvk.is/vefur/owa/edutils.parse_page?nafn=BN021689,Týsgata 8 ,(fsp) -Svalir ,Frestað. Málinu vísað til umsagnar gatnamálastjóra vegna þess að svalir ganga yfir gangstétt.,Spurt er hvort leyft yrði að stækka svalir á þriðju og fjórðu hæð og koma fyrir svölum á annarri hæð á suðurhlið hússins á lóðinni nr. 8 við Týsgötu.
