nr,url,heimilisfang,tegund,nidurstada,spurning
22077 (01.43.110.1),http://gamli.rvk.is/vefur/owa/edutils.parse_page?nafn=BN022077,Álfheimar 38-42,reyndart. v/eignaskiptasamninga,Frestað. Vísað til athugasemda á umsóknarblaði.,"Sótt er um leyfi fyrir breytingum á innra fyrirkomulagi í kjöllurum húsanna nr. 38, 40 og 42 (matshl. 01,  02 og 03) á lóðinni nr. 38-42 við Álfheima.  Gjald kr. 4.100"
21205 (02.40.730.4),http://gamli.rvk.is/vefur/owa/edutils.parse_page?nafn=BN021205,Bakkastaðir 135 ,Sólpallur og skjólv.,Frestað. Vantar samþykki lóðarhafa að Bakkastöðum 137.,Sótt er um leyfi til þess að byggja sólpall og skjólveggi við vesturhlið hússins á lóðinni nr. 135 við Bakkastaði. Gjald kr. 4.100
22087 (01.19.022.2),http://gamli.rvk.is/vefur/owa/edutils.parse_page?nafn=BN022087,Bergþórugata 13 ,byggja hæð og ris ofan á húsið,Synjað. Með vísan til umsagnar Borgarskipulags dags. 20. júní 2000 svo og framlagðra gagna með fyrirspurn frá 6. júní 2000.,"Sótt er um leyfi til þess að byggja opið fjögurra hæða stigahús úr stáli og hæð og ris úr steinsteypu ofan á húsið á lóðinni nr. 13 við Bergþórugötu, í húsinu verða þá alls fjórar íbúðir. Einnig er sótt um leyfi til þess að rífa skúr og koma fyrir fjórum bílastæðum á lóð hússins. Bréf Borgarskipulags dags. 20. júní 2000 fylgir erindinu. Stærð: Stækkun, 3. hæð íbúð 95,0 ferm., 4. hæð (ris) 95,4 ferm. Samtals 190,4 ferm. og 495,7 rúmm. Gjald kr. 4.100 + 20.324"
22081 (01.22.110.1),http://gamli.rvk.is/vefur/owa/edutils.parse_page?nafn=BN022081,Borgartún 24 ,Hækkun á framhúsi um 1 hæð,Frestað. Vísað til athugasemda á umsóknarblaði. Málinu vísað til umsagnar Borgarskipulags.,Sótt er um leyfi til að byggja eina skrifstofuhæð ofan á nyrsta hluta hússins nr. 24 við Borgartún (matshl. 04). Burðarvirki verða að mestu úr stáli og límtré en veggir að mestu úr glereiningum. Á þaki verður dúkur. Erindinu fylgir bréf hönnuðar dags. 31. okt. 2000. Stærðir: xx Gjald kr. 4.100 + xx
22017 (02.42.430.5),http://gamli.rvk.is/vefur/owa/edutils.parse_page?nafn=BN022017,Brúnastaðir 61,Br. á gluggum og innra fyrirkomul.,Frestað. Vísað til athugasemda á umsóknarblaði.  Bent er á að skoða betur stærð og staðsetningu geymsluherbergis í húsinu.,"Sótt er um leyfi til þess að breyta gluggum á vesturhlið, stækka eldhús, færa þvottaherbergi og breyta geymslurými í húsinu á lóðinni nr. 61 við Brúnastaði. Gjald kr. 4.100"
22043 (01.13.500.1),http://gamli.rvk.is/vefur/owa/edutils.parse_page?nafn=BN022043,Bræðraborgarst 1 ,Verslun br. í dagheimili.,Frestað. Vísað til athugasemda á umsóknarblaði.,Sótt er um leyfi til þess að breyta atvinnuhúsnæði á fyrstu hæð í dagheimili og koma fyrir tveimur bílastæðum á lóðinni nr. 1 við Bræðraborgarstíg. Umsögn Borgarskipulags dags. 4. september 2000 og umsögn Leikskóla Reykjavíkur dags. 5. september 2000 fylgja erindinu. Ásamt afritun af fundargerð Leikskólaráðs dags. 18. október 2000. Gjald kr. 4.100
22010 (02.57.580.4),http://gamli.rvk.is/vefur/owa/edutils.parse_page?nafn=BN022010,Bæjarflöt 6 ,reyndarteikningar,Frestað. Vísað til athugasemda á umsóknarblaði.,"Sótt er um samþykki fyrir reyndarteikningum af húsinu á lóðinni nr. 6 við Bæjarflöt. Klæðningu, dyrum og gluggasetningu er breytt á öllum hliðum hússins. Gjald kr. 4.100"
22085 (01.35.050.6),http://gamli.rvk.is/vefur/owa/edutils.parse_page?nafn=BN022085,Dalbraut 12,Bráðabirgðahús,Frestað. Vísað til athugasemda á umsóknarblaði.,"Sótt er um leyfi til þess að reisa bráðabirgðahús úr timbri á norðurhluta lóðar Barna- og unglingageðdeildar Landspítalans að Dalbraut. Stærð: Bráðabirgðahús 79,5 ferm., 235,6 rúmm. Gjald kr. 4.100 + 9.660"
22105 (02.34.480.4),http://gamli.rvk.is/vefur/owa/edutils.parse_page?nafn=BN022105,Dofraborgir 7 ,færa inntak vatns og hitaleiðslu,Samþykkt 3. nóvember 2000. Frágangur á lóðamörkum verði gerður í samráði við lóðarhafa aðliggjandi lóða.,Sótt er um leyfi til þess að hafa skriðrými með inntökum aukaíbúðar undir austurhluta efrihæðar hússins á lóð nr. 7 við Dofraborgir. Gjald kr. 4.100
20805 (01.24.410.3),http://gamli.rvk.is/vefur/owa/edutils.parse_page?nafn=BN020805,Einholt 6,Breyting á innra skipulagi,Frestað. Vísað til athugasemda á umsóknarblaði.,Sótt er um samþykki fyrir breyttu innra fyrirkomulagi í húsinu á lóðinni nr. 6 við Einholt. Gjald kr. 4.100 Bréf dags. 16. ágúst 1947 fylgir málinu.
22078 (01.55.321.1),http://gamli.rvk.is/vefur/owa/edutils.parse_page?nafn=BN022078,Fálkagata 17 ,reyndarteikningar v/eignaskiptasamninga,Frestað. Vísað til athugasemda á umsóknarblaði.,Sótt er um samþykki fyrir reyndarteikningum af húsinu á lóðinni nr. 17 við Fálkagötu vegna gerðar eignaskiptayfirlýsingar. Geymslum í kjallara hefur verið fjölgað. Gjald kr. 4.100
22079 (04.23.610.1),http://gamli.rvk.is/vefur/owa/edutils.parse_page?nafn=BN022079,Fiskakvísl  2-8,sólskáli,Frestað. Vísað til athugasemda á umsóknarblaði.,"Sótt er um leyfi til þess að byggja sólskála við suðurhlið endaraðhúss nr. 8 á lóð nr. 2-8 við Fiskakvísl. Samþykki meðlóðarhafa dags. 14. apríl 2000 fylgir erindinu. Stærð: Sólskáli 11,8 ferm., 29,6 rúmm. Gjald kr. 4.100 + 1.214"
21963 (01.24.720.2),http://gamli.rvk.is/vefur/owa/edutils.parse_page?nafn=BN021963,Flókagata 14 ,Áður gerð íb. í kj. og stækkun íb. á 2.h,Samþykkt.  Samræmist ákvæðum laga nr. 73/1997.,Sótt er um samþykki fyrir áður gerðri íbúð í kjallara og fyrir breytingu á innra skipulagi 2. hæðar fjöleignarhússins á lóð nr. 14 við Flókagötu. Virðingargjörð dags. 21. október 1938 og íbúðarskoðun byggingarfulltrúa dags. 23. október 2000 fylgja erindinu. Gjald kr. 4.100
22059 (02.42.710.7),http://gamli.rvk.is/vefur/owa/edutils.parse_page?nafn=BN022059,Garðsstaðir 56 ,hækka kóta og br. útivegg,Samþykkt.  Samræmist ákvæðum laga nr. 73/1997. Frágangur á lóðamörkum verði gerður í samráði við lóðarhafa aðliggjandi lóða.,Sótt er um leyfi til þess að hækka kóta hússins um 16 sm og breyta girðingu á suðausturhluta lóðar nr. 56 við Garðsstaði. Bréf umsækjanda dags. 24. október 2000 fylgir erindinu. Gjald kr. 4.100
22058 (01.51.700.4),http://gamli.rvk.is/vefur/owa/edutils.parse_page?nafn=BN022058,Granaskjól 23 ,Stoðveggur.,Frestað. Vantar samþykki lóðarhafa að Granaskjóli 25 og 27.,Sótt er um leyfi til þess að byggja stoðvegg á lóðarmörkum Granaskjóls 23 og 27 vegna framkvæmda við bílskúr á lóðinni nr. 23 við Granaskjól. Gjald kr. 4.100
21655 (01.52.120.5),http://gamli.rvk.is/vefur/owa/edutils.parse_page?nafn=BN021655,Grandavegur 37 ,reyndarteikningar,Frestað. Skoðist á milli funda.,"Sótt er um samþykki fyrir reyndarteikningum, tveimur áður gerðum íbúðum á fyrstu hæð, afmörkun tveggja eignarhluta (ibúðir) í kjallara og áður gerðri viðbyggingu á suðvesturhlið hússins á lóðinni nr. 37 við Grandaveg. Afsalsbréf dags. 3. júní 1957 (eign 0001), 1. ágúst 1956  (eign 0002), 2. október 1957 (eign 0101) og 14. maí 1959 (eign 0102) fylgja erindinu. Samþykki meðeigenda og meðlóðarhafa (Grandav. 37B) dags. 2. október 2000 fylgir erindinu. Stærð: Viðbygging 1. hæð 9,1 ferm., 2. hæð 9,1 ferm. Samtals 18,2 ferm. og 40,7 rúmm. Gjald kr. 4.100 + 1.669"
21998 (01.54.140.7),http://gamli.rvk.is/vefur/owa/edutils.parse_page?nafn=BN021998,Hagamelur 10 ,Áður gerð íb. í kjallara.,Samþykkt.  Samræmist ákvæðum laga nr. 73/1997.,"Sótt er um samþykki fyrir áður gerðri íbúð í kjallara hússins nr. 10 við Hagamel. Bréf Steingríms Eiríkssonar hrl. til Hagstofu Íslands dags. 18. ágúst 2000 og til byggingarfulltrúa dags. 3. október 2000, bréf Hagstofu Íslands dags. 7. september 2000 og samþykki meðeigenda (á teikningu) fylgja erindinu. Gjald kr. 4.100"
22095 (01.35.420.9),http://gamli.rvk.is/vefur/owa/edutils.parse_page?nafn=BN022095,Hjallavegur 32 ,Br. 1. h og skráning,Samþykkt.  Með skilyrði um að þinglýst sé skilyrði um bráðabirgðanotkun á bílskúr sem vinnustofu. Samræmist ákvæðum laga nr. 73/1997.,"Sótt er um leyfi til þess að breyta innra skipulagi íbúðar á 1. hæð, samþykki fyrir skráningu hússins og leyfi til þess að nota bílskúr sem vinnustofu til bráðabirgða á lóð nr. 32 við Hjallaveg. Gjald kr. 4.100"
21979 (01.16.100.2),http://gamli.rvk.is/vefur/owa/edutils.parse_page?nafn=BN021979,Hólavallagata 11 ,stækkun og yfirbygging svala,Frestað. Grenndarkynningu ólokið.,"Sótt er um leyfi til þess að útbúa sérinngang af palli fyrstu hæðar og byggja yfir vestursvalir á annarri hæð hússins á lóðinni nr. 11 við Hólavallagötu. Stærð: Lokun svala, 3,7 ferm. og 10,0 rúmm. Gald kr. 4.100 + 410"
22074 (04.07.500.1),http://gamli.rvk.is/vefur/owa/edutils.parse_page?nafn=BN022074,Höfðabakki 9 ,"Ýmsar br á húsn TÍ mhl 01, 03, 05",Frestað. Vísað til athugasemda á umsóknarblaði.,"Sótt er um leyfi fyrir ýmsum breytingum á innra fyrirkomulagi og útliti  húsnæðis Tækniskóla Íslands á lóðinni nr. 9 við Höfðabakka (matshl 01, 03 og 05). Jafnframt er sótt um leyfi fyrir nýrri anddyrisbyggingu til austurs á fyrstu hæð og að fækka bílastæðum á lóðinni um þrjú. Ennfremur er sótt um breytingar á skráningu.  Stærðaraukning: 19 ferm. og 60,7 rúmm. Gjald kr. 4.100 + 2.488"
22075 (01.88.550.8),http://gamli.rvk.is/vefur/owa/edutils.parse_page?nafn=BN022075,Jöldugróf 5 ,Einbýli -breytt innra skipul.,Frestað. Vísað til athugasemda á umsóknarblaði. Helga Guðmundsdóttir vék af fundi við afgreiðslu málsins.,"Sótt er um leyfi til þess að setja arin í stofu og breyta innra skipulagi (eldhús, salerni og baðherbergi breytast) á annarri hæð hússins á lóðinni nr. 5 við Jöldugróf. Gjald kr. 4.100"
22019 (04.13.370.1),http://gamli.rvk.is/vefur/owa/edutils.parse_page?nafn=BN022019,Kirkjustétt 5-13,Br. á geymslum og gluggum,Samþykkt.  Samræmist ákvæðum laga nr. 73/1997. Frágangur á lóðamörkum verði gerður í samráði við lóðarhafa aðliggjandi lóða. Áskilin lokaúttekt byggingarfulltrúa.,"Sótt er um leyfi til þess að breyta geymslum í kjallara, fækka gluggum á stigahúsi, breyta stigapöllum og leiðrétta stærðir fjölbýlishússins nr. 7-13 á lóð nr. 5-13 við Kirkjustétt. Stærð: Matshluti 02 kjallari var 375 ferm. verður 380 ferm., 1. hæð var 887,7 ferm. verður 890,4 ferm., 2. hæð var 909,5 ferm. verður 911,6 ferm., 3. hæð var 909,6 ferm. verður 911,6 ferm., samtals var 3081,9 ferm. verður 3093,6 ferm. (+11,7), var 8942,1 rúmm. verður 8974,1 rúmm. (+89) Gjald kr. 4.100 + 5.325"
22080 (01.33.090.1),http://gamli.rvk.is/vefur/owa/edutils.parse_page?nafn=BN022080,Klettagarðar 5 ,viðbygging,Frestað. Vísað til athugasemda á umsóknarblaði.,"Sótt er um leyfi til þess að byggja tvílyfta viðbyggingu (matshl. 02) úr stálgrindareiningum að vesturhlið hússins á lóðinni nr. 5 við Klettagarða. Stærð: Matshluti 02, 453 ferm. og 2986,0 rúmm. Gjald kr. 4.100 + 122.426"
22088,http://gamli.rvk.is/vefur/owa/edutils.parse_page?nafn=BN022088,Klettagarðar 8-10,Ýmsar br frá fyrri samþ,Frestað. Vísað til athugasemda á umsóknarblaði.,"Sótt er um leyfi fyrir ýmsum minniháttar breytingum á fyrsta áfanga byggingar á lóðinni nr. 8-10 við Klettagarða. Jafnframt verði m.a. felldar niður olískiljur í frárennslislögn frá þvottaplani og skráningu breytt.  Byggingin var fyrst samþykkt 11. maí 2000. Stækkun: 14,2 ferm. og 508,8 rúmm. Gjald kr. 4.100 + 20.860"
22022 (01.72.100.1),http://gamli.rvk.is/vefur/owa/edutils.parse_page?nafn=BN022022,Kringlan  4-12,sameining á rými 244 við 248,Samþykkt.  Samræmist ákvæðum laga nr. 73/1997. Áskilin lokaúttekt byggingarfulltrúa.,Sótt er um leyfi til þess að sameina rými 244 við rými 248 (Skífan) á 2. hæð í norðurhúsi Kringlunnar á lóð nr. 4-12 við Kringluna. Samantekt vegna brunamála dags. 17. október 2000 og bréf umsækjanda dags 18. október 2000 fylgja  erindinu.  Gjald kr. 4.100
22063 (01.54.330.9),http://gamli.rvk.is/vefur/owa/edutils.parse_page?nafn=BN022063,Kvisthagi 3 ,Breyting í kjallara,Samþykkt.  Samræmist ákvæðum laga nr. 73/1997.,Sótt er um samþykki fyrir reyndarteikningum af húsinu á lóðinni nr. 3 við Kvisthaga vegna gerðar eignaskiptayfirlýsingar. Innra fyrirkomulag í kjallara er breytt. Gjald kr. 4.100
22092 (01.32.970.2),http://gamli.rvk.is/vefur/owa/edutils.parse_page?nafn=BN022092,Köllunarklettsvegur 4,viðbygging,Frestað. Vísað til athugasemda á umsóknarblaði og eldvarnareftirlits. Málinu vísað til umsagnar Borgarskipulags.,Sótt er um leyfi til að byggja við húsið nr. 4 við Köllunarklettsveg. Stækkun: xx Gjald kr. 4.100 + xx
21945 (01.24.210.2),http://gamli.rvk.is/vefur/owa/edutils.parse_page?nafn=BN021945,Laugavegur 166 ,Breytigar úti og inni,Frestað. Vísað til athugasemda á umsóknarblaði.,"Sótt er um leyfi til að breyta innra fyrirkomulagi á fyrstu hæð hússins nr. 166 við Laugaveg. Jafnframt verði gerðar dyr til suðurs, nýir gluggar til vesturs og opnanlegum gluggum fjölgað á fyrstu hæð. Erindinu fylgja bréf hönnuðar dags. 4. okt. 2000 og bréf frá Fasteignum ríkissjóðs dags. 3. nóvember 2000. Gjald kr. 4.100"
21971 (01.19.521.0),http://gamli.rvk.is/vefur/owa/edutils.parse_page?nafn=BN021971,Leifsgata 22 , v/eignaskiptayfirlýsingar,Frestað. Vísað til athugasemda á umsóknarblaði.,"Sótt er um samþykki fyrir eignaafmörkun og núverandi fyrirkomulagi í kjallara, en þar er ósamþykkt íbúð, ásamt leiðréttum uppdráttum af útliti húss vegna gerðar eignaskiptayfirlýsingar á lóð nr. 22 við Leifsgötu. Ljósrit af afsali eignar í kjallara dags. 20. maí 1961 og samþykki meðeigenda (á teikningu) fylgir erindinu. Gjald kr. 4.100"
22072 (02.35.670.2),http://gamli.rvk.is/vefur/owa/edutils.parse_page?nafn=BN022072,Ljósavík 27 ,endurn. á bygg. frá 14.10 ´99,Samþykkt.  Samræmist ákvæðum laga nr. 73/1997. Frágangur á lóðamörkum verði gerður í samráði við lóðarhafa aðliggjandi lóða. Áskilin lokaúttekt byggingarfulltrúa.,"Sótt er um endurnýjun á  byggingarleyfi frá 14. október 1999 fyrir þrílyft steinsteypt fjölbýlishús með átta íbúðum og þrem innbyggðum bílgeymslum á lóð nr. 27 við Ljósavík. Stærð: Íbúð 1. hæð 257,7 ferm., 2. hæð 341,2 ferm., 3. hæð 341,2 ferm., bílgeymslur 87,6 ferm., samtals 1027,7 ferm., 3.159,2 rúmm. Gjald kr. 4.100 + 129.527"
22011 (01.14.120.1),http://gamli.rvk.is/vefur/owa/edutils.parse_page?nafn=BN022011,Lækjargata 10 ,Breyting á innréttingu,Frestað. Vísað til athugasemda á umsóknarblaði.,Sótt er um leyfi til þess að koma fyrir stiga og breyta innra skipulagi á öllum hæðum hússins nr. 10 við Lækjargötu. Skráningu fyrstu og annarrar hæðar er breytt úr íbúð í veitingahús. Í hluta kjallara er gert ráð fyrir verslun. Umsögn Húsafriðunarnefndar ríkisins dags. 27. október 2000 og umsögn Árbæjarsafns dags. 24. maí 1995 fylgja erindinu. Bréf burðarvirkishönnuðar dags. 30. október 2000 fylgir erindinu.  Gjald kr. 4.100
21845 (04.12.270.3),http://gamli.rvk.is/vefur/owa/edutils.parse_page?nafn=BN021845,Maríubaugur 115-123,"Fjölbýlishús m. 15 íb., 5 bílg.",Samþykkt.  Samræmist ákvæðum laga nr. 73/1997. Frágangur á lóðamörkum verði gerður í samráði við lóðarhafa aðliggjandi lóða. Áskilin lokaúttekt byggingarfulltrúa. Vottun eininga skal liggja fyrir við úttekt á botnplötu.,"Sótt er um leyfi til þess að byggja þrílyft steinsteypt fjölbýlishús með fimmtán íbúðum ásamt bílgeymslu fyrir fimm bíla á lóð nr. 115-123 við Maríubaug. Stærð: Hús nr. 115 (matshluti 01) íbúð 1. hæð 128,1 ferm., íbúð 2. hæð 120 ferm., íbúð 3. hæð 120 ferm., samtals 368,1 ferm., 1050,3 rúmm. Hús nr. 117 (matshluti 02), hús nr. 119 (matshluti 03), hús nr. 121 (matshluti 04) og hús nr. 123 (matshluti 05) eru öll sömu stærðar og hús nr. 115. Samtals er fjölbýlishúsið 1840,5 ferm., 5251,5 rúmm. Bílgeymsla (matshluti 06) 140 ferm., 511 rúmm. Gjald kr. 4.100 + 236.263"
22033 (04.12.330.5),http://gamli.rvk.is/vefur/owa/edutils.parse_page?nafn=BN022033,Maríubaugur 87-93,raðhús m. 4 íb. og bílg.,Frestað. Vísað til athugasemda á umsóknarblaði.,"Sótt er um leyfi til þess að byggja einlyft raðhús með fjórum íbúðum og bílgeymslu fyrir fjóra bíla hvoru tveggja úr steinsteyptum samlokueiningum á lóð nr. 87-93 við Maríubaug. Stærð: Hús nr. 87 (matshluti 01) íbúð 119,5 ferm., 442,2 rúmm., hús nr. 89 (matshluti 02) íbúð 118 ferm., 436,6 rúmm., hús nr. 91 (matshluti 03) íbúð 118 ferm., 436,6 rúmm., hús nr. 93 (matshluti 04) íbúð 119,5 ferm., 442,2 rúmm., raðhús samtals 475 ferm., 1757,6 rúmm. Bílgeymsla 105,6 ferm., 359 rúmm. Gjald kr. 4.100 + 86.781"
21937 (04.12.270.2),http://gamli.rvk.is/vefur/owa/edutils.parse_page?nafn=BN021937,"37"">Maríubaugur 95-103","Fjölbýlishús m.15 íb., 5 bílg.",Samþykkt.  Samræmist ákvæðum laga nr. 73/1997. Frágangur á lóðamörkum verði gerður í samráði við lóðarhafa aðliggjandi lóða. Áskilin lokaúttekt byggingarfulltrúa. Vottun eininga skal liggja fyrir við úttekt á botnplötu.,"Sótt er um leyfi til þess að byggja þrílyft steinsteypt fjölbýlishús með fimmtán íbúðum ásamt bílgeymslu fyrir fimm bíla á lóð nr. 95-103 við Maríubaug. Stærð: Hús nr. 95 (matshluti 01) íbúð 1. hæð 128,1 ferm., íbúð 2. hæð 120 ferm., íbúð 3. hæð 120 ferm. samtals 368,1 ferm., 1050,3 rúmm. Hús nr. 97 (matshluti 02), hús nr. 99 (matshluti 03), hús nr. 101 (matshluti 04) og hús nr. 103 (matshluti 05) eru öll sömu stærðar og hús nr. 95. Samtals er fjölbýlishúsið 1840,5 ferm., 5251,5 rúmm. Bílgeymsla (matshluti 06) 140 ferm., 511 rúmm. Gjald kr. 4.100 + 236.263"
21927 (01.13.110.9),http://gamli.rvk.is/vefur/owa/edutils.parse_page?nafn=BN021927,Nýlendugata 12 ,Bílskúr og breytingar.,Frestað. Vísað til athugasemda á umsóknarblaði. Vísað til fyrri bókana um grenndarkynningu. Málinu vísað til umsagnar gatnamálastjóra vegna nýrrar innkeyrslu.,"Sótt er um leyfi til þess að breyta gluggum eldra húss og færa í upprunalegt horf. Einnig er sótt um leyfi til þess að byggja bílskúr á lóðinni nr. 12 við Nýlendugötu. Bréf Borgarskipulags dags. 5. júlí 2000, bréf hönnuðar dags. 3. október 2000 og umsögn Húsafriðunarnefndar ríkisins dags. 2. október 2000 fylgja erindinu.  Stærð: Bílgeymsla, 56,3 ferm. og 170,4 rúmm. Gjald kr. 4.100 + 6.986"
22089 (04.12.360.1),http://gamli.rvk.is/vefur/owa/edutils.parse_page?nafn=BN022089,Ólafsgeisli 2-6,br. á húsum nr. 2 og 4,Samþykkt.  Samræmist ákvæðum laga nr. 73/1997. Frágangur á lóðamörkum verði gerður í samráði við lóðarhafa aðliggjandi lóða.,"Sótt er um leyfi til þess að nýta rými undir bílgeymslum sem geymslur í húsi nr. 2 og 4 á lóð nr. 2-6 við Ólafsgeisla. Stærð: Stækkun hús nr. 2 (matshluti 01) 58,3 ferm., 180,5 rúmm., hús nr. 4 (matshluti 03) 59,4 ferm., 201,2 rúmm. Gjald kr. 4.100 + 15.650"
22104 (04.12.610.1),http://gamli.rvk.is/vefur/owa/edutils.parse_page?nafn=BN022104,Ólafsgeisli 59 ,stækka svalir,Synjað. Fer húsi illa sbr. gr. 8.2 í byggingarreglugerð nr. 441/1998.,Sótt er um leyfi til þess að stækka svalir einbýlishússins í vestur á  lóð nr. 59 við Ólafsgeisla. Gjald kr. 4.100
22082 (04.12.610.4),http://gamli.rvk.is/vefur/owa/edutils.parse_page?nafn=BN022082,Ólafsgeisli 65 ,skriðrými undir 1.hæð,Frestað. Umsækjandi hafi samband við embættið.,"Sótt er um leyfi til þess að hafa skriðrými undir einbýlishúsinu á lóð nr. 65 við Ólafsgeisla. Bréf hönnuða dags. 31. október 2000 fylgir erindinu. Stærð: (Skriðrými 105 ferm., 280,4 rúmm.) Gjald kr. 4.100"
22086 (01.35.030.5),http://gamli.rvk.is/vefur/owa/edutils.parse_page?nafn=BN022086,Selvogsgrunn 12 ,Póstar í glugga,Frestað. Vísað til athugasemda á umsóknarblaði.,Sótt er um samþykki fyrir reyndarteikningum og um leyfi til þess að breyta opnanlegum fögum í gluggum á öllum hliðum hússins á lóðinni nr. 12 við Selvogsgrunn. Samþykki meðeigenda dags. 25. og 26. október 2000 fylgja erindinu. Gjald kr. 4.100
21974 (01.29.320.5),http://gamli.rvk.is/vefur/owa/edutils.parse_page?nafn=BN021974,Síðumúli 17 ,Br á 1. hæð 0101,Samþykkt.  Samræmist ákvæðum laga nr. 73/1997. Áskilið samþykki heilbrigðiseftirlits.,Sótt er um samþykki fyrir leiðréttum teikningum af veitingastað í rými 0101 í húsinu nr. 17 við Síðumúla vegna athugasemda heilbrigðiseftirlits. Eftirlitsskýrsla heilbrigðiseftirlits Reykjavíkur dags. 28. september 2000 fylgir erindinu. Gjald kr. 4.100
22069 (01.25.400.2),http://gamli.rvk.is/vefur/owa/edutils.parse_page?nafn=BN022069,Skipholt 50B,"Innr. apótek, opna millivegg, stækka glugga",Frestað. Vísað til athugasemda á umsóknarblaði.,"Sótt er um leyfi til þess að stækka glugga á austurhlið og innrétta apótek og læknastofur á fyrstu hæð hússins á lóðinni nr. 50b við Skipholt. Innangengt verður milli apóteksins og læknastofanna og einnig er komið fyrir dyrum úr apótekinu í sameiginlegt stigahús við bakinngang.  Ennfremur er sótt um leyfi fyrir upplýstu nafnskilti yfir aðalinngangi apóteksins (á norðausturhorni húss). Skiltið er 0,6m hátt og 7,5m á lengd með grænum stöfum á hvítum grunni. Jafnframt eru erindi nr. 18783 og 20802 dregin til baka. Gjald kr. 4.100 Samþykki nokkurra meðeigenda (ódags.) fylgir erindinu."
22046 (01.22.000.8),http://gamli.rvk.is/vefur/owa/edutils.parse_page?nafn=BN022046,Skúlagata 51 ,nýr inngangur og innréttingar,Frestað. Vísað til athugasemda á umsóknarblaði.,"Sótt er um leyfi til þess að stækka og breyta inngangi á suðurhlið og innrétta skrifstofur, móttöku og aðstöðu fyrir blóðsýnatöku á fyrstu og annarri hæð hússins á lóðinni nr. 51 við Skúlagötu. Bréf umsækjanda ásamt samþykki eiganda dags. 24. október 2000 og umsögn gatnamálastjóra dags. 3. nóvember 2000 fylgja erindinu. Gjald kr. 4.100"
21966 (01.42.000.1),http://gamli.rvk.is/vefur/owa/edutils.parse_page?nafn=BN021966,Skútuvogur 2,bílastæði á bráðab.lóð,Samþykkt.  Samræmist ákvæðum laga nr. 73/1997. Frágangur á lóðamörkum verði gerður í samráði við lóðarhafa aðliggjandi lóða. Samþykktin tekur gildi þegar þinglýst hefur verið þeim ákvæðum sem fram koma í bréfi skrifstofustjóra borgarverkfræðings dags. 22. september 2000.,Sótt er um leyfi til þess að gera bílastæði á bráðabirgðar viðbótarspildu norðan við lóð nr. 2 við Skútuvog. Bréf borgarverkfræðings dags. 22. september 2000 og bréf borgarráðs dags. 26. september 2000 fylgja erindinu. Gjald kr. 4.100
22066 (01.55.520.1),http://gamli.rvk.is/vefur/owa/edutils.parse_page?nafn=BN022066,Starhagi 11 ,leikskóli (bráðabirgðahúsn.),Frestað. Vísað til athugasemda á umsóknarblaði.,"Sótt er um leyfi til þess að reisa bráðabirgðahúsnæði (matshl. 02) úr timbri á lóð leikskólans Ægisborgar við Starhaga. Stærð: Matshl. 02 156,2 ferm. og 500,6 rúmm.  Gjald kr. 4.100 + 20.525"
22057 (04.32.680.1),http://gamli.rvk.is/vefur/owa/edutils.parse_page?nafn=BN022057,Stuðlaháls 1 ,Stálgeymir á lóð,Frestað. Vísað til athugasemda á umsóknarblaði.,Sótt er um leyfi til þess að staðsetja kolsýrugeymi úr stáli sem jafnframt er notaður sem auglýsingaskilti á lóðinni nr. 1 við Stuðlaháls. Gjald kr. 4.100
22090 (01.45.410.1),http://gamli.rvk.is/vefur/owa/edutils.parse_page?nafn=BN022090,Tranavogur 5 ,breyting á teikningum,Samþykkt.  Samræmist ákvæðum laga nr. 73/1997.,Sótt er um leyfi til þess að breyta svölum á 2. hæð og uppdeilingu platna í útveggjaklæðningu hússins á lóð nr. 5 við Tranavog. Gjald kr. 4.100
22083 (02.34.000.3),http://gamli.rvk.is/vefur/owa/edutils.parse_page?nafn=BN022083,Tröllaborgir 16 ,Tvær sjálfstæðar íbúðir,Frestað. Vísað til athugasemda á umsóknarblaði.,Sótt er um leyfi til þess að breyta skráningu hússins í einbýlishús með sjálfstæðri aukaíbúð á lóð nr. 16 við Tröllaborgir. Gjald kr. 4.100
22068 (01.33.960.1),http://gamli.rvk.is/vefur/owa/edutils.parse_page?nafn=BN022068,Vatnagarðar 22 ,Síðari áfangi,Frestað. Vísað til athugasemda á umsóknarblaði. Málinu vísað til umsagnar Borgarskipulags.,"Sótt er um leyfi til að byggja síðari áfanga atvinnuhúsnæðis á lóðinni nr. 22 við Vatnagarða. Burðarvirki verði úr steinsteypu og límtré en húsið klætt að utan með galvanhúðuðum málmplötum.  Erindinu fylgir bréf hönnuðar dags. 29. des. 1997, bréf umferðardeildar dags. 30. jan. 1998,  bréf borgarverkfr. dags. 16. mars 1998, bréf Vegagerðarinnar dags. 7. apríl, umsögn Borgarskipulags dags. 8. apríl 1998, allt lagt fram með fyrirspurn frá 8. apríl 1998 og bréf hönnuðar dags. 25. okt. 2000 ásamt bréfi Vegagerðarinnar dags. 25. ágúst 2000, greinargerð um reykræsingu dags. 25. okt. 2000. Stærð síðari áfanga: Samtals xx ferm. og xx rúmm. Gjald kr. 4.100 + xx"
22112,http://gamli.rvk.is/vefur/owa/edutils.parse_page?nafn=BN022112,Meistari - Húsasmíðameistari,,"Synjað. Með bréfi byggingarfulltrúa 4. júlí s.l., var óskað eftir verkefnaskrá frá þeim umdæmum sem veitt hafa umsækjanda staðbundna viðurkenningu, aðeins hefur verið skilað yfirliti yfir eitt verkefni, bygging sumarhúss á árinu 1992, umsækjandi uppfyllir því ekki skilyrði samkvæmt ákvæðum greinar 37.2 í byggingarrelgugerð um að hann hafi að staðaldri haft umsjón með og borið ábyrgð á byggingarframkvæmdum í að minnsta kosti 3 ár eftir viðurkenningu í byggingarnefndarumdæmi, umsókninni er því synjað. Umsækjanda er bent á námskeið sem umhverfisráðuneytið stendur fyrir vegna meistararéttinda.",Ofanritaður sækir um leyfi sbr. gr. 37.2 í byggingarreglugerð nr. 441/1998 til þess að mega standa fyrir verkum sem húsasmíðameistari í lögsagnarumdæmi Reykjavíkur. Umsókn fylgja bréf dags. 15. júní og 20. október 2000.
22111 (01.14.110.9),http://gamli.rvk.is/vefur/owa/edutils.parse_page?nafn=BN022111,Vonarstræti 10 ,Leiðrétting á stærðum,Leiðrétting samþykkt.,"Á fundi byggingarnefndar þann 11. mars 1999 var samþykkt stækkun hússins nr. 10 við Vonarstræti. Stærðir voru bókaðar 872,5 ferm., 2845 rúmm., en áttu að vera 961,6 ferm., 3136,5 rúmm. Greiða verður fyrir 19 bílastæði."
22102 (01.13.621.5),http://gamli.rvk.is/vefur/owa/edutils.parse_page?nafn=BN022102,Bárugata 2 ,Br. f. Kvennaathvarf.,Frestað. Málinu vísað til umsagnar  Árbæjarsafns og Borgarskipulags.,"Spurt er hvort leyft yrði að hækka bílskúr, breyta notkun bílskúrs í aðstöðu fyrir hópastarf tengt Kvennaathvarfi, byggja skýli við inngang á norðurhlið, breyta geymslu í bílskúr í vagnageymslu með aðgengi frá Túngötu og reisa lága girðingu að Garðastræti á lóð nr. 2 við Bárugötu.  Bréf umsækjanda dags. 30. október 2000 fylgir erindinu."
22006,http://gamli.rvk.is/vefur/owa/edutils.parse_page?nafn=BN022006,Borgartún 21A,Viðb. og ofanáb.(fsp),Jákvætt. Með vísan til umsagnar Borgarskipulags. Sérstök athygli er vakin á lokaorðum umsagnarinnar.,"Spurt er hvort leyft yrði að byggja við norðurhlið húss nr. 21A, byggja 3. hæðina og inndregna 4. hæð í líkingu við fyrirliggjandi uppdrætti af matshluta á lóð nr. 21-21A við Borgartún. Umsögn Borgarskipulags dags. 31. október 2000 fylgir erindinu."
22070 (01.27.300.6),http://gamli.rvk.is/vefur/owa/edutils.parse_page?nafn=BN022070,Bólstaðarhlíð 12 ,Nýr Þakkantur,Jákvætt. Að uppfylltum skilyrðum.,"Spurt er hvort leyft yrði að breyta, í líkingu við fyrirliggjandi uppdrátt, þakkanti  fjölbýlishússins á lóð nr. 12 við Bólstaðarhlíð. Bréf hönnuðar dags. 25. október 2000 fylgir erindinu."
22076 (01.27.170.3),http://gamli.rvk.is/vefur/owa/edutils.parse_page?nafn=BN022076,Bólstaðarhlíð 29 ,fsp. byggja bílageymslu,Frestað. Vísað til athugasemda á umsóknarblaði.,Spurt er hvort leyft yrði að breyta staðsetningu áður samþykktrar bílageymslu á lóðinni nr. 29 við Bólstaðarhlíð.
22024 (01.14.000.5),http://gamli.rvk.is/vefur/owa/edutils.parse_page?nafn=BN022024,Hafnarstræti  1-3,(fsp)notkun í austurenda hússins,Jákvætt. Að uppfylltum skilyrðum.,Spurt er hvort leyft yrði að breyta notkun 1. hæðar austurenda Fálkahússins í veitingahús og breyta gluggum í líkingu við upprunalegt útlit á lóð nr. 1-3 við Hafnarstræti.  Bréf hönnuðar dags. 18. október 2000 og  umsögn Borgarskipulags dags. 3. nóvember 2000 fylgja erindinu.
22101 (01.24.530.2),http://gamli.rvk.is/vefur/owa/edutils.parse_page?nafn=BN022101,"01"">Háteigsvegur 24 ",(fsp.) Svalahurð og verönd,Jákvætt. Að uppfylltum skilyrðum.,Spurt er hvort leyft yrði að koma fyrir dyrum úr stofu og út í garð í kjallara hússins á lóðinni nr. 24 við Háteigsveg. Samþykki meðeigenda dags. 1. nóvember 2000 fylgir erindinu.
22110 (01.17.100.5),http://gamli.rvk.is/vefur/owa/edutils.parse_page?nafn=BN022110,Hverfisgata 18 ,Kaffi- og veitingahús(fsp),Frestað. Vísað til athugasemda á umsóknarblaði. Málinu vísað til umsagnar Borgarskipulags.,"Spurt er hvort leyft yrði að innrétta kaffi- og veitingahús á 1. hæð, 2. hæð og í kjallara hússins á lóð nr. 18 við Hverfisgötu. Bréf fyrirspyrjanda dags. 1. nóvember 2000 fylgir ereindinu."
21990 (11.41.212 02),http://gamli.rvk.is/vefur/owa/edutils.parse_page?nafn=BN021990,Kirkjutorg 6A,(fsp) svalir á viðbyggingu.,Vísað er til umsagnar Borgarskipulags frá 3. nóvember 2000.,Spurt er hvort leyft yrði að byggja svalir á þak viðbyggingar á suðurhlið (bakhlið) hússins nr. 6A við Kirkjutorg. Umsögn Borgarskipulags dags. 3. nóvember 2000 fylgir erindinu.
