nr,url,heimilisfang,tegund,nidurstada,spurning
51642 (01.14.041.5),http://gamli.rvk.is/vefur/owa/edutils.parse_page?nafn=BN051642,Aðalstræti 7,Breytingar - BN047437,Frestað. Er til umfjöllunar hjá skipulagsfulltrúa.,"Sótt er um leyfi til að breyta erindi BN047437, m.a. er hætt við að lyfta húsi, aðalinngangur verður sameiginlegur með Vallarstræti 4, stækka kjallara og stigahús og breyta innra skipulagi í húsi á lóð nr. 7 við Aðalstræti. Stærð var:  1.104,6 ferm., 3.461,3 rúmm. Stærð verður:  1.183,5 ferm., 3.643,2 rúmm. Stærðarbreyting:  78,9 ferm., 181,9 rúmm. Gjald kr. 10.100"
51758 (04.63.200.2),http://gamli.rvk.is/vefur/owa/edutils.parse_page?nafn=BN051758,Arnarbakki 8,Flóttahurð í leikskóla,Frestað. Vísað til athugasemda á umsóknarblaði.,Sótt er um leyfi til að gera flóttahurð í leikstofu sem notuð er sem daggæsla  á vegum dagmæðra á lóð nr. 8 við Arnarbakka. Gjald kr. 10.100
51700 (01.11.980.1),http://gamli.rvk.is/vefur/owa/edutils.parse_page?nafn=BN051700,Austurbakki 2,Bílastæðahús,Frestað. Vísað til athugasemda á umsóknarblaði.,"Sótt er um leyfi til að byggja bílastæðahús, mhl. 09, undir Geirsgötu og sem tilheyrir lóð nr. 2 við Geirsgötu. Stærðir: 3.977 ferm., 15.351,4 rúmm. Gjald kr. 10.1000"
51761 (01.11.980.1),http://gamli.rvk.is/vefur/owa/edutils.parse_page?nafn=BN051761,Austurbakki 2,takmarkað byggingarleyfi,"Samþykkt.  Samræmist ákvæðum laga nr. 160 / 2010. Með vísan til samþykktar borgarráðs frá 1. september 1998 skal utanhúss- og lóðarfrágangi vera lokið eigi síðar en innan tveggja ára frá útgáfu byggingarleyfis að viðlögðum dagsektum sbr. greinar nr. 2.4.7 og 2.9.2 í byggingarreglugerð nr. 112/2012. Frágangur á lóðamörkum verði gerður í samráði við lóðarhafa aðliggjandi lóða. Með vísan til samþykktar umhverfis- og skipulagsráðs, dags. 22. maí 2013, skal lóðarhafi, í samráði við byggingarfulltrúa, setja upp skilti til kynningar á fyrirhuguðum framkvæmdum á byggingarstað. Í samræmi við samþykkt umhverfis- og skipulagsráðs dags. 9. október 2013 skal vélknúinn þvottabúnaður vera til staðar á byggingarlóð sem tryggi að vörubílar og aðrar þungavinnuvélar verði þrifnar áður en þær yfirgefa byggingarstað. Samráð skal haft við byggingarfulltrúa um staðsetningu búnaðarins. Áskilin lokaúttekt byggingarfulltrúa. Samþykktin fellur úr gildi við útgáfu á endanlegu byggingarleyfi. Vegna útgáfu á takmörkuðu byggingarleyfi skal umsækjandi hafa samband við yfirverkfræðing embættis byggingarfulltrúa.",Sótt er um takmarkað byggingarleyfi fyrir uppsteypu á plötu yfir kjallara og veggjum 1. hæðar á reitum nr. 1 og 2 að Austurbakka 2  í samræmi við stofnerindi BN048688 og takmarkað byggingarleyfi BN050866.
51716 (01.14.040.6),http://gamli.rvk.is/vefur/owa/edutils.parse_page?nafn=BN051716,Austurstræti 10A,Lyfta - endurnýjun,Samþykkt.  Samræmist ákvæðum laga nr. 160 / 2010. Áskilin lokaúttekt byggingarfulltrúa.,Sótt er um leyfi til að endurnýja lyftu í íbúðar- og atvinnuhúsnæði á lóð nr. 10a við Austurstræti. Bréf hönnuðar dags. 15.09.2016 fylgir erindi ásamt samþykki meðeigenda dags. 23.06.2016. Gjald kr. 10.100
51513 (01.26.400.4),http://gamli.rvk.is/vefur/owa/edutils.parse_page?nafn=BN051513,Ármúli 17,Breyta skrifstofuhúsnæði í gististað fl. II B,Frestað. Vísað til athugasemda eldvarnaeftirlits á umsóknarblaði.,"Sótt er um leyfi til að breyta skrifstofuhúsnæði á 2. hæð  í gistiheimili í fl. II, teg. B í húsi á lóð nr. 17 við Ármúla.  Greinargerð brunahönnuðar dags. 28. september 2016 og samþykki meðeigenda á teikningum ódagsett fylgja erindi.  Einnig bréf frá hönnuði þar sem óskað er undanþágu vegna aðgengis dags. 23. ágúst 2016 og 20. september 2016, umsögn burðarvirkshönnuðar vegna skyggnis  dags. 24. ágúst 2016, útskrift úr gerðabók embættisafgreiðslufundar skipulagsfulltrúa frá 26. ágúst 2016  ásamt umsögn skipulagsfulltrúa dags. 26. ágúst 2016. Gjald kr. 10.100"
51288,http://gamli.rvk.is/vefur/owa/edutils.parse_page?nafn=BN051288,Árskógar 1-3,Fjölbýlishús,Frestað. Vísað til athugasemda á umsóknarblaði.,"Sótt er um leyfi til að byggja tvö steinsteypt 26 íbúða fjölbýlishús, fjórar hæðir og léttbyggða, inndregna 5. hæð og bílgeymslu fyrir 40 bíla á lóð nr. 1-3 við Árskóga. Bréf frá arkitekt, dags. 14.06.2016 og 05.07.2016, fylgir umsókn. Útskrift úr gerðabók embættisafgreiðslufundar skipulagsfulltrúa frá 30. september 2016 fylgir erindinu ásamt umsögn skipulagsfulltrúa dags. 27. september 2016. Stærðir:   Mhl.01 A-rými:  3.768,8 ferm., 11.689,9 rúmm. B-rými:  241,6 ferm., 688,6 rúmm. C-rými:  246,0 ferm. Mhl.02 A-rými:  3.794,1 ferm., 11.745,9 rúmm. B-rými:  250,8 ferm., 714,8 rúmm. C-rými:  246,8 ferm. Mhl.03 A-rými:  54,0 ferm., 518,4 rúmm. B-rými:  1.476,9 ferm., 4.488,9. C-rými:  188,9 ferm. Gjald kr. 10.100"
51684 (01.16.230.2),http://gamli.rvk.is/vefur/owa/edutils.parse_page?nafn=BN051684,Ásvallagata 15,"Síkka glugga, franskar svalir - rishæð",Frestað. Vísað til athugasemda á umsóknarblaði.,Sótt er um leyfi til að síkka glugga og setja stálhandrið fyrir framan og útbúa þannig franskar svalir á íbúð í kvisti á suðurhlið fjölbýlishúss á lóð nr. 15 við Ásvallagötu. Meðfylgjandi er samþykki meðeigenda. Gjald kr. 10.100
51283 (01.82.420.3),http://gamli.rvk.is/vefur/owa/edutils.parse_page?nafn=BN051283,Básendi 5,"Útitröppur, svalir, breyting inni",Samþykkt.  Samræmist ákvæðum laga nr. 160 / 2010. Með vísan til samþykktar borgarráðs frá 1. september 1998 skal utanhúss- og lóðarfrágangi vera lokið eigi síðar en innan tveggja ára frá útgáfu byggingarleyfis að viðlögðum dagsektum sbr. greinar nr. 2.4.7 og 2.9.2 í byggingarreglugerð nr. 112/2012. Áskilin lokaúttekt byggingarfulltrúa.,"Sótt er um leyfi til að breyta aðalinngangi og útitröppum og loka rými undir tröppum, ásamt því að gera svalir á suðurhlið með tröppum niður í garð við einbýlishúsið á lóð nr. 5 við Básenda. Ennfremur er sótt um leyfi til að breyta burðarveggjum innandyra. Erindi var grenndarkynnt frá 10. ágúst til og með 7. september 2016.   Eftirtaldir aðilar sendu athugasemdir: Þórunn H. Sveinbjörnsdóttir, dags. 11. ágúst 2016.  Erindinu var vísað til umsagnar verkefnisstjóra á fundi skipulagsfulltrúa 9. september 2016 og er nú lagt fram að nýju ásamt umsögn skipulagsfulltrúa dags. 16. september 2016. Útskrift úr gerðabók embættisafgreiðslufundar skipulagsfulltrúa frá 8. júlí 2016 fylgir erindinu, ásamt umsögn skipulagsfulltrúa dags. 4. júlí 2016.  Stækkun A-rými 7,7 ferm., 16,4 rúmm. Erindi fylgir umsögn burðarvirkishönnuðar dags. 14. júní 2016. Gjald kr. 10.100"
51743 (04.05.920.1),http://gamli.rvk.is/vefur/owa/edutils.parse_page?nafn=BN051743,Bíldshöfði 2,Breytingar á starfsmannaaðstöðu,Frestað. Vísað til athugasemda á umsóknarblaði.,"Sótt er um leyfi til að breyta innra skipulagi í starfsmannaaðstöðu þar sem sturtum eru fjölgað og komið er fyrir setlaug og fyrir nýju salerni fyrir viðskiptavini í mhl. 02, bílaþjónustuhúsi á lóð nr. 2 við Bíldshöfða.  Gjald kr. 10.100"
51604 (01.18.222.2),http://gamli.rvk.is/vefur/owa/edutils.parse_page?nafn=BN051604,Bjarnarstígur 7,Breyting inni - svalir 1. hæð og risi,Frestað. Vísað til athugasemda á umsóknarblaði.,"Sótt er um leyfi til að byggja svalir á 1. hæð og rishæð, ásamt áður gerðum breytingum á innra skipulagi íbúðar 0101, í fjölbýlishúsi á lóð nr. 7 við Bjarnarstíg. Útskrift úr gerðabók embættisafgreiðslufundar skipulagsfulltrúa frá 16. september 2016 fylgir erindinu ásamt umsögn skipulagsfulltrúa dags. 16. september 2016. Samþykki meðeigenda fylgir erindi. Gjald kr. 10.100"
51697 (04.23.530.4),http://gamli.rvk.is/vefur/owa/edutils.parse_page?nafn=BN051697,Bleikjukvísl 18,Laufskáli,Frestað. Vísað til athugasemda á umsóknarblaði og umsagnar skipulagsfulltrúa dags. 30. september 2016.,"Sótt er um leyfi til að byggja sólskála með bárumálmklæðningu á þaki og með arni á  vesturhlið hússins á lóð nr. 18 við Bleikjukvísl.  Útskrift úr gerðabók embættisafgreiðslufundar skipulagsfulltrúa frá 30. september 2016 fylgir erindinu ásamt umsögn skipulagsfulltrúa dags. 30. september 2016. Stækkun er: 16,7 ferm., 54,6 rúmm.  Gjald kr. 10.100"
51770 (01.13.700.4),http://gamli.rvk.is/vefur/owa/edutils.parse_page?nafn=BN051770,Bræðraborgarstígur 2,Niðurrif,Samþykkt.  Samræmist ákvæðum laga nr. 160 / 2010. Með vísan til samþykktar borgarráðs frá 1. september 1998 skal utanhúss- og lóðarfrágangi vera lokið eigi síðar en innan tveggja ára frá útgáfu byggingarleyfis að viðlögðum dagsektum sbr. greinar nr. 2.4.7 og 2.9.2 í byggingarreglugerð nr. 112/2012. Áskilin lokaúttekt byggingarfulltrúa. Áskilið samþykki heilbrigðiseftirlits.,"Sótt er um leyfi til að rífa spennistöð á lóð nr. 2 við Bræðraborgarstíg. Fastanr. 200-0327, mhl. 04, merkt 0101, spennistöð 59:  35,1 ferm., 116,0 rúmm. Erindi fylgir umboð arkitekts. Gjald kr. 10.100"
50542 (01.13.700.3),http://gamli.rvk.is/vefur/owa/edutils.parse_page?nafn=BN050542,Bræðraborgarstígur 23,Rífa bílskúr - byggja nýjan,Samþykkt.  Samræmist ákvæðum laga nr. 160 / 2010. Frágangur á lóðamörkum verði gerður í samráði við lóðarhafa aðliggjandi lóða. Með vísan til samþykktar borgarráðs frá 1. september 1998 skal utanhúss- og lóðarfrágangi vera lokið eigi síðar en innan tveggja ára frá útgáfu byggingarleyfis að viðlögðum dagsektum sbr. greinar nr. 2.4.7 og 2.9.2 í byggingarreglugerð nr. 112/2012. Áskilin lokaúttekt byggingarfulltrúa. Áskilið samþykki heilbrigðiseftirlits.,"Sótt er um leyfi til að fjarlægja núverandi bílskúr og byggja nýjan í staðinn, innar á lóðinni og fjær lóðamörkum við einbýlishús á lóð nr. 23 við Bræðraborgarstíg. Erindi var grenndarkynnt frá 24. júní til og með 22. júlí 2016. Eftirtaldir aðilar sendu athugasemdir: Irma Erlingsdóttir og Geir Svansson, dags. 30. júní 2016 og 20. júlí 2016.   Einnig er lögð fram umsögn skipulagsfulltrúa dags. 12. ágúst 2016. Stærðir: Núverandi skúr: 17,8 ferm., 37,0 rúmm.  Nýr skúr: 31,5 ferm., 98,6 rúmm. Stækkun: 13,7 ferm., 61,6 rúmm. Gjald  kr. 10.100"
51709 (01.38.420.3),http://gamli.rvk.is/vefur/owa/edutils.parse_page?nafn=BN051709,Dyngjuvegur 14,Niðurrif - fjölbýlishús,Synjað. Samanber umsögn skipulagsfulltrúa dags. 29. september 2016.,"Sótt er um leyfi til að rífa einbýlishús á lóð nr. 14 við Dyngjuveg. Útskrift úr gerðabók embættisafgreiðslufundar skipulagsfulltrúa frá 30. september 2016 fylgir erindinu ásamt umsögn skipulagsfulltrúa dags. 29. september 2016. Niðurrif: 258,5 ferm., 640 rúmm. Gjald kr. 10.100"
51747 (01.36.640.3),http://gamli.rvk.is/vefur/owa/edutils.parse_page?nafn=BN051747,Engjateigur  3-5,3 - Breyting  2.hæð,Frestað. Vísað til athugasemda á umsóknarblaði.,"Sótt er um leyfi til að sameina eignarhluta úr tveimur í einn, fjarlægja vegg í kjallara, koma fyrir stiga milli fyrstu og annarar hæðar, breyta innra skipulagi og útbúa nýjan bakinngang á hús nr. 5 á lóð nr. 3-5 við Engjateig. Tölvupóstur frá umsækjanda dags. 27. september 2016 fylgir erindi.  Gjald kr. 10.100"
51766 (01.36.650.1),http://gamli.rvk.is/vefur/owa/edutils.parse_page?nafn=BN051766,Engjateigur 7,takmarkað byggingarleyfi,Samþykkt.  Samræmist ákvæðum laga nr. 160 / 2010. Með vísan til samþykktar borgarráðs frá 1. september 1998 skal utanhúss- og lóðarfrágangi vera lokið eigi síðar en innan tveggja ára frá útgáfu byggingarleyfis að viðlögðum dagsektum sbr. greinar nr. 2.4.7 og 2.9.2 í byggingarreglugerð nr. 112/2012. Frágangur á lóðamörkum verði gerður í samráði við lóðarhafa aðliggjandi lóða. Áskilin lokaúttekt byggingarfulltrúa.,Sótt er um takmarkað byggingarleyfi fyrir jarðvinnu og aðstöðusköpun á lóðinni Engjateigur 7 í samræmi við erindi BN051504.
51403 (01.37.220.1),http://gamli.rvk.is/vefur/owa/edutils.parse_page?nafn=BN051403,Engjavegur 7,"1. áfangi - Endurbyggja þak, bakvegg og handrið",Samþykkt.  Samræmist ákvæðum laga nr. 160 / 2010. Með vísan til samþykktar borgarráðs frá 1. september 1998 skal utanhúss- og lóðarfrágangi vera lokið eigi síðar en innan tveggja ára frá útgáfu byggingarleyfis að viðlögðum dagsektum sbr. greinar nr. 2.4.7 og 2.9.2 í byggingarreglugerð nr. 112/2012. Áskilin lokaúttekt byggingarfulltrúa.,Sótt er um leyfi fyrir fyrsta áfanga af þremur sem felst í endurnýjun á eldri stúku á lóð nr. 7 við Engjaveg. Útskrift úr gerðabók embættisafgreiðslufundar skipulagsfulltrúa frá 26. ágúst 2016 fylgir erindinu ásamt umsögn skipulagsfulltrúa dags. 22. ágúst  Gjald kr. 10.100
51756 (34.53.540.3),http://gamli.rvk.is/vefur/owa/edutils.parse_page?nafn=BN051756,Esjumelur 9,Atvinnuhúsnæði - framleiðsla á forsteyptum einingum,Frestað. Vísað til athugasemda á umsóknarblaði.,"Sótt er um leyfi til að byggja einnar hæðar óeinangrað stálgrindarhús á lóð nr. 9 við Esjumela. Erindi fylgir brunahönnun dags. 26. september 2016. Stærð:  4.042,1 ferm., 38.614,7 rúmm. Gjald kr. 10.100"
51733 (05),http://gamli.rvk.is/vefur/owa/edutils.parse_page?nafn=BN051733,Fellsvegur,Göngubrú,Samþykkt.  Samræmist ákvæðum laga nr. 160 / 2010. Með vísan til samþykktar borgarráðs frá 1. september 1998 skal utanhúss- og lóðarfrágangi vera lokið eigi síðar en innan tveggja ára frá útgáfu byggingarleyfis að viðlögðum dagsektum sbr. greinar nr. 2.4.7 og 2.9.2 í byggingarreglugerð nr. 112/2012. Áskilin lokaúttekt byggingarfulltrúa.,Sótt er um leyfi til að gera göngubrú í Úlfarsárdal við Fellsveg. Gjald kr. 10.100
51586 (04.97.040.3),http://gamli.rvk.is/vefur/owa/edutils.parse_page?nafn=BN051586,Fífusel 25-41,39 - Klæðning,Frestað. Vísað til athugasemda á umsóknarblaði.,"Sótt er um leyfi til að klæða með litaðri sléttri álklæðningu sem fest er á málmgrind á útvegg og einangrað með 100 mm  steinull á norður-, suður-  og vesturhlið húss nr. 39 á lóð nr. 25 - 41 við Fífusel. Fundargerð frá húsfundi sem var haldinn 25. ágúst 2016 fylgir þar sem fjórir af sjö eigendum skrifa undir. Samþykki  frá sex af sjö á nr. 41 fylgir . Umsögn burðarvirkishönnuðar fylgir erindinu. dags. í ágúst 2016  Gjald kr. 10.100 + 10.100"
51712 (02.69.380.5),http://gamli.rvk.is/vefur/owa/edutils.parse_page?nafn=BN051712,Freyjubrunnur 33,Breyting - BN051256,Samþykkt.  Samræmist ákvæðum laga nr. 160 / 2010. Frágangur á lóðamörkum verði gerður í samráði við lóðarhafa aðliggjandi lóða. Áskilin lokaúttekt byggingarfulltrúa.,"Sótt er um leyfi til að breyta áður samþykktu erindi, BN051256, sem felst í stækkun íbúðar á efstu hæð, breytingum á innréttingu baðherbergja og eldhúsa ásamt tilfærslum á innveggjum og lagnastokkum í fjölbýlishúsi á lóð nr. 33 við Freyjubrunn. Stækkun A-rými 3,1 ferm., 12,2 rúmm.  Gjald kr. 10.100"
51640 (01.11.250.1),http://gamli.rvk.is/vefur/owa/edutils.parse_page?nafn=BN051640,Grandagarður 20,"Breyting inni, útihurðir, pallur o.fl.",Samþykkt.  Samræmist ákvæðum laga nr. 160 / 2010. Frágangur á lóðamörkum verði gerður í samráði við lóðarhafa aðliggjandi lóða. Með vísan til samþykktar borgarráðs frá 1. september 1998 skal utanhúss- og lóðarfrágangi vera lokið eigi síðar en innan tveggja ára frá útgáfu byggingarleyfis að viðlögðum dagsektum sbr. greinar nr. 2.4.7 og 2.9.2 í byggingarreglugerð nr. 112/2012. Áskilin lokaúttekt byggingarfulltrúa. Áskilið samþykki heilbrigðiseftirlits.,"Sótt er um leyfi til að bæta við útidyrahurðum á norðurhlið og suðvesturgafli, byggja svalir á norðausturgafli, minnka pall við suðausturhlið og breyta fyrirkomulagi innanhúss, sjá erindi BN050400,  í Marshall húsinu á lóð nr. 20 við Grandagarð. Meðfylgjandi er bréf verkfræðistofunnar Víðsjá dags. 22.9. 2016. Gjald kr. 10.100"
51710 (04.41.120.1),http://gamli.rvk.is/vefur/owa/edutils.parse_page?nafn=BN051710,Hádegismóar 8,Breyting - stækkun o.fl. - BN051207,Frestað. Vísað til athugasemda á umsóknarblaði.,"Sótt er um leyfi til að breyta erindi BN051207, þær helstu eru að byggt er út fra mátlínu 13 til 14 og komið fyrir millipalli, rými 0015 í húsi á lóð nr. 8 við Hádegismóa. Uppfærð brunaskýrsla dags.  í september 2016 og nýr og breyttur orkurammi dags. 23.ágúst 2016 fylgja erindi. Stækkun frá áður samþykktu erindi:  XX ferm., XX rúmm Gjald kr. 10.100"
51633 (01.80.100.6),http://gamli.rvk.is/vefur/owa/edutils.parse_page?nafn=BN051633,Heiðargerði 11,Breytingar - áður gert,Frestað. Málinu vísað til umsagnar skipulagsfulltrúa.,"Sótt er um samþykki fyrir áður gerðum breytingum á endaraðhúsi á lóð nr. 11 við Heiðargerði. Stækkun: Eldra anddyri A-rými 6,25 ferm., 16,38 rúmm. Nýrri viðbygging A-rými 12,09 ferm., 32,64 rúmm. C-rými 12,09 ferm. Bréf hönnuðar dags. 23.09.2016 fylgir erindi, ásamt umsögn burðarvirkishönnuðar dags. 26.09.2016. Lögð er fram umsögn skipulagsfulltrúa við fyrirspurn BN051633 dags. 03.08.2016. Gjald kr. 10.100"
51683 (01.54.001.2),http://gamli.rvk.is/vefur/owa/edutils.parse_page?nafn=BN051683,Hringbraut 55,Fjölga íbúðum og breyta í 3 íbúðir,Frestað. Vísað til athugasemda á umsóknarblaði.,"Sótt er um leyfi til að fjölga íbúðum og innrétta þrjár íbúðir, eina á hverri hæð í parhúsi á lóð nr. 55 við Hringbraut. Gjald kr. 10.100"
51209 (01.15.251.5),http://gamli.rvk.is/vefur/owa/edutils.parse_page?nafn=BN051209,Hverfisgata 61,Gistiheimili fl.2  BN044976,Samþykkt.  Samræmist ákvæðum laga nr. 160 / 2010. Með vísan til samþykktar borgarráðs frá 1. september 1998 skal utanhúss- og lóðarfrágangi vera lokið eigi síðar en innan tveggja ára frá útgáfu byggingarleyfis að viðlögðum dagsektum sbr. greinar nr. 2.4.7 og 2.9.2 í byggingarreglugerð nr. 112/2012. Áskilin lokaúttekt byggingarfulltrúa.,"Sótt er um leyfi til breytinga á áður samþykktu erindi BN044976, sem felst í því að aðlaga hús að breyttu lóðarblaði og breyta svölum út að Frakkastíg  á þakhæð fjölbýlishúss á lóð nr. 61 við Hverfisgötu. Gjald kr. 10.100"
51575 (01.17.301.3),http://gamli.rvk.is/vefur/owa/edutils.parse_page?nafn=BN051575,Hverfisgata 82,Kaffihús fl.1 - 0101,Frestað. Vísað til athugasemda heilbrigðiseftirlits á umsóknarblaði.,"Sótt er um leyfi til að breyta hárgreiðslustofu í rými 01-0101 í kaffihús í flokki l, tegund e, í húsi nr. 82 við Hverfisgötu. Útskrift úr gerðabók embættisafgreiðslufundar skipulagsfulltrúa frá 30. september 2016 fylgir erindinu ásamt umsögn skipulagsfulltrúa dags. 27. september 2016. Samþykki eiganda fylgir erindi. Gjald kr. 10.100"
51571 (04.07.000.1),http://gamli.rvk.is/vefur/owa/edutils.parse_page?nafn=BN051571,Höfðabakki 1,Framleiðslueldhús og lager,Frestað. Leggja skal fram samþykki meðeigenda vegna loftræsirörs.,"Sótt er um leyfi til að færa fiskverslun yfir í rými 0002, útbúa framleiðslueldhús ásamt starfsmannaaðstöðu og kælum og koma fyrir lager í rými 0003, einnig er gerð grein fyrir áður gerðu loftræstiröri á húsi á lóð nr. 1 við Höfðabakka.  Gjald kr. 10.100 + 10.100"
51760 (04.32.330.3),http://gamli.rvk.is/vefur/owa/edutils.parse_page?nafn=BN051760,Járnháls 2-4,2 - Reyndarteikningar - tæknileg hönnun uppfærð,Frestað. Vísað til athugasemda á umsóknarblaði.,Sótt er um samþykki fyrir áður gerðum breytingum á iðnaðarhúsi á lóð nr. 2-4 við Járnháls. Stækkun:  xx Gjald kr. 10.100
51677 (01.52.500.4 02),http://gamli.rvk.is/vefur/owa/edutils.parse_page?nafn=BN051677,Kaplaskjólsvegur 39,Flytja eldhús,Frestað. Vísað til athugasemda á umsóknarblaði.,"Sótt er um leyfi til að flytja núverandi eldhús yfir í stofu og stækka hurðarop frá gangi inn í fremri stofu, samanber fyrirspurn BN049213 sem fékk jákvæða umfjöllun 21.4. 2015 í íbúð á 4. hæð til vinstri í fjölbýlishúsi á lóð nr. 39 við Kaplaskjólsveg. Umsögn burðarvirkishönnuðar dags. 20. september 2016 fylgir erindi. Gjald kr. 10.100"
51641 (34.53.310.1),http://gamli.rvk.is/vefur/owa/edutils.parse_page?nafn=BN051641,Kistumelur 22,Áður gerðar breytingar,Frestað. Vísað til athugasemda á umsóknarblaði.,Sótt er um leyfi fyrir áður gerðum breytingum á innra skipulagi ásamt breytingum á bílastæðum í atvinnuhúsnæði á lóð nr. 22 við Kistumel.  Gjald kr. 10.100
51533 (01.17.110.6),http://gamli.rvk.is/vefur/owa/edutils.parse_page?nafn=BN051533,Klapparstígur 26,Bæta við sólskála,Frestað. Vísað til athugasemda á umsóknarblaði og umsagnar skipulagsfulltrúa dags. 23. september 2016.,"Sótt er um leyfi til að byggja sólskála á 1. hæð, bæta við svölum á bakhlið, stækka herbergi, breyta fyrirkomulagi á 1. hæð og bæta við einu gistiherbergi ásamt því að flytja morgunverðareldhús niður í kjallara í hóteli á lóð nr. 26 við Klapparstíg. Umsögn skipulagsfulltrúa, dags. 23. september 2016 fylgir erindinu. Stækkun A-rými 108,5 ferm., 240,6 rúmm. B-rými x ferm., x rúmm. C-rými x ferm. Gjald kr. 10.100"
51745 (01.72.100.1),http://gamli.rvk.is/vefur/owa/edutils.parse_page?nafn=BN051745,Kringlan  4-12,Breytingar - BN049450,Samþykkt.  Samræmist ákvæðum laga nr. 160 / 2010. Áskilin lokaúttekt byggingarfulltrúa.,"Sótt er um leyfi til að stækka verslun S-378, verslunareining 376 fellur út, breyta bakrýmum S-373 og S-375, stækka verslun S-381 með því að sameina S-381-1, S-381, S-381-2 og S-383, breyta lögun á verslun 374, stækka verslun S-380 fremst í verslunarhúsinu Kringlunni á lóð nr. 4-12 við Kringluna. Meðfylgjandi er bréf verkfræðings dags. 9.12. 2016 og samþykki Rekstrarfélags Kringlunnar og brunaeftirlits Kringlunnar á teikningu. Gjald kr. 10.100"
51755 (01.86.140.1),http://gamli.rvk.is/vefur/owa/edutils.parse_page?nafn=BN051755,Kúrland 1-29 2-30,3 - Sólskáli jarðhæð og efri hæð,Frestað. Málinu vísað til umsagnar skipulagsfulltrúa.,"Sótt er um leyfi til að byggja sólskála undir og ofaná svölum raðhúss nr. 3 á lóð nr. 1-29 2-30 við Kúrland. Erindi fylgir samþykki meðeigenda í húsi dags. 27. september 2016. Stækkun:  21 ferm., 51,6 rúmm. Gjald kr. 10.100"
51762 (01.54.310.6),http://gamli.rvk.is/vefur/owa/edutils.parse_page?nafn=BN051762,Kvisthagi 11,Breyta skráningu,Frestað. Vísað til athugasemda á umsóknarblaði.,"Sótt er um breytta skráningu ibúðar með fastanúmer 202-7818 í að vera samþykkt íbúð  samanber fyrirspurn BN051685 dags. 20.9. 2016, þar er farið er fram á íbúðaskoðun, sem nú fylgir með fyrir íbúðina á jarðhæð fjöleignahúss á lóð nr. 11 við Kvisthaga . Meðfylgjandi er íbúðarskoðun dags. 23.9. 2016. Bréf eiganda dags. 15.9. 2016. Fylgiskjöl sem sýna skráningu og eignaskiptalýsingu. Gjald kr. 10.100"
51752 (01.38.510.6),http://gamli.rvk.is/vefur/owa/edutils.parse_page?nafn=BN051752,Laugarásvegur 62,Endurnýjun - BN046908,Frestað. Vísað til athugasemda á umsóknarblaði.,"Sótt er um leyfi til að breyta innra skipulagi og fyrir áður gerðri geymslu í sökkulrými á norðvesturhlið og áður gerðum tröppum úr garði  norðvestan við einbýlishús á lóð nr. 62 við Laugarásveg. Stækkun:  29,3 ferm., 60 rúmm. Gjald 10.100"
51754 (01.17.130.5),http://gamli.rvk.is/vefur/owa/edutils.parse_page?nafn=BN051754,Laugavegur 10,"Risþak bakhúsi - kvistur, breyting Gló sbr. BN051134",Frestað. Málinu vísað til umsagnar skipulagsfulltrúa.,"Sótt er um leyfi til að breyta erindi BN051134, kvistur á bakhlið er breikkaður, sameina bakhús, byggja mænisþak og koma fyrir gleranddyri framan við inngang  í húsið á lóð nr. 10 við Laugaveg.  Umsögn Minjastofnunar Íslands dags. 5. september 2016 fylgir erindi. Stækkun : 1,8 ferm., 86,3 rúmm. Gjald kr. 10.100"
51539 (01.24.020.3),http://gamli.rvk.is/vefur/owa/edutils.parse_page?nafn=BN051539,Laugavegur 120,Skilti,Samþykkt.  Samræmist ákvæðum laga nr. 160 / 2010. Með vísan til samþykktar borgarráðs frá 1. september 1998 skal utanhúss- og lóðarfrágangi vera lokið eigi síðar en innan tveggja ára frá útgáfu byggingarleyfis að viðlögðum dagsektum sbr. greinar nr. 2.4.7 og 2.9.2 í byggingarreglugerð nr. 112/2012. Áskilin lokaúttekt byggingarfulltrúa.,Sótt er um leyfi til að setja skilti á skyggni götuhæðar hótels á lóð nr. 120  við Laugaveg. Gjald kr. 10.100
51578 (01.17.130.2),http://gamli.rvk.is/vefur/owa/edutils.parse_page?nafn=BN051578,Laugavegur 4,Breytingar mhl 03,Samþykkt.  Samræmist ákvæðum laga nr. 160 / 2010. Áskilin lokaúttekt byggingarfulltrúa.,Sótt er um leyfi til breytinga á mhl. 03 frá áður samþykktum teikningum sem felast í breytingum á innra skipulagi húss á lóð nr. 1A við Skólavörðustíg. Gjald kr. 10.100
51301 (01.79.410.6),http://gamli.rvk.is/vefur/owa/edutils.parse_page?nafn=BN051301,Lautarvegur 10,Fjölbýlishús,Frestað. Vísað til athugasemda á umsóknarblaði og umsagnar skipulagsfulltrúa dags. 30. september 2016.,"Sótt er um leyfi til að byggja þriggja hæða steinsteypt fjölbýlishús með þremur íbúðum og tvöfaldri bílgeymslu á lóð nr. 10 við Lautarveg. Útskrift úr gerðabók embættisafgreiðslufundar skipulagsfulltrúa frá 4. ágúst 2016 fylgir erindinu ásamt umsögn skipulagsfulltrúa dags. 3. ágúst 2016. Útskrift úr gerðabók embættisafgreiðslufundar skipulagsfulltrúa frá 30. september 2016 fylgir erindinu ásamt umsögn skipulagsfulltrúa dags. 30. september 2016. Stærðir A-rými: 559,9 ferm., 1844,0 rúmm. B-rými:  52,7 ferm., xxx rúmm., C-rými: 91,3 ferm. Gjald kr. 10.100"
51738 (01.19.520.8),http://gamli.rvk.is/vefur/owa/edutils.parse_page?nafn=BN051738,Leifsgata 18,Breyting á  rýmisheitum,Frestað. Vísað til athugasemda á umsóknarblaði.,Sótt er um leyfi til að breyta rýmisheitum á stofu og rými sem í dag er kallað á gömlum teikningum kames í svefnherbergi á 1. hæð í fjölbýlishúsinu á lóð nr. 18 við Leifsgötu. Bréf og ljósmyndir frá umsækjanda dags. 25. sept. 2016 fylgir. Gjald kr. 10.100
51750 (01.23.501.0),http://gamli.rvk.is/vefur/owa/edutils.parse_page?nafn=BN051750,Miðtún 56,Breyting - BN048618,Samþykkt.  Samræmist ákvæðum laga nr. 160 / 2010. Með vísan til samþykktar borgarráðs frá 1. september 1998 skal utanhúss- og lóðarfrágangi vera lokið eigi síðar en innan tveggja ára frá útgáfu byggingarleyfis að viðlögðum dagsektum sbr. greinar nr. 2.4.7 og 2.9.2 í byggingarreglugerð nr. 112/2012. Áskilin lokaúttekt byggingarfulltrúa.,Sótt er um leyfi til að breyta áður samþykktu erindi BN048618 þannig að hætt er við að fjarlægja múrhúðina af veggjum og í staðinn er sótt um að einangra og klæða utan á núverandi múrhúð með hefðbundinni loftaðri bárujárnsklæðningu á húsið  á lóð nr. 56 við Miðtún.  Bréf frá hönnuði dags. 26. sept. 2016 og umsögn burðarvirkishönnuðar um ástand og festingargetu veggjar dags. 23. sept. 2016 fylgir.  Gjald kr. 10.100
51757 (04.02.330.3),http://gamli.rvk.is/vefur/owa/edutils.parse_page?nafn=BN051757,"7"">Naustabryggja 31-33","Tangabryggja 10 - gluggar, hurðir, innra fyrirkomulag",Frestað. Lagfæra skráningu.,"Sótt er um samþykki á áður gerðum breytingum sem orðið hafa á byggingartíma, sjá erindi BN048675, m.a. hurðum og gluggum, innra skipulagi íbúða og þaki þannig að stærð íbúða á 4. hæð breytist í húsi nr. 10 við Tangabryggju á lóð nr. 31-33 við Naustabryggju. Nýjar stærðir, A-rými:  2.128,5 ferm., 6.547,4 rúmm. B-rými:  85,6 ferm. Stækkun, A-rými:  22,8 ferm., 18,5 rúmm. Minnkun, B-rými:  1,7 ferm. Gjald kr. 10.100"
51411 (01.11.220.1),http://gamli.rvk.is/vefur/owa/edutils.parse_page?nafn=BN051411,Norðurgarður 1,2.hæð - Stækka mötuneyti - svalir,Samþykkt.  Samræmist ákvæðum laga nr. 160 / 2010. Með vísan til samþykktar borgarráðs frá 1. september 1998 skal utanhúss- og lóðarfrágangi vera lokið eigi síðar en innan tveggja ára frá útgáfu byggingarleyfis að viðlögðum dagsektum sbr. greinar nr. 2.4.7 og 2.9.2 í byggingarreglugerð nr. 112/2012. Áskilin lokaúttekt byggingarfulltrúa. Áskilið samþykki heilbrigðiseftirlits. Áskilið samþykki Vinnueftirlits ríkisins.,"Sótt er um leyfi fyrir viðbyggingu á 2. hæð og byggingu þaksvala ásamt breytingu á innra skipulagi á hluta 2. hæðar í fiskvinnsluhúsi HB Granda á lóð nr. 1 við Norðurgarð. Greinargerð um brunavarnir dags. 29.08.2016 fylgir erindi. Útskrift úr gerðabók embættisafgreiðslufundar skipulagsfulltrúa frá 21. júlí 2016 fylgir erindinu ásamt umsögn skipulagsfulltrúa dags. 21. júlí 2016. Stækkun: A-rými 98,4 ferm., 237,1 rúmm. C-rými 82,0 ferm.  Gjald kr. 10.100"
51470 (01.18.030.7),http://gamli.rvk.is/vefur/owa/edutils.parse_page?nafn=BN051470,Óðinsgata 8B,"Svalir á 1.hæð, sólstofa og áður gerð verslun","Samþykkt.  Samræmist ákvæðum laga nr. 160 / 2010. Með vísan til samþykktar borgarráðs frá 1. september 1998 skal utanhúss- og lóðarfrágangi vera lokið eigi síðar en innan tveggja ára frá útgáfu byggingarleyfis að viðlögðum dagsektum sbr. greinar nr. 2.4.7 og 2.9.2 í byggingarreglugerð nr. 112/2012. Skilyrt er að ný eignaskiptayfirlýsing sé samþykkt fyrir útgáfu byggingarleyfis, henni verður þinglýst eigi síðar en við fokheldi. Áskilin lokaúttekt byggingarfulltrúa. Áskilið samþykki heilbrigðiseftirlits.","Sótt er um leyfi til að byggja sólstofu út frá kjallara á vesturhlið og koma fyrir þaksvölum ofan á þær, fækka séreignum úr þremur í tvær auk þess sem gerð er grein fyrir áður gerðri verslun í kjallara húss á lóð nr. 8B við Óðinsgötu. Umsögn Minjastofnunar Íslands dags. 27. júlí 2016 fylgir erindi. Stækkun sólstofu er: 15,1 ferm., og 40,3 rúmm.  Gjald kr. 10.100 + 10.100"
51673 (05.05.370.2),http://gamli.rvk.is/vefur/owa/edutils.parse_page?nafn=BN051673,Sjafnarbrunnur 2,Stigar milli hæða,Samþykkt.  Samræmist ákvæðum laga nr. 160 / 2010. Áskilin lokaúttekt byggingarfulltrúa.,Sótt er um leyfi til að byggja stiga milli hæða úr forsteypum einingum í stað staðsteypu og uppfæra skráningartöflu í samræmi við það í fjölbýlishúsi á lóð nr. 2 við Sjafnarbrunn. Gjald kr. 10.100
51549 (01.18.224.4),http://gamli.rvk.is/vefur/owa/edutils.parse_page?nafn=BN051549,Skólavörðustígur 21,Sótt er um að breyta glugga á jarðhæð í hurð,Samþykkt.  Samræmist ákvæðum laga nr. 160 / 2010. Með vísan til samþykktar borgarráðs frá 1. september 1998 skal utanhúss- og lóðarfrágangi vera lokið eigi síðar en innan tveggja ára frá útgáfu byggingarleyfis að viðlögðum dagsektum sbr. greinar nr. 2.4.7 og 2.9.2 í byggingarreglugerð nr. 112/2012. Áskilin lokaúttekt byggingarfulltrúa.,Sótt er um leyfi til breyta glugga á jarðhæð í hurð og setja eina tröppu út á gangstétt í verslunarhúsi nr. 21 við Skólavörðustíg. Sjá fyrirspurn BN050608. Gjald kr. 10.100
51427 (01.18.224.2),http://gamli.rvk.is/vefur/owa/edutils.parse_page?nafn=BN051427,Skólavörðustígur 25,"Rishæð, ný íbúð","Samþykkt.  Samræmist ákvæðum laga nr. 160 / 2010. Með vísan til samþykktar borgarráðs frá 1. september 1998 skal utanhúss- og lóðarfrágangi vera lokið eigi síðar en innan tveggja ára frá útgáfu byggingarleyfis að viðlögðum dagsektum sbr. greinar nr. 2.4.7 og 2.9.2 í byggingarreglugerð nr. 112/2012. Skilyrt er að ný eignaskiptayfirlýsing sé samþykkt fyrir útgáfu byggingarleyfis, henni verður þinglýst eigi síðar en við lokaúttekt. Áskilin lokaúttekt byggingarfulltrúa.","Sótt er um leyfi til að gera rishæð að sjálfstæðri íbúðareiningu, með sér fastanúmeri, með því að gera nýjan stiga upp í ris, breyta kvisti og gera flóttaleið út á þaksvalir, auk minni breytinga samhliða viðhaldi, ásamt ósk um að sameina matshluta 01 og 02 í einn matshluta, í húsi á lóð nr. 25 við Skólavörðustíg.  Útskrift úr gerðabók embættisafgreiðslufundar skipulagsfulltrúa frá 16. september 2016 fylgir erindinu. Erindi var grenndarkynnt frá 15. ágúst til og með 12. september 2016. Engar athugasemdir bárust. Greiða skal fyrir eitt bílastæði vegna fjölgun eigna.  Lögð er fram umsögn Minjastofunar Íslands dags. 06.04.2016. Fyrri umsókn BN051229 er dregin til baka.  Gjald kr. 10.100"
51724 (01.15.430.4),http://gamli.rvk.is/vefur/owa/edutils.parse_page?nafn=BN051724,"4"">Skúlagata 28",Reyndarteikningar - BN049619,Frestað. Vísað til athugasemda á umsóknarblaði.,"Sótt er um samþykki á áður gerðum breytingum á gistiskála í flokki V og veitingastað í flokki II, sjá erindi BN049619 á lóð nr. 28 við Skúlagötu. Gjald kr. 10.100"
51748 (01.13.820.1),http://gamli.rvk.is/vefur/owa/edutils.parse_page?nafn=BN051748,Sólvallagata 67,Breyting II - BN049593,Samþykkt.  Samræmist ákvæðum laga nr. 160 / 2010. Með vísan til samþykktar borgarráðs frá 1. september 1998 skal utanhúss- og lóðarfrágangi vera lokið eigi síðar en innan tveggja ára frá útgáfu byggingarleyfis að viðlögðum dagsektum sbr. greinar nr. 2.4.7 og 2.9.2 í byggingarreglugerð nr. 112/2012. Frágangur á lóðamörkum verði gerður í samráði við lóðarhafa aðliggjandi lóða. Áskilin lokaúttekt byggingarfulltrúa. Áskilið samþykki heilbrigðiseftirlits.,"Sótt er um leyfi til að breyta erindi BN049593, mhl. 12, 13 og færanleg kennslustofa eru færðar inn á afstöðumynd, brunatexta breytt, hurðum á 1. og 2. hæð og inngang í íþróttasal er breytt og kaffistofa stækkuð í H- áfanga við Framnesveg vestanverðan við Vesturbæjarskóla á lóð nr. 67 við Sólvallagötu. Gjald kr. 10.100"
51562 (01.13.451.0),http://gamli.rvk.is/vefur/owa/edutils.parse_page?nafn=BN051562,Sólvallagata 68,Stækka svalir - 0305,Frestað. Vísað til athugasemda eldvarnaeftirlits á umsóknarblaði.,Sótt er um leyfi til að stækka svalir 0305 og breyta innra skipulagi íbúðar á 3. hæð í fjölbýlishúsi á lóð nr. 68 við Sólvallagötu. Lögð er fram umsögn skipulagsfulltrúa við fsp. SN0160367 um fjölgun íbúða og stækkun svala dags. 19.08.2016. Bréf hönnuðar dags. 20.09.2016 fylgir erindi ásamt umsögn Minjastofnunar dags. 27.07.2016 og samþykki eigenda á lóð nr. 66. Gjald kr. 10.100
51639 (04.66.300.1),http://gamli.rvk.is/vefur/owa/edutils.parse_page?nafn=BN051639,Suðurhólar 10,"Breyting á útliti og innréttingum - 2. og 3. áfangi
Verkbeiðnanr. 128804",Samþykkt.  Samræmist ákvæðum laga nr. 160 / 2010. Með vísan til samþykktar borgarráðs frá 1. september 1998 skal utanhúss- og lóðarfrágangi vera lokið eigi síðar en innan tveggja ára frá útgáfu byggingarleyfis að viðlögðum dagsektum sbr. greinar nr. 2.4.7 og 2.9.2 í byggingarreglugerð nr. 112/2012. Áskilin lokaúttekt byggingarfulltrúa. Áskilið samþykki heilbrigðiseftirlits.,"Sótt er um leyfi til að breyta útidyrahurð þannig að sett er ný hurð með sjálfvirkum hurðaopnara, breyta salerni þannig að það uppfyllir kröfu um algilda hönnun, ræstiaðstaða er í læstum skáp inni á salerninu og komið fyrir skábraut frá sal og upp á svið í Hólabrekkuskóla á lóð nr. 10 við Suðurhóla. Gjald kr. 10.100"
51314 (01.47.320.1),http://gamli.rvk.is/vefur/owa/edutils.parse_page?nafn=BN051314,Suðurlandsbraut 68-70,Fjölbýlishús fyrir eldri borgara,Frestað. Vísað til athugasemda á umsóknarblaði.,"Sótt er um leyfi til að byggja steinsteypt þriggja og fjögurra hæða fjölbýlishús fyrir eldri borgara, 74 íbúðir í fimm húsum með opinni bílgeymslu fyrir 35 bíla á lóð nr. 68-70 við Suðurlandsbraut. Erindi fylgir hljóðvistarskýrsla frá Mannvit dags. í júní 2016, brunahönnun frá Mannvit uppfærð 27. september 2016, umsókn um takmarkað byggingarleyfi, útreikningur á varmatapi dags. 20. júní 2016, verkáætlun, yfirlýsing eiganda og byggingastjóra og umboð eiganda til byggingastjóra dags. 20. júní 2016. Útskrift úr gerðabók embættisafgreiðslufundar skipulagsfulltrúa frá 23. september 2016 fylgir erindinu ásamt umsögn skipulagsfulltrúa dags. 20. september 2016. Stærð mhl. 01. A-rými:  4.404,5 ferm., 12.743,8 rúmm. B-rými:  2.127,3 ferm., 8.459,6 rúmm. Mhl. 02:  2.418,2 ferm., 7.071,9 rúmm. B-rými:  500,9 ferm., 1.417,3 rúmm. Gjald kr. 10.100"
51675 (01.26.210.3),http://gamli.rvk.is/vefur/owa/edutils.parse_page?nafn=BN051675,Suðurlandsbraut 8,8-10 - Hús hækkuð og stækkuð,Frestað. Vísað til athugasemda á umsóknarblaði.,"Sótt er um leyfi til að breyta erindi BN050622 með því að stækka bakhús nr. 8 lítillega og koma fyrir fjarskiptaloftneti á þaki, einnig er sótt um leyfi til að hækka um þrjár hæðir, byggja aftan við og innrétta verslanir á 1. hæð og skrifstofur á efri hæðum húss nr. 10 á sameinaðri lóð nr. 8-10 við Suðurlandsbraut. Erindi fylgir bréf hönnuðar dags. 12. september 2016. Jafnframt er erindi BN050317 dregið til baka.  Nr. 8 eftir stækkun, A-rými:  4.947,7 ferm., 18.995,9 rúmm. B-rými:  30,6 ferm., 107,1 crúmm. C-rými:  176 ferm. Stækkun frá fyrri  samþykkt:  139,7 ferm., 480 rúmm. Nr. 10 eftir stækkun, A-rými:  4.459,8 ferm., 16.365,2 rúmm. B-rými:  19,4 ferm., 67,9 rúmm. C-rými:  xx ferm. Stækkun frá fyrri samþykkt:  2.784,3 ferm., 10.356,8 rúmm. Gjald kr. 10.100"
51687 (01.87.150.2),http://gamli.rvk.is/vefur/owa/edutils.parse_page?nafn=BN051687,Traðarland 10-16,12 - Breytingar - BN050882,Samþykkt.  Samræmist ákvæðum laga nr. 160 / 2010. Frágangur á lóðamörkum verði gerður í samráði við lóðarhafa aðliggjandi lóða. Með vísan til samþykktar borgarráðs frá 1. september 1998 skal utanhúss- og lóðarfrágangi vera lokið eigi síðar en innan tveggja ára frá útgáfu byggingarleyfis að viðlögðum dagsektum sbr. greinar nr. 2.4.7 og 2.9.2 í byggingarreglugerð nr. 112/2012. Áskilin lokaúttekt byggingarfulltrúa.,"Sótt er um leyfi til að breyta erindi BN050882, notaðar verða forsteyptar einingar í stað staðsteypu, komið verður fyrir innsteyptum styrktarbita í þaki viðbyggingar og breytt útliti suðurhliðar á einbýlishúsi nr. 12 á lóð nr. 10-16 við Traðarland. Gjald kr. 10.100"
51574 (02.69.830.8),http://gamli.rvk.is/vefur/owa/edutils.parse_page?nafn=BN051574,Úlfarsbraut 78,Einbýlishús,Frestað. Vísað til athugasemda á umsóknarblaði.,"Sótt er um leyfi til að byggja steinsteypt tveggja hæða einbýlishús með innbyggðri bílgeymslu á lóð nr. 78 við Úlfarsbraut. Umsögn skipulagsfulltrúa dags. 24. september 2016 fylgir erindinu. Stærð:  A-rými 293,3 ferm., 946,1 rúmm. B-rými:  18,6 ferm. Gjald kr. 10.100"
51643 (01.14.041.6),http://gamli.rvk.is/vefur/owa/edutils.parse_page?nafn=BN051643,Vallarstræti 4,Breytingar - BN047440,Frestað. Er til umfjöllunar hjá skipulagsfulltrúa.,"Sótt er um leyfi til að breyta erindi BN047440, m.a. eru stigahús og lyfta fjarlægð og gerður sameiginlegur inngangur fyrir bæði húsin, gerð er grein fyrir áður gerðum kjallara og hann stækkaður, tvær íbúðir á 4. hæð eru sameinaðar kjallara og stigahús í húsi á lóð nr. 4 við Vallarstræti. Stærð var:  643,2 ferm., 2.240,7 rúmm. Verður:  877,2 ferm., 3.008,4 rúmm. Stækkun:  234,0 ferm., 767,7 rúmm. Gjald kr. 10.100"
51704 (01.33.780.2),http://gamli.rvk.is/vefur/owa/edutils.parse_page?nafn=BN051704,Vatnagarðar 12,Breyting - tröppur og stálburðarvirki - BN050344,Frestað. Vísað til athugasemda á umsóknarblaði.,"Sótt er um leyfi til að breyta áður samþykktu erindi BN050344 þannig að breyting er á stáltröppum, stálburðarvirki þannig að fjölgað er gluggum á norðvestur hlið hússins á lóð nr. 12 við Vatnagarða. Gjald kr. 10.100"
51621 (01.15.241.9),http://gamli.rvk.is/vefur/owa/edutils.parse_page?nafn=BN051621,Veghúsastígur 7,Reyndarteikningar v/lokaúttektar,Samþykkt.  Samræmist ákvæðum laga nr. 160 / 2010. Áskilin lokaúttekt byggingarfulltrúa. Áskilið samþykki heilbrigðiseftirlits.,"Sótt er um breytingu á erindi BN051127 vegna lokaúttektar, starfsmannarými verður til bráðabirgða á Veghúsastíg 9A, einnig verður arinn tekinn burt í húsi á lóð nr. 7 við Veghúsastíg. Meðfylgjandi er ódagsett bréf frá arkitekt. Gjald kr. 10.100"
51731 (01.14.120.8),http://gamli.rvk.is/vefur/owa/edutils.parse_page?nafn=BN051731,Vonarstræti 4B,Niðurrif á þaki og vegg,Frestað. Umsækjandi hafi samband við yfirverkfræðing embættis byggingarfulltrúa.,"Sótt er um leyfi til að rífa þak og útvegg skúrveggjar  (suðurhlið) vegna öryggismála, sbr. erindi BN050556, milli lóða nr. 12 við Lækjargötu og 4B við Vonarstræti. Meðfylgjandi er bréf umsækjanda dags. 19.9. 2016. Gjald kr. 10.100"
51674 (01.18.111.6),http://gamli.rvk.is/vefur/owa/edutils.parse_page?nafn=BN051674,Þórsgata 1,Brunavarnaruppdrættir,Frestað. Vísað til athugasemda á umsóknarblaði.,Sótt er um breytingar á samþykktum teikningum vegna brunamerkinga í hóteli á lóð nr. 1 við Þórsgötu. Gjald kr. 10.100
51739 (01.18.131.2),http://gamli.rvk.is/vefur/owa/edutils.parse_page?nafn=BN051739,Þórsgata 27,Gluggi kjallara - breyting inni,Frestað. Vísað til athugasemda á umsóknarblaði.,"Sótt er um leyfi til að setja nýjan glugga á baðherbergi við austurhlið, breyta herbergi í stofu í kjallara og loka á milli herbergja á 1. hæð og koma þar fyrir herbergi í staðinn fyrir stofu  í einbýlishúsinu á lóð nr. 27 við Þórsgötu.  Gjald kr. 10.100"
51656 (01.24.430.1),http://gamli.rvk.is/vefur/owa/edutils.parse_page?nafn=BN051656,Þverholt 15,Þverholt 23 mhl.05 - Reyndarteikningar,"Samþykkt.  Samræmist ákvæðum laga nr. 160 / 2010. Frágangur á lóðamörkum verði gerður í samráði við lóðarhafa aðliggjandi lóða. Með vísan til samþykktar borgarráðs frá 1. september 1998 skal utanhúss- og lóðarfrágangi vera lokið eigi síðar en innan tveggja ára frá útgáfu byggingarleyfis að viðlögðum dagsektum sbr. greinar nr. 2.4.7 og 2.9.2 í byggingarreglugerð nr. 112/2012. Með vísan til samþykktar umhverfis- og skipulagsráðs, dags. 22. maí 2013, skal lóðarhafi, í samráði við byggingarfulltrúa, setja upp skilti til kynningar á fyrirhuguðum framkvæmdum á byggingarstað. Í samræmi við samþykkt umhverfis- og skipulagsráðs dags. 9. október 2013 skal vélknúinn þvottabúnaður vera til staðar á byggingarlóð sem tryggi að vörubílar og aðrar þungavinnuvélar verði þrifnar áður en þær yfirgefa byggingarstað. Samráð skal haft við byggingarfulltrúa um staðsetningu búnaðarins. Sérstakt samráð skal haft við yfirverkfræðing byggingarfulltrúa vegna jarðvinnu. Áskilin lokaúttekt byggingarfulltrúa.",Sótt er um reyndarteikningar vegna lokaúttektar á erindi BN049057 sem felast í breytingu á gerð innveggja í geymslum og svalalokanir felldar út í fjölbýlishúsi á lóð nr. 23 við Þverholt. Gjald kr. 10.100
51744 (01.24.430.1),http://gamli.rvk.is/vefur/owa/edutils.parse_page?nafn=BN051744,Þverholt 15,Einholt 12 Mhl.9 - Reyndarteikningar,Frestað. Vísað til athugasemda á umsóknarblaði.,"Sótt er um breytingar á erindi BN047340 sem felast í breytingu á gerð innveggja í geymslum, tæknirými 0003 í mhl.11 bætt við og svalalokanir felldar út í fjölbýlishúsi á lóð nr. 12 við Einholt. Stækkun x ferm., x rúmm. Gjald kr. 10.100"
51759 (01.17.120.2),http://gamli.rvk.is/vefur/owa/edutils.parse_page?nafn=BN051759,Bankastræti 14-14B,(fsp) - Breyting á matshluta 04,Frestað. Umsækjandi óski eftir íbúðarskoðun.,Spurt er hvort skrá megi bakhúsið Skólavörðustígur 2 (Bankastræti 14) sem einstaklingsíbúð eins og sýnt er í gögnum frá desember 1976 og maí 1993. Jafnframt er óskað eftir íbúðarskoðun.
51741 (04.06.200.1),http://gamli.rvk.is/vefur/owa/edutils.parse_page?nafn=BN051741,Bíldshöfði 9,(fsp) - Breytt fyrirkomulag,Frestað. Málinu vísað til umsagnar skipulagsfulltrúa.,"Spurt er hvort innrétta megi 1. hæð sem verslunarhúsnæði og 2. hæð fyrir heilsutengda starfsemi, heilsugæslustöð og fleira, í húsi á lóð nr. 9 við Bíldshöfða. Meðfylgjandi er bréf arkitekts dags. 27. september 2016."
51732 (01.27.170.1),http://gamli.rvk.is/vefur/owa/edutils.parse_page?nafn=BN051732,Bólstaðarhlíð 25,(fsp) - Bílskúrar - hækka þak,Jákvætt. Að uppfylltum skilyrðum enda verði sótt um byggingarleyfi og samanber umsögn skipulagsfulltrúa dags. 15. september 2016.,"Spurt er hvort hækka megi þak um 0,1 - 0,5 metra á þeim hluta sem liggur að bílskúr við Bólstaðahlíð 27 til að endurbyggja þak og stöðva þakleka í bílskúr á lóð nr. 25 við Bólstaðahlíð. Samanber fyrispurn dags. 22.9. 2016 og umsögn skipulagsfulltrúa dags. 15.9. 2016"
51725 (01.44.130.4),http://gamli.rvk.is/vefur/owa/edutils.parse_page?nafn=BN051725,Langholtsvegur 160,(fsp) - Hurðargat úr í garð,Afgreitt Samanber umsögn á fyrirspurnarblaði.,Spurt er hvort leyfi fengist til að setja nýja hurð frá stofu út í garð og niðurgrafa garðverönd á húsi á lóð nr. 160 við Langholtsveg.  Ljósmynd og teikniriss fylgir.
51749 (01.52.411.2),http://gamli.rvk.is/vefur/owa/edutils.parse_page?nafn=BN051749,Reynimelur 60,(fsp) - Íbúð kjallara,Afgreitt Með vísan til leiðbeininga á fyrirspurnarblaði.,Spurt er hvort leyft yrði að innrétta sjálfstæða íbúð í kjallara parhúss á lóð nr. 60 við Reynimel.
51294 (01.16.021.2),http://gamli.rvk.is/vefur/owa/edutils.parse_page?nafn=BN051294,Sólvallagata 18,(fsp) - Svalir með brunastiga,Afgreitt Með vísan til umsagnar skipulagsfulltrúa dags. 30. september 2016.,"Spurt er hvort byggja megi svalir með brunastiga á norðausturhlið fyrstu, annarar og þriðju hæðar fjölbýlishúss  á lóð nr. 18 við Sólvallagötu. Útskrift úr gerðabók embættisafgreiðslufundar skipulagsfulltrúa frá 30. september 2016 fylgir erindinu ásamt umsögn skipulagsfulltrúa dags. 30. september 2016. Erindi fylgir samþykki meðeigenda dags. 4. ágúst 2016."
