nr,url,heimilisfang,tegund,nidurstada,spurning
51594 (01.13.650.1),http://gamli.rvk.is/vefur/owa/edutils.parse_page?nafn=BN051594,Aðalstræti 4,Reyndarteikningar,Samþykkt.  Samræmist ákvæðum laga nr. 160 / 2010. Áskilin lokaúttekt byggingarfulltrúa.,"Sótt er um samþykki áður gerðum breytingum á innra skipulagi í hóteli í sambyggðum húsum á lóðum nr. 4, 6 og 8 vegna lokaúttektar, þessi umsókn á við um hús á lóð nr. 4 við Aðalstræti. Gjald kr. 10.100"
51595 (01.13.650.2),http://gamli.rvk.is/vefur/owa/edutils.parse_page?nafn=BN051595,Aðalstræti 6,Reyndarteikningar,Samþykkt.  Samræmist ákvæðum laga nr. 160 / 2010. Áskilin lokaúttekt byggingarfulltrúa.,"Sótt er um samþykki áður gerðum breytingum á innra skipulagi í hóteli í sambyggðum húsum á lóðum nr. 4, 6 og 8 vegna lokaúttektar, þessi umsókn á við um hús á lóð nr. 6 við Aðalstræti. Gjald kr. 10.100"
51596 (01.13.650.3),http://gamli.rvk.is/vefur/owa/edutils.parse_page?nafn=BN051596,Aðalstræti 8,Reyndarteikningar,Samþykkt.  Samræmist ákvæðum laga nr. 160 / 2010. Áskilin lokaúttekt byggingarfulltrúa.,"Sótt er um samþykki áður gerðum breytingum á innra skipulagi í hóteli í sambyggðum húsum á lóðum nr. 4, 6 og 8 vegna lokaúttektar, þessi umsókn á við um hús á lóð nr. 8 við Aðalstræti. Gjald kr. 10.100"
51786 (04.94.310.1),http://gamli.rvk.is/vefur/owa/edutils.parse_page?nafn=BN051786,Akrasel 8,Reyndarteikningar,Synjað. Vísað til umsagnar skipulagsfulltrúa dags. 28. október 2016.,"Sótt er um leyfi fyrir áður gerðum breytingum sem felast í því að stigi milli hæða hefur verið fjarlægður og óútgrafið rými tekið í notkun, í húsi á lóð nr. 8 við Akrasel. Útskrift úr gerðabók embættisafgreiðslufundar skipulagsfulltrúa frá 21. október 2016 fylgir erindinu ásamt umsögn skipulagsfulltrúa dags. 20. október 2016. Útskrift úr gerðabók embættisafgreiðslufundar skipulagsfulltrúa frá 28. október 2016 fylgir erindinu. Leiðrétt bókun frá fundi skipulagsfulltrúa 21. október 2016 þar sem umsögn skipulagsfulltrúa dags. 20. október 2016 var samþykkt. Leiðrétt bókun er: Umsögn skipulagsfulltrúa dags. 28. október 2016 samþykkt. Stækkun A-rými 67,1 ferm., 164,4 rúmm. Gjald kr. 10.100"
51803 (01.14.110.6),http://gamli.rvk.is/vefur/owa/edutils.parse_page?nafn=BN051803,Alþingisreitur,Kirkjustræti 8b - hækka stigahús,Frestað. Vísað til athugasemda á umsóknarblaði.,"Sótt er um leyfi til að hækka stigahús milli Kirkjustrætis 8B og 10 sbr. deiliskipulagsbreytingu dags. 19.8. 2016 og sem þjóna mun sem inngangur á 3. hæð og sem flóttaleið í húsi á lóð nr. 8B við Kirkjustræti. Meðfylgjandi er umsögn Minjastofnunar Íslands dags. 21.9. 2016. Stærðir, breytingar, xx ferm. og xx rúmm. brúttó. Gjald kr. 10.100"
51758 (04.63.200.2),http://gamli.rvk.is/vefur/owa/edutils.parse_page?nafn=BN051758,Arnarbakki 8,Flóttahurð í leikskóla,Samþykkt.  Samræmist ákvæðum laga nr. 160 / 2010. Með vísan til samþykktar borgarráðs frá 1. september 1998 skal utanhúss- og lóðarfrágangi vera lokið eigi síðar en innan tveggja ára frá útgáfu byggingarleyfis að viðlögðum dagsektum sbr. greinar nr. 2.4.7 og 2.9.2 í byggingarreglugerð nr. 112/2012. Áskilin lokaúttekt byggingarfulltrúa. Áskilið samþykki heilbrigðiseftirlits.,Sótt er um leyfi til að gera flóttahurð í leikstofu sem notuð er sem daggæsla  á vegum dagmæðra á lóð nr. 8 við Arnarbakka. Gjald kr. 10.100
50991 (01.11.980.1),http://gamli.rvk.is/vefur/owa/edutils.parse_page?nafn=BN050991,Austurbakki 2,Bílaþvottastöð - bílakjallara Hörpu,"Frestað. Vísað til athugasemda á umsóknarblaði, samþykki meðlóðarhafa.",Sótt er um leyfi til að innrétta bílaþvottastöð og -hreinsunar í bílakjallara við norðurútgang á K2 í Hörpu á lóð nr. 2 við Austurbakka. Erindi fylgir samþykki bílastæðasjóðs dags. 26. maí 2016 og minnisblað um mengunarvarnir frá Mannvit dags. 31. maí 2016. Gjald kr. 10.100
51700 (01.11.980.1),http://gamli.rvk.is/vefur/owa/edutils.parse_page?nafn=BN051700,Austurbakki 2,Bílastæðahús,Frestað. Vísað til athugasemda á umsóknarblaði.,"Sótt er um leyfi til að byggja bílastæðahús, mhl. 09, undir Geirsgötu og sem tilheyrir lóð nr. 2 við Austurbakka. Stærðir: 3.977 ferm., 15.351,4 rúmm. Gjald kr. 10.100"
51513 (01.26.400.4),http://gamli.rvk.is/vefur/owa/edutils.parse_page?nafn=BN051513,Ármúli 17,Breyta skrifstofuhúsnæði í gististað fl. II B,"Samþykkt.  Samræmist ákvæðum laga nr. 160 / 2010.  Skilyrt er að ný eignaskiptayfirlýsing sé samþykkt fyrir útgáfu byggingarleyfis, henni verður þinglýst eigi síðar en við lokaúttekt. Áskilin lokaúttekt byggingarfulltrúa.","Sótt er um leyfi til að breyta skrifstofuhúsnæði á 2. hæð  í gistiheimili í fl. II, teg. B í húsi á lóð nr. 17 við Ármúla.  Greinargerð brunahönnuðar dags. 28. september 2016 og samþykki meðeigenda á teikningum ódagsett fylgja erindi.  Einnig bréf frá hönnuði þar sem óskað er undanþágu vegna aðgengis dags. 23. ágúst 2016 og 20. september 2016, umsögn burðarvirkshönnuðar vegna skyggnis  dags. 24. ágúst 2016, útskrift úr gerðabók embættisafgreiðslufundar skipulagsfulltrúa frá 26. ágúst 2016  ásamt umsögn skipulagsfulltrúa dags. 26. ágúst 2016. Gjald kr. 10.100"
50820 (01.29.000.1),http://gamli.rvk.is/vefur/owa/edutils.parse_page?nafn=BN050820,Ármúli 4-6,4 - Kaffihús og lyfta við stigahús,Frestað. Vísað til athugasemda heilbrigðiseftirlits á umsóknarblaði.,Sótt er um leyfi fyrir áður gerðum innri breytingum sem felast í að koma fyrir lyftu á milli 1. og 3. hæðar og innrétta kaffihús á jarðhæð í flokki II  í húsi nr. 4 á lóð nr. 4 til 6 við Ármúla. Umsögn burðarvirkishönnuðar dags. 28. apríl 2016 fylgir. Gjald kr. 10.100 + 10.100
51852 (01.13.901.1),http://gamli.rvk.is/vefur/owa/edutils.parse_page?nafn=BN051852,Ásvallagata 58,Breyting á áður samþykktu erindi,Samþykkt.  Samræmist ákvæðum laga nr. 160 / 2010. Með vísan til samþykktar borgarráðs frá 1. september 1998 skal utanhúss- og lóðarfrágangi vera lokið eigi síðar en innan tveggja ára frá útgáfu byggingarleyfis að viðlögðum dagsektum sbr. greinar nr. 2.4.7 og 2.9.2 í byggingarreglugerð nr. 112/2012. Áskilin lokaúttekt byggingarfulltrúa.,Sótt er um breytingu á áður samþykktu erindi BN047880 sem felst í því að glugga er breytt í hornglugga á 2. hæð SA-hliðar á húsi á lóð nr. 58 við Ásvallagötu. Umsögn Minjastofnunar dags. 22.09.2016 fylgir erindi. Gjald kr. 10.100
51186 (01.18.444.3),http://gamli.rvk.is/vefur/owa/edutils.parse_page?nafn=BN051186,Baldursgata 7A,Skipta íbúð 0201 í tvær eignir,"Samþykkt.  Samræmist ákvæðum laga nr. 160 / 2010. Skilyrt er að ný eignaskiptayfirlýsing sé samþykkt fyrir útgáfu byggingarleyfis, henni verður þinglýst eigi síðar en við lokaúttekt. Áskilin lokaúttekt byggingarfulltrúa.","Sótt er um leyfi til að byggja svalir á norðurhlið, breyta innra skipulagi og innrétta tvær íbúðir á 2. hæð fjölbýlishúss á lóð nr. 7A við Baldursgötu. Útskrift úr gerðabók embættisafgreiðslufundar skipulagsfulltrúa frá 9. september 2016. Erindið var grenndarkynnt frá 4. ágúst til og með 1. september 2016. Engar athugasemdir bárust. Erindi fylgir jákvæð fyrirspurn sama efnis , BN05062 dags. 22. mars 2016 og samþykki meðeigenda dags. 27. febrúar 2016. Gjald kr. 10.100"
51011 (01.17.010.1),http://gamli.rvk.is/vefur/owa/edutils.parse_page?nafn=BN051011,Bankastræti 2,Breyting inni - 1.og 2.hæð,Samþykkt.  Samræmist ákvæðum laga nr. 160 / 2010.  Áskilin lokaúttekt byggingarfulltrúa. Áskilið samþykki heilbrigðiseftirlits.,"Sótt er um leyfi  til að breyta innra fyrirkomulagi 1. og 2. hæðar þannig að stigi á milli hæða í mhl 02 er fjarlægður, koma fyrir eldhúsi í rými 0201 mhl. 02, fjarlægja salerni þar, koma fyrir hjólastólalyftu í stigagangi  og koma fyrir fjórum salernum fyrir 120 gesti  í veitingarstaðnum í fl. II í húsinu á lóð nr. 2 við Bankastræti. Umsögn Minjastofnunar Íslands dags. 3. júlí 2016 og 20. júlí 2016 fylgja erindi, einnig greinargerð brunahönnuðar dags. 22. ágúst 2016 og umsögn burðarvirkishönnuðar dags. 26. ágúst 2016. Gjald kr. 10.100"
51859 (01.19.031.4),http://gamli.rvk.is/vefur/owa/edutils.parse_page?nafn=BN051859,Barónsstígur 28,Breyting kjallara - stálsvalir,Samþykkt. Áskilin lokaúttekt byggingarfulltrúa.,"Sótt er um leyfi til að breyta erindi BN048209, innra skipulagi í kjallara er breytt sem og uppbyggingu svalagólfa í fjölbýlishúsi á lóð nr. 28 við Barónsstíg. Gjald kr. 10.100"
51875 (01.19.631.1),http://gamli.rvk.is/vefur/owa/edutils.parse_page?nafn=BN051875,Bergstaðastræti 65,Eldvarnarhurðir,Frestað. Vísað til athugasemda eldvarnareftirlits á umsóknarblaði.,"Sótt er um samþykki á breytingu á erindi BN051608, samþykkt 20.9. 2016, sem fjallar um að ekki verði EICS hurð sett fyrir geymslu 0003 og að EICS hurð verði sett fyrir íbúð 0001 samfara eðlilegu viðhaldi í húsi á lóð nr. 65 við Bergstaðastræti. Meðfylgjandi er bréf hönnuðar dags. 21.10. 2016. Gjald kr. 10.100"
51780 (01.19.032.6),http://gamli.rvk.is/vefur/owa/edutils.parse_page?nafn=BN051780,Bergþórugata 23,Franskar svalir x 4,"Frestað. Málinu vísað til skipulagsfulltrúa til ákvörðunar um grenndarkynningu. Vísað til uppdrátta nr. A101,102,103 dags. 30.09.2016.","Sótt er um leyfi til að breyta erindi BN049455, að byggja fernar svalir að inngarði og einar franskar svalir á horni að götu í íbúðarhúsi á lóð nr. 23. við Bergþórugötu. Samþykki meðeigenda fylgir erindi. Gjald kr. 10.100"
51559 (01.78.000.2),http://gamli.rvk.is/vefur/owa/edutils.parse_page?nafn=BN051559,Beykihlíð 3-5,"Tilkynning um fyrirhugaða framkvæmd, sólskáli nr. 3",Frestað. Vísað til athugasemda á umsóknarblaði.,"Umsækjandi tilkynnir hér með hann hyggst reisa sólskála við suðvesturhlið parhúss nr. 3 á lóð nr. 3-5 við Beykihlíð. Bréf frá hönnuði dags. 18. júlí 2016 þar sem hann sækir um á grundvelli byggingareglugerðar 112/2012 gr. 2.3.5. fylgir erindi. Útskrift úr gerðabók embættisafgreiðslufundar skipulagsfulltrúa frá 16. september 2016 fylgir erindinu ásamt umsögn skipulagsfulltrúa dags. 13. september 2016. Stækkun 9,4 ferm., 26,2 rúmm.  Gjald kr. 10.100"
51447 (04.06.500.2),http://gamli.rvk.is/vefur/owa/edutils.parse_page?nafn=BN051447,Bíldshöfði 18,Breyting á BN049483,Samþykkt.  Samræmist ákvæðum laga nr. 160 / 2010. Með vísan til samþykktar borgarráðs frá 1. september 1998 skal utanhúss- og lóðarfrágangi vera lokið eigi síðar en innan tveggja ára frá útgáfu byggingarleyfis að viðlögðum dagsektum sbr. greinar nr. 2.4.7 og 2.9.2 í byggingarreglugerð nr. 112/2012. Skilyrt er að eignaskiptayfirlýsingu vegna breytinga í húsinu sé þinglýst til þess að samþykktin öðlist gildi.     Áskilin lokaúttekt byggingarfulltrúa. Áskilið samþykki heilbrigðiseftirlits.,Sótt er um leyfi til að breyta áður samþykktu erindi BN049483 þannig að hætt er við flóttastiga frá 3. hæð á norðurhlið og hætt er við að koma svölum á austurgafl  hússins á lóð nr. 18 við Bíldshöfða. Samþykki sumra meðeigenda fylgir dags. 24. júní 2016. Einnig fylgir bréf Lögmannsstofunnar Kjarna dags. 25. 8. 2016. Gjald kr. 10.100
51887 (01.22.010.7),http://gamli.rvk.is/vefur/owa/edutils.parse_page?nafn=BN051887,Borgartún 8-16A,S1 - Breytingar - BN047928,"Samþykkt.  Samræmist ákvæðum laga nr. 160 / 2010. Frágangur á lóðamörkum verði gerður í samráði við lóðarhafa aðliggjandi lóða. Með vísan til samþykktar umhverfis- og skipulagsráðs, dags. 22. maí 2013, skal lóðarhafi, í samráði við byggingarfulltrúa, setja upp skilti til kynningar á fyrirhuguðum framkvæmdum á byggingarstað. Í samræmi við samþykkt umhverfis- og skipulagsráðs dags. 9. október 2013 skal vélknúinn þvottabúnaður vera til staðar á byggingarlóð sem tryggi að vörubílar og aðrar þungavinnuvélar verði þrifnar áður en þær yfirgefa byggingarstað. Samráð skal haft við byggingarfulltrúa um staðsetningu búnaðarins. Sérstakt samráð skal haft við yfirverkfræðing byggingarfulltrúa vegna jarðvinnu. Skilyrt er að ný eignaskiptayfirlýsing sé samþykkt fyrir útgáfu byggingarleyfis, henni verður þinglýst eigi síðar en við fokheldi. Áskilin lokaúttekt byggingarfulltrúa. Áskilið samþykki heilbrigðiseftirlits. Áskilið samþykki Vinnueftirlits ríkisins.","Sótt er um leyfi til að breyta erindi BN047928, númerkerfi eigna endurskoðað og lagfært, suðaustursvalir á 12. hæð felldar út, veggur í austurgafli færður út um 50 cm og flatarmál hæða leiðrétt í fjölbýlishúsi S1 á lóð nr. 8-16 við Borgartún. Erindi fylgir minnisblað hönnuðar með yfirliti yfir breytingar frá samþykktum uppdráttum og stærðarbreytingar dags. 26. október 2016. Stækkun:  43,3 ferm., 216,4 rúmm. Gjald kr. 10.100"
51812 (01.24.120.4),http://gamli.rvk.is/vefur/owa/edutils.parse_page?nafn=BN051812,Brautarholt 6,Breyting - BN050100,"Samþykkt.  Samræmist ákvæðum laga nr. 160 / 2010. Með vísan til samþykktar borgarráðs frá 1. september 1998 skal utanhúss- og lóðarfrágangi vera lokið eigi síðar en innan tveggja ára frá útgáfu byggingarleyfis að viðlögðum dagsektum sbr. greinar nr. 2.4.7 og 2.9.2 í byggingarreglugerð nr. 112/2012. Skilyrt er að ný eignaskiptayfirlýsing sé samþykkt fyrir útgáfu byggingarleyfis, henni verður þinglýst eigi síðar en við lokaúttekt. Áskilin lokaúttekt byggingarfulltrúa.","Sótt er um leyfi til að breyta áður samþykktu erindi BN050100 sem felst í því að fjölga íbúðum á fjórðu hæð úr sex í sjö ásamt fjölgun svala og útlitsbreytingum á húsi á lóð nr. 6 við Brautarholt. Útskrift úr gerðabók embættisafgreiðslufundar skipulagsfulltrúa frá 21. október 2016 fylgir erindinu ásamt umsögn skipulagsfulltrúa dags. 21. október 2016, einnig samþykki meðeigenda dags, 24. október 2016. Minnkun: 2,2 ferm., 18,8 rúmm.  Gjald kr. 10.100"
51747 (01.36.640.3),http://gamli.rvk.is/vefur/owa/edutils.parse_page?nafn=BN051747,Engjateigur  3-5,3 - Breyting  2.hæð,"Samþykkt.  Samræmist ákvæðum laga nr. 160 / 2010. Með vísan til samþykktar borgarráðs frá 1. september 1998 skal utanhúss- og lóðarfrágangi vera lokið eigi síðar en innan tveggja ára frá útgáfu byggingarleyfis að viðlögðum dagsektum sbr. greinar nr. 2.4.7 og 2.9.2 í byggingarreglugerð nr. 112/2012. Skilyrt er að yfirlýsingu um sameiningu eigna verði þinglýst fyrir útgáfu byggingarleyfis. Skilyrt er að ný lóðarskiptayfirlýsing sé samþykkt fyrir útgáfu byggingarleyfis, henni verður þinglýst eigi síðar en við lokaúttekt. Áskilin lokaúttekt byggingarfulltrúa.","Sótt er um leyfi til að sameina eignarhluta úr tveimur í einn, fjarlægja vegg í kjallara, koma fyrir stiga milli fyrstu og annarar hæðar, breyta innra skipulagi og útbúa nýjan bakinngang á hús nr. 5 á lóð nr. 3-5 við Engjateig. Tölvupóstur frá umsækjanda dags. 27. september 2016, umsögn burðarvirkishönnuðar dags. 6. október 2016 og béf frá hönnuði dags. 5. október 2016 fylgja erindi.  Gjald kr. 10.100 + 10.100"
51825 (01.08.770.2),http://gamli.rvk.is/vefur/owa/edutils.parse_page?nafn=BN051825,Fiskislóð  24-26,26 - Breyting inni 1.hæð,Samþykkt.  Samræmist ákvæðum laga nr. 160 / 2010. Áskilin lokaúttekt byggingarfulltrúa. Áskilið samþykki heilbrigðiseftirlits.,"Sótt er um leyfi til að útbúa veislueldhús fyrir aðkeyptar veitingar, breyta veggjum í anddyri og breyta aðstöðu starfsfólks  á 1. hæð norðurenda hússins nr. 26 á lóð nr. 24-26 við Fiskislóð  Gjald kr. 10.100"
51865 (04.37.300.2),http://gamli.rvk.is/vefur/owa/edutils.parse_page?nafn=BN051865,Fjarðarás 3,Sólskáli,Samþykkt.  Samræmist ákvæðum laga nr. 160 / 2010. Með vísan til samþykktar borgarráðs frá 1. september 1998 skal utanhúss- og lóðarfrágangi vera lokið eigi síðar en innan tveggja ára frá útgáfu byggingarleyfis að viðlögðum dagsektum sbr. greinar nr. 2.4.7 og 2.9.2 í byggingarreglugerð nr. 112/2012. Áskilin lokaúttekt byggingarfulltrúa.,"Sótt er um leyfi til að byggja sólskála úr timbri og gleri á svölum einbýlishúss á lóð nr. 3 við Fjarðarás. Stækkun: 8,7 ferm., 22,7 rúmm. Samtals eftir stækkun: 290,9 ferm., 951,7 rúmm. Gjald kr. 10.100"
51880 (01.29.540.6),http://gamli.rvk.is/vefur/owa/edutils.parse_page?nafn=BN051880,Grensásvegur 12,Skilgreina sérafnotaflöt,Frestað. Vísað til athugasemda á umsóknarblaði.,Sótt er um leyfi til að skilgreina sérnotafleti  við hús á lóð nr. 12 við Grensásveg. Gjald kr. 10.100
51151 (01.17.223.5),http://gamli.rvk.is/vefur/owa/edutils.parse_page?nafn=BN051151,Grettisgata 9,Breyting - stigahús 4.hæð - skráningartafla,Frestað. Frestað á milli funda.,"Sótt er um leyfi til að breyta fyrirkomulagi í stigahúsi og íbúð á 4. hæð, og til að innrétta skrifstofu og verslun á 1. hæð og breyta íbúðum á 2. og 3. hæð í gististað í flokki V, teg. B, sjá erindi BN048039,  í tengslum við Hótel Frón í íbúðar- og atvinnuhúsi á lóð nr. 9 við Grettisgötu. Jafnframt er erindi BN050223 dregið til baka. Erindi fylgir bréf umsækjanda dags. 30. maí 2016 ásamt útskrift úr gerðabók embættisafgreiðslufundar skipulagsfulltrúa frá 8. júlí 2016 og umsögn skipulagsfulltrúa dags. 7. júlí 2016. Gjald kr. 10.100"
51426 (02.57.610.1),http://gamli.rvk.is/vefur/owa/edutils.parse_page?nafn=BN051426,Gylfaflöt 24-30,Breyting inni - 0101,Frestað. Vísað til athugasemda á umsóknarblaði.,"Sótt er um leyfi til að breyta innra skipulagi rýma 0101, 0102 og 0103  í húsinu á lóð nr. 24-30 við Gylfaflöt. Gjald kr. 10.100 + 10.100"
51618 (01.14.020.4),http://gamli.rvk.is/vefur/owa/edutils.parse_page?nafn=BN051618,Hafnarstræti 4,Veitingahús í flokki 3  (Veltusund 1),"Samþykkt.  Samræmist ákvæðum laga nr. 160 / 2010. Skilyrt er að eignaskiptayfirlýsing vegna lóðar sé samþykkt fyrir útgáfu byggingarleyfis, henni verður þinglýst eigi síðar en við lokaúttekt. Áskilin lokaúttekt byggingarfulltrúa. Áskilið samþykki heilbrigðiseftirlits. Áskilið samþykki Vinnueftirlits ríkisins.","Sótt er um leyfi til að breyta innréttingum fyrir veitingastað í flokki 3 teg. A fyrir 130 gesti á 2. og 3. hæð, sem felast í að snyrtingu er breytt í móttöku, breytingar í eldhúsi og loftræsing sýnd á 2. hæð og innri skipan sæta á 3. hæð breytt í húsi á lóð nr. 4 við Hafnarstræti (Veltusund 1). Meðfylgjandi er samþykki lóðarhafa á Austurstræti 3, dags. 12.10. 2016. Gjald kr. 10.100"
51891 (01.24.420.3),http://gamli.rvk.is/vefur/owa/edutils.parse_page?nafn=BN051891,Háteigsvegur 1,"Breyting inni - flóttastigi, sorp, neyðarstigi o.fl.",Frestað. Vísað til athugasemda á umsóknarblaði.,"Sótt er um að breyta áður samþykktu erindi BN050768 sem felst í breytingu á innra skipulagi, hagræðingu á flóttastiga og sorpi, byggingu neyðarstiga á 2. hæð, ásamt  opnun úr herbergi á 3. hæð yfir í rými undir súð til austurs. Stækkun A-rými x ferm., x rúmm. Gjald kr. 10.100"
51633 (01.80.100.6),http://gamli.rvk.is/vefur/owa/edutils.parse_page?nafn=BN051633,Heiðargerði 11,Breytingar - áður gerð viðbygging,Samþykkt.  Samræmist ákvæðum laga nr. 160 / 2010. Það athugist að um er að ræða samþykkt á áður gerðri framkvæmd sem gerð var án byggingarleyfis. Óvissa kann því að vera um uppbyggingu og útfærslu framkvæmdar. Hvorki er skráð verktrygging á verkið né ábyrgðaraðilar.,"Sótt er um samþykki fyrir áður gerðri viðbyggingu á endaraðhúsi á lóð nr. 11 við Heiðargerði. Útskrift úr gerðabók embættisafgreiðslufundar skipulagsfulltrúa frá 28. október 2016 fylgir erindinu ásamt umsögn skipulagsfulltrúa dags. 27. október 2016. Stækkun: Eldra anddyri A-rými 6,25 ferm., 16,38 rúmm. Nýrri viðbygging A-rými 12,09 ferm., 32,64 rúmm. C-rými 12,09 ferm. Bréf hönnuðar dags. 23.09.2016 fylgir erindi, ásamt umsögn burðarvirkishönnuðar dags. 26.09.2016. Lögð er fram umsögn skipulagsfulltrúa við fyrirspurn BN051633 dags. 03.08.2016. Gjald kr. 10.100"
51778 (01.35.430.2),http://gamli.rvk.is/vefur/owa/edutils.parse_page?nafn=BN051778,Hjallavegur 23,"Viðbygging, svalir, bílskúr",Frestað. Lagfæra skráningu.,"Sótt er öðru sinni um leyfi til að fjarlægja óleyfisskúr og byggja bílskúr ásamt því að byggja við núverandi íbúðarhús og gera nýjan kvist og nýjar svalir á lóð nr. 23 við Hjallaveg. Stærð á nýjum bílskúr: 37,0 ferm., 117,2 rúmm., stækkun íbúðarhúss: 42,3 ferm., 91,9 rúmm.  Stækkun: Mhl.01  42,3 ferm., 91,9 rúmm. Mhl.02 37,0 ferm., 124,6 rúmm. Gjald kr. 10.100"
51893 (01.62.880.1),http://gamli.rvk.is/vefur/owa/edutils.parse_page?nafn=BN051893,Hlíðarendi 6-10,Stjórnskýli fyrir gervigrasvöll,Samþykkt.  Samræmist ákvæðum laga nr. 160 / 2010. Með vísan til samþykktar borgarráðs frá 1. september 1998 skal utanhúss- og lóðarfrágangi vera lokið eigi síðar en innan tveggja ára frá útgáfu byggingarleyfis að viðlögðum dagsektum sbr. greinar nr. 2.4.7 og 2.9.2 í byggingarreglugerð nr. 112/2012. Áskilin lokaúttekt byggingarfulltrúa.,"Sótt er um leyfi til að breyta erindi BN051679 þannig að komið er fyrir stjórnskáp fyrir flóðljósa og vökvunarkerfi gervigrasvallarins vestan við Friðrikstorg hjá knattspyrnufélagi Vals á lóð nr. 6A við Hlíðarenda.  Bréf frá hönnuði dags. 24. október 2016 fylgir erindi. Stærð: 4,3 ferm., 10,5 rúmm.  Gjald kr. 10.100"
51821 (01.17.410.5),http://gamli.rvk.is/vefur/owa/edutils.parse_page?nafn=BN051821,Hverfisgata 100B,Svalir,Frestað. Vísað til athugasemda á umsóknarblaði.,Sótt er um leyfi til að byggja tvennar stálsvalir með eldþolnum botni á íbúðir á 2. og 3. hæð í fjölbýlishúsi  lóð nr. 100B við Hverfisgötu. Gjald kr. 10.100
51877 (01.22.211.7),http://gamli.rvk.is/vefur/owa/edutils.parse_page?nafn=BN051877,Hverfisgata 123,Veitingastaður fl.2,Samþykkt.  Samræmist ákvæðum laga nr. 160 / 2010. Áskilin lokaúttekt byggingarfulltrúa. Áskilið samþykki heilbrigðiseftirlits.,Sótt er um leyfi til að breyta skráningu úr flokki I í flokk II fyrir 20 gesti í stað 30 að hámarki í veitingastað á lóð nr. 123 við Hverfisgötu. Gjald kr. 10.100
51112 (01.17.200.1),http://gamli.rvk.is/vefur/owa/edutils.parse_page?nafn=BN051112,Hverfisgata 40,Brynjureitur - Fjölbýlishús og atvinnuhúsnæði,Frestað. Vísað til athugasemda eldvarnareftirlits á umsóknarblaði.,"Sótt er um leyfi til að byggja íbúðar- og atvinnuhús með 72 íbúðum og verslunum á jarðhæðum, þrjár til sex hæðir á sameiginlegum bílakjallara með 20 stæðum á Brynjureit á lóð nr. 40 við Hverfisgötu. Útskrift úr gerðabók embættisafgreiðslufundar skipulagsfulltrúa frá 7. október 2016 fylgir erindinu ásamt umsögn skipulagsfulltrúa dags. 4. október 2016. Einnig brunahönnun frá EFLU uppfærð í september 2016 og bréf frá hönnuðum dags. 13. maí og 20. september 2016. Stærð A-rými:  6.495,8 ferm., 22.519,3 rúmm. B-rými:  213,1 ferm., 736,7 rúmm. C-rými:  677 ferm. Gjald kr. 10.100"
51889 (01.17.400.2),http://gamli.rvk.is/vefur/owa/edutils.parse_page?nafn=BN051889,Hverfisgata 86,"Breyting inni - kröfur um burðarþol, bruna og hljóðvist",Frestað. Vísað til athugasemda á umsóknarblaði.,"Sótt er um leyfi til að breyta innra skipulagi íbúða og uppfylla kröfur byggingarreglugerðar varðandi burðarþol, bruna og hljóðvist í húsi á lóð nr. 86 við Hverfisgötu. Gjald kr. 10.100"
51856 (01.18.021.9),http://gamli.rvk.is/vefur/owa/edutils.parse_page?nafn=BN051856,Ingólfsstræti 21,Áður gerðar breytingar,Samþykkt.  Samræmist ákvæðum laga nr. 160 / 2010. Það athugist að um er að ræða samþykkt á áður gerðri framkvæmd sem gerð var án byggingarleyfis. Óvissa kann því að vera um uppbyggingu og útfærslu framkvæmdar. Hvorki er skráð verktrygging á verkið né ábyrgðaraðilar.,Sótt er um samþykki á áður gerðum breytingum á innra skipulagi í einbýlishúsi á lóð nr. 21 við Ingólfsstræti. Meðfylgjandi er umsögn Minjastofnunar Íslands dags. 27. 10. 2016. Gjald kr. 10.100
49009 (01.52.700.1),http://gamli.rvk.is/vefur/owa/edutils.parse_page?nafn=BN049009,Kaplaskjólsvegur 89,Breytt skráningartafla,Samþykkt.  Samræmist ákvæðum laga nr. 160 / 2010. Skilyrt er að eignaskiptayfirlýsingu vegna breytinga í húsinu sé þinglýst til þess að samþykktin öðlist gildi.     Áskilin lokaúttekt byggingarfulltrúa.,Sótt er um leyfi til að eignatengja geymslur við íbúðir í húsi nr. 89 á lóð nr. 89 - 93 við Kaplaskjólsveg. Gjald kr. 9.823
51641 (34.53.310.1),http://gamli.rvk.is/vefur/owa/edutils.parse_page?nafn=BN051641,Kistumelur 22,Áður gerðar breytingar,Frestað. Vísað til athugasemda á umsóknarblaði.,Sótt er um leyfi fyrir áður gerðum breytingum á innra skipulagi ásamt breytingum á bílastæðum í atvinnuhúsnæði á lóð nr. 22 við Kistumel.  Gjald kr. 10.100
50924 (01.17.110.8),http://gamli.rvk.is/vefur/owa/edutils.parse_page?nafn=BN050924,Klapparstígur 30,Veitingastaður 1.hæð - br. á öðrum hæðum,Samþykkt.  Samræmist ákvæðum laga nr. 160 / 2010. Áskilin lokaúttekt byggingarfulltrúa. Áskilið samþykki heilbrigðiseftirlits.,"Sótt er um leyfi til að innrétta veitingastað í flokki III, teg. A fyrir 129 gesti á 1. hæð og í kjallara, sjá erindi BN048637 og til að breyta afmörkun íbúðar 0202 í íbúðar- og atvinnuhúsi á lóð nr. 30 við Klapparstíg. Útskrift úr gerðabók embættisafgreiðslufundar skipulagsfulltrúa frá 29. apríl 2016 fylgir erindinu ásamt umsögn skipulagsfulltrúa dags. 29. apríl 2016. Einnig greinargerð um hljóðvist frá Verkís dags. í september 2016. Gjald kr. 10.100"
51883 (01.32.310.1),http://gamli.rvk.is/vefur/owa/edutils.parse_page?nafn=BN051883,Korngarðar 1,Milliveggir í kælirými 5,Samþykkt.  Samræmist ákvæðum laga nr. 160 / 2010. Áskilin lokaúttekt byggingarfulltrúa. Áskilið samþykki heilbrigðiseftirlits.,"Sótt er um leyfi til að innrétta vinnslurými inn af kæliklefa nr. 5 og verður það notað fyrir þvott, skurð og pökkun á grænmeti og ávöxtum í húsi á lóð nr. 1 við Korngarða.  Gjald kr. 10.100"
51890 (02.64.750.2),http://gamli.rvk.is/vefur/owa/edutils.parse_page?nafn=BN051890,Lambhagavegur 9,Atvinnuhúsnæði,Frestað. Vísað til athugasemda á umsóknarblaði.,"Sótt er um leyfi til að byggja tvílyft atvinnuhúsnæði með millilofti á lóð nr. 9 við Lambhagaveg. Stærðir: A-rými 2.813,7 ferm., 13.361,5 rúmm.  C-rými 767,4m2 Gjald kr. 10.100"
50928 (01.38.010.4),http://gamli.rvk.is/vefur/owa/edutils.parse_page?nafn=BN050928,Laugarásvegur 1,Veitingastaður/kaffihús í fl. II,Frestað. Vísað til athugasemda á umsóknarblaði og umsögn skrifstofu sviðstjóra dags. 27. október 2016.,Sótt er um leyfi til að innrétta veitingastað í flokki II  í kjallara og 1. hæð fyrir 30 gesti í rými 0101 í húsi á lóð nr. 1 við Laugarásveg.  Útskrift úr gerðabók embættisafgreiðslufundar skipulagsfulltrúa frá 29. apríl 2016 fylgir erindinu ásamt umsögn skipulagsfulltrúa dags. 29. apríl 2016. Bréf frá skifstofu sviðstjóra dags. 27. okt. 2016 fylgir. Umsögn byggingatæknifræðings frá Blikksmiðnum um Ozon dags. 14. sept. 2016 og umsögn pípulagningameistara ódags.  Bréf frá Cato lögmönnum dags. 5. október. 2016 fylgir. Gjald kr. 10.100 + 10.100
51839 (01.34.610.3),http://gamli.rvk.is/vefur/owa/edutils.parse_page?nafn=BN051839,Laugarnesvegur 56,Breytingar á erindi BN047953,Samþykkt.  Samræmist ákvæðum laga nr. 160 / 2010. Með vísan til samþykktar borgarráðs frá 1. september 1998 skal utanhúss- og lóðarfrágangi vera lokið eigi síðar en innan tveggja ára frá útgáfu byggingarleyfis að viðlögðum dagsektum sbr. greinar nr. 2.4.7 og 2.9.2 í byggingarreglugerð nr. 112/2012. Áskilin lokaúttekt byggingarfulltrúa. Áskilið samþykki heilbrigðiseftirlits.,Sótt er um leyfi til að breyta áður samþykktu erindi BN047953 þannig að breytt er innra fyrirkomulagi baðherbergja og fyrirkomulagi sorpskýlis við fjölbýlishús á lóð nr. 56 við Laugarnesvegi  Samþykki aðliggjandi lóða nr. 54 og 58 fylgja erindinu á teikningum. Gjald kr. 10.100
51754 (01.17.130.5),http://gamli.rvk.is/vefur/owa/edutils.parse_page?nafn=BN051754,Laugavegur 10,"Risþak bakhúsi - kvistur, breyting Gló sbr. BN051134",Frestað. Vísað til athugasemda á umsóknarblaði.,"Sótt er um leyfi til að breyta erindi BN051134, kvistur á bakhlið er breikkaður, sameina bakhús, byggja mænisþak og koma fyrir gleranddyri framan við inngang  í húsið á lóð nr. 10 við Laugaveg.  Útskrift úr gerðabók embættisafgreiðslufundar skipulagsfulltrúa frá 7. október 2016 fylgir erindinu ásamt umsögn skipulagsfulltrúa dags. 7. október 2016. Útskrift úr gerðabók embættisafgreiðslufundar skipulagsfulltrúa frá 28. október 2016 fylgir erindinu. Leiðrétt bókun frá fundi skipulagsfulltrúa 21. október 2016 þar sem umsögn skipulagsfulltrúa dags. 20. október 2016 var samþykkt. Leiðrétt bókun er: Umsögn skipulagsfulltrúa dags. 28. október 2016 samþykkt. Umsögn Minjastofnunar Íslands dags. 5. september 2016. Bréf frá Gló og Joe & Juice  dags. 27. okt. 2016fylgir erindi. Stækkun : 1,8 ferm., 86,3 rúmm. Gjald kr. 10.100"
51473 (01.24.000.2),http://gamli.rvk.is/vefur/owa/edutils.parse_page?nafn=BN051473,Laugavegur 107,Breyta Hlemmi í matarmarkað,Frestað. Vísað til athugasemda á umsóknarblaði og málinu vísað til umsagnar skipulagsfulltrúa.,"Sótt er um leyfi til breytinga innanhúss fyrir Hlemm matarmarkað í strætóbiðstöð á lóð nr. 107 við Laugaveg. Útskrift úr gerðabók embættisafgreiðslufundar skipulagsfulltrúa frá 4. mars 2016 fylgir erindi BN050623, ásamt umsögn skipulagsfulltrúa dags. 3. mars 2016. Einnig greinargerð Mannvits frá 26.7. 2016, hljóðvistarskýrsla Eflu dags. 27.7. 2016, brunahönnun Eflu dags. 26.7. 2016, sem og gátlisti, bréf arkitekts dags. 25.10. 2016 og skema yfir fyrirtæki, tímasetning, áhöld, tæki og hráefni. Gjald kr. 10.100"
51862 (01.17.111.1),http://gamli.rvk.is/vefur/owa/edutils.parse_page?nafn=BN051862,Laugavegur 17,Breytingar - BN047129 brunavarnir,Samþykkt.  Samræmist ákvæðum laga nr. 160 / 2010. Áskilin lokaúttekt byggingarfulltrúa.,"Sótt er um samþykki fyrir breytingum á brunahólfun í kjallara,  v/lokaúttektar á erindi BN047129, í íbúðar- og atvinnuhúsi á lóð nr. 17 við Laugaveg. Gjald kr. 10.100"
51652 (01.17.150.4),http://gamli.rvk.is/vefur/owa/edutils.parse_page?nafn=BN051652,Laugavegur 20B,Stækkun - Kaldi Bar,Frestað. Vísað til athugasemda á umsóknarblaði.,Sótt er um leyfi til að stækka veitingastaðinn Kalda Bar til suðurs þar sem áður var skartgripaverslun við Klapparstíg á lóð nr. 20 B við Laugaveg. Erindi fylgir hljóðvistarskýrsla dags. í ágúst 2016. Gjald kr. 10.100
51430 (01.17.302.0),http://gamli.rvk.is/vefur/owa/edutils.parse_page?nafn=BN051430,Laugavegur 55,Hótel,Frestað. Vísað til athugasemda á umsóknarblaði og athugasemda í umsögn skipulagsfulltrúa dags. 28. október 2016.,"Sótt er um leyfi til að byggja nýbyggingu fyrir verslun og gististað í flokki V, teg. a - hótel, sem hýsa mun 116 gesti á lóð nr. 55 við Laugaveg.  Útskrift úr gerðabók embættisafgreiðslufundar skipulagsfulltrúa frá 28. október 2016 fylgir erindinu, ásamt umsögn skipulagsfulltrúa dags. 26. október 2016.  Stærð A-rými: 2.070,8 ferm., 6.911,0 rúmm. B-rými x ferm., x rúmm.  C-rými x ferm. Umsögn Minjastofnunar Íslands dags. 27. maí 2016 fylgir erindi. Gjald kr. 10.100"
51884 (01.17.402.1),http://gamli.rvk.is/vefur/owa/edutils.parse_page?nafn=BN051884,Laugavegur 77,Breytingar 2. og 3.hæð - uppfærðar brunavarnir,Samþykkt.  Samræmist ákvæðum laga nr. 160 / 2010. Áskilin lokaúttekt byggingarfulltrúa. Áskilið samþykki heilbrigðiseftirlits.,"Sótt er um leyfi til að breyta þannig að á 2. hæð  verður tveimur salernum snúið frá anddyri, áður opið vinnusvæði  verður að tveimur lokuðum viðtalsherbergjum og á 3. hæð verða innribreytingar sem eru að hluta að stærri skrifstofa verður að þremur minni í húsinu á lóð nr. 77 við Laugarveg. Gjald kr. 10.100"
51774 (01.17.413.0),http://gamli.rvk.is/vefur/owa/edutils.parse_page?nafn=BN051774,"74"">Laugavegur 95-99",Hótel fl.V,Frestað. Vísað til athugasemda á umsóknarblaði.,"Sótt er um leyfi til að byggja viðbyggingu samhliða endurbyggingu útveggja og þaks, og innrétta hótel í flokki V - teg. a, ásamt verslun og þjónustu á jarðhæð, í húsi á lóð nr. 95-99 við Laugaveg. Stækkun A-rými: 548,5 ferm., 694,0 rúmm.  Gjald kr. 10.100"
51746 (01.15.150.3),http://gamli.rvk.is/vefur/owa/edutils.parse_page?nafn=BN051746,Lindargata 14,"Áður grerðar breytingar, 2.hæð",Samþykkt.  Samræmist ákvæðum laga nr. 160 / 2010. Það athugist að um er að ræða samþykkt á áður gerðri framkvæmd sem gerð var án byggingarleyfis. Óvissa kann því að vera um uppbyggingu og útfærslu framkvæmdar. Hvorki er skráð verktrygging á verkið né ábyrgðaraðilar.,Sótt er um leyfi fyrir áður gerðum breytingum á innra skipulagi íbúðar á 2. hæð í fjölbýlishúsi á lóð nr. 14 við Lindargötu. Gjald kr. 10.100
51379 (01.14.050.8),http://gamli.rvk.is/vefur/owa/edutils.parse_page?nafn=BN051379,Lækjargata 6A,Reyndarteikningar v/lokaúttektar,Samþykkt.  Samræmist ákvæðum laga nr. 160 / 2010. Áskilin lokaúttekt byggingarfulltrúa. Áskilið samþykki heilbrigðiseftirlits.,"Sótt er um samþykki á breyttum teikningum, sbr. erindi BN050848, sem felast í leiðréttingum á stigahúsi og aðkomu að efri hæðum húss á lóð nr. 6A við Lækjargötu. Gjald kr. 10.100"
51714 (01.19.002.5),http://gamli.rvk.is/vefur/owa/edutils.parse_page?nafn=BN051714,Njálsgata 37,Ofanábygging - kvistir - svalir,Frestað. Málinu vísað til umsagnar skipulagsfulltrúa.,"Sótt er um leyfi til að lengja til vesturs, byggja hæð ofaná og innrétta fjórar íbúðir í húsi á lóð nr. 37 við Njálsgötu. Erindi fylgir umsögn Minjastofnunar Íslands dags. 4. október 2016. Eftir stækkun, A-rými:  477,4 ferm., 1.359,3 rúmm. B-rými:  40,3 ferm., Samtals:  517,7 ferm. Stækkun: 312,4 ferm., xx rúmm. Gjald kr. 10.100"
51458 (01.44.111.3),http://gamli.rvk.is/vefur/owa/edutils.parse_page?nafn=BN051458,Nökkvavogur 11,Síkka glugga í stofu,Frestað. Vísað til athugasemda eldvarnareftirlits á umsóknarblaði.,"Sótt er um leyfi til að síkka glugga í stofu á suðurhlið, koma fyrir svalahurð við hlið hans og koma fyrir stigapalli og tröppur út í garð, síkka glugga í kjallara að sunnan og vestanmegin og koma fyrir nýjum glugga á kjallara á austurgafl í húsi á lóð nr. 11 við Nökkvavog. Útskrift úr gerðabók embættisafgreiðslufundar skipulagsfulltrúa frá 28. október 2016 fylgir erindinu ásamt umsögn skipulagsfulltrúa dags. 28. október 2016. Samþykki frá meðeigendum lóðar dags. 28. Júní 2016 og umsögn Burðarvirkishönnuðar dags. 21. sept. 2016 fylgir  Gjald kr. 10.100 + 10.100"
51842 (01.82.320.8),http://gamli.rvk.is/vefur/owa/edutils.parse_page?nafn=BN051842,Rauðagerði 66,Breyting - 1.hæð,Frestað. Vísað til athugasemda á umsóknarblaði.,Sótt er um leyfi til að breyta innréttingu kjallara í einbýlishúsi á lóð nr. 66 við Rauðagerði. Gjald kr. 10.100
51775 (01.24.351.1),http://gamli.rvk.is/vefur/owa/edutils.parse_page?nafn=BN051775,>Skeggjagata 5,"Svalir 2.hæð, breyting kjallara o.fl.",Frestað. Lagfæra skráningu.,"Sótt er um leyfi til að setja nýjar svalir og svalahurð á vesturgafl á 2. hæð, fjarlægja svalir á norðurhlið, breyta fyrirkomulagi í kjallara sem er órjúfanlegur hluti íbúðar á 1. hæð, síkka glugga og gera útgang úr kjallara, sbr.  fyrirspurn BN051696, flytja inntök fyrir vatn og rafmagn í sameiginlegt rými undir útitröppum og skipta út gluggum og lögnum í húsi á lóð nr. 5 við Skeggjagötu. Meðfylgjandi er íbúðarskoðun dags. 9. september 2016. Gjald kr. 10.100"
51724 (01.15.430.4),http://gamli.rvk.is/vefur/owa/edutils.parse_page?nafn=BN051724,Skúlagata 28,Reyndarteikningar - BN049619,Samþykkt.  Samræmist ákvæðum laga nr. 160 / 2010. Áskilin lokaúttekt byggingarfulltrúa. Áskilið samþykki heilbrigðiseftirlits.,"Sótt er um samþykki á áður gerðum breytingum á gistiskála í flokki V og veitingastað í flokki II, sjá erindi BN049619 á lóð nr. 28 við Skúlagötu. Gjald kr. 10.100"
51828 (01.16.210.5),http://gamli.rvk.is/vefur/owa/edutils.parse_page?nafn=BN051828,Sólvallagata 5,"Svalir, tröppur niður í garð o.fl.",Frestað. Vísað til athugasemda á umsóknarblaði og athugasemdir í umsögn skipulagsfulltrúa dags. 28. október 2016.,"Sótt er um leyfi til að byggja svalir úr heitgalvanhúðuðu stáli með gólfi og þrepum úr harðviði, opna dyr að svölum og breyta glugga eins og gert verður á hinum hluta tvíbýlishússins á lóð nr. 5 við Sólvallagötu. Útskrift úr gerðabók embættisafgreiðslufundar skipulagsfulltrúa frá 28. október 2016 fylgir erindinu ásamt umsögn skipulagsfulltrúa dags. 28. október 2016. Meðfylgjandi er umsögn skipulagsfulltrúa dags. 28.10. 2016. Gjald kr. 10.100"
51829 (01.16.210.4),http://gamli.rvk.is/vefur/owa/edutils.parse_page?nafn=BN051829,Sólvallagata 5A,"Svalir, tröppur niður í garð o.fl.",Frestað. Vísað til athugasemda á umsóknarblaði og athugasemdir í umsögn skipulagsfulltrúa dags. 28. október 2016.,"Sótt er um leyfi til að byggja svalir úr heitgalvanhúðuðu stáli með gólfi og þrepum úr harðviði, opna dyr að svölum og breyta glugga eins og gert verður á hinum hluta tvíbýlishússins á lóð nr. 5A við Sólvallagötu. Útskrift úr gerðabók embættisafgreiðslufundar skipulagsfulltrúa frá 28. október 2016 fylgir erindinu ásamt umsögn skipulagsfulltrúa dags. 28. október 2016. Meðfylgjandi er umsögn skipulagsfulltrúa dags. 28.10. 2016. Gjald kr. 10.100"
51881 (01.63.130.5),http://gamli.rvk.is/vefur/owa/edutils.parse_page?nafn=BN051881,Sturlugata 6,Vísindagarðar,Frestað. Málinu vísað til umsagnar skipulagsfulltrúa.,"Sótt er um leyfi til að byggja fjögurra hæða verslunar- og skrifstofuhús sem hýsa mun frumkvöðlasetur sem tengir fyrirtæki og vísindasamfélag í Vísindagörðum á lóð nr. 6 við Sturlugötu. Erindi fylgir skýrsla um byggingareðlisfræði og orkuramma, greinargerð með burðarvirkishönnun, greinargerðir um hönnunarforsendur lýsingar og lagnakerfa og greinargerðir um hljóðvist og brunahönnun allt frá verkfræðistofunni Eflu dags. í október 2016 ásamt greinargerð hönnuðar um aðgengi dags. í október 2016. Stærð, A+B rými:  8.683,2 ferm., 30.236 rúmm. Gjald kr. 10.100"
51820 (01.13.210.4),http://gamli.rvk.is/vefur/owa/edutils.parse_page?nafn=BN051820,Tryggvagata 16,Rishæð - breyta í íbúð - þaksvalir,Frestað. Vísað til athugasemda á umsóknarblaði.,"Sótt er um leyfi til að breyta rishæð þannig að halli á þaki verður brattari að götu og garði og að á milli þakflata komi flatt þak sem nýtist sem þaksvalir, jafnframt er rýminu breytt í íbúð í fjöleignahúsinu á lóð nr. 16 við Tryggvagötu. Meðfylgjandi er samþykki meðeigenda. Stækkun:  22,3 ferm., 91,2 rúmm. Gjald kr. 10.100"
51835 (01.76.250.1),http://gamli.rvk.is/vefur/owa/edutils.parse_page?nafn=BN051835,Varmahlíð 1,Breyting 2.hæð - brúartenging o.fl.,"Samþykkt.  Samræmist ákvæðum laga nr. 160 / 2010. Skilyrt er að ný eignaskiptayfirlýsing vegna lóðar sé samþykkt fyrir útgáfu byggingarleyfis, henni verður þinglýst eigi síðar en við lokaúttekt. Áskilin lokaúttekt byggingarfulltrúa. Áskilið samþykki heilbrigðiseftirlits.","Sótt er um leyfi til að byggja 2. hæð í miðrými, mhl. 01/0201, með brúartengingu í sýningartank, mhl. 02/0201 þar sem byggt verður milligólf, einnig verða flóttaleiðir og flóttastigar uppfærðir í Perlunni á lóð nr. 1 við Varmahlíð. Meðfylgjandi er bréf frá Veitum ohf. dags. 7.10. 2016 og bréf frá Verkís dags. 20.9. 2016. Samtals stækkun: 803,6 ferm. Gjald kr. 10.100"
51739 (01.18.131.2),http://gamli.rvk.is/vefur/owa/edutils.parse_page?nafn=BN051739,Þórsgata 27,Gluggi kjallara - breyting inni,Frestað. Vísað til athugasemda eldvarnareftirlits á umsóknarblaði.,"Sótt er um leyfi til að setja nýjan glugga á baðherbergi við austurhlið, breyta herbergi í stofu í kjallara og loka á milli herbergja á 1. hæð og koma þar fyrir herbergi í staðinn fyrir stofu í einbýlishúsinu á lóð nr. 27 við Þórsgötu.  Umsögn burðarvirkishönnuðar dags. 24. okt. 2016 fylgir. Gjald kr. 10.100"
51846 (01.55.312.6),http://gamli.rvk.is/vefur/owa/edutils.parse_page?nafn=BN051846,Þrastargata 1,Reyndarteikningar,Samþykkt.  Samræmist ákvæðum laga nr. 160 / 2010. Með vísan til samþykktar borgarráðs frá 1. september 1998 skal utanhúss- og lóðarfrágangi vera lokið eigi síðar en innan tveggja ára frá útgáfu byggingarleyfis að viðlögðum dagsektum sbr. greinar nr. 2.4.7 og 2.9.2 í byggingarreglugerð nr. 112/2012. Áskilin lokaúttekt byggingarfulltrúa.,"Sótt er um samþykki á þegar gerðum breytingum, sbr. BN048914, sem felast í að snyrting er flutt frá aðalhæð á millipall, hurð þar verður gluggi á snyrtingu, rennihurð úr stofu út á svalir verður vængjahurð, rennihurð á þvottaherbergi verður lamahurð og opi milli hæða lokað í einbýlishúsi á lóð nr. 1 við Þrastargötu. Stærðir stækkun 1,4 ferm. Gjald kr. 10.100"
51870 (04.35.230.5),http://gamli.rvk.is/vefur/owa/edutils.parse_page?nafn=BN051870,Þykkvibær 14,Reyndarteikning,Frestað. Vísað til athugasemda á umsóknarblaði.,"Sótt er um leyfi fyrir áður gerðum breytingum sem felast í viðbyggingu við NV enda húss á lóð nr. 14 við Þykkvabæ. Stækkun: x ferm., x rúmm. Gjald kr. 10.100"
51872 (01.13.430.4),http://gamli.rvk.is/vefur/owa/edutils.parse_page?nafn=BN051872,Öldugata 55,Kvistir - svalir,Frestað. Vísað til athugasemda á umsóknarblaði.,Sótt er um leyfi til að koma fyrir eldhúskróki í þvottaherbergi/geymslu í risi íbúðahúss á lóð nr. 55 við Öldugötu. Gjald kr. 10.100
51898 (04.06.310.1),http://gamli.rvk.is/vefur/owa/edutils.parse_page?nafn=BN051898,Vagnhöfði 17,mæliblað,Samþykkt.  Samræmist ákvæðum laga nr. 160 / 2010. Uppdrátturinn öðlast gildi þegar honum hefur verið þinglýst.,"Óskað er eftir  samþykki bygginarfulltrúans á breytingu lóðamarka, vegna lóðarinnar Vagnhöfði 17, samanber meðsenda uppdrætti þ.e. Breytingablaði 4.063.1 og Lóðauppdrátt 4.063.1, dagsettum 31. 10. 2016. Lóðin Vagnhöfði 17 (staðgr. 4.063.101, landnr. 110637) er 2102 m², bætt er   683 m² við lóðina úr óútvísuðu landi (landnr. 221447), lóðin verður 2785 m². Sjá deiliskipulag sem samþykkt var skipulagsráði þann 08. 06. 2005, samþykkt í borgarráði þann 16. 06. 2005 og auglýst í B-deild Stjórnartíðinda þann 21. 06. 2005."
51795 (01.22.221.0),http://gamli.rvk.is/vefur/owa/edutils.parse_page?nafn=BN051795,Laugavegur 161,(fsp) - Skipta í tvær íbúðir,Neikvætt. Samanber umsögn skipulagsfulltrúa dags. 28. október 2016.,Spurt er hvort skipta megi íbúð 0101 í tvær íbúðir í húsi á lóð nr. 161 við Laugaveg. Útskrift úr gerðabók embættisafgreiðslufundar skipulagsfulltrúa frá 28. október 2016 fylgir erindinu ásamt umsögn skipulagsfulltrúa dags. 28. október 2016.
