nr,url,heimilisfang,tegund,nidurstada,spurning
37901 (01.43.430.1),http://gamli.rvk.is/vefur/owa/edutils.parse_page?nafn=BN037901,Álfheimar 74,skipta rými 10-11 - klæðing útveggja,Frestað. Vísað til athugasemda á umsóknarblaði.,"Sótt er um leyfi til að: A) skipta húsnæði 10/11 í rými 0101, matshluta 1 í tvö rými sbr. teikn. A-1 811-1-4 og 811-1-15 dags. 4.mars 2008 og til að B) klæða útveggi verslunarmiðstöðvarinnar sbr. meðfylgjandi teikningar 1-5 dags. feb. 2008 og endurskoðaða skráningartöflu. Meðfylgjandi er: Bréf arkitekts dags. 3. mars .2008 - Staðfesting burðarvirkjahönnuðar dags. 3. mars  2008 - undirskrift brunavarnahönnuðar dags. 4.mars .2008 Gjald kr. 7.300"
37850 (01.18.520.6),http://gamli.rvk.is/vefur/owa/edutils.parse_page?nafn=BN037850,Baldursgata 3,reyndarteikn v/eignakiptayfirlýsingar,Frestað. Enn vantar afsal fyrir einni íbúð og skilgreiningu hvað gildir fyrir hverja. Umsækjandi skal óska eftir íbúðarskoðun fyrir allar íbúðirnar.,"Sótt er um samþykkt á reyndarteikningum vegna eignaskipta, þar sem gerð er grein fyrir óleyfisbyggingu út fyrir lóð, þremur íbúðum í Mhl.01 og tveimur íbúðum í Mhl.02 á lóðinni nr. 3 við Baldursgötu. Málinu fylgja fjögur þinglýst afsöl, a) vegna kjallaraíbúðar næst götu, dags. 20. júlí 1978, b) vegna 2. herbergja íbúðar á baklóð dags. 28. desember 2000, c) vegna 3. herbergja íbúðar á aðalhæð dags. 21. október 1987 og c) vegna íbúðar 02-0101 dags. 1. febrúar 2002. Gjald kr. 7.300"
37389 (01.19.310.1),http://gamli.rvk.is/vefur/owa/edutils.parse_page?nafn=BN037389,Barónsstígur 47,breytingar,Samþykkt.  Samræmist ákvæðum laga nr. 73/1997. Áskilin lokaúttekt byggingarfulltrúa.  Áskilið samþykki heilbrigðiseftirlits.,Sótt er um leyfi til að breyta minnháttar innra skipulagi annarar og þriðju hæðar  miðálmu heilsuverndarstöðvarinnar á lóðinni nr. 47 við Barónsstíg. Brunaskýrsla fylgir erindinu dags. 10. mars 2008. Umsögn Minjasafns Reykjavíkur dags. 10. mars 2008 fylgir erindinu. Gjald kr. 6.800
37895 (02.84.620.5),http://gamli.rvk.is/vefur/owa/edutils.parse_page?nafn=BN037895,Baughús 10,samþ. rými á neðri hæð,Frestað. Vísað til athugasemda á umsóknarblaði. Málinu vísað til umsagnar skipulagsstjóra vegna stækkunar.,Sótt er um leyfi til að stækka íbúð á neðri hæð með því að grafa út sökkulrými og áður gerðri framkvæmt þar sem bílgeymslu er skipt í tvær einingar á lóðinni nr. 10 við Baughús. Stærð stækkunar xx ferm. xx rúmm. Gjald kr. 7.300 + xx
37599 (04.05.920.1),http://gamli.rvk.is/vefur/owa/edutils.parse_page?nafn=BN037599,Bíldshöfði 2,bráðabirgðar bensínstöð,Samþykkt.  Samræmist ákvæðum laga nr. 73/1997. Áskilið samþykki heilbrigðiseftirlits.,Sótt er um leyfi fyrir bráðabirgða eldsneytissölu þar á meðal sölu metaneldsneytis meðan á byggingatíma þjónustustöðvarinnar stendur þar sem séð verður fyrir að aðkoma sé bæði frá Vesturlandsvegi og Bíldshöfða en útakstur eingöngu á Vesturlandsveginn á lóðinni nr. 2 við Bíldshöfða. Meðfylgandi er yfirlýsing brunahönnuðar dags. 18. janúar 2008. Gjald kr. 7.300
36305 (01.88.931.0),http://gamli.rvk.is/vefur/owa/edutils.parse_page?nafn=BN036305,Bleikargróf 4-6,byggja sambýli,Samþykkt.  Samræmist ákvæðum laga nr. 73/1997. Frágangur á lóðamörkum verði gerður í samráði við lóðarhafa aðliggjandi lóða. Áskilin lokaúttekt byggingarfulltrúa.  Áskilið samþykki heilbrigðiseftirlits.,"Sótt er um leyfi til þess að byggja einlyft steinsteypt sambýli með fimm íbúðareiningum ásamt þjónusturými. Útveggir verða steinaðir með ljósum mulningi.  Stærð: Sambýli 1.hæð 441,5 ferm., 1.448,8 rúmm. Skýli 8 ferm., 16,8 rúmm. Samtals: 441,5 ferm., 1.448,8 rúmm. Gjald kr. 6.800 + 98.518"
37666 (01.21.810.1),http://gamli.rvk.is/vefur/owa/edutils.parse_page?nafn=BN037666,Borgartún 25,4.hæð br. í eina skrifstofu,Samþykkt.  Samræmist ákvæðum laga nr. 73/1997. Áskilin lokaúttekt byggingarfulltrúa. Skilyrt er að eignaskiptayfirlýsingu vegna breytinga í húsinu sé þinglýst fyrir útgáfu á byggingarleyfi.,Sótt er um leyfi til að breyta 4. hæð sem áður var ein eining í tvær einingar með  vegg í miðju rými og nýjum hurðum inn á gang einnig er í  rými 0401  fjölgað úr einu salerni í tvö í atvinnuhúsnæðinu á lóð nr. 25 við Borgartún. Meðfylgandi er samþykki meðeiganda dags. 28. febrúar 2008. Gjald kr. 7.300
37853 (01.23.000.2),http://gamli.rvk.is/vefur/owa/edutils.parse_page?nafn=BN037853,Borgartún 26,"gluggi, ÚT-skilti",Samþykkt.  Samræmist ákvæðum laga nr. 73/1997. Áskilin lokaúttekt byggingarfulltrúa.  Áskilið samþykki heilbrigðiseftirlits.,Sótt er um leyfi til að breyta hurð í glugga á suðurhlið og breyta brunamerkingu í kaffistofu í atvinnuhúsinu á lóðinni nr. 26 við Borgartún. Gjald kr. 7.300
37912 (02.35.410.2),http://gamli.rvk.is/vefur/owa/edutils.parse_page?nafn=BN037912,Breiðavík 49-57,nr. 49 nýr gluggi stækka geymslu,Samþykkt.  Samræmist ákvæðum laga nr. 73/1997. Áskilin lokaúttekt byggingarfulltrúa.,Sótt er um leyfi til að breyta innra skipulagi og koma fyrir glugga á raðhúsinu nr. 49 á lóðinni nr. 49-57 við Breiðuvík. Erindinu fylgir samþykki meðlóðarhafa áritað á uppdrátt. Gjald kr. 7.300
37910,http://gamli.rvk.is/vefur/owa/edutils.parse_page?nafn=BN037910,Breiðhöfði 3,viðbygging við söluskrifstofu,Frestað. Vísað til athugasemda á umsóknarblaði. Málinu vísað til umsagnar skipulagsstjóra.,"Sótt er um leyfi til að byggja kjallara og hæð við atvinnuhúsið á lóðinni nr. 3 við Breiðhöfða. Stærð:  Kjallari 110,3 ferm., 1. hæð 108,5 ferm. Samtals nýbygging 218,8 ferm., 790,7 rúmm. Gjald kr. 7.300 + 57.721"
37566 (01.35.100.1),http://gamli.rvk.is/vefur/owa/edutils.parse_page?nafn=BN037566,Brúnavegur 13,Stækka E-álmu,Samþykkt.  Samræmist ákvæðum laga nr. 73/1997. Áskilin lokaúttekt byggingarfulltrúa.  Áskilið samþykki heilbrigðiseftirlits.,"Sótt er um leyfi til að stækka setustofu og borðstofu á 1. og 2. hæð E álmu , saga niður veggi og opna fram á gang. Í miðkjarna á 1., 2. og 3. hæð er einnig sótt um að opna setustofu fram á gang. Á 1. hæð í setustofu er sett ný hurð út í garðinn samhliða þessum breytingum. Meðfylgjandi er staðfesting frá burðarvirkjahönnuði dags. 25.feb.2008 Gjald kr. 7.300"
37909 (01.13.422.1),http://gamli.rvk.is/vefur/owa/edutils.parse_page?nafn=BN037909,Bræðraborgarstígur 16,reyndarteikn. v/lokaúttektar,Frestað. Vísað til athugasemda á umsóknarblaði.,Sótt er um að fá samþykktar reyndarteikningar vegna lokaúttektar á húsi á lóð nr. 16 við Bræðraborgarstíg. Gjald kr. 7.300
37362 (01.38.400.1),http://gamli.rvk.is/vefur/owa/edutils.parse_page?nafn=BN037362,Dyngjuvegur 9,reyndarteikningar,Samþykkt.  Samræmist ákvæðum laga nr. 73/1997. Skilyrt er að eignaskiptayfirlýsingu vegna breytinga í húsinu sé þinglýst til þess að samþykktin öðlist gildi.,Sótt er um leyfi fyrir reyndarteikningum að tvíbýlishúsinu á lóð nr. 9 við Dyngjuveg. Gjald kr. 6.800
37849 (01.70.131.2),http://gamli.rvk.is/vefur/owa/edutils.parse_page?nafn=BN037849,Eskihlíð 23,fjarlægja burðarvegg,Samþykkt.  Samræmist ákvæðum laga nr. 73/1997.,"Sótt er um leyfi til að opna milli stofu og eldhús með því að fjarlægja burðarvegg að hluta í kjallaraíbúð hússins á lóð nr. 23 við Eskihlíð. Meðfylgandi er samþykki meðeiganda dags. 20.02.2008, lagður hefur verið inn uppdráttur vegna burðavirkis. Gjald kr. 7.300"
37838 (01.46.200.1),http://gamli.rvk.is/vefur/owa/edutils.parse_page?nafn=BN037838,Faxafen 8-14,útljós,Samþykkt.  Samræmist ákvæðum laga nr. 73/1997. Áskilin lokaúttekt byggingarfulltrúa.,Sótt er um leyfi til að breyta þannig að það verði einni flóttaleið færra miðað við nýlega samþykkt erindi BN37600 í einingu 0103 í atvinnhúsnæðinu á lóð nr. 12 við Faxafen. Gjald kr. 7.300
37409 (01.55.300.9),http://gamli.rvk.is/vefur/owa/edutils.parse_page?nafn=BN037409,Fálkagata 18,reyndarteikningar,Samþykkt.  Samræmist ákvæðum laga nr. 73/1997. Skilyrt er að eignaskiptayfirlýsingu vegna breytinga í húsinu sé þinglýst til þess að samþykktin öðlist gildi.,"Sótt er um leyfi fyrir áður gerðum svölum og geymsluskúr svo og breytingum á innra skipulagi v/eignaskipta í atvinnu- og íbúðarhúsinu á lóðinni nr. 18 við Fálkagötu. Útskrift úr gerðabók embættisafgreiðslufundar skipulagsstjóra frá 14. desember 2007 fylgir erindinu. Stækkun:  4,1 ferm., 10,9 rúmm. Gjald kr. 6.800 + 741."
37896 (01.08.940.1),http://gamli.rvk.is/vefur/owa/edutils.parse_page?nafn=BN037896,Fiskislóð  5-9,2 nýir tankar,Samþykkt.  Samræmist ákvæðum laga nr. 73/1997. Áskilin lokaúttekt byggingarfulltrúa.  Áskilið samþykki heilbrigðiseftirlits.,"Sótt er um leyfi fyrir tveimur nýjum stáltönkum á vesturhlið fyrir úrgang frá framleiðslu á afurðum úr sjávardýraolíu hjá Lýsi hf. á lóðinni nr. 5-7 við Fiskislóð. Stærðir 26,2 ferm., 57,3 rúmm. Gjald kr. 7.300 + 4.183"
37690 (01.08.660.3),http://gamli.rvk.is/vefur/owa/edutils.parse_page?nafn=BN037690,Fiskislóð 43,stálgrindarhús,Frestað. Vísað til athugasemda á umsóknarblaði. Samþykkt takmarkað byggingarleyfi fyrir greftri og aðstöðugerð.,"Sótt er um leyfi til að byggja stálgrindarhús á tveimur hæðum undir verslunar-  lager- og skrifstofurými. Húsið er klætt samlokueiningum og þakið einhalla á lóðinni nr. 43 við Fiskislóð. Meðfylgandi er brunahönnun dags. 21. jan. 2008. og 28. febrúar 2008. Stærðir 2202.4 ferm., 14303,0 rúmm. Gjald kr 7.300 + 1.044.119"
37917 (01.66.--9.9),http://gamli.rvk.is/vefur/owa/edutils.parse_page?nafn=BN037917,Flugvöllur 106748,stöðuleyfi fyrir vinnuskúr,Samþykkt.  Samræmist ákvæðum laga nr. 73/1997. Þinglýsa skal leyfisbréfi flugvallarstjóra fyrir hönd Flugstoða.,"Sótt er um tímabundið stöðuleyfi fyrir afgreiðsluskúr í svokölluðum Básum á Reykjavíkurflugvelli sbr. meðfylgjandi afstöðumynd. Meðfylgjandi er leyfisbréf frá  flugvallarstjóra fyrir hönd Flugstoða. Stærð 28,8 ferm., 95 rúmm. Gjald kr. 7.300"
37911 (02.69.550.2),http://gamli.rvk.is/vefur/owa/edutils.parse_page?nafn=BN037911,Freyjubrunnur 25-27,stálv. tekið af þaki,Samþykkt.  Samræmist ákvæðum laga nr. 73/1997. Frágangur á lóðamörkum verði gerður í samráði við lóðarhafa aðliggjandi lóða. Áskilin lokaúttekt byggingarfulltrúa.,Sótt er um leyfi til að breyta útliti með því að taka út stálvirki í þaki nýsamþykkts fjölbýlishúss BN035953 á lóðinni nr. 25-27 við Freyjubrunn. Gjald kr. 7.300
37907 (02.69.380.1),http://gamli.rvk.is/vefur/owa/edutils.parse_page?nafn=BN037907,Friggjarbrunnur 1,þak ofl.,Samþykkt.  Samræmist ákvæðum laga nr. 73/1997. Frágangur á lóðamörkum verði gerður í samráði við lóðarhafa aðliggjandi lóða. Áskilin lokaúttekt byggingarfulltrúa.,"Sótt er um leyfi til að breyta brunavörnum er varða; reyklosun kjallara, loftaklæðningar efstu hæðar og E-30 gler í gaflgluggum í fjölbýlishúsi BN037145 á lóð nr. 1 við Friggjarbrunn."
37651 (02.69.350.4),http://gamli.rvk.is/vefur/owa/edutils.parse_page?nafn=BN037651,Friggjarbrunnur 17-19,parhús,Frestað. Vísað til athugasemda á umsóknarblaði.,"Sótt er um leyfi til að byggja parhús byggt úr forsteyptum einingum byggingin er á tveimur hæðum auk  íbúðar í hluta íbúðar kjallara  og lagnakjallara að hluta með  innbyggðri bílgeymslu á 1. hæð á lóðinni nr. 17 og 19 við Friggjarbrunn. Stærðir 485,2 ferm., 1425,5 rúmm. Gjald kr. 7.300 + 104.061"
37804 (05.05.610.6),http://gamli.rvk.is/vefur/owa/edutils.parse_page?nafn=BN037804,Gerðarbrunnur 15,einbýlishús,Frestað. Vísað til athugasemda á umsóknarblaði.,"Sótt er um leyfi til að byggja steinsteypt einbýlishús á tveimur hæðum og kjallara með innbyggðri bílgeymslu á lóðinni nr. 15 við Gerðarbrunn. Stærð:  Kjallari íbúð 65,9 ferm., gluggalausar geymslur 58,2 ferm., 1. hæð íbúð 95 ferm., bílgeymsla 31 ferm., 2. hæð íbúð 126 ferm. Samtals 371,9 ferm., og 1104,4 rúmm. Gjald kr. 7.300 + 80.621"
37616 (05.05.470.4),http://gamli.rvk.is/vefur/owa/edutils.parse_page?nafn=BN037616,Gerðarbrunnur 50,einbýlishús,Frestað. Vísað til athugasemda á umsóknarblaði.,"Sótt er um leyfi til að byggja einbýlishús úr steinsteyptum einingum á tveim hæðum , með innbyggðri bílgeymslu á lóðinni nr. 50 við Gerðarbrunn. Erindi fylgir samþykki lóðarhafa aðlægra lóða ódagsett og yfirlýsing um eftirlit með framleiðslustýringu dags. 21. desember 2007. Stærð:  1. hæð íbúð 106,9 ferm. bílgeymsla 33,1 ferm., 2. hæð 132,7 ferm. Samtals 272,7 ferm. og 868 rúmm. Gjald kr. 7.300 + 63.364"
37894 (05.05.470.7),http://gamli.rvk.is/vefur/owa/edutils.parse_page?nafn=BN037894,Gerðarbrunnur 56,einbýlishús,Samþykkt.  Samræmist ákvæðum laga nr. 73/1997. Frágangur á lóðamörkum verði gerður í samráði við lóðarhafa aðliggjandi lóða. Áskilin lokaúttekt byggingarfulltrúa.,"Sótt er um leyfi til að byggja staðsteypt einbýlishús á tveimur hæðum með innbyggðri bílgeymslu á lóðinni nr. 56 við Gerðarbrunn. Stærð:  1. hæð íbúð 92,2 ferm., bílgeymsla 31,8 ferm., 2. hæð íbúð 117 ferm. Samtals 241 ferm., 894,8 rúmm. Gjald kr. 7.300 + 65.320"
37893 (01.43.800.1),http://gamli.rvk.is/vefur/owa/edutils.parse_page?nafn=BN037893,Gnoðarvogur 14-18,"stækkun svala, gluggar",Frestað. Vantar skráningartöflu.,Sótt er um leyfi til að stækka svalir og koma fyrir opnanlegum gluggafagi til vesturs í öllum íbúðum ásamt tilheyrandi breytingu á aðgengi í kjallara fjöleignahússins á lóðinni nr. 14-18 við Gnoðarvog. Meðfylgjandi er fundargerð húsfélagsins dags. 15. maí 2007. Gjald kr. 7.300
37656 (01.85.310.1),http://gamli.rvk.is/vefur/owa/edutils.parse_page?nafn=BN037656,Goðaland 2-20 1-21,nr. 1 viðbygging,Samþykkt.  Samræmist ákvæðum laga nr. 73/1997. Með vísan til samþykktar borgarráðs frá 1. september 1998 skal utanhúss- og lóðarfrágangi vera lokið eigi síðar en innan tveggja ára frá útgáfu byggingarleyfis að viðlögðum dagsektarákvæðum 57. gr. skipulags- og byggingarlaga nr. 73/1997. Frágangur á lóðamörkum verði gerður í samráði við lóðarhafa aðliggjandi lóða. Áskilin lokaúttekt byggingarfulltrúa.,"Sótt er um leyfi fyrir staðsteyptri viðbyggingu við suðvesturhorn parhússins nr.1 á lóð nr. 2-20, 1-21 við Goðaland. Stærðir stækkunar 29,2 ferm.  93,4 rúmm. Gjald kr. 7.300 + 6818"
37930 (01.46.100.1),http://gamli.rvk.is/vefur/owa/edutils.parse_page?nafn=BN037930,Grensásvegur  3-7,afturkallað byggingarleyfi,"Með vísan til umsagnar lögfræði og stjórnsýslu frá 23. janúar 2008 er byggingarleyfi BN037228, frá  20. nóvember 2007, fellt úr gildi.",Sótt er um leyfi til að opna á 3. hæð á milli húsa nr. 5 og nr. 7 á lóðinni nr. 3-7 við Grensásveg. Meðfylgjandi er bréf frá umsækjanda og samþykki meðeigenda dags. 6. nóvember 2007 ásamt bréfi eins eiganda dags. 9. janúar 2008 þar sem málinu er mótmælt. Meðfylgjandi er afrit af bréfi til borgarráðs dags. 3. mars  2008 ásamt umsögn lögfræði og stjórnsýslu dags. 23. janúar 2008  og útskrift frá fundi borgarráðs þann 6. þ.m.
37862 (01.80.250.9),http://gamli.rvk.is/vefur/owa/edutils.parse_page?nafn=BN037862,Grensásvegur 50,br. á innr,Frestað. Vísað til athugasemda eldvarnaeftirlits.,Sótt er um leyfi til að innrétta ísbúð á jarðhæð atvinnuhússins á lóðinni nr. 50 við Grensásveg. Gjald kr. 7.300
37903 (02.38.670.3),http://gamli.rvk.is/vefur/owa/edutils.parse_page?nafn=BN037903,Gullengi 2-6,innra fyrirkomul. br.,Samþykkt.  Samræmist ákvæðum laga nr. 73/1997. Frágangur á lóðamörkum verði gerður í samráði við lóðarhafa aðliggjandi lóða. Áskilin lokaúttekt byggingarfulltrúa.,"Sótt er um leyfi til að breyta innra fyrirkomulagi í íbúðum nr. 0103, 0203 og 0303 í samþykktu fjölbýlishúsi sbr. erindi BN033606 á lóð nr. 4 við Gullengi. Gjald kr. 7.300"
37776 (05.13.360.1),http://gamli.rvk.is/vefur/owa/edutils.parse_page?nafn=BN037776,Gvendargeisli 13,færanlegt einingahús,Samþykkt.  Samræmist ákvæðum laga nr. 73/1997. Frágangur á lóðamörkum verði gerður í samráði við lóðarhafa aðliggjandi lóða. Áskilin lokaúttekt byggingarfulltrúa.  Áskilið samþykki heilbrigðiseftirlits.,"Sótt er um leyfi til að byggja færanlegt einingahús úr timbri og stækka núverandi leikskóla á lóð nr. 13 við Gvendargeisla. Stærðir: Stækkun 146,8 ferm., 483,6 rúmm. Samtals eftir stækkun 650,7 ferm., 2163,3 rúmm. Gjald kr. 7.300 + 35,303"
37861 (01.14.010.6),http://gamli.rvk.is/vefur/owa/edutils.parse_page?nafn=BN037861,Hafnarstræti 11,viðbygging,Frestað. Vísað til athugasemda á umsóknarblaði og bókunar skipulagsstjóra frá 7. mars 2008.,"Sótt er um leyfi fyrir viðbyggingu á einni hæð úr steypu og timbri við hús á lóð nr. 11 við Hafnarstræti. Viðbyggingin lokar porti milli Hafnarstrætis 11, Pósthússtrætis 2 og Tryggvagötu 28. Útskrift úr gerðabók embættisafgreiðslufundar skipulagsstjóra frá 7. mars 2008 fylgir erindinu. Stærðir: Stækkun 30,9 ferm., 92,8 rúmm. Gjald kr. 7.300 + 6.774"
37705 (01.22.320.4),http://gamli.rvk.is/vefur/owa/edutils.parse_page?nafn=BN037705,Hátún 2A,skipta 1. h í tvo eignarhl.,Samþykkt.  Samræmist ákvæðum laga nr. 73/1997. Áskilin lokaúttekt byggingarfulltrúa.  Áskilið samþykki heilbrigðiseftirlits. Skilyrt er að eignaskiptayfirlýsingu vegna breytinga í húsinu sé þinglýst til þess að samþykktin öðlist gildi.,Sótt er um leyfi til að skipta 1. hæð í tvo eignarhluta í atvinnuhúsi á lóð nr. 2A við Hátún. Gjald kr. 7.300
37811 (04.74.170.2),http://gamli.rvk.is/vefur/owa/edutils.parse_page?nafn=BN037811,Hólmvað 54-70,skorsteinn á nr. 62,Samþykkt.  Samræmist ákvæðum laga nr. 73/1997. Frágangur á lóðamörkum verði gerður í samráði við lóðarhafa aðliggjandi lóða. Áskilin lokaúttekt byggingarfulltrúa.,Sótt er um leyfi til að setja arinn í stofu með tilheyrandi reykháfi  í húsi nr. 62 í raðhúsinu á lóð nr. 57-70 við Hólmvað. Meðfylgjandi er samþykki meðeiganda dags. 6. mars 2008. Gjald kr. 7.300
37741 (04.67.410.1),http://gamli.rvk.is/vefur/owa/edutils.parse_page?nafn=BN037741,Hraunberg 8,færanlegar kennslustofur,Frestað. Vísað til athugasemda á umsóknarblaði.,"Sótt er um leyfi til að byggja tvær bráðabirgðakennslustofur úr timbri við Fjölbraut í Breiðholti á lóð nr. 8 við Hraunberg. Stærðir: Matshl. 05 - 71,5 ferm., 243,4 rúmm. Matshl. 06 - 24,9 ferm., 76,3 rúmm. Samtals 96,4 ferm., 319,7 rúmm. Gjald kr. 7.300 + 23.338"
37388 (01.22.211.8),http://gamli.rvk.is/vefur/owa/edutils.parse_page?nafn=BN037388,Hverfisgata 125,hárgreiðslustofa o.fl.,Samþykkt.  Samræmist ákvæðum laga nr. 73/1997. Áskilin lokaúttekt byggingarfulltrúa.  Áskilið samþykki heilbrigðiseftirlits.,"Sótt er um leyfi til að innrétta hárgreiðslustofu, snyrtistofu, nuddstofu og fótaaðgerðastofu á 1. hæð hússins nr. 125 við Hverfisgötu. Gjald kr. 6.800"
37905 (04.07.500.1),http://gamli.rvk.is/vefur/owa/edutils.parse_page?nafn=BN037905,Höfðabakki 9,skilti,Samþykkt.  Samræmist ákvæðum laga nr. 73/1997.,Sótt er um leyfi til að setja skilti á vegg atvinnuhúss á lóð nr. 9 við Höfðabakka Gjald kr. 7.300
37686 (34.53.360.3),http://gamli.rvk.is/vefur/owa/edutils.parse_page?nafn=BN037686,Kistumelur 14,stálgrindarhús,Samþykkt.  Samræmist ákvæðum laga nr. 73/1997. Frágangur á lóðamörkum verði gerður í samráði við lóðarhafa aðliggjandi lóða. Áskilin lokaúttekt byggingarfulltrúa.  Áskilið samþykki Vinnueftirlits ríkisins. Skila skal gögnum vegna vottunar eininga fyrir úttekt á sökklum.,"Sótt er um leyfi til að byggja stálgrindarhús á einni hæð með millilofti, húsið skiptist í 10 einingar með útveggi úr samlokeiningum fylltar steinull á lóðinni nr. 14 við Kistumel. Meðfygjandi er brunahönnun dags. 12.02.2008. Stærðir:  2421,0 ferm., 13.790,4 rúmm. Gjald kr. 7.300 + 1.006.670"
37687 (34.53.330.1),http://gamli.rvk.is/vefur/owa/edutils.parse_page?nafn=BN037687,Kistumelur 16,stálgrindarhús,Samþykkt.  Samræmist ákvæðum laga nr. 73/1997. Frágangur á lóðamörkum verði gerður í samráði við lóðarhafa aðliggjandi lóða. Áskilin lokaúttekt byggingarfulltrúa.  Áskilið samþykki Vinnueftirlits ríkisins. Skila skal gögnum vegna vottunar eininga fyrir úttekt á sökklum.,"Sótt er um leyfi til að byggja stálgrindarhús á einni hæð með millilofti, húsið skiptist í 10 einingar með útveggi úr samlokeiningum fylltar steinull á lóðinni nr. 16 við Kistumel. Meðfylgjandi er brunahönnun dags. 12.02.2008. Stærðir:  2626,6 ferm., 14916,7 rúmm. Gjald kr. 7.300 + 1.088.919"
37688 (34.53.330.2),http://gamli.rvk.is/vefur/owa/edutils.parse_page?nafn=BN037688,Kistumelur 18,stálgrindarhús,Samþykkt.  Samræmist ákvæðum laga nr. 73/1997. Frágangur á lóðamörkum verði gerður í samráði við lóðarhafa aðliggjandi lóða. Áskilin lokaúttekt byggingarfulltrúa.  Áskilið samþykki Vinnueftirlits ríkisins. Skila skal gögnum vegna vottunar eininga fyrir úttekt á sökklum.,"Sótt er um leyfi til að byggja stálgrindarhús á einni hæð með millilofti, húsið skiptist í 10 einingar með útveggi úr samlokeiningum fylltar steinull á lóðinni nr. 18 við Kistumel. Stærðir:  2421,0 ferm., 16045,3 rúmm. Gjald kr. 7.300 + 1.171.307"
37867 (01.32.520.1),http://gamli.rvk.is/vefur/owa/edutils.parse_page?nafn=BN037867,Klettagarðar 13,br. inni,Frestað. Vísað til athugasemda á umsóknarblaði.,"Sótt er um leyfi til breytinga á innra skipulagi miðað við nýlega samþykktar teikningar erindi nr. BN34126 í einingum 0101, 0102, 0201 og 0202 ásýnd hússins breytist þannig að nýr gluggi er á austurhlið breikkun vöruhurða á vesturhlið ásamt tilfærslu á gönguhurð á atvinnuhúsnæðinu á lóð nr. 13 við Klettagarða. Meðfylgandi er bréf aðalhönnuðar dags. 21.febrúar 2008, brunahönnun Línuhönnunar dags. endurskoðun 25. febrúar 2008 Gjald kr. 7.300"
37679 (01.32.430.1),http://gamli.rvk.is/vefur/owa/edutils.parse_page?nafn=BN037679,Klettagarðar 19,reyndarteikningar - skilti,Samþykkt.  Samræmist ákvæðum laga nr. 73/1997. Frágangur á lóðamörkum verði gerður í samráði við lóðarhafa aðliggjandi lóða. Áskilin lokaúttekt byggingarfulltrúa.,Sótt er um leyfi fyrir breytingum sem kallaðar eru reyndarteikningar af atvinnuhúsnæði Nathan og Olsen á lóðinni nr. 19 við Klettagarða. Gjald kr. 7.300
37920 (04.73.180.1),http://gamli.rvk.is/vefur/owa/edutils.parse_page?nafn=BN037920,Krókavað 1-11,br. á burði efri hæð,Samþykkt.  Samræmist ákvæðum laga nr. 73/1997. Frágangur á lóðamörkum verði gerður í samráði við lóðarhafa aðliggjandi lóða. Áskilin lokaúttekt byggingarfulltrúa.,Sótt er um leyfi til að breyta burðarvirki efri hæðar þannig í stað steypts milliveggjar verður veggurinn léttur og hætt verður við að setja súlur undir skyggni miðað við samþykktar teikningar sbr. erindi  BN031522 í raðhúsinu á lóð nr. 1-11 við Krókavað. Gjald kr. 7.300
36508 (01.18.340.6),http://gamli.rvk.is/vefur/owa/edutils.parse_page?nafn=BN036508,Laufásvegur 18A,"br. svalir, þak",Frestað. Vísað til athugasemda á umsóknarblaði.,"Sótt er um leyfi fyrir áður gerðum framkvæmdum á rishæð þar sem byggt er yfir svalir og gluggum breytt miðað við samþykktar teikn dags. 15. okt. 2003 mál BN25801einnig gerð nýrra svala í fjölbýlishúsinu nr. 18 A við Laufásveg. Grenndarkynningn stóð frá 18. október til og með 15. nóvember 2007. Athugasemdir bárust frá Sverri Þórólfssyni Laufásvegi 18, dags. 15. nóvember 2007 og Vinnustofunni Þverá Laufásvegi 36, mótt. 16. nóvember 2007.  Málinu fylgir umsögn skipulagsstjóra dags. 23. nóvember 2007. Meðfylgjandi er samþykki meðeigenda á dags. teikn. 20. júlí 2007 og fylgiskjali dags. 25. sept. 2007. Stærðir xx ferm., xx rúmm. Gjald kr. 6.800 + xx"
37906 (05.05.560.1),http://gamli.rvk.is/vefur/owa/edutils.parse_page?nafn=BN037906,Lofnarbrunnur 30,þak hússin hækkað fl.,Samþykkt.  Samræmist ákvæðum laga nr. 73/1997. Frágangur á lóðamörkum verði gerður í samráði við lóðarhafa aðliggjandi lóða. Áskilin lokaúttekt byggingarfulltrúa.,"Sótt er um leyfi til að hækka þak og breyta glugga á nýsamþykktu einbýlishúsi BN037447 á lóðinni nr. 30 við Lofnarbrunn. Stækkun:  1,3 ferm., 37,8 rúmm. Gjald kr. 7.300 + 2.759"
37367 (01.18.130.9),http://gamli.rvk.is/vefur/owa/edutils.parse_page?nafn=BN037367,Lokastígur 28,br. 2.hæð í kaffihús,Frestað. Vísað til athugasemda á umsóknarblaði.,"Sótt er um leyfi til að breyta innra skipulagi og  innrétta kaffihús á 2. hæð og fjölskylduherbergi í risi hússins á lóðinni nr. 28 við Lokastíg. Grenndarkynning stóð frá 12. des. 2007 til 14. jan. 2008. Athugasemdir bárust frá eftirtöldum aðilum: Björn Jónsson og Þyrí Hafsteinsdóttir Lokastíg 25, dags. 3. jan. 2008, Birgir Björnsson og Sigríður D. Sigtryggsdóttir Lokastíg 28a, dags. 10. jan. 2008, Sigríður Karlsdóttir og Erlendur Kristjánsson Lokastíg 25, dags. 13. janúar, Hrönn Vilhelmsdóttir og Þórólfur Antonsson Lokastíg 28, dags. 14. janúar, 5 íbúar að Lokastíg 26, 28a og Njarðargötu 61, dags. 11. janúar 2008. Lögð fram umsögn skipulagsstjóra, dags. 6. febrúar 2008. Málinu fylgir bréf eigenda dags. 27. nóvember 2007 og 14. febrúar 2008, umboð meðlóðarhafa dags 19. janúar 2006 og umsögn Vinnueftirlitsins dags. 11. ágúst 2006.  Ennfremur íbúðarskoðun byggingafulltrúa dags. 10. mars 2008. Gjald kr. 6.800"
37772 (04.32.640.2),http://gamli.rvk.is/vefur/owa/edutils.parse_page?nafn=BN037772,Lyngháls 4,millipallur + leiðr.,Frestað. Vísað til athugasemda á umsóknarblaði. Málinu vísað til umsagnar skipulagsstjóra.,Sótt er um leyfi til að byggja milligólf úr steinsteypu í bílgeymslu og fjölga bílastæðum á lóð við hús á lóð nr. 4 við Lyngás. Gjald kr. 7.300
37923 (01.22.300.3),http://gamli.rvk.is/vefur/owa/edutils.parse_page?nafn=BN037923,Miðtún 6,"hækka þak, tröppur út í garð",Frestað. Vísað til athugasemda á umsóknarblaði. Málinu vísað til umsagnar skipulagsstjóra.,"Sótt er um leyfi til að hækka þak og koma fyrir tröppum út í garð á fjölbýlis-/parhúsinu nr. 6 á lóðinni nr. 6-8 við Miðtún. Stækkun:  56,5 rúmm. Gjald kr. 7.300 + 4.125"
37899 (01.22.300.4),http://gamli.rvk.is/vefur/owa/edutils.parse_page?nafn=BN037899,Miðtún 8,hækka þak,Frestað. Vísað til athugasemda á umsóknarblaði. Málinu vísað til umsagnar skipulagsstjóra.,"Sótt er um leyfi til að hækka þak og koma fyrir tröppum út í garð á fjölbýlis-/parhúsinu nr.8 á lóðinni nr. 6-8 við Miðtún. Stækkun:  56,5 rúmm. Gjald kr. 7.300 + 4.125"
37913 (04.77.350.2),http://gamli.rvk.is/vefur/owa/edutils.parse_page?nafn=BN037913,Móvað 39,br. innra skipulagi og svölum,Frestað. Lagfæra skráningu.,Sótt er um leyfi til að breyta innra skipulagi efri hæðar og stækka þaksvalir einbýlishússins á lóðinni nr. 39 við Móvað. Gjald kr. 7.300
31120 (01.18.222.7),http://gamli.rvk.is/vefur/owa/edutils.parse_page?nafn=BN031120,Njálsgata 20,"reyndarteikn., áður gerð kj.íb.",Frestað. Vísað til athugasemda á umsóknarblaði. Umsækjandi skal óska íbúðarskoðanar vegna íbúðar í kjallara og öðrum rýmum þar.,"Sótt er um samþykki fyrir áður gerðri íbúð í kjallara, fyrir áður byggðum skúr á baklóð, fyrir lokun ports og stækkun kjallara í upprunalegt horf fyrir fjölbýlishúsið á lóð nr. 20 við Njálsgötu. Umsögn burðarvirkishönnuðar dags. 26. september 2005 fylgir erindinu. Stærð: Stækkun kjallara samtals 16 ferm., 42,6 rúmm. Áður byggður skúr (matshl. 03) 12,8 ferm., 33,3 rúmm. Gjald kr. 5.700 + 4.326"
37537 (01.13.620.3),http://gamli.rvk.is/vefur/owa/edutils.parse_page?nafn=BN037537,Ránargata 11,stækkun geymslu í bakhúsi,Frestað. Vísað til athugasemda á umsóknarblaði.,"Sótt er um leyfi til að stækka geymslubyggingu úr steinsteypu á baklóð hússins nr. 11 við Ránargötu. Útskrift úr gerðabók embættisafgreiðslufundar skipulagsstjóra frá 25. janúar 2008 og 7. mars 2008 fylgja erindinu. Núverandi bakhús 14,5 ferm., stækkun 30,2 ferm., samtals 44,7 ferm., 133,9 rúmm. Gjald kr. 7.300 + 9.775."
37851 (05.05.540.2),http://gamli.rvk.is/vefur/owa/edutils.parse_page?nafn=BN037851,Sifjarbrunnur 26,beyting inni bílgeymsla fl.,Samþykkt.  Samræmist ákvæðum laga nr. 73/1997. Frágangur á lóðamörkum verði gerður í samráði við lóðarhafa aðliggjandi lóða. Áskilin lokaúttekt byggingarfulltrúa.,"Sótt er um leyfi til að breyta innra skipulagi, anddyri og gluggum á nýsamþykktu einbýlishúsi, erindi BN036832 dags. 22. janúar 2008, á lóðinni nr. 26 við Sifjarbrunn. Breyting á stærðum:  Var 245,6 ferm. og 789,8 rúmm.  Verður 241,8 ferm. og 777,1 rúmm. Gjald kr. 7.300 + 56.728"
37120 (05.05.540.3),http://gamli.rvk.is/vefur/owa/edutils.parse_page?nafn=BN037120,Sifjarbrunnur 28,einbýlishús,Samþykkt.  Samræmist ákvæðum laga nr. 73/1997. Frágangur á lóðamörkum verði gerður í samráði við lóðarhafa aðliggjandi lóða. Áskilin lokaúttekt byggingarfulltrúa.,"Sótt er um leyfi til að byggja einbýlishús, staðsteypt í frauðplastkubba, á lóð nr. 28 við Sifjarbrunn. Samþykki eigenda á nr. 26 fylgir með, en lóð nr. 30 er ekki úthlutað. Stærðir: Íbúð 1. hæð 130,5 ferm., 2. hæð 89,9 ferm., samtals 220,4 ferm., bílgeymsla 30,1 ferm., samtals 250,5 ferm., 398,6 rúmm. Gjald kr. 6.800 + 53.924"
37900 (04.38.650.2),http://gamli.rvk.is/vefur/owa/edutils.parse_page?nafn=BN037900,Skógarás 21,blómaskáli úr steinsteypu,Frestað. Vísað til athugasemda á umsóknarblaði.,"Sótt er um leyfi til að byggja áður samþykktan blómaskála sbr. erindi BN035273 úr steinsteypu, timbri og gleri við einbýlishús á lóð nr. 21 við Skógarás. Gjald kr. 7.300"
37234 (04.06.110.2),http://gamli.rvk.is/vefur/owa/edutils.parse_page?nafn=BN037234,Smiðshöfði  3-5,viðbygging og breytingar,Samþykkt.  Samræmist ákvæðum laga nr. 73/1997. Frágangur á lóðamörkum verði gerður í samráði við lóðarhafa aðliggjandi lóða. Með vísan til samþykktar borgarráðs frá 1. september 1998 skal utanhúss- og lóðarfrágangi vera lokið eigi síðar en innan tveggja ára frá útgáfu byggingarleyfis að viðlögðum dagsektarákvæðum 57. gr. skipulags- og byggingarlaga nr. 73/1997. Áskilin lokaúttekt byggingarfulltrúa.,"Sótt er um leyfi til að byggja viðbyggingu með burðarvirki úr steypu og límtré klætt yleiningum ásamt breytingu á innra fyrirkomulagi eldra hluta og niðurrifi að hluta og er því eldri umsókn dregin til baka erindi nr. BN036878 dregið  á lóð nr. 3 við Smiðshöfða. Meðfylgjandi er vottun eininga dags. 21. júní 2006 og samþykkt deili við aðliggandi lóðarmörk dags. 7. nóvember 2007. Bréf fylgir vegna loftræstinga á hleðslurými lyftara dags. 9. nóvember 2007. Málinu fylgir útskrift úr gerðabók skipulagsstjóra frá 19. nóvember 2007, ásamt úrskrift úr gerðabók embættisfgreiðslufundar skipulagsstjóra frá 7. mars 2008. Stærðir: Niðurrif 175,0 ferm., 914,3 rúmm., viðbygging 801,2 ferm., 5379,1 rúmm. Gjald kr. 6.800 + 365.778"
37908 (01.60.--9.9),http://gamli.rvk.is/vefur/owa/edutils.parse_page?nafn=BN037908,Suðurgata Háskóli Ísl,breyta bóksölu í kennslustofur,Frestað. Vísað til athugasemda á umsóknarblaði.,"Sótt er um leyfi til að breyta félagsstofnun stúdenta í kennslustofur, setja nýja lyftu og breyta salernisaðstöðu fatlaðra í húsi á lóð nr. 31 við Hringbraut (Félagsstofnun stúdenta Suðurgata/Háskóli) Gjald kr. 7.300"
37876 (01.78.860.1),http://gamli.rvk.is/vefur/owa/edutils.parse_page?nafn=BN037876,Suðurhlíð 38A - 38D,reyndarteikningar,Samþykkt.  Samræmist ákvæðum laga nr. 73/1997. Áskilin lokaúttekt byggingarfulltrúa. Skilyrt er að eignaskiptayfirlýsingu vegna breytinga í húsinu sé þinglýst til þess að samþykktin öðlist gildi.,"Sótt er um leyfi fyrir reyndarteikningum þar sem minnháttar breytingum miðað við erindi BN 24254 sem felast m.a. tilfærslum á geymslum í kjallara, skjólveggjum í garði, breytingu á íbúð 0109, svalagangar lokaðir að hluta með hertu gleri og breytingu á rýmisnúmerum í fjöleignahúsinu á lóð nr. 39 við Suðurhlíð. Gjald kr. 7.300"
37897 (01.47.140.2),http://gamli.rvk.is/vefur/owa/edutils.parse_page?nafn=BN037897,Suðurlandsbraut 66,endurnýjun á bygginagrleyfi (BN035113),Samþykkt.  Samræmist ákvæðum laga nr. 73/1997. Frágangur á lóðamörkum verði gerður í samráði við lóðarhafa aðliggjandi lóða. Áskilin lokaúttekt byggingarfulltrúa.  Áskilið samþykki heilbrigðiseftirlits.,"Sótt er um endurnýjun byggingarleyfis á grundvelli samþykktra aðaluppdrátta frá 12.12. 2006, erindi BN035113, fyrir hjúkrunarheimili úr steinsteypu á lóð nr. 66 við Suðurlandsbraut. Meðfylgjandi er bréf frá hönnuði dags. 4.mars 2008. Þar segir að umsækjandi sé Rvk.borg og Félags- og tryggingamálaráðuneytið í stað Heilbrigðis- og tryggingamálaráðuneytisins, sem hafa breytt um nafn. Gjald kr. 7.300"
37865 (01.53.201.5),http://gamli.rvk.is/vefur/owa/edutils.parse_page?nafn=BN037865,Sörlaskjól 24,"hækkun ports, kvistir o.fl.",Frestað. Vísað til athugasemda á umsóknarblaði. Sérstaklega er vakin athygli á athugasemdum  skipulagsstjóra frá  7. mars 2008.,"Sótt erum leyfi til fyrir áður gerðri stækkun bílskúrs og til að hækka hús, byggja tvo nýja kvisti, breyta kvisti og gluggum sem fyrir eru, stækka svalir, grafa frá kjallara og breyta innra skipulagi einbýlishússins á lóðinni nr. 24 við Sörlaskjól. Erindinu fylgir bréf hönnuðar dags. 26. febrúar 2008 ásamt útskrift úr gerðabók embættisafgreiðslufundar skipulagsstjóra frá 7. mars 2008 og umsögn skipulagsstjóra dags. 7. mars 2008. Áður gerð stækkun bílskúrs:  xx ferm., xx rúmm. Stækkun húss:  xx ferm., xx rúmm. Gjald kr. 7.300 + xx"
37877 (04.32.750.2),http://gamli.rvk.is/vefur/owa/edutils.parse_page?nafn=BN037877,Tunguháls 1,bæta við millilofti nr 0201,Frestað. Vísað til athugasemda á umsóknarblaði.,"Sótt er um leyfi til að setja milliloft 0201 í stálgrindarhús á lóð nr. 1 við Tunguháls. Stækkun 380,1 ferm. Gjald kr. 7.300"
37774 (05.05.420.3),http://gamli.rvk.is/vefur/owa/edutils.parse_page?nafn=BN037774,Urðarbrunnur 120-122,parhús,Frestað. Vísað til athugasemda á umsóknarblaði.,"Sótt er um leyfi til að byggja parhús úr forsteyptum einingum, klætt að utan með dökkri viðarklæðningu og zinki, á tveimur hæðum með innbyggðum bílgeymslum á lóðinni nr. 120-122 við Urðarbrunn. Málinu fylgir samþykki lóðarhafa aðliggjandi lóða, (Urðarbrunns 118 og 124-126) fyrir hæðarlegu eins og sýnd er á lóðamörkum og því að byggt sé út fyrir byggingarreit eins og sýnt er á teikningum dags. 8. febrúar 2008. Stærðir Mhl. 01:  1. hæð íbúð 113,5 ferm., 2. hæð íbúð 106,9 ferm., bílgeymsla 36,3 ferm.  Samtals 271 ferm. og 1004,6 rúmm. Mhl. 02 sömu stærðir. Samtals 542 ferm., 2009,2 rúmm. Gjald kr. 7.300 + 146.672"
37764 (02.69.850.7),http://gamli.rvk.is/vefur/owa/edutils.parse_page?nafn=BN037764,Úlfarsbraut 112,einbýlishús,Samþykkt.  Samræmist ákvæðum laga nr. 73/1997. Frágangur á lóðamörkum verði gerður í samráði við lóðarhafa aðliggjandi lóða. Áskilin lokaúttekt byggingarfulltrúa.,"Sótt er um leyfi til að byggja staðsteypt einbýlishús á tveimur hæðum múrhúðað að mestu að utan auk harðviðarklæðningar við bílgeymsluhurð, aðkomu á neðri hæð og á þaki er 15,5 ferm. glerskáli ásamt þaksvölum á lóðinni nr. 112 við Úlfarsbraut. Stærðir: 1. hæð íbúð 141,5 ferm. bílgeymsla 43,0 2. hæð 166,0 ferm., 3.hæð 11, 7 ferm. Samtals 362,2 ferm., 1157,4 rúmm. Gjald kr. 7.300 + 84490,0"
37625 (02.69.830.7),http://gamli.rvk.is/vefur/owa/edutils.parse_page?nafn=BN037625,Úlfarsbraut 46,einbýlishús,Frestað. Vísað til athugasemda eldvarnaeftirlits.,"Sótt er um leyfi til að byggja tvílyft einbýlishús úr steinsteypu, veggir steyptir í plastkubba, á lóð nr. 46 við Úlfarsbraut. Stærðir: íbúð 1. hæð 143,4 ferm., 2. hæð 111 ferm., samtals íbúð  254,4 ferm., innifalið 54.6 ferm. óuppfyllt, gluggalaust rými, bílgeymsla 36,2 ferm. Samtals allt húsið 290,6 ferm., 978 rúmm. Gjald kr. 7.300 + 71.394"
37868 (04.66.080.7),http://gamli.rvk.is/vefur/owa/edutils.parse_page?nafn=BN037868,Vesturberg 195,breyta steyptum vegg í hlaðinn,Frestað. Vísað til fyrri athugasemda.,Sótt er um leyfi fyrir að breyta áður steyptum vegg í hlaðinn miðað við nýlega samþykkt erindi nr. BN36642 í raðhúsinu á lóð nr. 195 við Vesturberg. Gjald kr. 7.300
37918 (01.13.210.7),http://gamli.rvk.is/vefur/owa/edutils.parse_page?nafn=BN037918,Vesturgata 4,þakgluggar,Samþykkt.  Samræmist ákvæðum laga nr. 73/1997.,Sótt er um leyfi fyrir þremur þakgluggum á norðausturhlið hússins á lóðinni nr. 4 við Vesturgötu. Gjald kr. 7.300
37889 (01.14.110.9),http://gamli.rvk.is/vefur/owa/edutils.parse_page?nafn=BN037889,Vonarstræti 10,"hurðm á
hurðurm bætt við á fyrsta stigapalli
",Samþykkt.  Samræmist ákvæðum laga nr. 73/1997. Áskilin lokaúttekt byggingarfulltrúa.,Sótt er um leyfi til að bæta við hurð merkt breyting 15 á fyrsta stigapalli í Oddfellowhúsi á lóð nr. 10 við Vonarstræti. Gjald kr. 7.300
37878 (04.79.120.1),http://gamli.rvk.is/vefur/owa/edutils.parse_page?nafn=BN037878,Þingvað 61-83,breyt skyggni nr 67-71 og leiðr.skráning,Samþykkt.  Samræmist ákvæðum laga nr. 73/1997. Áskilin lokaúttekt byggingarfulltrúa.,Sótt er um leyfi til að breyta skyggni og inntaksrýmum þannig að í stað þess að það sé að hluta úr timbri þá verður það steinsteypt í íbúðum nr. 67-71 í fjöleignahúsinu BN034426 á lóð nr. 61-81 við Þingvað. Gjald kr. 7.300
37898 (01.18.110.7),http://gamli.rvk.is/vefur/owa/edutils.parse_page?nafn=BN037898,Þórsgata 15,br. inngangi kjallara o.fl.,Frestað. Vísað til athugasemda á umsóknarblaði.,"Sótt er um leyfi til að breyta eignarhaldi á geymslum og þvottahúsi í kjallara, útbúa þvottaaðstöðu á baðherbergjum og til að útbúa nýjan inngang í ósamþykkta íbúð þar. Málinu fylgir samþykki lóðarhafa Þórsgötu 15A ódags. Gjald kr. 7.300"
37665 (01.13.111.0),http://gamli.rvk.is/vefur/owa/edutils.parse_page?nafn=BN037665,Ægisgata 4,ofanábygging og breytt innra skipulag,Frestað. Lagfæra skráningu.,"Sótt er um leyfi til þess að hækka hús um steinsteypta 3. hæð, setja svalir á 2. og nýja 3. hæð, breyta núverandi atvinnuhúsi í einbýlishús með gluggum á áður lokaðri norðurhlið og nýju stigahúsi með aðkomu frá Mýrargötu á lóð nr. 4 við Ægisgötu. Meðfylgjandi er bréf burðarvirkishönnuðar dags. 28. janúar, bréf aðalhönnuðar dags. 28. janúar 2008 og 27. febrúar 2008. Rb vottun eininga 30. maí  2006 og útskrift úr gerðabók embættisafgreiðslufundar skipulagsstjóra frá 8. febrúar 2008.  Stærð: Stækkun 3. hæðar 126,7 ferm., 350,8 rúmm. Gjald kr. 7.300 + 25.608"
37885 (01.18.600.9),http://gamli.rvk.is/vefur/owa/edutils.parse_page?nafn=BN037885,Bergstaðastræti 49,(fsp) svalir,"Jákvætt. Að uppfylltum skilyrðum, sbr. bókun skipulagsstjóra, verði sótt um byggingarleyfi verður umsókn grenndarkynnt.",Spurt er hvort leyfi fengist til að gera tvær svalir eina vesturhlið og aðra á norðurhlið úr timbri og tilheyrandi síkkun á gluggum við gerð svalahurða á 1. og 2. hæð sbr. meðfylgandi skissu af íbúðarhúsinu á lóðinni nr. 49 við Bergstaðastræti.
37837 (01.19.010.8),http://gamli.rvk.is/vefur/owa/edutils.parse_page?nafn=BN037837,Grettisgata 52,"(fsp) dyraop milli íbúða, garðskáli",Jákvætt. Að uppfylltum skilyrðum enda verði sótt um byggingarleyfi.,Spurt er hvort leyfi fengist til að opna milli íbúða og gera að einni ásamt svalalokun að hluta samkv. meðfylgjandi skissu af 1. hæð hússins á lóð 52 við Grettisgötu. Útskrift úr gerðabók embættisafgreiðslufundar skipulagsstjóra frá 7. mars 2008 fylgir erindinu.
37891 (01.24.530.1),http://gamli.rvk.is/vefur/owa/edutils.parse_page?nafn=BN037891,Háteigsvegur 22,(fsp) breytingar á risíbúð,Frestað. Málinu vísað til umsagnar skipulagsstjóra.,Spurt er hvort leyfi fengist til að breyta risíbúð með tilheyrandi breytingu á þaki samanber meðfylgjandi skisssu af íbúðarhúsinu á lóð nr 22 við Háteigsveg.
37847 (01.35.721.1),http://gamli.rvk.is/vefur/owa/edutils.parse_page?nafn=BN037847,Langholtsvegur 49,(fsp) byggja ris,Jákvætt. Enda verði sótt um byggingaleyfi.,Spurt er hvort leyft yrði að lyfta þaki í samræmi við uppdrætti samþ. 10. maí 1979. Útskrift úr gerðabók embættisafgreiðslufundar skipulagsstjóra frá 7. mars 2008 fylgir erindinu.
37931 (01.26.130.1),http://gamli.rvk.is/vefur/owa/edutils.parse_page?nafn=BN037931,Lágmúli 5,(fsp)segldúkur,"Frestað. Gefa skal frekari upplýsingar vegna fyrirspurnar, m.a. um tímamörk o.fl.",Spurt er hvort leyft yrði að klæða stillansa með segli sem á er prentuð meðfylgjandi auglýsing á atvinnuhúsinu á lóðinni nr. 5 við Lágmúla.
37892 (01.81.551.0),http://gamli.rvk.is/vefur/owa/edutils.parse_page?nafn=BN037892,Mosgerði 7,(fsp) lyfta þaki,Jákvætt. Að uppfylltum skilyrðum enda verði sótt um byggingarleyfi.,Spurt er hvort lyfta megi þaki um 90 cm á hluta þakflatar einbýlishúss á lóð nr. 7 við Mosgerði.
37810 (01.18.650.6),http://gamli.rvk.is/vefur/owa/edutils.parse_page?nafn=BN037810,Njarðargata 25,(fsp) ofanábygging,Jákvætt. Að uppfylltum skilyrðum enda verði sótt um byggingarleyfi í samræmi við umsögn skipulagsstjóra frá 6. mars 2008.,Spurt er hvort leyft yrði að byggja ofan á skv. meðfylgjandi teikningum af einbýlishúsinu á lóðinni nr. 25 við Njarðargötu. Útskrift úr gerðabók embættisafgreiðslufundar skipulagsstjóra frá 7. mars 2008 ásamt umsögn skipulagsstjóra dags. 6. mars  2008 fylgja erindinu.
37815 (04.25.740.1),http://gamli.rvk.is/vefur/owa/edutils.parse_page?nafn=BN037815,Rafstöðvarvegur 23,(fsp)rífa hús og byggja nýtt,"Jákvætt. Að uppfylltum skilyrðum, enda láti umsækjandi á eigin kostnað vinna tillögu að breyttu deiliskipulagi, sem grenndarkynnt verður.",Spurt er hvort rífa megi 100 ferm. einbýlishús úr timbri á hlöðnum/steyptum kjallara og byggja í staðinn innflutt 140 ferm. timburhús á einni hæð og á steyptum kjallara á lóð nr. 23 við Rafstöðvarveg. Útskrift úr gerðabók embættisafgreiðslufundar skipulagsstjóra frá 7. mars 2008 fylgir erindinu.
37826 (04.25.740.1),http://gamli.rvk.is/vefur/owa/edutils.parse_page?nafn=BN037826,Rafstöðvarvegur 23,(fsp) nýtt hús,"Jákvætt. Að uppfylltum skilyrðum, enda láti umsækjandi vinna tillögu að breyttu deiliskipulagi á eigin kostnað, sem grenndarkynnt verður.","Spurt er hvort leyfi fengist til að rífa það hús sem fyrir er og byggja nýtt aftar í lóðinni sem nemur 2,5 m. hús samkv. meðfylgjandi skissum á lóð nr. 23 við Rafstöðvarveg. Útskrift úr gerðabók embættisafgreiðslufundar skipulagsstjóra frá 7. mars 2008 fylgir erindinu."
37791 (01.63.630.7),http://gamli.rvk.is/vefur/owa/edutils.parse_page?nafn=BN037791,Skerplugata 7,(fsp) viðbygging,"Jákvætt. Að uppfylltum skilyrðum, enda láti fyrirspyrjandi vinna tillögu að deiliskipulagi í samræmi við athugasemdir skipulagsstjóra. Athygli er vakin á því að til er deiliskipulag frá 1987.",Spurt er hvort leyft yrði að byggja við skv. meðfylgjandi uppdráttum einbýlishúsið á lóðinni nr. 7 við Skerplugötu. Útskrift úr gerðabók embættisafgreiðslufundar skipulagsstjóra frá 7. mars 2008 ásamt umsögn skipulagsstjóra dags. 4. mars  2008 fylgja erindinu.
37886 (01.35.711.1),http://gamli.rvk.is/vefur/owa/edutils.parse_page?nafn=BN037886,Skipasund 34,"(fsp) viðbygging, hækka kvisti, garðhús",Jákvætt. Enda séu breytingar gerðar í samræmi við gildandi deiliskipulag og sótt um byggingarleyfi.,Spurt er hvort - A) Byggja megi stigahús með sérinngangi fyrir efri íbúð. - B) Byggja megi kvisti og þakglugga á efri hæð. - C) Hækka megi kvisti. - D) Byggja megi garðhús við og á hús á lóð nr. 34 við Skipasund.
37902 (01.54.501.3),http://gamli.rvk.is/vefur/owa/edutils.parse_page?nafn=BN037902,"02"">Tómasarhagi 51",(fsp) endurst. svalir,Jákvætt. Að uppfylltum skilyrðum enda sé sótt um byggingarleyfi.,Spurt er hvort brjóta megi svalir og endursteypa síðan stærri í sömu mynd á 1. og 2. hæð húss á lóð nr. 51 við Tómasarhaga
37825 (02.69.840.2),http://gamli.rvk.is/vefur/owa/edutils.parse_page?nafn=BN037825,Úlfarsbraut 6-8,(fsp) parhús,Jákvætt. Enda sé ekki farið upp fyrir hæðarmörk gildandi deiliskipulags.,Spurt er hvort leyft yrði að fara út fyrir byggingareit og byggja skv. meðfylgjandi skissum parhús á lóðinni nr. 6-8 við Úlfarsbraut. Útskrift úr gerðabók embættisafgreiðslufundar skipulagsstjóra frá 7. mars 2008 fylgir erindinu.
37882 (04.66.080.1),http://gamli.rvk.is/vefur/owa/edutils.parse_page?nafn=BN037882,Vesturberg 159-167,(fsp) yfirbygging á svölum nr. 161,"Jákvætt. Að uppfylltum skilyrðum, enda sé sótt um byggingarleyfi.",Spurt er hvort byggja megi yfir svalir á húsi nr. 161 við Vesturberg
37801 (01.19.021.4),http://gamli.rvk.is/vefur/owa/edutils.parse_page?nafn=BN037801,Vitastígur 18,(fsp) stækkun,Nei. Miðað við fyrirggjandi gögn en fyrirspyrjanda bent á að kynna sér umsögn skipulagsstjóra frá 5. mars 2008.,"Spurt er hvort leyfi fengist fyrir stækkun samkv. meðfylgandi skissum af einbýlishúsinu á lóð nr. 18 við Vitastig. Útskrift úr gerðabók embættisafgreiðslufundar skipulagsstjóra frá 7. mars 2008, ásamt umsögn skipulagsstjóra dags. 5 mars  2008 fylgja erindinu."
