nr,url,heimilisfang,tegund,nidurstada,spurning
38296 (01.14.040.4),http://gamli.rvk.is/vefur/owa/edutils.parse_page?nafn=BN038296,Austurstræti 8-10,breyta í veitingasal,Samþykkt.  Samræmist ákvæðum laga nr. 73/1997. Áskilin lokaúttekt byggingarfulltrúa.  Áskilið samþykki heilbrigðiseftirlits.,Sótt er um leyfi til að taka niður milliveggi og veitingastaður stækkaður inn í rými sem áður var hárgreiðslustofa sbr. synjað erindi nr. BN37967 í húsinu á lóð nr. 8-10 við Austurstræti. Gjald kr. 7.300
38259 (04.60.350.3),http://gamli.rvk.is/vefur/owa/edutils.parse_page?nafn=BN038259,Álfab. 12-16/Þönglab.,innr. verslanir,Frestað. Vísað til athugasemda eldvarnaeftirlits.,"Sótt er um leyfi til að endurinnrétta verslunaeiningar skráða nr.  0102, 0103 þar sem samnýting á starfsmannaðstöðu verður á milli apóteks og gleraugnaverslunar í verslunarmiðstöðinni Mjódd á lóð nr. 14 við Álfabakka. Gjald kr. 7.300"
38254 (01.29.010.1),http://gamli.rvk.is/vefur/owa/edutils.parse_page?nafn=BN038254,Ármúli 10,eignaskiptayfirlýsing,Frestað. Vísað til athugasemda á umsóknarblaði.,Sótt er um leyfi til að skipta í tvo eignarhluta húseigninni á lóð nr. 10 við Ármúla. Gjald kr. 7.300
38322 (01.15.441.2),http://gamli.rvk.is/vefur/owa/edutils.parse_page?nafn=BN038322,Barónsstígur 5,íbúð á 4 hæð og fl.,Frestað. Málinu vísað til umsagnar skipulagsstjóra.,"Sótt er um leyfi til að innrétta íbúð, koma fyrir þakgluggum og svölum  í risi atvinnuhússins á lóðinni nr. 5 við Barónsstíg. Erindi fylgir bréf hönnuðar dags. 16. maí 2008 og samþykki meðeigenda áritað á uppdrátt, ódagsett.  Einnig fylgir íbúðarskoðun byggingafulltrúa dags. 2. desember 2001 og önnur dags. 30. nóvember 2006. Gjald kr. 7.300"
38286 (01.67.302.0),http://gamli.rvk.is/vefur/owa/edutils.parse_page?nafn=BN038286,Bauganes 31A,einbýlishús,Frestað. Vísað til athugasemda á umsóknarblaði.,"Sótt er um leyfi fyrir tveggja hæða einbýlishúsi úr forsteyptum einingum með mænisþakformi og innbyggðri bílgeymslu á lóðinni nr. 31 A við Bauganes. Stærð: 1. hæð 100,2 ferm. bílgeymsla 29,8 ferm., 2. hæð 101,2 ferm., samtals 231,2 ferm., 722,0 rúmm. Gjald kr. 7.300 + 52.706"
38244 (01.18.021.2),http://gamli.rvk.is/vefur/owa/edutils.parse_page?nafn=BN038244,Bergstaðastræti 14,áður gerðar breytingar á 4 herbergjum,Frestað. Vísað til athugasemda á umsóknarblaði.,Sótt er um leyfi fyrir áður gerðum breytingum á innra skipulagi 1. hæðar fjölbýlishússins á lóðinni nr. 14 við Bergstaðastræti. Gjald kr. 7.300
37642 (01.18.401.0),http://gamli.rvk.is/vefur/owa/edutils.parse_page?nafn=BN037642,Bergstaðastræti 16,"kvistir, þak, gluggar ofl.",Frestað. Vísað til athugasemda á umsóknarblaði.,"Sótt er um leyfi til að setja kvisti á þak, hækka þak og bæta við gluggum og hurðum á vestur- og suðurhlið nýsamþykkts húss sbr. erindi BN0365484 dags. 6. ágúst  2007 á lóð nr 16 við Bergstaðastræti. Meðfylgjandi er bréf frá Húsafriðunarnefnd vegna kvista og glugga í risi dags. 28. apríl 2008  Gjald kr. 7.300"
38299 (01.18.600.9),http://gamli.rvk.is/vefur/owa/edutils.parse_page?nafn=BN038299,Bergstaðastræti 49,svalir,Frestað. Vísað til athugasemda á umsóknarblaði. Málinu vísað til skipulagsstjóra til ákvörðunar um grenndarkynningu. Vísað er til uppdrátta 10-01 dags. 13. maí 2008.,Sótt er um leyfi til að byggja tvennar svalir úr timbri sbr. fyrirspurn nr. BN037885 dags. 11.3.2008 við stofu á 1. hæð og svefnherbergi á þakhæð í einbýlishúsi á lóð nr. 49 við Bergstaðastræti. Gjald kr. 7.300
38258 (01.18.530.5),http://gamli.rvk.is/vefur/owa/edutils.parse_page?nafn=BN038258,Bergstaðastræti 50A,setja kvist,Frestað. Vísað til athugasemda á umsóknarblaði. Málinu vísað til umsagnar skipulagsstjóra.,"Sótt er um leyfi til að setja kvist á norðausturhlið, innrétta rishæð að hluta og fyrir áður gerðri framkvæmd þar sem porti er lokað á götuhlið í þríbýlishúsinu á lóð nr. 50 A við Bergstaðastræti. Stærð stækkunar ferm yfir 1,8 m.  xxx ferm.,  xx rúmm. Gjald kr. 7.300 + xxx"
38184 (01.85.400.2),http://gamli.rvk.is/vefur/owa/edutils.parse_page?nafn=BN038184,Bjarmaland  1-7,1 - viðbygging,Frestað. Vísað til athugasemda á umsóknarblaði.,"Sótt er um leyfi fyrir viðbyggingu ásamt breytingu á innra skipulagi í einbýlishúsinu nr. 1 á lóð nr. 1 til 7  við Bjarmaland. Stærðir stækkunar: 23,4 ferm  xx rúmm. Gjald kr. 7.300 + xx"
38137 (01.88.510.4),http://gamli.rvk.is/vefur/owa/edutils.parse_page?nafn=BN038137,Blesugróf 27,br. innan húss.,Frestað. Vísað til athugasemda skipulagsstjóra.,Sótt er um leyfi til minni háttar breytinga á innra skipulagi og útliti og til að innrétta dagvistun fyrir heilabilaða í einbýlishúsinu á lóðinni nr. 27 við Blesugróf. Gjald kr. 7.300
37303 (01.70.421.4),http://gamli.rvk.is/vefur/owa/edutils.parse_page?nafn=BN037303,Blönduhlíð 5,bílskúr,Samþykkt.  Samræmist ákvæðum laga nr. 73/1997. Frágangur á lóðamörkum verði gerður í samráði við lóðarhafa aðliggjandi lóða. Með vísan til samþykktar borgarráðs frá 1. september 1998 skal utanhúss- og lóðarfrágangi vera lokið eigi síðar en innan tveggja ára frá útgáfu byggingarleyfis að viðlögðum dagsektarákvæðum 57. gr. skipulags- og byggingarlaga nr. 73/1997. Skilyrt er að eignaskiptayfirlýsingu vegna breytinga í húsinu sé þinglýst fyrir útgáfu á byggingarleyfi.,"Sótt er um leyfi til að byggja staðsteypta bílgeymslu á norðvesturhorni lóðar þríbýlishússins nr. 5 við Blönduhlíð. Grenndarkynning stóð yfir frá 4. desember 2007 til 4. janúar 2008. Athugasemdir bárust frá eftirtöldum aðilum: Magnús Óskarsson Blönduhlíð 3, dags. 18. des. 2007. Lögð fram umsögn skipulagsstjóra, dags. 12. janúar 2008. Samþykki meðlóðarhafa fylgir erindinu á ódagsettri teikningu, ásamt samþykki hluta eigenda í Blönduhlíð 3 dags. 3. maí 2008. Stærðir: 36,1 ferm., 103,3 rúmm. Gjald kr. 6.800 + 7.024"
38124 (01.22.100.1),http://gamli.rvk.is/vefur/owa/edutils.parse_page?nafn=BN038124,Borgartún 18,"br innanhúss,nýjir gluggar kj.",Frestað. Með vísan til umsagnar skipulagsstjóra.,"Sótt er um leyfi til að breyta innra skipulagi allra hæða ásamt því að grafa gryfju meðfram hluta suðurhliðar og koma fyrir gluggum og rennihurðum í mötuneyti í kjallara. Útgönguleið frá fyrstu hæðinni er tryggð með brú yfir gryfjunni í atvinnuhúsnæðinu á lóð nr. 18 við Borgartún. Útskrift úr gerðabók embættisafgreiðslufundar skipulagsstjóra frá 9. maí 2008 fylgir erindinu Meðfylgjandi er staðfesting Almennu verkfræðistofunnar vegna burðarvirkis dags, 13. mai 2008. Gjald kr. 7.300"
35571 (01.21.810.3),http://gamli.rvk.is/vefur/owa/edutils.parse_page?nafn=BN035571,Borgartún 29,br á áður samþ. teikningum,Samþykkt.  Samræmist ákvæðum laga nr. 73/1997. Áskilin lokaúttekt byggingarfulltrúa. Skilyrt er að eignaskiptayfirlýsingu vegna breytinga í húsinu sé þinglýst til þess að samþykktin öðlist gildi.,Sótt er um leyfi til breytinga á eignaskiptum og innra skipulagi 3. hæðar atvinnuhússins á lóðinni nr. 29 við Borgartún.  Gjald kr. 6.800 + 7.300
38300 (01.16.233.8),http://gamli.rvk.is/vefur/owa/edutils.parse_page?nafn=BN038300,Brávallagata 26,svalir,Frestað. Vísað til athugasemda á umsóknarblaði.,Sótt er um leyfi til að byggja svalir úr timbri við íbúð 0101 sbr. fyrirspurn BN037646 dags. 5. febrúar 2008 í húsi á lóð nr. 26 við Brávallagötu. Einnig er gerð grein fyrir áður gerðri íbúð í kjallara. Gjald kr. 7.300
38131 (02.84.560.2),http://gamli.rvk.is/vefur/owa/edutils.parse_page?nafn=BN038131,Brekkuhús 3,fjölbýlishús 6 íb,Samþykkt.  Samræmist ákvæðum laga nr. 73/1997. Frágangur á lóðamörkum verði gerður í samráði við lóðarhafa aðliggjandi lóða. Áskilin lokaúttekt byggingarfulltrúa.,"Sótt er um leyfi til að byggja fjölbýlishús úr forsteyptum einingum á einni hæð, þrjá matshluta, á lóðinni nr. 3 við Brekkuhús. Erindi fylgir brunahönnun verkfræðistofunnar Mannvit dags. 5. maí 2008. Stærðir:  Mhl. 01 íbúðir 181,3 ferm., mhl. 2 íbúðir 157,4 ferm., mhl. 3 vinnustofa 24 ferm. Samtals 362,7 ferm., 1154,3 rúmm. Gjald kr. 7.300 + 84.264"
37719 (01.35.050.6),http://gamli.rvk.is/vefur/owa/edutils.parse_page?nafn=BN037719,Dalbraut 21-27,viðbygging,Samþykkt.  Samræmist ákvæðum laga nr. 73/1997. Frágangur á lóðamörkum verði gerður í samráði við lóðarhafa aðliggjandi lóða. Áskilin lokaúttekt byggingarfulltrúa.  Áskilið samþykki heilbrigðiseftirlits. Skilyrt er að eignaskiptayfirlýsingu vegna breytinga í húsinu sé þinglýst fyrir útgáfu á byggingarleyfi.,"Sótt er um leyfi til staðsteyptrar viðbyggingar til suðurs við báðar álmur hússins og byggingu bílgeymslu undir núverandi bílastæðum með tilheyrandi rampi ásamt minnháttar breytingum á innra skipulagi stjórnunarálmu fyrstu hæðar og tilfærslu á hárgreiðslustofu annarrar hæðar, austari viðbyggingin eru þrjár hæðir og kjallari með íbúð á sitthvorri hæðinni og geymslu í kjallara, vestari viðbyggingin eru tvær hæðir og kjallari þar sem eru tólf íbúðir og geymslur í kjallara ásamt stigahúsi með lyftu í þjónustu og fjölbýli fyrir aldraða á lóð nr. 17-27 við Dalbraut. Tillagan var grenndarkynnt frá 6. mars til og með 2. apríl 2008. Engar athugasemdir bárust. Stærðir stækkunar kjallari 419,5 ferm., 1. hæð 433,8 ferm., 2. hæð 394,9 ferm., 3. hæð 64,5 ferm. Samtals 1283,7 ferm. 4207,0 rúmm. bílgeymsla 821,5 ferm., 2218,1 rúmm. Gjald kr. 7.300 + 469.032"
38145 (04.30.430.1),http://gamli.rvk.is/vefur/owa/edutils.parse_page?nafn=BN038145,Dragháls 28-30/F.....,stækkun kjallara og niðurrif á viðbyggingu,Frestað. Ítrekað er að umsækjandi láti gera tillögu að breyttu deiliskipulagi sem grenndarkynnt verður samanber bókun byggingarfulltrúa frá 4. mars 2008.,"Sótt er um leyfi til byggja staðsteypt atvinnuhúsnæði á þremur hæðum í samræmi við það sem búið er að byggja auk þess rífa það sem fyrir er á lóðunum nr. 28-30 við Dragháls mhl 03 og einnig hluta af  mhl 02 sem tengist samliggjandi atvinnuhúsnæði við Fossháls nr. 27-29 á lóð nr. 28-30 við Dragháls. Útskrift úr gerðabók embættisafgreiðslufundar skipulagsstjóra frá 9. maí 2008 fylgir erindinu. Stærðir niðurrifs xx ferm., xx rúmm. stærðir nýbyggingar xx ferm., xx rúmm. Gjald kr. 7.300 + xx"
38098 (01.45.400.2),http://gamli.rvk.is/vefur/owa/edutils.parse_page?nafn=BN038098,Dugguvogur 8-10,"nr. 10, breyta atvinnuhúsnæði í búðir.",Synjað. Með vísan til umsagnar skipulagsstjóra samanber bréf dags. 13. maí 2008.,Sótt er um leyfi til að breyta í íbúðir 2. og 3. hæð atvinnuhússins á lóðinni nr. 8-10 við Dugguvog. Útskrift úr gerðabók embættisafgreiðslufundar skipulagsstjóra frá 9. maí 2008 fylgir erindinu. Gjald kr. 7.300
38053 (04.68.300.9),http://gamli.rvk.is/vefur/owa/edutils.parse_page?nafn=BN038053,Eddufell 2-8,veitingastaður,Frestað. Vísað til athugasemda á umsóknarblaði.,"Sótt er um leyfi til að breyta notkun og innrétta veitingastað í verslunarhúsi á lóð nr. 2-4-6 við Eddufell. Meðfylgjandi er afrit af húsaleigusamningi, sömuleiðis samþykki meðeigenda. Gjald kr. 7.300"
38173 (01.41.000.9),http://gamli.rvk.is/vefur/owa/edutils.parse_page?nafn=BN038173,Efstasund 82,þakgarður ofan á bílgeymslu,Frestað. Enn vantar samþykki lóðarhafa aðliggjandi lóða.,Sótt er um leyfi til að nota þak bílgeymslu sem þakgarð tengdan garðpalli við norðvesturhorn einbýlishússins á lóð nr. 82 við Efstasund. Gjald kr. 7.300
38175 (01.70.131.1),http://gamli.rvk.is/vefur/owa/edutils.parse_page?nafn=BN038175,Eskihlíð,viðbygging,Frestað. Grenndarkynningu ólokið.,"Sótt er um leyfi til að breyta innra skipulagi og útliti og byggja nýtt anddyri norðvestan megin við leikskólann Hlíðaborg á lóðinni við Eskihlíð. Stækkun:  28 ferm., 88,3 rúmm. Gjald kr. 7.300 + 6.446"
38306 (01.29.710.1),http://gamli.rvk.is/vefur/owa/edutils.parse_page?nafn=BN038306,Fellsmúli 24-30,breyting inni,Frestað. Vísað til athugasemda á umsóknarblaði.,Sótt er um leyfi til að breyta innréttingum og innra skipulagi á 3. hæð húss á lóð nr. 26 við Fellsmúla. Gjald kr. 7.300
37000 (01.44.010.1),http://gamli.rvk.is/vefur/owa/edutils.parse_page?nafn=BN037000,Ferjuv. 2-Gnoðarv. 43,reyndarteikningar,Samþykkt.  Samræmist ákvæðum laga nr. 73/1997. Áskilin lokaúttekt byggingarfulltrúa.  Áskilið samþykki heilbrigðiseftirlits.,Sótt er um leyfi fyrir reyndarteikningum af Vogaskóla þar sem aðalbreyting er gerð miðað við áður samþykktar teikningar við suðvesturinngang í gömlu skólabyggingunni á lóðinni nr. 2 við Ferjuvog og á lóð nr. 43 við Gnoðarvog. Meðfylgandi er staðfesting brunahönnuðar dags 6. nóv. 2007 Gjald kr. 6.800
38284 (04.73.240.1),http://gamli.rvk.is/vefur/owa/edutils.parse_page?nafn=BN038284,Ferjuvað 13-15,ferjuvað 13-17 breyting á baðherb.gluggar,Samþykkt.  Samræmist ákvæðum laga nr. 73/1997. Frágangur á lóðamörkum verði gerður í samráði við lóðarhafa aðliggjandi lóða. Áskilin lokaúttekt byggingarfulltrúa.,Sótt er um leyfi til að breyta baðherbergisgluggum í íbúðum í vesturenda í 60 cm og gluggum á hjónaherbergi í austurenda í 90 cm í fjölbýlishúsi á lóð nr. 13 - 17 við Ferjuvað. Gjald kr. 7.300
38305 (01.08.910.3),http://gamli.rvk.is/vefur/owa/edutils.parse_page?nafn=BN038305,Fiskislóð 11-13,"milligólf, flóttastigi",Frestað. Vísað til athugasemda eldvarnaeftirlits.,"Sótt er um leyfi fyrir flóttastigum, skyggni yfir inngangi, milligólfi yfir anddyri og afgreiðslu 1. hæðar og  til að innrétta atvinnuhúsnæðið með geymslueiningum, á annari hæð eru einingarnar á tveimur hæðum með tilheyrandi millipöllum og stigum sbr. synjað erindi nr. BN38028 á lóðinni nr. 11-13 við Fiskislóð. Meðfylgjandi er brunhönnun ódagsett, yfirlýsing burðarvirkishönnuðar dags. 3. apríl 2008, tölvupóstur frá FMR dags. 3. apríl 2008.  Stærð milligólfs 131,3 ferm. Gjald kr. 7.300"
38231 (01.08.930.1),http://gamli.rvk.is/vefur/owa/edutils.parse_page?nafn=BN038231,Fiskislóð 15-21,felld niður brunaskilgr. á millivegg,Samþykkt.  Samræmist ákvæðum laga nr. 73/1997. Frágangur á lóðamörkum verði gerður í samráði við lóðarhafa aðliggjandi lóða. Áskilin lokaúttekt byggingarfulltrúa.,Sótt er um breytingu á brunaskilgreiningu á millivegg í samræmi við brunavarnarskýrslu í atvinnuhúsnæðinu á lóð nr. 15-21 við Fiskislóð. Gjald kr. 7.300
38250 (01.11.500.4),http://gamli.rvk.is/vefur/owa/edutils.parse_page?nafn=BN038250,Fiskislóð 16,"bráðabirgðarl, nýbygging",Frestað. Gera grein fyrir lóðarhafa og samþykki hans.,"Sótt er um bráðabirgðastöðuleyfi fyrir fjórar smáíbúðaeiningar á lóð nr. 16 við Fiskislóð. Stærðir: hver eining 24,7 ferm., 75,6 rúmm. Samtals: 98,8 ferm., 302,4 rúmm. Gjald kr. 7.300 + xxxx"
37974 (01.08.920.3),http://gamli.rvk.is/vefur/owa/edutils.parse_page?nafn=BN037974,Fiskislóð 27,atvinnuhúsnæði,Frestað. Vísað til fyrri athugasemda vegna bílastæða.,"Sótt er um leyfi til að byggja stálgrindarhús fyrir atvinnustarfsemi, klætt að utan með láréttri silfurgrárri stálklæðningu, sem skiptist í fjóra sjálfstæða eignarhluta, að hluta til á tveim hæðum á lóðinni nr. 27 við Fiskislóð. Erindi fylgir brunahönnun frá Línuhönnun dags. 28. september 2007, uppfærð 10. mars 2008, ásamt útskrift úr gerðabók embættisafgreiðslufundar skipulagsstjóra frá 4. apríl 2008. Stærð:  1. hæð iðnaður 1285,3 ferm., 2. hæð skrifstofur 268 ferm. Samtals 1506,2 ferm., og 10.224,3 rúmm. Gjald kr. 7.300 + 7.300 + 746.374"
38260 (01.08.730.2),http://gamli.rvk.is/vefur/owa/edutils.parse_page?nafn=BN038260,Fiskislóð 38,stækka áður samþykkt fiskverkunarhús,Frestað. Málinu vísað til umsagnar skipulagsstjóra að öðru leyti sjá athugasemdir á umsóknarblaði.,"Sótt er um leyfi til að stækka fiskverkunarhús til austurs miðað við nýlega samþykkt erindi nr. BN37809 þar sem sótt var um leyfi til að byggja nýtt fiskverkunarhús ásamt skrifstofum úr forsteyptum einingum á einni hæð sbr. jákvæða fyrirspurn BN37685 á lóðinni nr. 38 við Fiskislóð. Stærð stækkunar 425,9 ferm., 3177,2 rúmm. Gjald kr. 7.300 + 231.935"
38274 (01.08.660.3),http://gamli.rvk.is/vefur/owa/edutils.parse_page?nafn=BN038274,Fiskislóð 43,takmarkað byggingarleyfi,Samþykkt.  Samræmist ákvæðum laga nr. 73/1997. Samþykktin fellur úr gildi við útgáfu á endanlegu byggingarleyfi.  Vegna útgáfu á takmörkuðu byggingarleyfi skal umsækjandi hafa samband við yfirverkfræðing embættis byggingarfulltrúa.,Ofanritaður sækir um takmarkað byggingarleyfi fyrir jarðvinnu og aðstöðugerð á lóð nr. 43 við Fiskislóð.
38283 (02.69.570.5),http://gamli.rvk.is/vefur/owa/edutils.parse_page?nafn=BN038283,Freyjubrunnur 13,nýbygging,Frestað. Vísað til athugasemda á umsóknarblaði. Málinu vísað til umsagnar skipulagsstjóra.,"Sótt er um leyfi til að byggja úr staðsteypu tvílyft einbýlishús með einhalla timburþaki á lóð nr. 13 við Freyjubrunn. Stærðir: 1. hæð íbúð 120,3 ferm., bílgeymsla 28 ferm. samtals 1. hæð 148,3 ferm. 2. hæð íbúð 148,1 ferm., Samtals íbúð 268,4 ferm., Allt húsið 296,4 ferm., 1,028 rúmm. Gjald kr. 7.300 + 75.044"
38287 (01.18.631.2),http://gamli.rvk.is/vefur/owa/edutils.parse_page?nafn=BN038287,Freyjugata 27,breyting inni,Samþykkt.  Samræmist ákvæðum laga nr. 73/1997.,"Sótt er um leyfi til að breyta  innanhússskipulagi á nýsamþykktum teikningum sbr. BN037283 dags. 20.11.2007, bæta við hurð, breyta snyrtingu og fjarlægja veggbút í íbúð 0101 í fjölbýlishúsi á lóð nr. 27 við Freyjugötu. Gjald kr. 7.300"
37787 (01.51.510.2),http://gamli.rvk.is/vefur/owa/edutils.parse_page?nafn=BN037787,Frostaskjól  17-23,viðbygging nr. 21,Samþykkt.  Samræmist ákvæðum laga nr. 73/1997. Frágangur á lóðamörkum verði gerður í samráði við lóðarhafa aðliggjandi lóða. Með vísan til samþykktar borgarráðs frá 1. september 1998 skal utanhúss- og lóðarfrágangi vera lokið eigi síðar en innan tveggja ára frá útgáfu byggingarleyfis að viðlögðum dagsektarákvæðum 57. gr. skipulags- og byggingarlaga nr. 73/1997. Áskilin lokaúttekt byggingarfulltrúa.,"Sótt er um leyfi til að byggja við raðhúsið nr. 21 á lóðinni nr. 17-23 við Frostaskjól. Málinu fylgir samþykki meðlóðarhafa dags. í nóvember 2007. Umsóknin var grenndarkynnt frá 17. mars til og með 16. apríl 2008.  Engar athugasemdir bárust. Útskrift úr gerðabók embættisafgreiðslufundar skipulagsstjóra frá 18. apríl 2008 fylgir erindinu. Stækkun:  17,3 ferm., 49,9 rúmm. Gjald kr. 7.300 + 3.643"
38321 (02.37.850.2),http://gamli.rvk.is/vefur/owa/edutils.parse_page?nafn=BN038321,Fróðengi 1-11,takmarkað byggingarleyfi,Samþykkt.  Samræmist ákvæðum laga nr. 73/1997. Samþykktin fellur úr gildi við útgáfu á endanlegu byggingarleyfi. Vegna útgáfu á takmörkuðu byggingarleyfi skal umsækjandi hafa samband við yfirverkfræðing embættis byggingarfulltrúa.,Sótt er um takmarkað byggingarleyfi vegna áfangaskipta fyrir áfanga 1-3 á lóðinni nr. 1-11 við Fróðengi. Sótt er um eftirtalin atriði: 1. áfangi: Kjallari og veggir 1. hæðar. 2. áfangi: Sökklar og kjallari 3. áfangi: Sökklar og kjallari.
38076 (04.06.100.2),http://gamli.rvk.is/vefur/owa/edutils.parse_page?nafn=BN038076,"76"">Funahöfði 19",breyingar inni --- ATH ÓTÍMABÆRAR FRAMKVÆMDIR þób,Frestað. Vísað til athugasemda á umsóknarblaði.,"Sótt er um leyfi til breytinga á nýsamþykktu, BN037693, byggingaleyfi, m. a. að fækka baðherbergjum, færa ræstingu, breyta annarri og koma fyrir tæknirými  í skrifstofuhúsinu á lóð nr. 19 við Funahöfða. Gjald kr. 7.300"
37954 (01.82.421.2),http://gamli.rvk.is/vefur/owa/edutils.parse_page?nafn=BN037954,Garðsendi 4,kvistur,Samþykkt.  Samræmist ákvæðum laga nr. 73/1997. Með vísan til samþykktar borgarráðs frá 1. september 1998 skal utanhúss- og lóðarfrágangi vera lokið eigi síðar en innan tveggja ára frá útgáfu byggingarleyfis að viðlögðum dagsektarákvæðum 57. gr. skipulags- og byggingarlaga nr. 73/1997. Áskilin lokaúttekt byggingarfulltrúa.,"Sótt er um leyfi fyrir kvist á norðurhlið ásamt minnháttar tilfærslu á léttum millivegg í einbýlishúsinu á lóð nr. 4 við Garðsenda. Meðfylgandi er umboð eiganda til handahafa kaupsamnings dags. 11. mars 2008. Grenndarkynning stóð yfir frá 2. apríl til og með 30. apríl 2008. Engar athugasemdir bárust. Útskrift úr gerðabók embættisafgreiðslufundar skipulagsstjóra frá 9. maí 2008 fylgir erindinu. Stærð stækkunar ferm. lofthæð yfir 1,8 lofthæð eru 2,3 ferm. og rúmmetra stækkun er 2,3 rúmm. Gjald kr. 7.300 + 168"
38314 (02.69.520.3),http://gamli.rvk.is/vefur/owa/edutils.parse_page?nafn=BN038314,Gefjunarbrunnur 7,einbýlishús,Frestað. Málinu vísað til umsagnar skipulagsstjóra.,"Sótt er um leyfi til að byggja tvílyft, staðsteypt einbýlishús með innbyggðri bílgeymslu á lóðinni nr. 7 við Gefjunarbrunn. Stærð:  1. hæð íbúð 94,2 ferm., bílgeymsla 26,4 ferm., 2. hæð íbúð 155,5 ferm. Samtals 276,1 ferm., 885,4 rúmm. Gjald kr. 7.300 + 64.634"
38266 (05.05.610.6),http://gamli.rvk.is/vefur/owa/edutils.parse_page?nafn=BN038266,Gerðarbrunnur 15,breyting á áður samþ teikningum,Frestað. Vísað til athugasemda eldvarnaeftirlits.,"Sótt er um leyfi til breytinga á innra skipulagi og útliti nýsamþykkts einbýlishúss, BN037804, dags. 1. apríl 2008 á lóð nr. 15 við Gerðarbrunn. Stærðir voru 371,9 ferm., og 1104,4 rúmm. Stærðir verða 368,1 ferm., 1104,4 rúmm. Minnkun 3,8 ferm. Gjald kr. 7.300"
38198 (05.05.610.7),http://gamli.rvk.is/vefur/owa/edutils.parse_page?nafn=BN038198,Gerðarbrunnur 17-19,parhús,Frestað. Vísað til athugasemda um hæð á húsi.,"Sótt er um leyfi til að byggja steinsteypt parhús á tveimur hæðum með innbyggðum bílgeymslum á lóðinni nr. 17-19 við Gerðarbrunn. Stærð húss nr. 17:  1. hæð íbúð 93,5 ferm., bílgeymsla 22,5 ferm., 2. hæð íbúð 113,1 ferm. Hús nr. 19:  1. hæð íbúð 99,8 ferm., bílgeymsla 23,3 ferm., 2. hæð íbúð 119,7 ferm. Samtals 471,9 ferm., 1571,3 rúmm. Gjald kr. 7.300 + 114.705"
38005 (05.05.470.8),http://gamli.rvk.is/vefur/owa/edutils.parse_page?nafn=BN038005,Gerðarbrunnur 58,nýbygging,Samþykkt.  Samræmist ákvæðum laga nr. 73/1997. Frágangur á lóðamörkum verði gerður í samráði við lóðarhafa aðliggjandi lóða. Áskilin lokaúttekt byggingarfulltrúa.,"Sótt er um leyfi til að byggja steinsteypt einbýlishús á tveim hæðum með innbyggðri bílgeymslu á lóðinni nr. 58 við Gerðarbrunn. Erindi fylgir samþykki lóðarhafa aðliggjandi lóða áritað á uppdrætti og bréf hönnuðar dags. 7. apríl 2008. Stærð:  1. hæð íbúð 101,6 ferm., bílgeymsla 35,9 ferm., 2. hæð íbúð 132,1 ferm. Samtals 269,7 ferm., 864 rúmm. Gjald kr. 7.300 + 63.072"
38159 (01.85.310.1),http://gamli.rvk.is/vefur/owa/edutils.parse_page?nafn=BN038159,Goðaland 2-20 1-21,1 - breyting úti,Samþykkt.  Samræmist ákvæðum laga nr. 73/1997. Með vísan til samþykktar borgarráðs frá 1. september 1998 skal utanhúss- og lóðarfrágangi vera lokið eigi síðar en innan tveggja ára frá útgáfu byggingarleyfis að viðlögðum dagsektarákvæðum 57. gr. skipulags- og byggingarlaga nr. 73/1997. Frágangur á lóðamörkum verði gerður í samráði við lóðarhafa aðliggjandi lóða.  Áskilin lokaúttekt byggingarfulltrúa.,"Sótt er um leyfi til að breyta um byggingarefni útveggja úr steypu í timbur svo og breyta glugga á suðurhlið miðað við nýlega samþykkt erindi nr. BN037656 af parhúsinu  nr. 1 á lóð nr. 2-20, 1-21 við Goðaland. Gjald kr. 7.300"
38186 (01.11.410.1),http://gamli.rvk.is/vefur/owa/edutils.parse_page?nafn=BN038186,Grandagarður 101,reyndaruppdr v/starfsleyfis,Frestað. Vísað til athugasemda á umsóknarblaði. Málinu vísað til umsagnar skipulagsstjóra.,"Sótt er um leyfi fyrir reyndarteikningum þar sem búið er að byggja létta viðbyggingu við suðurhlið, minnháttar breytingar á innra fyrirkomulagi og komið fyrir timburpalli með skjólveggum að norðanverðu við húsið á lóð nr. 101 við Grandagarð. Stærðir stækkunar 52,2 ferm. 183,4 rúmm. Gjald kr. 7.300 + 13.388"
38252 (01.17.313.2),http://gamli.rvk.is/vefur/owa/edutils.parse_page?nafn=BN038252,Grettisgata 33B,"opnanaleg gluggafög ,stækka glugga",Frestað. Skoðist á milli funda.,Sótt er um leyfi til að stækka opnanleg fög svo úr verði björgunarop á aðalhæð og í kjallara á suðurhlið og stækka þakglugga í geymslu á rishæð í húsi á lóð nr. 33 B við Grettisgötu. Gjald kr. 7.300
36038 (01.17.150.6),http://gamli.rvk.is/vefur/owa/edutils.parse_page?nafn=BN036038,Grettisgata 5,br. skrifstofuhúsnæði í íb.,"Synjað. Húsnæðið uppfyllir ekki ákvæði byggingarreglugerðar nr. 441/1998 hvað varða birtu ásamt ákvæði greina nr. 92, 96 og 104.",Sótt er um leyfi til þess að breyta skrifstofuhúsnæði á 1. hæð í íbúð í fjöleignarhúsinu á lóð nr. 5 við Grettisgötu. Málinu fylgir íbúðarskoðun byggingafulltrúa dags. 22. apríl 2008. Gjald kr. 6.800
38269 (01.81.571.6),http://gamli.rvk.is/vefur/owa/edutils.parse_page?nafn=BN038269,Háagerði 71,áður gerð íbúð,Frestað. Vísað til athugasemda á umsóknarblaði.,"Sótt er um leyfi fyrir áður gerðri íbúð í kjallara fjölbýlishússins á lóð nr. 71 við Háagerði. Erindinu fylgir bréf hönnuðar dags. 7. maí 2008, eignaskiptasamningur dags. 2. febrúar 1961 og tengiskýrsla frá RR dags. 27. september 1961.  Á teikningar er áritað samþykki sumra meðlóðarhafa ódagsett. Gjald kr. 7.300"
38245 (04.35.301.4),http://gamli.rvk.is/vefur/owa/edutils.parse_page?nafn=BN038245,Hábær 38,br á þakkanti,Samþykkt.  Samræmist ákvæðum laga nr. 73/1997. Með vísan til samþykktar borgarráðs frá 1. september 1998 skal utanhúss- og lóðarfrágangi vera lokið eigi síðar en innan tveggja ára frá útgáfu byggingarleyfis að viðlögðum dagsektarákvæðum 57. gr. skipulags- og byggingarlaga nr. 73/1997.,Sótt er breytingu á þakkanti miðað við nýlega samþykkt erindi nr. BN34741á einbýlishúsinu á lóð nr. 38 við Hábæ. Gjald kr. 7.300
37951 (04.97.420.6),http://gamli.rvk.is/vefur/owa/edutils.parse_page?nafn=BN037951,Hálsasel 54,stoðveggur,Samþykkt.  Samræmist ákvæðum laga nr. 73/1997. Frágangur á lóðamörkum verði gerður í samráði við lóðarhafa aðliggjandi lóða. Komi til lagfæringar á göngustíg vegna gerðar veggjarins skulu þær greiddar af umsækjanda.,Sótt er um leyfi til að byggja steyptan stoðvegg á lóðamörkum meðfram gangstíg við hús á lóð nr. 54 við Hálsasel. Gjald kr 7.300
38226 (01.80.240.3),http://gamli.rvk.is/vefur/owa/edutils.parse_page?nafn=BN038226,Heiðargerði 106,"br. þak, gluggar, veggir ofl.",Frestað. Vísað til athugasemda á umsóknarblaði.,"Sótt er um leyfi fyrir áður gerðri stækkun í kjallara, til að hækka þak og portveggi um 50cm, að einangra og múrhúða hús að utan, gera dyr út í garð á 1. hæð og í kjallara og til minni háttar breytinga á innra skipulagi og útliti einbýlishússins á lóð nr. 106 við Heiðargerði. Erindi fylgir umsögn burðarvirkishönnuðar dags. 7. maí 2008. Stækkun:  17,3 ferm., 31,5 rúmm. Gjald kr. 7.300 + 2.300"
38261 (01.40.810.1),http://gamli.rvk.is/vefur/owa/edutils.parse_page?nafn=BN038261,Holtavegur 8-10,"hurð, innr.br.",Frestað. Gera grein fyrir breytingum.,"Sótt er um nýja gönguhurð í viðbyggingu til norðurs, einnig ýmsar innréttingabreytingar og leiðréttingu skráningartöflu í verslunarhúsnæði við Holtagarða á lóð nr. 10 við Holtaveg. Gjald kr. 7.300"
34458 (01.81.810.8),http://gamli.rvk.is/vefur/owa/edutils.parse_page?nafn=BN034458,Hólmgarður 19,endurn. byggingarl.og viðbyggingu,Frestað. Vísað til athugasemda á umsóknarblaði.,"Sótt er um endurnýjun á byggingarleyfum frá 13. október 1994 BN7156 og BN7157 þar sem sótt er um leyfi til að hækka þak, að því viðbættu er sótt um leyfi fyrir staðsteyptri tveggja hæða viðbyggingu við suðurhlið og einnar hæða viðbyggingu við norðurhlið ásamt staðsteyptum útigeymslum á norðurenda lóðar  fjölbýlishússins á lóð nr. 17-19 við Hólmgarð. Bréf lóðarhafa dagsett móttekið 31. júlí 2006. Samþykki meðlóðarhafa dags. 7. mai 2008. Stærð útigeymslna hús nr. 17:  22,8 ferm, 68,2 rúmm. hús nr. 19: 22,8 ferm. 68,2 rúmm. Stækkun íbúðar nr. 17: 1. hæð xx ferm. 2. hæð xx ferm. 3. hæð xx ferm. Samtals xx ferm. xxx rúmm. Stækkun íbúðar nr. 19: 1. hæð xx ferm. 2. hæð xx ferm. 3. hæð xx ferm. Samtals xx ferm. xxx rúmm Gjald kr. 6.100 + xxx"
38263 (02.86.250.9),http://gamli.rvk.is/vefur/owa/edutils.parse_page?nafn=BN038263,Hverafold 94,garðskáli,Frestað. Vísað til athugasemda á umsóknarblaði.,"Sótt er um leyfi til að byggja garðskála sbr. fyrirspurn nr. BN038197 við einbýlishús á lóð nr. 94 við Hverafold Stærðir: stækkun garðskáli 10 ferm., 26 rúmm. Íbúð 158,4 ferm., bílskúr 36,5 ferm. garðskáli 10 ferm., Samtals 201,3 ferm., 730,3 rúmm. Gjald kr. 7.300 + 1.898"
38257 (01.73.020.2),http://gamli.rvk.is/vefur/owa/edutils.parse_page?nafn=BN038257,Hörgshlíð 14,"st. bílsk., sólp. ofl.",Frestað. Vísað til athugasemda á umsóknarblaði. Málinu vísað til umsagnar skipulagsstjóra.,"Sótt er um leyfi til að stækka bílskúr og byggja vinnustofu ofan á honum að hluta, byggja útigeymslu, byggja sólpall með heitum potti, stækka sorpgeymslu og endurnýja veggi við heimreið, allt úr staðsteypu við einbýlishús á lóð nr. 14 við Hörgshlíð. Stærðir: xxxxxx Gjald kr. 7.300 + xxx"
36824 (02.69.370.5),http://gamli.rvk.is/vefur/owa/edutils.parse_page?nafn=BN036824,Iðunnarbrunnur 12,einbýlishús,Samþykkt.  Samræmist ákvæðum laga nr. 73/1997. Frágangur á lóðamörkum verði gerður í samráði við lóðarhafa aðliggjandi lóða. Áskilin lokaúttekt byggingarfulltrúa.,"Sótt er um leyfi til að byggja tvílyft, steinsteypt einbýlishús með innbyggðri bílgeymslu á lóðinni nr. 12 við Iðunnarbrunn. Málinu fylgir brunatæknileg greinargerð frá Línuhönnun dags. 18. október 2007. Stærð:  1. hæð íbúð 78,2 ferm., bílgeymsla 32,1 ferm., 2. hæð íbúð 105,1 ferm. Samtals 215,4 ferm. og 667,4 rúmm. Gjald kr. 6.800 + 45.383"
38282 (01.35.100.1 36),http://gamli.rvk.is/vefur/owa/edutils.parse_page?nafn=BN038282,Jökulgrunn 19,sorpgeymsla,Samþykkt.  Samræmist ákvæðum laga nr. 73/1997.,Sótt er um leyfi fyrir nýja steinsteypta sorpgeymslu sbr. fyrirspurn BN038074 dags. 3.4.2008 fyrir framan raðhúsaeiningu á lóð nr. 19 við Jökulgrunn. Gjald kr. 7.300
38273 (01.35.410.8),http://gamli.rvk.is/vefur/owa/edutils.parse_page?nafn=BN038273,Kambsvegur 22,hækkun á þaki,Frestað. Málinu vísað til umsagnar skipulagsstjóra.,"Sótt er um leyfi til að hækka þak fjölbýlishússins á lóðinni nr. 22 við Kambsveg. Erindinu fylgir bréf eigenda  og samþykki meðeigenda og sumra lóðarhafa Kambsvegar 20, 21, 24 og 26 dags. 28. apríl 2008. Stækkun 4.7 ferm., 12,69 rúmm. Gjald kr. 7.300 + 926"
38148 (01.51.711.2),http://gamli.rvk.is/vefur/owa/edutils.parse_page?nafn=BN038148,Kaplaskjólsvegur 54,skráningu breytt,Samþykkt.  Samræmist ákvæðum laga nr. 73/1997. Samþykktin öðlast gildi þegar þinglýst hefur verið samrunaskjali.,Sótt er um leyfi til að skrá húsið í eitt eignarhald í stað tveggja á lóðinni nr. 54 við Kaplaskjólsveg. Gjald kr. 7.300
38249 (04.67.730.2),http://gamli.rvk.is/vefur/owa/edutils.parse_page?nafn=BN038249,Keilufell 16,"bílgeymsla,kvistur o.fl.",Frestað. Vísað til athugasemda á umsóknarblaði.,"Sótt er um leyfi til að fjarlægja núverandi bílskýli, byggja úr timbri bílgeymslu og geymslu, auk þess stofu út úr suðurhlið, stofu, kvist og svalir á 2. hæð og kvist á norðurþak við einbýlishús á lóð nr. 16 við Keilufell. Meðfylgjandi er fyrirspurn BN037667, sem svarað var jákvætt 5.2.2008 Stækkun: íbúðarhús 33,1 ferm., 72,3 rúmm., bílskúr 56 ferm., 169,4 rúmm. Samtals stækkun 79,5 ferm., 217,7 rúmm. Samtals allt húsið erftir stækkun: 222,3 ferm., 641,9 rúmm. Gjald kr. 7.300 + 15.892"
38196 (01.86.310.2),http://gamli.rvk.is/vefur/owa/edutils.parse_page?nafn=BN038196,Kvistaland 10-16,nr.12 einbýlishús,Frestað. Með vísan til þeirra atriða sem fram koma í minnisblaði skipulagsstjóra frá 19. maí 2008.,"Sótt er um leyfi til að byggja steinsteypt einbýlishús á einni hæð með kjallara á lóð nr. 12 við Kvistaland. Útskrift úr gerðabók embættisafgreiðslufundar skipulagsstjóra frá 9. maí 2008 fylgir erindinu ásamt minnisblaði skipulagsstjóra dags. 19. maí 2008. Stærðir: Kjallari 161,2 ferm., jarðhæð 289,5 ferm., íbúð samtals 450,7 ferm., bílgeymsla 40,6 ferm., samtals 491,3 ferm., 1.610,7 rúmm. Gjald kr. 7.300 + 117.581"
38277 (04.99.811.0),http://gamli.rvk.is/vefur/owa/edutils.parse_page?nafn=BN038277,Lambasel 16,breyting á klæðningu og staðsetn.sorpgeymslu,Samþykkt.  Samræmist ákvæðum laga nr. 73/1997. Frágangur á lóðamörkum verði gerður í samráði við lóðarhafa aðliggjandi lóða. Áskilin lokaúttekt byggingarfulltrúa.,"Sótt er um leyfi fyrir breyttri utanhússklæðningu, steinflísar í stað bárujárns og staðsetningu sorpgeymslu á og við einbýlishús á lóð nr. 16 við Lambasel. Stærðir óbreyttar Gjald kr. 7.300"
38280 (01.47.000.8),http://gamli.rvk.is/vefur/owa/edutils.parse_page?nafn=BN038280,Langholtsvegur 163,nr 163A endurnýjun á byggingarl. dags. 06.05.2003,Samþykkt.  Samræmist ákvæðum laga nr. 73/1997. Með vísan til samþykktar borgarráðs frá 1. september 1998 skal utanhúss- og lóðarfrágangi vera lokið eigi síðar en innan tveggja ára frá útgáfu byggingarleyfis að viðlögðum dagsektarákvæðum 57. gr. skipulags- og byggingarlaga nr. 73/1997.,Sótt er um endurnýjun á byggingarleyfi BN026672 dags. 6.5.2003 um leyfi til að byggja viðbyggingu og skyggni á svölum raðhússins nr. 163A á lóðinni nr. 163 við Langholtsveg. Gjald kr. 7.300
38096 (01.35.500.4),http://gamli.rvk.is/vefur/owa/edutils.parse_page?nafn=BN038096,Langholtsvegur 5,hækka húshluta,Samþykkt.  Samræmist ákvæðum laga nr. 73/1997. Frágangur á lóðamörkum verði gerður í samráði við lóðarhafa aðliggjandi lóða. Áskilin lokaúttekt byggingarfulltrúa.,Sótt er um leyfi til að hækka hluta þríbýlishússins sem nemur 20 cm. vegna klappar á lóðinni nr. 5 við Langholtsveg. Gjald kr. 7.300
38095 (01.35.500.2),http://gamli.rvk.is/vefur/owa/edutils.parse_page?nafn=BN038095,Langholtsvegur 9,hækka húshluta,Samþykkt.  Samræmist ákvæðum laga nr. 73/1997. Frágangur á lóðamörkum verði gerður í samráði við lóðarhafa aðliggjandi lóða. Áskilin lokaúttekt byggingarfulltrúa.,Sótt er um leyfi til að hækka hluta þríbýlishússins sem nemur 20 cm. vegna klappar á lóðinni nr. 9 við Langholtsveg. Gjald kr. 7.300.
38236 (01.38.510.1),http://gamli.rvk.is/vefur/owa/edutils.parse_page?nafn=BN038236,Laugarásvegur 52,reyndarteikningar,Frestað. Vísað til athugasemda á umsóknarblaði.,Sótt er um leyfi fyrir nýrri og leiðréttri skráningartöflu og reyndarteikningum henni fylgjandi af einbýlishúsi á lóð nr. 52 við Laugarásveg. Gjald kr. 7.300
38237 (01.17.220.1),http://gamli.rvk.is/vefur/owa/edutils.parse_page?nafn=BN038237,Laugav 22/Klappars 33,hurð undir stiga o.fl.,Frestað. Vísað til athugasemda á umsóknarblaði.,"Sótt er um leyfi til að breyta tröppu, bæta inn vegg og hurð, á 1. hæð í veitingahúsi á lóð nr. 22 við Laugaveg. Gjald kr. 7.300"
38262 (01.17.220.3),http://gamli.rvk.is/vefur/owa/edutils.parse_page?nafn=BN038262,Laugavegur 24,br. undirg. í skrifst.,Frestað. Vísað til athugasemda á umsóknarblaði. Málinu vísað til umsagnar skipulagsstjóra.,"Sótt er um leyfi til að breyta undirgangi í lokað rými með skrifstofum í húsi Hótel Fróns á lóð nr. 24 við Laugaveg. Stækkun 31,4 ferm., 113 rúmm. Gjald kr. 7.300 + 8.249"
38255 (01.17.310.1),http://gamli.rvk.is/vefur/owa/edutils.parse_page?nafn=BN038255,Laugavegur 44,fjarlægja skyggni,Samþykkt.  Samræmist ákvæðum laga nr. 73/1997.,Sótt er um leyfi til að fjarlægja skyggni fyrir ofan glugga á verslunarhæð í norðurátt á húsi á lóð nr. 44 við Laugaveg. Gjald kr. 7.300
38150 (01.87.400.1),http://gamli.rvk.is/vefur/owa/edutils.parse_page?nafn=BN038150,Láland   1-7,nr.3 niðurrif - nýbygging einbýlishús,Frestað. Vísað til athugasemda á umsóknarblaði.,"Sótt er um leyfi til að rífa núverandi hús og byggja nýtt steinsteypt einbýlishús á einni hæð með kjallara undir hluta og innbyggðri bílgeymslu á lóð nr. 1-7 við Láland. Jafnframt er erindi BN037478 dregið til baka. Útskrift úr gerðabók embættisafgreiðslufundar skipulagsstjóra frá 25. apríl 2008 fylgir erindinu. Stærð:  Kjallari 95,9 ferm., 1. hæð íbúð 281,4 ferm., bílgeymsla 49,4 ferm. Samtals 426, ferm., 1.476,3 rúmm Gjald kr. 7.300 + 107.770"
37923 (01.22.300.3),http://gamli.rvk.is/vefur/owa/edutils.parse_page?nafn=BN037923,Miðtún 6,"hækka þak, tröppur út í garð",Samþykkt.  Samræmist ákvæðum laga nr. 73/1997. Með vísan til samþykktar borgarráðs frá 1. september 1998 skal utanhúss- og lóðarfrágangi vera lokið eigi síðar en innan tveggja ára frá útgáfu byggingarleyfis að viðlögðum dagsektarákvæðum 57. gr. skipulags- og byggingarlaga nr. 73/1997. Áskilin lokaúttekt byggingarfulltrúa. Skilyrt er að eignaskiptayfirlýsingu vegna breytinga í húsinu sé þinglýst fyrir útgáfu á byggingarleyfi.,"Sótt er um leyfi til að hækka þak og koma fyrir tröppum út í garð á fjölbýlis-/parhúsinu nr. 6 á lóðinni nr. 6-8 við Miðtún. Erindi fylgir nú samþykki meðeigenda áritað á uppdrátt, ódagsett. Breyttum teikningum fylgir samþykki meðlóðarhafa og samþykki lóðarhafa Miðtúns nr. 2, 4, 10 og 14, Höfðatúns nr. 9 og Hátúns  nr. 3 öll árituð á uppdrátt. Málið var kynnt og engar athugasemdir bárust. Stækkun:  56,5 rúmm. Gjald kr. 7.300 + 4.125"
37899 (01.22.300.4),http://gamli.rvk.is/vefur/owa/edutils.parse_page?nafn=BN037899,Miðtún 8,hækka þak,Samþykkt.  Samræmist ákvæðum laga nr. 73/1997. Með vísan til samþykktar borgarráðs frá 1. september 1998 skal utanhúss- og lóðarfrágangi vera lokið eigi síðar en innan tveggja ára frá útgáfu byggingarleyfis að viðlögðum dagsektarákvæðum 57. gr. skipulags- og byggingarlaga nr. 73/1997. Áskilin lokaúttekt byggingarfulltrúa. Skilyrt er að eignaskiptayfirlýsingu vegna breytinga í húsinu sé þinglýst fyrir útgáfu á byggingarleyfi.,"Sótt er um leyfi til að hækka þak og koma fyrir tröppum út í garð á fjölbýlis-/parhúsinu nr.8 á lóðinni nr. 6-8 við Miðtún. Erindi fylgir samþykki meðeigenda áritað á uppdrátt, ódagsett. Breyttum teikningum fylgir samþykki meðlóðarhafa og samþykki lóðarhafa Miðtúns nr. 2, 4, 10 og 14, Höfðatúns nr. 9 og Hátúns  nr. 3 öll árituð á uppdrátt.  Málið var kynnt og engar athugasemdir bárust. Stækkun:  56,5 rúmm. Gjald kr. 7.300 + 4.125"
36053 (00.00.000.0),http://gamli.rvk.is/vefur/owa/edutils.parse_page?nafn=BN036053,Mímisvegur 2,hækka og stækka kvisti,Samþykkt.  Samræmist ákvæðum laga nr. 73/1997. Með vísan til samþykktar borgarráðs frá 1. september 1998 skal utanhúss- og lóðarfrágangi vera lokið eigi síðar en innan tveggja ára frá útgáfu byggingarleyfis að viðlögðum dagsektarákvæðum 57. gr. skipulags- og byggingarlaga nr. 73/1997. Áskilin lokaúttekt byggingarfulltrúa. Skilyrt er að eignaskiptayfirlýsingu vegna breytinga í húsinu sé þinglýst fyrir útgáfu á byggingarleyfi.,"Sótt er um leyfi til þess að hækka þak útbyggingar á norðausturhlið, stækka kvist á suðurvesturþekju með svölum framan við og fá samþykkta íbúð á þakhæð fjölbýlishússins á lóð nr. 2 við Mímisveg. Samþykki meðeigenda dags. 14. maí 2007, umboð vegna samþykkis dags. 24. febrúar 2007 fylgja erindinu. Stærð: Stækkun 30,7 ferm., 84,1 rúmm. Gjald kr. 6.800 + 6.800 + 5.719"
38243 (04.37.610.8),http://gamli.rvk.is/vefur/owa/edutils.parse_page?nafn=BN038243,Mýrarás 15,breyting inni,Frestað. Vísað til athugasemda á umsóknarblaði.,Sótt er um leyfi til að breyta innra fyrirkomulagi 1. og 2. hæðar með tilheyrandi breytingu á útihurð og gluggasetningu einbýlishússsins á lóð nr. 15 við Mýrarás. Gjald kr. 7.300
38125 (01.53.110.5),http://gamli.rvk.is/vefur/owa/edutils.parse_page?nafn=BN038125,Nesvegur 41,reyndart. v/ eignaskipts.,Samþykkt.  Samræmist ákvæðum laga nr. 73/1997. Skilyrt er að eignaskiptayfirlýsingu vegna breytinga í húsinu sé þinglýst til þess að samþykktin öðlist gildi.,"Sótt er um samþykkt á reyndarteikningum vegna gerðar eignaskiptasamnings í fjölbýlishúsinu á lóðinni nr. 41 við Nesveg. Erindi fylgir þinglýst afsöl dags. 11. ágúst 1998, 11. júní 1990 og 18. október 1989, og þinglýstur eignaskiptasamningur dags. 12. maí 1989. Gjald kr. 7.300"
38281 (01.18.220.8),http://gamli.rvk.is/vefur/owa/edutils.parse_page?nafn=BN038281,Njálsgata 8C,stækka íb. 0201,Frestað. Vísað til athugasemda á umsóknarblaði.,Sótt er um leyfi til stækka íbúð 0201 niður á stigapall sbr. fyrirspurn BN038214 dags. 6.5.2008 í íbúðarhúsi á lóð nr. 8C við Njálsgötu. Gjald kr. 7.300
38104 (01.41.300.2),http://gamli.rvk.is/vefur/owa/edutils.parse_page?nafn=BN038104,Njörvasund 14,klæðning - svalir,Frestað. Vísað til athugasemda eldvarnaeftirlits.,"Sótt er um leyfi til að klæða með báruðum málmplötum og byggja svalir úr stáli við 2. hæð tvíbýlishússins á lóðinni nr. 14 við Njörvasund. Útskrift úr gerðabók embættisafgreiðslufundar skipulagsstjóra frá 16. maí 2008 fylgir erindinu, erindið var grenndarkynnt, engar athugasemdir bárust. Gjald kr. 7.300"
38292 (01.80.620.1),http://gamli.rvk.is/vefur/owa/edutils.parse_page?nafn=BN038292,Seljugerði 1,bílskúrshurð - gluggar bakhlið,Frestað. Vísað til athugasemda á umsóknarblaði.,"Sótt er um leyfi til að stækka kjallara um óuppfyllt rými, bæta þar við gluggum sbr. fsp. BN024863 dags. 23.4.2002 og breyta bílskúrshurð í einbýlishúsi á lóð nr. 1 við Seljugerði. Meðfylgjandi er bréf frá burðarvirkjahönnuði vegna stækkunar bílskúrshurðar. Stærðir: Gjald kr. 7.300 + xxxxx"
38304,http://gamli.rvk.is/vefur/owa/edutils.parse_page?nafn=BN038304,Skógarás 23,br. gluggum,Samþykkt.  Samræmist ákvæðum laga nr. 73/1997. Frágangur á lóðamörkum verði gerður í samráði við lóðarhafa aðliggjandi lóða. Áskilin lokaúttekt byggingarfulltrúa.,Sótt er um leyfi til að breyta gluggum á suðurhliðum og bæta við hurð úr stofu út á svalir í einbýlishúsi á lóð nr. 23 við Skógarás.
38297,http://gamli.rvk.is/vefur/owa/edutils.parse_page?nafn=BN038297,Skúlagata 17,súpu- og salatbar,Frestað. Vísað til athugasemda á umsóknarblaði.,Sótt er um leyfi til að innrétta hluta 1. hæðar einingar nr. 0105 og 0106 sem veitingastað fyrir léttar veitingar (súpu og salatbar) jafnframt er erindi nr. BN38224 dregið til baka í atvinnuhúsnæðinu á lóð nr. 17 við Skúlagötu. Gjald kr. 7.300
38302 (01.15.440.1 09),http://gamli.rvk.is/vefur/owa/edutils.parse_page?nafn=BN038302,Skúlagata 40,nudd- og baðstofa 0201,Frestað. Vísað til athugasemda á umsóknarblaði.,Sótt er um leyfi fyrir minnháttar breytingu á innra skipulagi þannig að í stað nudd og hárgreiðslu verði nudd og baðstofa með veitingasölu í einingu 0201 í fjöleignahúsinu á lóð 40 við Skúlagötu. Gjald kr. 7.300
37934 (04.06.120.3),http://gamli.rvk.is/vefur/owa/edutils.parse_page?nafn=BN037934,Smiðshöfði 11,milliloft,Frestað. Vísað til athugasemda á umsóknarblaði.,"Sótt er um leyfi fyrir millilofti í einingu 0201 og 0202 í atvinnuhúsnæðini á lóð nr. 11 við Smiðshöfða. Stærð millilofts 108,7 ferm. Gjald kr. 7.300"
38152 (01.19.340.3),http://gamli.rvk.is/vefur/owa/edutils.parse_page?nafn=BN038152,Snorrabraut 60,bílakjallari,Frestað. Ekki er gerð athugasemd að umsækjandi láti vinna breytingu á deiliskipulagi í samræmi við umsögn skipulagsstjóra sem grenndarkynnt verður ef berst.,"Sótt er um leyfi fyrir bílakjallara með skábraut samhliða lóðarmörkum vesturhliðar fyrir 19 bílastæði í kjallara undir bílastæðum við nýlega samþykkta viðbyggingu BN36199 á lóð nr. 60 við Snorrabraut. Útskrift úr gerðabók embættisafgreiðslufundar skipulagsstjóra frá 9. maí 2008 fylgir erindinu. Stærðir bílakjallara 704,6 ferm. 2009,8 rúmm. Gjald kr. 7.300 + 146.715"
38187 (02.37.520.1),http://gamli.rvk.is/vefur/owa/edutils.parse_page?nafn=BN038187,Spöngin 9-31,viðbygging,Samþykkt.  Samræmist ákvæðum laga nr. 73/1997. Frágangur á lóðamörkum verði gerður í samráði við lóðarhafa aðliggjandi lóða. Áskilin lokaúttekt byggingarfulltrúa.  Áskilið samþykki heilbrigðiseftirlits.,"Sótt er um leyfi til að byggja staðsteypta viðbyggingu við norðausturenda og stækka útibú Á.T.V.R. í verslunamiðstöðinni Spöngin á lóð nr. 25-31 við Spöngina. Stærðir stækkunar 155,3 ferm. 680,5 rúmm. Gjald kr. 7.300 + 49.662"
38182 (01.80.310.1),http://gamli.rvk.is/vefur/owa/edutils.parse_page?nafn=BN038182,Stóragerði 42-44,fjölbýlishús,Frestað. Vísað til athugasemda á umsóknarblaði og umsagnar skipulagsstjóra.,"Sótt er um leyfi til að byggja fjórtán íbúða fjölbýlishús með svalagangi, fjórar hæðir og kjallari með bílgeymslu fyrir fjórtán bíla á lóðinni nr. 42-44 við Stóragerði.  Húsið verður staðsteypt, einangrað að utan og klætt flísum Erindinu fylgir minnisblað um hljóðvist frá Línuhönnun dags. 9. mars 2007 ásamt útskrift úr gerðabók embættisafgreiðslufundar skipulagsstjóra frá 9. maí 2008. Stærð:  Kjallari geymslur 265,6 ferm., bílgeymsla 554,7 ferm., 1. 2. og 3.  hæð 585,7 ferm.,  4. hæð 360,4 ferm. Samtals 2.937,8 ferm., 8.908,7 rúmm. Gjald kr. 7.300 + 650.335"
38219 (01.26.300.4),http://gamli.rvk.is/vefur/owa/edutils.parse_page?nafn=BN038219,Suðurlandsbraut 12,"innr.br., klæðning",Samþykkt.  Samræmist ákvæðum laga nr. 73/1997. Áskilin lokaúttekt byggingarfulltrúa.  Áskilið samþykki heilbrigðiseftirlits.,"Sótt er um leyfi til að innrétta veitingastað á 1. hæð, að breyta útfærslu á bómuhliði við bílastæði, að álklæða austurgafl og breyta merkingum á verslunar- og skrifstofuhúsinu á lóðinni nr. 12 við Suðurlandsbraut. Gjald kr. 7.300"
38059 (00.00.000.0 06),http://gamli.rvk.is/vefur/owa/edutils.parse_page?nafn=BN038059,Suðurlandsbraut 34,breyting inni fl.,Samþykkt.  Samræmist ákvæðum laga nr. 73/1997. Áskilin lokaúttekt byggingarfulltrúa.,"Sótt er um leyfi til að breyta innra skipulagi norðurhúss í kjallara og á fyrstu hæð skv. meðfylgjandi teikningum og fyrirkomulagi bílastæða sunnan og austan við hús nr. 31 við Ármúla, sem stendur á lóð nr. 34 við Suðurlandsbraut. Meðfylgjandi er bréf frá akitekt dags. 30.4.2008 Gjald kr. 7.300"
38068 (01.45.300.2),http://gamli.rvk.is/vefur/owa/edutils.parse_page?nafn=BN038068,Súðarvogur 7,breyting í íbúðir,"Synjað. Með vísan til umsagnar skipulagsstjóra, að auki uppfylla íbúðir ekki ákvæði byggingarreglugerðar til dæmis hvað svalir varðar ljós og loft.",Sótt er um leyfi til að breyta í íbúðir með vinnuaðstöðu 1. og 2. hæð atvinnuhússins á lóðinni nr. 7 við Súðarvog. Útskrift  úr gerðabók embættisafgreiðslufundar skipulagsstjóra frá 9. maí 2008 fylgir erindinu. Gjald kr. 7.300
38168 (00.00.000.0 50),http://gamli.rvk.is/vefur/owa/edutils.parse_page?nafn=BN038168,Sævarhöfði 6-10,girðing,Samþykkt.  Samræmist ákvæðum laga nr. 73/1997. Frágangur á lóðamörkum verði gerður í samráði við lóðarhafa aðliggjandi lóða.,Sótt er um leyfi til að girða af lóð malbikunarstöðvarinnar á lóð nr. 6-10 við Sævarhöfða. Meðfylgjandi er samþykki Framkvæmdasviðs Reykjavíkurborgar dags. 27. mars 2008. Gjald kr. 7.300
37746 (01.53.211.0),http://gamli.rvk.is/vefur/owa/edutils.parse_page?nafn=BN037746,Sörlaskjól 3,svalir,Frestað. Lagfæra skráningu.,Sótt er um leyfi til að byggja svalir á vesturhlið íbúðarhússins á lóðinni nr. 3 við Sörlaskjól. Grenndarkynning stóð yfir frá 16. apríl til og með  14. maí 2008.  Erindi fylgir samþykki meðlóðarhafa dags. 9. mars 2008. Gjald kr. 7.300 + 7.300
38251 (01.14.310.3),http://gamli.rvk.is/vefur/owa/edutils.parse_page?nafn=BN038251,Tjarnargata 43,breyting úti.,Samþykkt.  Samræmist ákvæðum laga nr. 73/1997.,Sótt er um leyfi til að endurnýja þakglugga og bæta tveim nýjum við í þríbýlishúsi á lóð nr. 43 við Tjarnargötu. Meðfylgjandi er bréf hönnuðar vegna viðhaldsframkvæmda og nýrra þakglugga. Einnig samþykki eigenda hússins. Gjald kr. 7.300
38290 (01.83.510.3),http://gamli.rvk.is/vefur/owa/edutils.parse_page?nafn=BN038290,Tunguvegur 66,kjallari,Frestað. Vísað til athugasemda á umsóknarblaði.,"Sótt er um leyfi fyrir áður gerðri framkvæmd þar sem í óuppylltu rými hefur verið dýpkað og steypt gólf einnig settur gluggi í rýmið með steyptum ljóskassa á lóðinni nr. 66 í raðhúsinu á lóð nr. 66-82 við Tunguveg. Stærð stækkunar 20,7 ferm., 23,3 rúmm. Gjald kr. 7.300 + 1.700"
38268 (05.05.420.2),http://gamli.rvk.is/vefur/owa/edutils.parse_page?nafn=BN038268,Urðarbrunnur 124-126,parhús,Frestað. Lagfæra skráningu.,"Sótt er um leyfi fyrir lagnarými undir bílgeymslu innangengd frá þvottahúsi 1. hæðar í parhúsinu á lóð nr. 124-126 við Urðarbrunn. Bréf lóðarhafa fylgir erindinu dags. 5. mai 2008. Stærð fylgirýmis mhl. 01 er 42,0 ferm., 117,6 rúmm. mhl. 02 er 42,0 ferm. 117,6 rúmm. Samtals 84,0 ferm. 235,2 rúmm. Gjald kr. 7.300 + 17.169"
38246 (05.05.620.8),http://gamli.rvk.is/vefur/owa/edutils.parse_page?nafn=BN038246,Urðarbrunnur 22,nýbygging,Frestað. Vísað til athugasemda á umsóknarblaði.,"Sótt er um leyfi til að byggja staðsteypt einbýlishús á þremur pöllum með innbyggðri bílgeymslu, blandað sléttu og bogadregnu þakformi á lóðinni nr. 22 við Urðarbrunn. Stærð íbúðar 1. hæð 105,2 ferm. íbúð 2. hæð 103,5 ferm., bílgeymsla 32,8 ferm. Samtals 241,5 ferm., 811,6 rúmm. Gjald kr. 7.300 + 59.246"
38247 (05.05.460.7),http://gamli.rvk.is/vefur/owa/edutils.parse_page?nafn=BN038247,Urðarbrunnur 42,nýbygging,Frestað. Vísað til athugasemda á umsóknarblaði.,"Sótt er um leyfi til að byggja staðsteypt einbýlishús á tveimur hæðum með innbyggðri bílgeymslu, klætt báruðum álplötum og steinflísum á lóðinni nr. 42 við Urðarbrunn. Stærð:  1. hæð íbúð 138,3 ferm., 2. hæð íbúð 87,2 ferm., bílgeymsla 43,2 ferm. Samtals 268,7 ferm., 966 rúmm. Gjald kr. 7.300 + 70.518"
35296,http://gamli.rvk.is/vefur/owa/edutils.parse_page?nafn=BN035296,"Úlfarsfellsland, Þrastarlundur",nýtt frístundarhús,Samþykkt.  Samræmist ákvæðum laga nr. 73/1997. Frágangur á lóðamörkum verði gerður í samráði við lóðarhafa aðliggjandi lóða. Áskilin lokaúttekt byggingarfulltrúa. Sérstök athygli umsækjanda er vakin á því að á næstu árum getur komið til skerðingar á lóð frístundarhússins vegna legu á fyrihugaðri stofnbraut. Þessari ábendingu skal þinglýst fyrir útgáfu á byggingarleyfi.,"Sótt er um leyfi til þess að byggja nýtt frístundarhús úr timbri í stað þess sem brann þó aðeins austar á lóðinni Þrastarlundi í Úlfarsfellslandi. Útskrift úr gerðabók embættisafgreiðslufundar skipulagsstjóra frá 4. apríl 2008 fylgir erindinu. Stærð: Frístundarhús 1. hæð 70 ferm., 2. hæð 12,7 ferm., samtals 82,7 ferm., 260,2 rúmm. Gjald kr. 6.800 + 17.694"
38253,http://gamli.rvk.is/vefur/owa/edutils.parse_page?nafn=BN038253,Vegbrekkur 33,hesthús,Frestað. Vísað til athugasemda á umsóknarblaði.,"Sótt er um leyfi til að byggja hesthús úr staðsteypu á lóð nr. 33 við Vegbrekkur. Stærðir: 1. hæð 262,7 ferm., milliloft 171,7 ferm., Samtals 434,4 ferm., 1,347,3 rúmm. Gjald kr. 7.300 + 98.353"
38267 (01.13.450.7),http://gamli.rvk.is/vefur/owa/edutils.parse_page?nafn=BN038267,Vesturvallagata 4,viðbygging,Frestað. Vísað til athugasemda á umsóknarblaði. Málinu vísað til umsagnar skipulagsstjóra.,Sótt er um leyfi fyrir viðbyggingu á tveim hæðum úr steinsteypu og bárujárnsklæddri timburgrind með timburþaki sbr. fsp. BN036646 við núverandi hús á lóð nr. 4 við Vesturvallagötu. Meðfylgjandi er útskrift úr gerðabók afgreiðslufundar skipulagsstjóra frá 23.11.2007 Gjald kr. 7.300 + xxxx
24113 (01.24.312.7),http://gamli.rvk.is/vefur/owa/edutils.parse_page?nafn=BN024113,Vífilsgata 21,reyndarteikningar,Frestað. Vísað til fyrri athugasemda.,"Sótt er um leyfi til þess að setja útitröppur og inngangsdyr á norðurhlið kjallara, breyta innra fyrirkomulagi kjallara,  lækka jarðveg við suðurhlið húss og samþykki fyrir áður gerðri íbúð í kjallara hússins á lóðinni nr. 21 við Vífilsgötu. Skoðunarskýrsla byggingarfulltrúa dags. 18. júlí 2001 fylgir erindinu. Virðingargjörð dags. 21. nóvember 1936 fylgir erindinu. Bréf f.h. umsækjenda dags. 23. ágúst 2001 fylgir erindinu. Ný íbúðarskýrsla fylgir.  Gjald kr. 4.100 + 7.300"
38309 (04.93.000.4),http://gamli.rvk.is/vefur/owa/edutils.parse_page?nafn=BN038309,Ystasel 17,svalaskýli,Frestað. Vísað til athugasemda á umsóknarblaði. Málinu vísað til umsagnar skipulagsstjóra.,"Sótt er um leyfi til að byggja svalaskýli (gróðurskála, tvöfalt gler og einangraðar plötur) á svalir á norðausturhlið einbýlishúss á lóð nr. 17 við Ystasel. Stærðir: 12,2 ferm., 30,9 rúmm. Gjald kr. 7.300 + 2.255"
38164 (01.18.330.2),http://gamli.rvk.is/vefur/owa/edutils.parse_page?nafn=BN038164,Þingholtsstræti 25,"br. inni, fjölga gistirýmum",Var samþykkt 14. maí 2008. Samræmist ákvæðum laga nr. 73/1997. Áskilin lokaúttekt byggingarfulltrúa.  Áskilið samþykki heilbrigðiseftirlits.,Sótt er um leyfi til að breyta innra skipulagi til að fjölga gistirýmum í gistiskýlinu á lóðinni nr. 25 við Þingholtsstræti. Gjald kr. 7.300
38285 (04.79.140.1),http://gamli.rvk.is/vefur/owa/edutils.parse_page?nafn=BN038285,Þingvað 37-59,stækkun,Samþykkt.  Samræmist ákvæðum laga nr. 73/1997.,Sótt er um leyfi til að stækka sérnotahluta í inngarði úr 3 m frá húsi í 8 m við keðjuhús á lóð nr. 37-59 við Þingvað. Gjald kr. 7.300
38303 (04.11.210.1),http://gamli.rvk.is/vefur/owa/edutils.parse_page?nafn=BN038303,Þjóðhildarstígur 1,veitingastaður,Frestað. Vísað til athugasemda á umsóknarblaði.,"Sótt er um leyfi fyrir staðsteyptu atvinnuhúsnæði klæddu timburlistum með flötu þakformi, húsið er á einni hæð með millilofti að hluta auk skriðkjallara undir veitingastaðin KFC á lóðinni nr. 1 við Þjóðhildarstíg. Stærð: Kjallari F rými 312,1 ferm., 1. hæð  545,0 ferm., 3.026,9 rúmm. Gjald kr. 7.300 + 220.963"
38233 (01.24.101.9),http://gamli.rvk.is/vefur/owa/edutils.parse_page?nafn=BN038233,"3"">Þverholt 5",br. innnanhúss,Frestað. Vísað til athugasemda á umsóknarblaði.,Sótt er um leyfi til að breyta minnháttar gluggum vesturhliðar og innra skipulagi 1. hæðar og innrétta þar fyrir hárgreiðslustofu í einingu nr. 0101 í fjöleignahúsinu á lóð nr. 5 við Þverholt. Meðfylgandi er staðfesting burðarvirkishönnuðar á dags. teikn þann 15. mai 2007. Gjald kr. 7.300
34641 (01.13.640.7),http://gamli.rvk.is/vefur/owa/edutils.parse_page?nafn=BN034641,Öldugata 5,reyndarteikningar,Samþykkt.  Samræmist ákvæðum laga nr. 73/1997. Skilyrt er að eignaskiptayfirlýsingu vegna breytinga í húsinu sé þinglýst til þess að samþykktin öðlist gildi.,Sótt er um samþykki fyrir áður gerðum breytingum á innra skipulagi íbúðar 2. hæðar og rislofti fjölbýlishússins á lóð nr. 5 við Öldugötu. Gjald k.r 6.100
38307 (04.67.07-.-),http://gamli.rvk.is/vefur/owa/edutils.parse_page?nafn=BN038307,Austurberg 28-38,(fsp) nr. 34 - br. inni,"Frestað. Ekki er gerð nægjanleg grein fyrir erindinu svo hægt sé að taka afstöðu, t.d. hvað samþykki meðeigenda varðar.","Spurt er hvort taka megi gang í sameign á jarðhæð, þvottahús og geymslur og bæta við íbúðir á jarðhæð í fjölbýlishúsi á lóð nr. 34 við Austurberg."
38238 (01.71.011.1),http://gamli.rvk.is/vefur/owa/edutils.parse_page?nafn=BN038238,Barmahlíð 54,(fsp) girðing á bílskúr,"Samkvæmt umsögn skipulagsstjóra er tekið jákvætt undir fyrirspurnina enda liggi fyrir samþykki nágranna í Barmahlíð 52. Fyrir liggur bréf lögmanns eigenda Barmahlíðar 52. Þar kemur fram algjör andstaða við erindið. Í þvi ljósi er ekki unnta að samþykkja umsókn um byggingarleyfi, verði hún lögð fram. Er fyrirspyrjanda uppálagt að framvísa samþykki eigenda Barmahlíðar 52 innan 14 daga. Verði það ekki gert mun embætti byggingarfulltrúa halda áfram áður boðuðum aðgerðum.","Spurt er hvort leyfi fengist fyrir handriði á þaki bílgeymslu  ásamt tengingu inn á svalir 1. hæðar með brú og tröppum niður í garð í fjöleignahúsinu á lóð nr. 54 við Barmahlíð. Útskrift úr gerðabók embættisafgreiðslufundar skipulagsstjóra frá 16. maí 2008 fylgir erindinu ásamt bréfi Löggarðs ehf, dags. 19. maí 2008."
38279 (00.00.000.0 02),http://gamli.rvk.is/vefur/owa/edutils.parse_page?nafn=BN038279,Bústaðablettur 10,(fsp) endurbætur,Frestað. Málinu vísað til umsagnar skipulagsstjóra.,Spurt er hvort leyfi fengist til að endurnýja hús í samræmi við eldri uppdrætti á lóðinni nr. 10 við Bústaðablett.
38270 (04.76.540.3),http://gamli.rvk.is/vefur/owa/edutils.parse_page?nafn=BN038270,C-Tröð 3,hækkun á þaki,Frestað. Málinu vísað til umsagnar skipulagsstjóra.,Spurt er hvort leyfi fengist til að hækka þak á hesthúsum og bæta ofanábyggingu þar ofan á fyrir miðju þaksins samkv. meðfylgjandi skissu af hesthúsi nr. 3 við C-Tröð.
38085 (01.19.640.2),http://gamli.rvk.is/vefur/owa/edutils.parse_page?nafn=BN038085,Fjölnisvegur 14,(fsp) byggja svalir,Nei. Með vísan til umsagnar skipulagsstjóra.,Spurt er hvort leyfi fengist til að stækka svalir samkv. meðfylgjandi skissu af húsinu á lóð nr. 14 við Fjölnisveg Útskrift úr gerðabók embættisafgreiðslufundar skipulagsstjóra frá 9. maí 2008 fylgir erindinu ásamt umsögn skipulagsstjóra dags. 9. maí 2008.
38310 (05.05.630.3),http://gamli.rvk.is/vefur/owa/edutils.parse_page?nafn=BN038310,Gerðarbrunnur 36-38,(fsp) parhús,Frestað. Vantar betri upplýsingar samanber athugasemdir  á fyrirspurnarblaði.,Spurt er hvort leyft yrði að byggja parhús skv. meðfylgjandi uppdráttum af lóðinni nr. 36-38 við Gerðarbrunn.
38066 (01.54.310.9),http://gamli.rvk.is/vefur/owa/edutils.parse_page?nafn=BN038066,Hofsvallagata 61,(fsp) bílastæði,Nei. Með vísan til umsagnar skipulagsstjóra.,Spurt er hvort leyfi fengist fyrir sólpalli til að gera þrjú bílstæði á norðvesturhorn lóðarinnar með tilheyrandi tilfærslu á strætóskýli samkvæmt meðfylgjandi skissu af lóðinni nr. 61 við Hofsvallagötu. Útskrift úr gerðabók embættisafgreiðslufundar skipulagsstjóra frá 9. maí 2008 fylgir erindinu.
38239 (08.2-.-49.9),http://gamli.rvk.is/vefur/owa/edutils.parse_page?nafn=BN038239,Hólmsland Tungufell,(fsp) tímabundin staðsetning á gám,Samþykkt í eitt ár.,Spurt er hvort staðsetja megi geymslugám tímabundið á lóð sumarhúss við Hólmsland Tungufell landnúmer 214830.
38288 (01.36.101.7),http://gamli.rvk.is/vefur/owa/edutils.parse_page?nafn=BN038288,Hraunteigur 23,(fsp) br bílskúr í íbúð,Nei. Samræmist ekki deiliskipulagi eða ávæðum byggingarreglugerðar,Spurt er hvort breyta megi bílskúr í íbúð við íbúðarhús á lóð nr. 23 við Hraunteig.
38272 (01.15.242.3),http://gamli.rvk.is/vefur/owa/edutils.parse_page?nafn=BN038272,Hverfisgata 39,(fsp) opna veitingah. á 1. h,Frestað. Málinu vísað til umsagnar skipulagsstjóra.,Spurt er hvort innrétta og reka megi veitingasölu á jarðhæð húss á lóð nr. 39 við Hverfisgötu.
38094 (04.06.030.4),http://gamli.rvk.is/vefur/owa/edutils.parse_page?nafn=BN038094,Hyrjarhöfði 8,(fsp) viðbygging,Jákvætt. Enda láti fyrirspyrjandi vinna tillögu að breytingu að deiliskipulagi sem síðar verður auglýst.,Spurt er hvort leyfi fengist til byggja 2. hæða steinsteypta viðbyggingu samkv. meðfylgjandi skisssu af húsinu á lóð nr. 8 við Hyrjarhöfða. Útskrift úr gerðabók embættisafgreiðslufundar skipulagsstjóra frá 9. maí 2008 fylgir erindinu.
38311 (01.81.810.5),http://gamli.rvk.is/vefur/owa/edutils.parse_page?nafn=BN038311,Hæðargarður 26,(fsp) viðbygging,Nei.,Spurt er hvort byggja megi útbyggingu skv. samþykktu deiliskipulagi til suðurs við hús á lóð nr. 26 við Hæðargarð án þess að byggt sé við hús á lóð nr. 28 við sömu götu.
38298 (01.54.310.7),http://gamli.rvk.is/vefur/owa/edutils.parse_page?nafn=BN038298,Kvisthagi 9,(fsp) stækka svalir,Jákvætt. Að uppfylltum skilyrðum enda verði sótt um byggingarleyfi og svalir haldi formi og nái ekki að horni.,Spurt hvort stækka megi svalir á 1. og 2. hæð í íbúðarhúsi á lóð nr. 9 við Kvisthaga
38278 (01.18.340.9),http://gamli.rvk.is/vefur/owa/edutils.parse_page?nafn=BN038278,Laufásvegur 24,(fsp) byggja y. svalir,Frestað. Málinu vísað til umsagnar skipulagsstjóra.,Spurt er hvort byggja megi yfir svalir á íbúðarhúsi á lóð nr. 24 við Laufásveg.
38308 (02.87.560.1),http://gamli.rvk.is/vefur/owa/edutils.parse_page?nafn=BN038308,Logafold 13,(fsp) garðskáli,Frestað. Gera grein fyrir byggingarreit.,Spurt er hvort byggja megi garðskála við suðurhlið einbýlishúss á lóð nr. 13 við Logafold.
38291 (01.24.520.4),http://gamli.rvk.is/vefur/owa/edutils.parse_page?nafn=BN038291,Meðalholt 15,(fsp) bílastæði,Frestað. Málinu vísað til umsagnar skipulagsstjóra.,Spurt er hvort leyfi fengist til að saga vegg á lóðamörkum og koma fyrir tvennum bílastæðum á lóð hússins á nr. 15 við Meðalholt.
38294 (01.14.030.6),http://gamli.rvk.is/vefur/owa/edutils.parse_page?nafn=BN038294,Pósthússtræti 3,(fsp) 3-5 setja lyftu framan á hús.,Jákvætt. Að uppfylltum skilyrðum enda verði sótt um byggingarleyfi.,Spurt er hvort koma megi fyrir utanáliggjandi lyftu á milli kjallara og 1. hæðar og rífa núverandi timburskábraut í porti húss á lóð nr. 3-5 við Pósthússtræti.
38271 (01.13.621.3),http://gamli.rvk.is/vefur/owa/edutils.parse_page?nafn=BN038271,Ránargata 1,(fsp) setja nýja hurð,Jákvætt. Að uppfylltum skilyrðum enda verði sótt um byggingarleyfi sem grenndarkynnt verður.,Spurt er hvort setja megi garðhurð frá 1. hæð og svalir á 2. og 3. hæð í húsi á lóð nr. 1 við Ránargötu.
38256 (01.19.740.6),http://gamli.rvk.is/vefur/owa/edutils.parse_page?nafn=BN038256,Smáragata 10,(fsp) stækkun bílskúrs,Frestað. Málinu vísað til umsagnar skipulagsstjóra.,Spurt er hvort rífa megi bílskúr og byggja annan við einbýlishús á lóð nr. 10 við Smáragötu.
38289 (01.18.651.0),http://gamli.rvk.is/vefur/owa/edutils.parse_page?nafn=BN038289,Urðarstígur 11,(fsp) fjarl. millivegg ofl.,"Jákvætt., Að uppfylltum skilyrðum enda verði sótt um byggingarleyfi.",Spurt er hvort leyfi fengist fyrir minnháttar breytingum á innra skipulagi samkvæmt meðfylgandi skisssu af einbýlishúsinu á lóð nr. 11 við Urðarstíg.
