nr,url,heimilisfang,tegund,nidurstada,spurning
38611 (05.86.550.1),http://gamli.rvk.is/vefur/owa/edutils.parse_page?nafn=BN038611,Almannadalur 9-15,15 - hesthús,Frestað. Vísað til athugasemda á umsóknarblaði.,"Sótt er um leyfi að byggja steinsteypt hesthús, sem skiptist i fimm séreignarhluta, hver með kaffistofu á efri hæð á lóð nr. 15 við Almannadal. Stærðir: 1. hæð 368,4 ferm., 2. hæð 196,9 ferm., samtals 565,3 ferm., 1.855,3 rúmm. Gjöld kr. 7.300 + 135.437"
38630 (01.26.120.1),http://gamli.rvk.is/vefur/owa/edutils.parse_page?nafn=BN038630,Ármúli 3,Skilti,Frestað. Málinu vísað til umsagnar Umhverfis-og samgöngusviðs vegna staðsetningar á skilti á horni Hallarmúla og Ármúla.,"Sótt er um leyfi til að koma fyrir ID skilti á lóð  Ármúla  3 Skiltið verður á horni Ármúla og Hallarmúla. Einnig er sótt um að endurnýja skilti á húsinu. Stærðir ID  12 ferm. Önnur skilti 64,2 samtals á lóð 76,2 ferm.  Gjald kr 7.300"
38343 (04.73.110.1),http://gamli.rvk.is/vefur/owa/edutils.parse_page?nafn=BN038343,Árvað 3,7 kennslustofur og 3 tengigangar,Samþykkt.  Samræmist ákvæðum laga nr. 73/1997. Áskilin lokaúttekt byggingarfulltrúa.  Áskilið samþykki heilbrigðiseftirlits.,"Sótt er um leyfi til að reisa 7 færanlegar kennslustofur og 3 tengiganga við Árvað 3 Norðlingaholti. Málinu fylgir bréf Framkvæmda- og eignasviðs dags 22. maí 2008 vegna kennslustofu með fastanr. 226-3380, mhl. 09-0101. Stærðir. 623.0 ferm 2053,9 rúmm  Gjald kr. 7.300 + 149.934"
38537 (01.71.011.1),http://gamli.rvk.is/vefur/owa/edutils.parse_page?nafn=BN038537,Barmahlíð 54,"brú,þaksvalir",Synjað. Enn vantar samþykki lóðarhafa aðliggjandi lóðar Í Barmahlíð 52 en það er forsenda þess að samþykkja megi málið. Er vísað til fyrri bókana skipulags- og byggingarsviðs vegna þessa.,Sótt er um leyfi fyrir brú af svölum íbúðar 01-0101 yfir á þak bílskúrs og gerð þaksvala þar með stiga niður í garð við hús á lóð nr. 54 við Barmahlíð. Sbr. fyrirspurn BN038364 dags. 10.6.2008. Útskrift úr gerðabók embættisafgreiðslufundar skipulagsstjóra frá 4. júlí 2008 fylgir erindinu. Gjald kr. 7.300
38622 (01.19.310.1),http://gamli.rvk.is/vefur/owa/edutils.parse_page?nafn=BN038622,Barónsstígur 47,breytingar 2 hæð,Frestað. Vísað til athugasemda á umsóknarblaði.,Sótt er um leyfi fyrir innanhússbreytingum á 2. hæð í Heilsuverndarstöðinni á lóð nr. 47 við Barónsstíg. Gjald kr. 7.300
38105 (04.06.400.2),http://gamli.rvk.is/vefur/owa/edutils.parse_page?nafn=BN038105,Bíldshöfði 10,"br. 2.hæð - lyfta, stigahús",Frestað. Vísað til athugasemda á umsóknarblaði. Sérstök athygli er vakin á athugasemd skipulagsstjóra.,"Sótt er um leyfi til að byggja staðsteypta viðbyggingu til suðurs fyrir lyftu og stiga með tilheyrandi breytingu á innra skipulagi í atvinnuhúsnæðinu á lóð nr. 10 við Bíldshöfða. Stærð stækkunar 48,2 ferm., 190,6 rúmm. Gjald kr. 7.300 + 13.914"
38129 (04.06.200.2),http://gamli.rvk.is/vefur/owa/edutils.parse_page?nafn=BN038129,Bíldshöfði 9A,breytt skipulag,Samþykkt.  Samræmist ákvæðum laga nr. 73/1997. Frágangur á lóðamörkum verði gerður í samráði við lóðarhafa aðliggjandi lóða. Áskilin lokaúttekt byggingarfulltrúa.,Sótt er um leyfi til að breyta skipulagi 1-7 hæðar og flóttastiga breytt á 8. hæð atvinnuhúsnæðisins á lóð nr. 9 A við Bíldshöfða. Gjald kr. 7.300
38300 (01.16.233.8),http://gamli.rvk.is/vefur/owa/edutils.parse_page?nafn=BN038300,Brávallagata 26,svalir,Samþykkt.  Samræmist ákvæðum laga nr. 73/1997. Með vísan til samþykktar borgarráðs frá 1. september 1998 skal utanhúss- og lóðarfrágangi vera lokið eigi síðar en innan tveggja ára frá útgáfu byggingarleyfis að viðlögðum dagsektarákvæðum 57. gr. skipulags- og byggingarlaga nr. 73/1997.  Áskilin lokaúttekt byggingarfulltrúa. Skilyrt er að eignaskiptayfirlýsingu vegna breytinga í húsinu sé þinglýst fyrir útgáfu á byggingarleyfi.,"Sótt er um leyfi til að byggja svalir úr timbri við íbúð 0101 sbr. fyrirspurn BN037646 dags. 5. febrúar 2008 í húsi á lóð nr. 26 við Brávallagötu. Meðfylgjandi er samþykki meðeigenda dags. 11.5.2008 og bréf frá arkitekt dags. 26.5.2008, þar sem fram kemur að ekki er verið að fjalla um ósamþykkta íbúð í kjallara. Útskrift úr gerðabók embættisafgreislufundar skipulagsstjóra frá 11. júlí 2008 fylgir erindinu. Grenndarkynning stóð frá 12. júní til og með 10. júlí 2008. Engar athugasemdir bárust. Gjald kr. 7.300"
38557 (01.13.420.3),http://gamli.rvk.is/vefur/owa/edutils.parse_page?nafn=BN038557,Brekkustígur 7,reyndarteikningar,Samþykkt.  Samræmist ákvæðum laga nr. 73/1997. Þinglýsa skal samrunaskjali.,Sótt er um leyfi fyrir reyndarteikningum og skráningartöflu af íbúðarhúsinu á lóð nr. 7 við Brekkustíg. Gjald kr. 7.300
38484 (01.13.700.5),http://gamli.rvk.is/vefur/owa/edutils.parse_page?nafn=BN038484,Bræðraborgarstígur 21B,"viðbygging, breyting inni",Frestað. Vísað til athugasemda á umsóknarblaði.,"Sótt er um leyfi til að byggja yfir svalir á vesturgafli og gera herbergi þar á 2. hæð, bæta við svölum á 2. hæð á suðurhlið auk minni háttar breytinga á fyrirkomulagi innanhúss í tvílyfta einbýlishúsinu á steypta sökklinum frá 1916 á lóð nr. 21B við Bræðraborgarstíg. Stærðir: Eftir stækkun 221,7 ferm., 697,5 rúmm. Stækkun 65,8 rúmm. Gjald kr. 7.300 + 4.803"
38232 (01.13.440.5),http://gamli.rvk.is/vefur/owa/edutils.parse_page?nafn=BN038232,Bræðraborgarstígur 24A,"kvistur, svalir",Frestað. Vísað til athugasemda á umsóknarblaði. Málinu vísað til umsagnar skipulagsstjóra til ákvörðuna um grenndarkynningu vísað er til nýrra uppdrátta 001 - 002 dags. 29.04.08,"Sótt er um leyfi til að byggja kvist á suðausturþekju og byggja svalir á suðvesturgafl íbúðarhússins nr. 24A við Bræðraborgarstíg. Útskrift úr gerðabók embættisafgreiðslufundar skipulagsstjóra frá 30. maí 2008 ásamt umsögn skipulagsstjóra frá 15. maí 2008 fylgja erindinu. Sömuleiðis samþykki meðeiganda. Stækkun:  20,7 ferm., xx rúmm. Gjald kr. 7.300 + 7.300 + xx"
38619 (01.45.412.1),http://gamli.rvk.is/vefur/owa/edutils.parse_page?nafn=BN038619,Dugguvogur 21,ofanábygging,Frestað. Vísað til athugasemda á umsóknarblaði. Málinu vísað til umsagnar skipulagsstjóra.,"Sótt er um leyfi til að byggja rishæð, sbr. erindi nr. 186/73 samþykkt 30. maí 1973 og teikn. samþykkt  12. feb.1953, og gera tvær íbúðir og vinnustofur listamanna í húsi á lóð nr. 21 við Dugguvog. Stærðir fyrir stækkun 314,8 fermm., 883,2 rúmm. Stækkun: 352,7 ferm., 969,9 rúmm. Samtals eftir stækkun 667,5 fermm., 1.853,1 rúmm. Gjald kr. 7.300 + 70.803"
38523 (01.47.050.2),http://gamli.rvk.is/vefur/owa/edutils.parse_page?nafn=BN038523,Eikjuvogur 27,nýbygging,Frestað. Athugasemd Orkuveitu er óbreytt.,"Sótt er um leyfi til að byggja staðsteypt einbýlishús á tveimur hæðum með innbyggðri bílgeymslu á lóð nr. 27 við Eikjuvog. Samþykki nágranna fylgir með. Stærð:  1. hæð íbúð 155,3 ferm., bílgeymsla 55,2 ferm., 2. hæð íbúð 164,6 ferm. Samtals 375,1 ferm., 1330,3 rúmm. Gjald kr. 7.300 + 97.112"
38627 (01.75.120.1),http://gamli.rvk.is/vefur/owa/edutils.parse_page?nafn=BN038627,Flugvallarv. Keiluh.,fjölgun séreigna,Frestað. Vísað til athugasemda á umsóknarblaði.,Sótt er um leyfi til að fjölga séreignarhlutum í Keiluhöllinni við Flugvallarveg.  Gjald kr. 7.300
38631 (02.69.350.9),http://gamli.rvk.is/vefur/owa/edutils.parse_page?nafn=BN038631,Friggjarbrunnur 31-33,breytingar,Frestað. Vísað til athugasemda á umsóknarblaði.,"Sótt er um breytingar á nýsamþykktum teikningum sbr. erindi BN035708 dags. 25.9.2007 um að minnka svalir á 2. hæð, breyta gluggum lítillega, breyta lítillega innanhúss og steyptum veggjum í parhúsinu á lóð nr. 31-33 við Friggjarbrunn. Gjald kr. 7.300"
38314 (02.69.520.3),http://gamli.rvk.is/vefur/owa/edutils.parse_page?nafn=BN038314,Gefjunarbrunnur 7,einbýlishús,Samþykkt.  Samræmist ákvæðum laga nr. 73/1997. Frágangur á lóðamörkum verði gerður í samráði við lóðarhafa aðliggjandi lóða. Áskilin lokaúttekt byggingarfulltrúa.,"Sótt er um leyfi til að byggja tvílyft, staðsteypt einbýlishús með innbyggðri bílgeymslu á lóðinni nr. 7 við Gefjunarbrunn. Útskrift úr gerðabók embættisafgreiðslufundar skipulagsfulltrúa frá 13. og 20. júní 2008 fylgir erindinu. Erindi fylgir samþykki lóðarhafa Gefjunarbrunns 5 ódagsett Stærð:  1. hæð íbúð 109,7 ferm., bílgeymsla 26,4 ferm., 2. hæð íbúð 130,5 ferm. Samtals 266,6 ferm., 853,5 rúmm. Gjald kr. 7.300 + 7.300 + 62.306"
38633 (05.05.640.1),http://gamli.rvk.is/vefur/owa/edutils.parse_page?nafn=BN038633,Gerðarbrunnur 2-10,raðhús,Frestað. Vísað til athugasemda á umsóknarblaði.,"Sótt er um leyfi til að byggja tvö staðsteypt, tvílyft hús með flötu þaki og innbyggðum bílgeymslum, annað húsið parhús ( nr. 2 - 4), hitt húsið er raðhús með þremum íbúðum (nr. 6, 8, 10), á lóðinni nr. 2-10 við Gerðarbrunn. Stærðir: Íbúð nr.  2 xxx bílg. xxx samt. 227,9 ferm.  660,8 rúm Stærðir: Íbúð nr.  4 xxx bílg. xxx samt  240,1 ferm.  696,1 rúm Stærðir: Íbúð nr.  6 xxx bílg. xxx samt  240,1 ferm.  696,1 rúm Srærðir: Íbúð nr.  8 xxx bílg. xxx samt  234,5 ferm.  623,3 rúm Stærðir: Íbúð nr. 10xxx bílg. xxx samt  234,5 ferm.  623,3 rúm Samtals öll húsin 1177,1 ferm., 3299,6 rúm Gjald kr. 7300 + 240.871"
38432 (05.05.630.3),http://gamli.rvk.is/vefur/owa/edutils.parse_page?nafn=BN038432,Gerðarbrunnur 36-38,nýbygging,Samþykkt.  Samræmist ákvæðum laga nr. 73/1997. Frágangur á lóðamörkum verði gerður í samráði við lóðarhafa aðliggjandi lóða. Áskilin lokaúttekt byggingarfulltrúa.,"Sótt er um leyfi til að byggja parhús á tveimur hæðum með innbyggðum bílgeymslum á lóð nr. 36-38 við Gerðarbrunn. Hús nr. 36:  1. hæð íbúð 125,7 ferm., 2. hæð íbúð 83,5 ferm., bílgeymsla 33,7 ferm.  Samtals 242,9 ferm., 852,9 rúmm. Hús nr. 38:  Sömu stærðir. Gjald kr. 7.300 + 124.523."
38629 (01.51.530.4),http://gamli.rvk.is/vefur/owa/edutils.parse_page?nafn=BN038629,Granaskjól 54-58,"nr 58 sólstofa, stækkun",Frestað. Vísað til athugasemda á umsóknarblaði. Málinu vísað til umsagnar skipulagsstjóra.,Sótt er um leyfi til að byggja við húsið Granaskjól 58 sólstofu og stækka eldhús til norðurs.  Stærðir ? ferm: ? rúmm   Gjald kr. 7.300 + ??
38477 (01.46.110.2),http://gamli.rvk.is/vefur/owa/edutils.parse_page?nafn=BN038477,Grensásvegur 11,stækka kjallara,Synjað. Er ekki í samræmi við ákvæði deiliskipulags hvað stærð varðar samanber afgreiðslu embættisins frá 8. júlí 2008.,"Sótt er um leyfi til að stækka geymslurými á norðurhlið kjallarahæðar í húsi á lóð nr. 11 við Grensásveg. Útskrift úr gerðabók embættisafgreiðslufundar skipulagsstjóra frá 4. júlí 2008 fylgir erindinu ásamt umsögn skipulagsstjóra dags. 20. júní 2008. Stærðir: Stækkun 68,5 ferm., og 236,2 rúmm. Stærðir efitr stækkun: 6266,5 ferm., 24.892,3 rúmm. Gjald kr 7.300+17.243"
38620 (04.37.060.2),http://gamli.rvk.is/vefur/owa/edutils.parse_page?nafn=BN038620,Grundarás 2-18,nr 2. op á vesturhlið kjallara,Samþykkt.  Samræmist ákvæðum laga nr. 73/1997. Með vísan til samþykktar borgarráðs frá 1. september 1998 skal utanhúss- og lóðarfrágangi vera lokið eigi síðar en innan tveggja ára frá útgáfu byggingarleyfis að viðlögðum dagsektarákvæðum 57. gr. skipulags- og byggingarlaga nr. 73/1997.,Sótt er um að grafa frá og setja hurð og glugga  á kjallarahæð á vesturhlið raðhúss nr. 2 á lóð nr. 2-18 við Grundarás. Málinu fylgir samþykki meðlóðarhafa dags. 23. júní 2008. Gjald kr. 7.300
38588 (02.38.630.1),http://gamli.rvk.is/vefur/owa/edutils.parse_page?nafn=BN038588,Gullengi 21-27,27 - svalir lokun 0303,Samþykkt.  Samræmist ákvæðum laga nr. 73/1997. Áskilin lokaúttekt byggingarfulltrúa. Verkframkvæmd verði í samræmi við gr. 102 í byggingarreglugerða nr. 441/1998.,"Sótt er um leyfi fyrir svalaskýli á svalir íbúðar nr. 0303 á 3. hæð fjölbýlishúss á lóð nr. 27 við Gullengi. Meðfylgjandi er samþykki meðeigenda ásamt útskrift úr gerðabók embættisafgreiðslufundar skipulagsstjóra frá 11. júlí 2008 Stærð 6,8 ferm., 16,7 rúmm. Gjald kr. 7.300 + 1.219"
38558 (01.55.240.1),http://gamli.rvk.is/vefur/owa/edutils.parse_page?nafn=BN038558,Hjarðarhagi  2-6,endurnýja bráðabirgða inngang,Samþykkt.  Samræmist ákvæðum laga nr. 73/1997.,Sótt er um leyfi til að endurnýja bráðabirgðainngang á austurhlið byggingar B á lóð Háskóla Íslands nr. 2-6 við Hjarðarhaga. Meðfylgjandi er bréf arkitekts dags. 24.6.2008 og annað tölvubréf arkitekts dags. 3.7.2008 Gjald kr. 7.300
38614 (01.54.321.1),http://gamli.rvk.is/vefur/owa/edutils.parse_page?nafn=BN038614,Hjarðarhagi 45-47," nr. 45 loftræstiháfur,fella út hurð,snjóbræðsla",Samþykkt.  Samræmist ákvæðum laga nr. 73/1997. Áskilin lokaúttekt byggingarfulltrúa.  Áskilið samþykki heilbrigðiseftirlits.,"Sótt er um leyfi til að færa loftræsiháf frá pizzaofni, fella út hurð og hafa snjóbræðslu í vörumóttökurampi í húsi á lóð nr. 45 við Hjarðarhaga. Meðfylgjandi á teikningu er samþykki meðeigenda. Gjald kr. 7.300"
38604 (01.18.011.1),http://gamli.rvk.is/vefur/owa/edutils.parse_page?nafn=BN038604,Ingólfsstræti 20,"rífa bílskúr, byggja viðbyggingu með kjallar hæð og risi. einnig er sótt um nýja kvisti á rishæð",Frestað. Vísað til athugasemda á umsóknarblaði. Málinu vísað til umsagnar skipulagsstjóra.,"Sótt er um leyfi til að rífa bílskúr og byggja í staðinn viðbyggingu með kjallara, hæð og risi og setja nýja kvisti á rishæðina á einbýlishúsi á lóð nr. 20 við Ingólfsstræti. Núv. hús 167,4 ferm., 481,2 rúmm., stækkun 59,9 ferm., 159,9 rúmm., samtals eftir stækkun 227,3 ferm., 641,1 rúmm. Gjald kr. 7.300 + 11.673"
37872 (04.32.340.1),http://gamli.rvk.is/vefur/owa/edutils.parse_page?nafn=BN037872,Krókháls 5-5G,reyndarteikningar,Frestað. Vísað til athugasemda eldvarnaeftirlits.,Sótt er um leyfi fyrir áður gerðu innra fyrirkomulagi þriðju hæðar þar sem hæðinni er skipt í tvær einingar einnig að  koma fyrir þakgluggum á atvinnuhúsnæðinu á lóðinni nr. 5 við Krókháls. Gjald kr. 7.300
38361 (01.44.130.8),http://gamli.rvk.is/vefur/owa/edutils.parse_page?nafn=BN038361,Langholtsvegur 168,setja svalir,Samþykkt.  Samræmist ákvæðum laga nr. 73/1997. Með vísan til samþykktar borgarráðs frá 1. september 1998 skal utanhúss- og lóðarfrágangi vera lokið eigi síðar en innan tveggja ára frá útgáfu byggingarleyfis að viðlögðum dagsektarákvæðum 57. gr. skipulags- og byggingarlaga nr. 73/1997.  Áskilin lokaúttekt byggingarfulltrúa. Skilyrt er að eignaskiptayfirlýsingu vegna breytinga í húsinu sé þinglýst fyrir útgáfu á byggingarleyfi.,Sótt er um leyfi til að setja svalir á tvíbýlishús á lóð nr. 168 við Langholtsveg. Útskrift úr gerðabók embættisafgreiðslufundar skipulagsstjóra frá 11. júlí 2008 fylgir erindinu. Grenndarkynning stóð frá 12. júní til og með 10. júlí 2008. Engar athugasemdir bárust. Gjald kr. 7.300
38593 (01.41.002.0),http://gamli.rvk.is/vefur/owa/edutils.parse_page?nafn=BN038593,Langholtsvegur 87,"kvistir, endurbygging hæðar",Samþykkt.  Samræmist ákvæðum laga nr. 73/1997. Með vísan til samþykktar borgarráðs frá 1. september 1998 skal utanhúss- og lóðarfrágangi vera lokið eigi síðar en innan tveggja ára frá útgáfu byggingarleyfis að viðlögðum dagsektarákvæðum 57. gr. skipulags- og byggingarlaga nr. 73/1997.  Áskilin lokaúttekt byggingarfulltrúa. Skilyrt er að eignaskiptayfirlýsingu vegna breytinga í húsinu sé þinglýst fyrir útgáfu á byggingarleyfi.,"Sótt er um leyfi til að endurbyggja og stækka þakhæð og byggja nýja kvisti á fjölbýlishúsið á lóð nr. 87 við Langholtsveg. Útskrift úr gerðabók embættisafgreiðslufundar skipulagsstjóra frá 11. júlí 2008 fylgir erindinu. Stækkun:  5,8 ferm., 51,4 rúmm. Gjald kr. 7.300 + 3.752"
38536 (01.36.420.5),http://gamli.rvk.is/vefur/owa/edutils.parse_page?nafn=BN038536,Laugateigur 12,íbúð kjallara,Frestað. Vísað til athugasemda á umsóknarblaði.,Sótt er um samþykkt fyrir fyrir íbúð 0001 í kjallara húss á lóð nr. 12 við Laugateig. Íbúðarskoðun dags. 13.maí 2008 og þinglýst afsöl dags. 20. júlí 1966 og 17. febrúar 1987 fylgja erindinu. Gjald kr. 7.300
38617 (01.24.100.3),http://gamli.rvk.is/vefur/owa/edutils.parse_page?nafn=BN038617,Laugavegur 130,endurnýjun á byggingarleyfi dags. 03.04.2007,Samþykkt.  Samræmist ákvæðum laga nr. 73/1997. Með vísan til samþykktar borgarráðs frá 1. september 1998 skal utanhúss- og lóðarfrágangi vera lokið eigi síðar en innan tveggja ára frá útgáfu byggingarleyfis að viðlögðum dagsektarákvæðum 57. gr. skipulags- og byggingarlaga nr. 73/1997.   Áskilin lokaúttekt byggingarfulltrúa.,"Sótt erum endurnýjun á byggingaleyfi  á viðbyggingu fyrir Laugaveg 130 áður samþykkt 03.04.07. Stækkun: 1. hæð 27,8 ferm., 80,3 rúmm., 3. hæð 71,2 ferm., 201,7 rúmm., ris 47,5  rúmm. Samtals. 99.0 ferm., 349,5 ferm.       Gjald kr. 7.300 + 25.513"
38621 (01.25.110.2),http://gamli.rvk.is/vefur/owa/edutils.parse_page?nafn=BN038621,Laugavegur 178,bílageymsla,Frestað. Vísað til athugasemda á umsóknarblaði. Málinu vísað til umsagnar skipulagsstjóra.,"Sótt er um leyfi til að byggja bílageymslu neðanjarðar á lóðinni Laugavegur 178. Bílastæði inni 34 úti 115 samtals bílastæði á lóð 149. Meðfylgandi er samkomulag eigenda dags. 27. júní 2008. Stærðir. 794,2 ferm; 2.382,6 rúmm.  Gjald kr. 7.300 + 173.929"
38439 (01.17.402.3),http://gamli.rvk.is/vefur/owa/edutils.parse_page?nafn=BN038439,Laugavegur 73,breyting inni,Frestað. Vísað til athugasemda á umsóknarblaði. Vegna óska um útiveitingar er þeim þætti málsins vísað til umsagnar skipulagsstjóra.,Sótt er um leyfi til að stækka veitingastað í kjallara húsins Laugavegi 73 þar sem áður var óráðstafað rými. Einnig er sótt um heimild til útiveitinga í porti framan við inngang.  Gjald kr 7.300
38487 (01.26.130.3),http://gamli.rvk.is/vefur/owa/edutils.parse_page?nafn=BN038487,Lágmúli 9,breyting á innra fyrirkomulag,Samþykkt.  Samræmist ákvæðum laga nr. 73/1997. Áskilin lokaúttekt byggingarfulltrúa.,Sótt er um leyfi til breytinga á innra fyrirkomulagi 2. til 6. hæðar atvinnuhússins á lóð nr. 9 við Lágmúla. Erindi fylgir brunahönnun frá Línuhönnun dags. 10. mars 2008. Gjald kr. 7.300
38548 (01.87.430.1),http://gamli.rvk.is/vefur/owa/edutils.parse_page?nafn=BN038548,Láland 18-24,"klæðning,stækkun, innra skipulag",Samþykkt.  Samræmist ákvæðum laga nr. 73/1997. Með vísan til samþykktar borgarráðs frá 1. september 1998 skal utanhúss- og lóðarfrágangi vera lokið eigi síðar en innan tveggja ára frá útgáfu byggingarleyfis að viðlögðum dagsektarákvæðum 57. gr. skipulags- og byggingarlaga nr. 73/1997.  Áskilin lokaúttekt byggingarfulltrúa.,"Sótt er um leyfi til að byggja viðbyggingu, breyta innra skipulagi og klæða með málmklæðningu einbýlishúsið nr. 24 á lóð nr. 18-24 við Láland. Meðfylgjandi er samþykki meðlóðarhafa dags. 7. júlí 2008. Stækkun 29,4 ferm., 86,7 rúmm. Gjald kr. 7.300 + 6.329"
38623 (01.70.220.6),http://gamli.rvk.is/vefur/owa/edutils.parse_page?nafn=BN038623,Mávahlíð 12,samþykki á íbúð í risi,"Synjað. Íbúðir uppfyllir ekki ákvæðu um áður gerðar íbúðir, m.a. hvað verðar lofthæðir, gluggastærðir og gönguhæð í stiga. Að auki vantar svalir.","Sótt er um að fá samþykkta áður gerða íbúð í rishæð og jafnframt er erindi BN013153 dags. 24.9.1996 dregið til baka í fjölbýlishúsi á lóð nr. 12 við Mávahlíð. Meðfylgjandi er vottorð frá Þjóðskrá um að í íbúðinni hefur verið búið a.m.k. frá 1952. Sömuleiðis samþykki meðeigenda frá húsfundi, þar sem málið var kynnt. Íbúðarskoðun hefur farið fram dags. 8. júlí 2008. Gjald kr. 7.300"
38628 (04.23.260.1),http://gamli.rvk.is/vefur/owa/edutils.parse_page?nafn=BN038628,>Nethylur 1,"gluggar/hurð, fella niður milliloft",Frestað. Vísað til athugasemda á umsóknarblaði. Málinu vísað til umsagnar skifstofustjóra Framkvæmdasviðs með vísan til úthlutunarskilmála lóðarinnar þar sem byggingarréttur hefur aðeins verið nýttur að hluta.,Sótt er um að setja tvo glugga og eina hurð á suðurhlið og fella niður milliloft að hluta í atvinnuhúsi á lóð nr.1 við Nethyl.  Gjald kr. 7300
38644 (01.18.220.2),http://gamli.rvk.is/vefur/owa/edutils.parse_page?nafn=BN038644,Njálsgata 4,veggskreyting,Samþykkt.  Samræmist ákvæðum laga nr. 73/1997. Kjósi eigendar að mála yfir myndverkið þarf ekki að sækja um byggingarleyfi þess vegna.,Húsfélagið Njálsgötu 4 sækir um leyfi fyrir áður gerðri veggskreytingu á gafli hússins nr. 4 við Njálsgötu gerðri af Söru Riel í maí 2007. Málinu fylgir ljósmynd af veggskreytingunni og bréf húsfélagsins.
38104 (01.41.300.2),http://gamli.rvk.is/vefur/owa/edutils.parse_page?nafn=BN038104,Njörvasund 14,klæðning - svalir,Samþykkt.  Samræmist ákvæðum laga nr. 73/1997. Með vísan til samþykktar borgarráðs frá 1. september 1998 skal utanhúss- og lóðarfrágangi vera lokið eigi síðar en innan tveggja ára frá útgáfu byggingarleyfis að viðlögðum dagsektarákvæðum 57. gr. skipulags- og byggingarlaga nr. 73/1997.  Áskilin lokaúttekt byggingarfulltrúa. Skilyrt er að eignaskiptayfirlýsingu vegna breytinga í húsinu sé þinglýst fyrir útgáfu á byggingarleyfi.,"Sótt er um leyfi til að klæða með báruðum málmplötum og byggja svalir úr stáli við 2. hæð tvíbýlishússins á lóðinni nr. 14 við Njörvasund. Útskrift úr gerðabók embættisafgreiðslufundar skipulagsstjóra frá 16. maí 2008 fylgir erindinu, erindið var grenndarkynnt, engar athugasemdir bárust. Gjald kr. 7.300 + 7.300"
38554 (01.13.010.5),http://gamli.rvk.is/vefur/owa/edutils.parse_page?nafn=BN038554,Seljavegur 2,sjúkraþjálfunarstöð,Samþykkt.  Samræmist ákvæðum laga nr. 73/1997. Áskilin lokaúttekt byggingarfulltrúa.  Áskilið samþykki heilbrigðiseftirlits.,Sótt er um leyfi til að innrétta sjúkraþjálfunarmiðstöð á 3. hæð í matshluta 02 í húsi á lóð nr. 2 við Seljaveg. Gjald kr. 7.300
38393 (01.29.230.1),http://gamli.rvk.is/vefur/owa/edutils.parse_page?nafn=BN038393,Síðumúli 10,viðbygging,Frestað. Vísað til athugasemda á umsóknarblaði.,"Sótt er um leyfi til að stækka að grunnfleti, bæta inn millilofti og 3. hæðinni að hluta, allt úr steinsteypu sbr. fyrirspurn BN037587 dags. 18.3.2008 og svar skipulagsstjóra dags. 17.3. varðandi atvinnuhús á lóð nr. 10 við Síðumúla Meðfylgjandi er bréf burðarvirkjahönnuðar dags. 27.5.2008, ásamt útskrift úr gerðabók embættisafgreiðslufundar skipulagsstjóra frá 11. júlí 2008. Grenndarkynning stóð frá 12. júní til og með 10. júlí 2008. Engar athugasemdir bárust. Stærðir: Fyrir stækkun, 478,5 ferm., 1.989,9 rúmm. eftir stækkun, 966,6 ferm., 3.270,6 rúmm. Stækkun, 488,1 ferm., 1.280,7 rúmm. Gjald kr. 7.300 + 93.491"
38075 (01.46.120.1),http://gamli.rvk.is/vefur/owa/edutils.parse_page?nafn=BN038075,Skeifan 2-6,nr 6 breyting á útskotsglugga,Frestað. Vísað til athugasemda SHS á umsóknarblaði.,Sótt er um leyfi til að breyta útskotsglugga á götuhlið og minnháttar breyting á innra skipulagi 2. hæðar miðað við nýlega samþykkt erindi nr. BN34525 á lóð nr. 6 við Skeifuna. Málinu fylgir endurskoðuð brunahönnun dags. 30. júní 2008. Gjald kr. 7.300
38151 (01.18.140.5),http://gamli.rvk.is/vefur/owa/edutils.parse_page?nafn=BN038151,Skólavörðustígur 42,kjallari,Frestað. Vísað til athugasemda á umsóknarblaði.,"Sótt er um leyfi til að byggja gluggalausan kjallara undir atvinnuhúsið á lóðinni nr. 42 við Skólavörðustíg. Útskrift úr gerðabók embættisafgreiðslufundar skipulagsstjóra frá 23. maí 2008 fylgir erindinu. Stækkun:  158,1 ferm., 382,2 rúmm. Gjald kr. 7.300 + 7.300 + 27.901"
38638 (01.19.740.4),http://gamli.rvk.is/vefur/owa/edutils.parse_page?nafn=BN038638,Smáragata 8A,endurn. á byggl. frá 13/6 2006 - BN033857 og BN002145,Samþykkt.  Samræmist ákvæðum laga nr. 73/1997.,"Sótt er um endurnýjun byggingaleyfis sbr. erindi nr. BN033857 dags. 13.6.2006 fyrir svalaskýli á húsi á lóð nr. 8 A við Smáragötu. Stærð: Svalaskýli 8,1 ferm., 20,3 rúmm. Gjald kr. 7.300+ 14.819."
38530 (02.52.610.6),http://gamli.rvk.is/vefur/owa/edutils.parse_page?nafn=BN038530,Smárarimi 78,viðbygging við íb.hús og bílageymslu,Samþykkt.  Samræmist ákvæðum laga nr. 73/1997. Með vísan til samþykktar borgarráðs frá 1. september 1998 skal utanhúss- og lóðarfrágangi vera lokið eigi síðar en innan tveggja ára frá útgáfu byggingarleyfis að viðlögðum dagsektarákvæðum 57. gr. skipulags- og byggingarlaga nr. 73/1997.  Frágangur á lóðamörkum verði gerður í samráði við lóðarhafa aðliggjandi lóða.  Áskilin lokaúttekt byggingarfulltrúa.,"Sótt er um leyfi til að breyta innra skipulagi og til að byggja einnar hæðar stækkun úr timbri og steinsteypu við einbýlishúsið og bílgeymsluna á lóð nr. 78 við Smárarima. Stækkun íbúðar 77,7 ferm. og  302,2 rúmm. Stækkun bílgeymslu 15,6 ferm. 87,7 rúmm. Gjald kr. 7.300 + 27.236"
38607 (04.07.310.1),http://gamli.rvk.is/vefur/owa/edutils.parse_page?nafn=BN038607,Stórhöfði 34-40,stöðuleyfi f. tjaldskemmu,Frestað. Gera skal grein fyrir tímalengd staðsetningar. Málinu vísað til umsagnar skipulagsstjóra.,"Sótt er um tímabundið stöðuleyfi fyrir tjaldskemmu á lóðinni Stórhöfði 34-40. Skemman er klædd grænum PVC dúk á stálgrind. Stærðir: 675 ferm 4234,5 rúm Gjald kr. 7.300+ 309.118"
38543,http://gamli.rvk.is/vefur/owa/edutils.parse_page?nafn=BN038543,Suðurgata Háskóli Ísl,reyndarteikning,Frestað. Vísað til athugasemda á umsóknarblaði.,"Sótt er um leyfi fyrir reyndarteikningum með lítilsháttar breytingum innanhúss í húsi fyrir skrifstofur Þjóðminjasafnsins, sem byggt var yfir Atvinnudeild Háskólans á lóð nr. 43 við Suðurgötu. Gjald kr. 7.300"
38577 (01.26.110.1),http://gamli.rvk.is/vefur/owa/edutils.parse_page?nafn=BN038577,Suðurlandsbraut 2,stækka afgr.+ yfirbyggja verönd,Samþykkt.  Samræmist ákvæðum laga nr. 73/1997. Frágangur á lóðamörkum verði gerður í samráði við lóðarhafa aðliggjandi lóða. Áskilin lokaúttekt byggingarfulltrúa.  Áskilið samþykki heilbrigðiseftirlits.,"Sótt er um leyfi fyrir stækkun afgreiðslu í tækjasal á 2. hæð til suðurs og um leyfi til að byggja yfir verönd í suðausturhluta 1. hæðar Hótel Hilton  á lóð nr. 2 við Suðurlandsbraut. Útskrift úr gerðabók embættisafgreiðslufundar skipulagsstjóra frá 11. júlí 2008 fylgir erindinu. Meðfylgjandi er einnig bréf brunnahönnuðar dags. 8.7.2008. Stækkun: 282 ferm., 1.234 rúmm. Stærðir samtals eftir stækkun 16.356,9 ferm., 56.931,7 rúmm. Gjald kr. 7.300 + 90.082"
38599 (04.05.450.1),http://gamli.rvk.is/vefur/owa/edutils.parse_page?nafn=BN038599,Sævarhöfði 2-2A,reyndarteikning,Frestað. Vísað til athugasemda á umsóknarblaði.,Sótt er um leyfi fyrir reyndarteikningum sem felast í breytingu á verkstæði og móttöku fyrir verkstæði í verkstæðishúsi á lóð nr. 2 A við Sævarhöfða. Gjald kr. 7.300
38613 (01.13.210.4),http://gamli.rvk.is/vefur/owa/edutils.parse_page?nafn=BN038613,Tryggvagata 16,útisalerni Laugaveg 50-52 og Tryggvagötu,Frestað. Málinu vísað til umsagnar skipulagsstjóra.,"Sótt er um leyfi fyrir útisalerni  á Laugarvegi, framan við nr. 50 og 52 og á  horni Tryggvagötu og Naustins. Ljósmyndir fylgja með  Gjald kr. 7.300"
38624 (01.13.730.8),http://gamli.rvk.is/vefur/owa/edutils.parse_page?nafn=BN038624,Túngata 34,staðsetning gáms,Frestað. Leita skal umsagnar gatna- og eignaumsýslu.,Sótt er um staðsetnings 20 feta gáms á timabilinu 18.07.08 til 31.08.08 á götu og gangstétt fyrir framan hús á lóð nr. 34 við Túngötu. Gjald kr. 7300
36854 (58.66.502),http://gamli.rvk.is/vefur/owa/edutils.parse_page?nafn=BN036854,Vegbrekkur 19A,smádreifistöð,Samþykkt.  Samræmist ákvæðum laga nr. 73/1997. Frágangur á lóðamörkum verði gerður í samráði við lóðarhafa aðliggjandi lóða. Áskilin lokaúttekt byggingarfulltrúa.  Áskilið samþykki heilbrigðiseftirlits.,"Sótt er um leyfi til að byggja smádreifistöð Orkuveitu Reykjavíkur, úr steinsteypu, á lóð nr. 19A við Vegbrekkur.  Stærðir: 5 ferm., 13,2 rúmm. Gjald kr. 7.300 + 964"
37632 (01.13.011.3),http://gamli.rvk.is/vefur/owa/edutils.parse_page?nafn=BN037632,Vesturgata 64,Íbúðarhús fyrir aldraða,Frestað. Vísað til athugasemda á umsóknarblaði.,"Sótt er um leyfi til að byggja sjö hæða fjölbýlishús með bílgeymslu, 176 íbúðir fyrir eldri borgara og þjónusturými, staðsteypt, einangrað að utan og klætt náttúrusteini í dempuðum litum á lóð nr. 64 við Vesturgötu. Erindinu fylgir greinargerð dags. 29. febrúar 2008, minnisblað um hljóðhönnun dags. 7. apríl 2008 og þinglýst kvöð varðandi skipulagsmál á Héðinsreit dags. 23. nóvember 2007. Stærðir:  1. hæð 6495,2 ferm., 2. hæð 2341,9 ferm 3. hæð 3775,2 ferm., 4. hæð 3826,7 ferm., 5. hæð 4047,9 ferm., 6. hæð 4047,9 ferm., 7. hæð 4047,9 ferm. Samtals 31673,2 ferm. og 104167,8 rúmm.  Gjald kr. 7.300 + 7.604.249"
38581 (01.76.850.1),http://gamli.rvk.is/vefur/owa/edutils.parse_page?nafn=BN038581,Vesturhlíð 3,flytja kennslustofur f ármúla að Vesturhlíð,Samþykkt.  Samræmist ákvæðum laga nr. 73/1997. Frágangur á lóðamörkum verði gerður í samráði við lóðarhafa aðliggjandi lóða. Áskilin lokaúttekt byggingarfulltrúa. Áskilið samþykki heilbrigðiseftirlits.,"Sótt er um leyfi til að flytja færanlega kennslustofu af lóð Ármúlaskóla og koma fyrir á lóð nr. 3 við Vesturhlíð. Meðfylgjandi er bréf frá verkfræðingi Framkvæmda- og eignasviðs dags. 14.7.2008. Stærðir 62, 21 ferm,. og 202,8 rúmm. Gjald kr. 7.300+14.804."
38645,http://gamli.rvk.is/vefur/owa/edutils.parse_page?nafn=BN038645,Grandavegur - Tölusetningar.,,Samþykkt.  Samræmist ákvæðum laga nr. 73/1997.,"Byggingarfulltrúi leggur til að lóð hjúkrunaheimilis með staðgreini nr. 1.520.401, verði tölusett sem Grandavegur 42, stærð lóðarinnar er 3230 ferm. Jafnframt að lóð fyrir fjölbýlishús með staðgreini 1.520.402 verði tölusett sem Grandavegur 44, lóðarstærð 5229 ferm"
38641 (01.22.320.2),http://gamli.rvk.is/vefur/owa/edutils.parse_page?nafn=BN038641,Hátún 2B,leiðrétting,Samþykkt.  Samræmist ákvæðum laga nr. 73/1997.,"Á afgreiðslufundi byggingarfulltrúa þann 1. júlí sl. var samþykkt breyting á húsinu Hátún 2B, þar var bókað að skilyrt er að eignaskiptayfirlýsingu vegna breytinga í húsinu sé þinglýst til þess að samþykktin öðlist gildi, en á að vera þinglýsa skal samrunaskjali."
38636 (01.40.810.1),http://gamli.rvk.is/vefur/owa/edutils.parse_page?nafn=BN038636,Holtavegur 8-10,leiðrétting,Samþykkt.  Samræmist ákvæðum laga nr. 73/1997.,"Á afgreiðslufundi byggingarfulltrúa þann 8. júli sl., var samþykkt breyting á mæliblaði á Holtagörðum 8-10, á að vera Holtavegur 8-10."
38646,http://gamli.rvk.is/vefur/owa/edutils.parse_page?nafn=BN038646,Laugarnestangi 71,mæliblað,Samþykkt.  Samræmist ákvæðum laga nr. 73/1997.,"Sótt er um afmörkun nýrra lóðar á Laugarnestanga br. mæliblaði 1.314.2, útgefið 8. júlí 2008. Staðgreinir 1.314.202, landnúmer 216765, lóðarstærð 600 ferm. Lóðin verður tölusett sem Laugarnestangi 71. Ekki er um fleiri breytingar á mæliblaði að ræða."
38651 (01.19.022.9),http://gamli.rvk.is/vefur/owa/edutils.parse_page?nafn=BN038651,Frakkastígur 19,"(fsp) stækka mhl 201, setja þakgl",Nei. Samræmist ekki deiliskipulagi að öðru leyti sjá athugasemdir á fyrirspurnarblaði.,Spurt er hvort byggja megi ofan á útbyggingu til norðurs á húsi nr. 19 við Frakkastíg.
38606 (01.18.211.6),http://gamli.rvk.is/vefur/owa/edutils.parse_page?nafn=BN038606,Grettisgata 20C,(fsp) pallur,Jákvætt. Að uppfylltum skilyrðum enda verði sótt um byggingarleyfi og þá tekin ávörðun um hvort grenndarkynna þarf málið.,Spurt er hvort byggja megi pall ofan á útbyggingu og stiga af honum niður í garð á einbýlishúsi á lóð nr. 20 B/C við Grettisgötu.
38610 (01.80.630.7),http://gamli.rvk.is/vefur/owa/edutils.parse_page?nafn=BN038610,Hlyngerði 7,(fsp) íbúð 0101,Nei. Ekki sem sjálfstæð íbúð heldur sem hluti aðalíbúðar sbr. skipulagsskilmála hverfisins samþykktum í borgarráði 27. júlí 1972.,Spurt er hvort aukaíbúðin á 1. hæð í Hlyngerði 7 hafi hlotið samþykki byggingaryfirvalda.
38605 (04.11.350.3),http://gamli.rvk.is/vefur/owa/edutils.parse_page?nafn=BN038605,Lofnabrunnur 1-7,hækka grunnkóða,Frestað. Vísað til athugasemda á umsóknarblaði.,"Spurt er hvort leyfi fáist til að hækka grunnkóða úr H=60,9 í H=70,9 á lóð nr. 1 til 7 við Lofnarbrunn"
38632 (01.71.020.7),http://gamli.rvk.is/vefur/owa/edutils.parse_page?nafn=BN038632,Mávahlíð 38,(fsp) svalir,"Jákvætt. Að uppfylltum skilyrðum enda verði sótt um byggingarleyfi sem samþykki meðeigenda þarf að fylgja, berst byggingarleyfisumsókn verður hún grenndarkynnt.",Spurt er hvort byggja megi svalir á rishæð út á útbyggingu á neðri hæðum og á fjölbýlishúsi á lóð nr. 38 og 40 við Mávahlíð.
38550 (01.14.051.5),http://gamli.rvk.is/vefur/owa/edutils.parse_page?nafn=BN038550,Pósthússtræti 9,(fsp) nýir gluggar á framhlið,"Jákvætt. Að uppfylltum skilyrðum enda verði sótt um byggingarleyfi verði það gert skal fylgja umsókn ítarleg byggingarlýsing er taki til efnisvals, litasamsetninga og glergerðar.",Spurt er hvort leyft yrði að breyta gluggasetningu á jarðhæð hótelsins á lóð nr. 9 við Pósthússtræti. Útskrift úr gerðabók embættisafgreiðslufundar skipulagsstjóra frá 4. júlí 2008 og 11. júlí fylgja erindinu.
38603 (01.67.310.6),http://gamli.rvk.is/vefur/owa/edutils.parse_page?nafn=BN038603,Skeljanes 4,(fsp) geymsluskúr og ofl.,Frestað. Málinu vísað til umsagnar lögfræði- og stjórnsýslu.,Spurt er um deiliskipulag og skúrabyggingar sbr. meðfylgjandi greinargerð varðandi hús á lóð 4 við Skeljanes.
38579 (01.36.100.6),http://gamli.rvk.is/vefur/owa/edutils.parse_page?nafn=BN038579,Sundlaugavegur 22,(fsp) endurbyggja bílskúr,Nei. Samræmist ekki deiliskipulagi eða byggðarmynstri samanber umsögn skipulagsstjóra frá 10. júlí sl.,Sótt er um leyfi til að endurbyggja gamlan bílskúr og bæta við hann geymslu og tengja bílskúrinn við 1. hæð þannig að hann nýtist sem stúdíó við hús á lóð nr. 22 við Sundlaugaveg. Útskrift úr gerðabók embættisafgreiðslufundar skipulagsstjóra frá 11. júlí 2008 fylgir erindinu ásamt umsögn skipulagsstjóra frá 10. júlí 2008.
38625 (01.45.300.2),http://gamli.rvk.is/vefur/owa/edutils.parse_page?nafn=BN038625,Súðarvogur 7,(fsp) breyta atvhúsnæði í íbúðir,Nei. Með vísan til athugasemda á fyrirspurnarblaði.,Spurt er hvort breyta megi hluta atvinnuhúsnæði í ibúðir með vinnuaðstöðu á lóð nr. 7 við Súðarvog.
38600 (01.14.000.2),http://gamli.rvk.is/vefur/owa/edutils.parse_page?nafn=BN038600,Vesturgata 2,(fsp) Vesturgata/Tryggvagata 2/20 - stækka neyðarútgang,Jákvætt. Að uppfylltum skilyrðum enda verði sótt um byggingarleyfi.,Spurt er hvort stækka megi neyðarútgang og svalir á suðurhlið húss á lóð nr. 2 við Vesturgötu.
38626 (04.13.580.5),http://gamli.rvk.is/vefur/owa/edutils.parse_page?nafn=BN038626,Þorláksgeisli 122,(fsp) stoðveggir og veggir,Frestað. Gera verður nánari  grein fyrir breytingum og þörf þeirra til þess að unnt sé að taka afstöðu til erindisins.,Spurt er hvort steypa megi nýja stoðveggi innan lóðar og á lóðamörkum  við hús á lóð nr. 122 við Þorláksgeisla.
