nr,url,heimilisfang,tegund,nidurstada,spurning
54836 (01.13.650.4),http://gamli.rvk.is/vefur/owa/edutils.parse_page?nafn=BN054836,Aðalstræti 10,Dyraop í tengigangi,Frestað. Vísað til athugasemda.,Sótt er um leyfi til að gera dyraop milli Aðalstrætis 10 og 16 í gangi neðanjarðar á lóð nr. 10 við Aðalstræti. Gjald kr. 11.000
54742 (01.45.140.1),http://gamli.rvk.is/vefur/owa/edutils.parse_page?nafn=BN054742,Arkarvogur 2,Fjölbýlishús og bílageymsla,Frestað. Vísað til athugasemda og með vísan til athugasemda í umsögn skipulagsfulltrúa dags. 15. júní 2018.,"Sótt er um leyfi til að byggja 3 - 5 hæða fjölbýlishús, fjórar byggingar, staðsteyptar, einangraðar og klæddar að utan, með 162 íbúðum og bílgeymslu fyrir 162 bíla á lóð nr. 2 við Arkarvog. Erindi fylgir greinargerð um hljóðvist dags. 21. maí 2018. Útskrift úr gerðabók embættisafgreiðslufundar skipulagsfulltrúa frá 15. júní 2018 fylgir erindi, ásamt umsögn skipulagsfulltrúa dags. 15. júní 2018. Stærð, A-rými:  xx ferm., xx rúmm. Gjald kr. 11.000"
54709 (01.62.970.2),http://gamli.rvk.is/vefur/owa/edutils.parse_page?nafn=BN054709,Arnarhlíð 8,Fjölbýlishús,Frestað. Vísað til athugasemda.,"Sótt er um leyfi til að byggja þriggja til fimm hæða fjölbýlishús með 157 íbúðum og atvinnuhúsnæði á hluta jarðhæðar ásamt tveggja hæða bílgeymslu á lóð nr. 8 við Arnarhlíð. Útskrift úr gerðabók embættisafgreiðslufundar skipulagsfulltrúa frá 8. júní 2018 fylgir erindi, ásamt umsögn skipulagsfulltrúa dags. 8. júní 2018. Stærðir: A-rými 31.088,1 ferm., 100.702,7 rúmm. B-rými 1.403,4 ferm., 4.069,9 rúmm. Bréf arkitekts dags. 05.06.2018 og ódags. fylgja erindi. Gjald kr. 11.000"
54794 (01.26.120.1),http://gamli.rvk.is/vefur/owa/edutils.parse_page?nafn=BN054794,Ármúli 3,Breyting á skrifstofurými,Samþykkt.  Samræmist ákvæðum laga nr. 160 / 2010. Áskilin lokaúttekt byggingarfulltrúa.,Sótt er um leyfi til að breyta innra skipulagi skrifstofa á 2. og 3. hæð verslunar- og skrifstofuhúss á lóð nr. 3 við Ármúla. Gjald kr. 11.000
54735 (01.26.400.5),http://gamli.rvk.is/vefur/owa/edutils.parse_page?nafn=BN054735,Ármúli 17A,Breyting inni,Samþykkt.  Samræmist ákvæðum laga nr. 160 / 2010. Áskilin lokaúttekt byggingarfulltrúa. Áskilið samþykki heilbrigðiseftirlits.,Sótt er um leyfi til að innrétta förðunarskóla í mhl. 01 á annarri hæð í húsi á lóð nr. 17A við Ármúla. Gjald kr. 11.000
54834 (01.29.320.3),http://gamli.rvk.is/vefur/owa/edutils.parse_page?nafn=BN054834,Ármúli 34,Breyta 2. og 3. hæð í gistiheimili05131550,Frestað. Málinu vísað til umsagnar skipulagsfulltrúa.,"Sótt er um leyfi til að byggja brunastiga á austurgafl og innrétta gististað í flokki II, teg. b fyrir 36 gesti á 2. og 3. hæð húss á lóð nr. 34 við Ármúla. Erindi fylgir umsögn burðarvirkishönnuðar dags. 31. maí 2018, samþykki meðeiganda dags. 7. júní 2018 og brunahönnun dags. 5. júní 2018. Gjald kr. 11.000"
54831 (01.35.312.1),http://gamli.rvk.is/vefur/owa/edutils.parse_page?nafn=BN054831,Ásvegur 11,"Ofanábygging, svalir og flr.",Frestað. Málinu vísað til umsagnar skipulagsfulltrúa.,"Sótt er um leyfi til að byggja hæð ofaná, innrétta íbúð í kjallara, byggja svalir og utanáliggjandi stigahús, skipta húsi í tvær eignir og innrétta geymslur í bílskúr húss á lóð nr. 11 við Ásveg. Stækkun:  xx ferm. Stærð eftir stækkun:  216,5 ferm., 448,7 rúmm. Gjald kr. 11.000"
52687 (01.18.441.0),http://gamli.rvk.is/vefur/owa/edutils.parse_page?nafn=BN052687,Bergstaðastræti 33B,Viðbygging og breyting í gististað,Frestað. Grenndarkynningu ólokið.,"Sótt er um leyfi til að breyta í gististað í flokki II, teg. g og fyrir áður gerðum breytingum, viðbyggingu og innra skipulagi rishæðar í húsi á lóð nr. 33 B við Bergstaðastræti. Umsögn Minjastofnun Íslands dags. 2. maí 2017, bréf hönnuðar dags. 8. júní 2018 og bréf hönnuðar dags. 3. maí 2017 fylgja erindi. Einnig fylgir útskrift úr gerðabók embættisafgreiðslufundar skipulagsfulltrúa frá 12. maí 2017 ásamt umsögn skipulagsfulltrúa dags. 12. maí 2017 og útskrift úr gerðabók embættisafgreiðslufundar skipulagsfulltrúa frá 18. maí 2018  ásamt umsögn skipulagsfulltrúa dags. 18. maí 2018. Stækkun: 10,2 ferm., 21,1 rúmm.  Gjald kr. 11.000"
54877 (01.18.440.7),http://gamli.rvk.is/vefur/owa/edutils.parse_page?nafn=BN054877,Bergstaðastræti 37,Reyndarteikningar,Frestað. Vísað til athugasemda.,Sótt er um leyfi fyrir áður gerðum loftstokkum upp úr þaki húss á lóð nr. 37 við Bergstaðastræti. Gjald kr. 11.000
54861 (04.63.040.1),http://gamli.rvk.is/vefur/owa/edutils.parse_page?nafn=BN054861,Blöndubakki 2-4,Breyting á eldhúsi,Samþykkt.  Samræmist ákvæðum laga nr. 160 / 2010. Áskilin lokaúttekt byggingarfulltrúa. Áskilið samþykki heilbrigðiseftirlits.,Sótt er um leyfi til að breyta innra skipulagi í eldhúsi leikskóla á lóð nr. 2-4 við Blöndubakka. Gjald kr. 11.000
54837 (01.23.110.1),http://gamli.rvk.is/vefur/owa/edutils.parse_page?nafn=BN054837,Borgartún 30,Setja upp skilti,Samþykkt.  Samræmist ákvæðum laga nr. 160 / 2010. Áskilin lokaúttekt byggingarfulltrúa.,Sótt er um leyfi til að setja eitt skilti á norður hlið húss á lóð nr. 30 við Borgartún. Gjald kr. 11.000
54828 (01.81.931.4),http://gamli.rvk.is/vefur/owa/edutils.parse_page?nafn=BN054828,Bústaðavegur 95,Hækka ris og byggja kvist,Frestað. Vísað til athugasemda.,"Sótt er um leyfi til þess að hækka þak og byggja kvisti og svalir á  húsi á lóð nr. 95 við Bústaðaveg. Sjá einnig erindi BN054829, Bústaðavegur 97. Samþykki meðeiganda og nágranna í húsi nr. 95 og 97 dags. í maí 2018 fylgja erindinu. Stækkun: XX  ferm. og XX rúmm. Gjald kr. 11.000"
54829 (01.81.931.5),http://gamli.rvk.is/vefur/owa/edutils.parse_page?nafn=BN054829,Bústaðavegur 97,Hækka ris og byggja kvist,Frestað. Vísað til athugasemda.,"Sótt er um leyfi til þess að hækka þak og byggja kvisti og svalir á  húsi á lóð nr. 97 við Bústaðaveg. Sjá einnig erindi BN054829, Bústaðavegur 95 Samþykki meðeiganda og nágranna í húsi nr. 95 og 97 dags. í maí 2018 fylgja erindinu. Stækkun: XX  ferm. og XX rúmm. Gjald kr. 11.000"
54614 (02.57.600.4),http://gamli.rvk.is/vefur/owa/edutils.parse_page?nafn=BN054614,Bæjarflöt 9,Iðnaðarhúsnæði,Frestað. Lagfæra skráningu.,"Sótt er um leyfi til að byggja iðnaðarhús á lóð nr. 9 við Bæjarflöt. Stærð:   864,7 ferm., 3.026,05 rúmm. Gjald kr. 11.000"
54723 (04.30.960.1),http://gamli.rvk.is/vefur/owa/edutils.parse_page?nafn=BN054723,Bæjarháls 1,Endurnýjun á þakkanti,Samþykkt.  Samræmist ákvæðum laga nr. 160 / 2010. Með vísan til samþykktar borgarráðs frá 1. september 1998 skal utanhúss- og lóðarfrágangi vera lokið eigi síðar en innan tveggja ára frá útgáfu byggingarleyfis að viðlögðum dagsektum sbr. greinar nr. 2.4.7 og 2.9.2 í byggingarreglugerð nr. 112/2012. Áskilin lokaúttekt byggingarfulltrúa.,Sótt er um leyfi til að breyta þakkanti þannig að hann hækkar sem nemur 200mm og að koma fyrir fallvarnarbúnaði á hvolfþaki og á austurhlið til að auka öryggi við viðhald þaks á austurhúsi á lóð nr. 1 við Bæjarhálsi. Gjald kr. 11.000
54878 (01.71.300.1),http://gamli.rvk.is/vefur/owa/edutils.parse_page?nafn=BN054878,Drápuhlíð 26,Breyting inni,Frestað. Vísað til athugasemda.,Sótt er um leyfi til að breyta innra skipulagi með því að færa eldhús þangað sem áður var stofa í íbúð 0101 í fjölbýlishúsi á lóð nr. 26 við Drápuhlíð. Gjald kr. 11.000
54683 (01.19.430.3),http://gamli.rvk.is/vefur/owa/edutils.parse_page?nafn=BN054683,Eiríksgata 6,Eldvarnamerkingar,Frestað. Vísað til athugasemda.,Sótt er um leyfi fyrir áður gerðum breytingum á innra fyrirkomulagi gististaðar í flokki lll - tegund b stærra gistiheimili ásamt breytingum á eldvarnarmerkingum í húsi á lóð nr. 6 við Eiríksgötu. Gjald kr. 11.000
54719 (01.29.710.1),http://gamli.rvk.is/vefur/owa/edutils.parse_page?nafn=BN054719,Fellsmúli 24-30,Innrétting á ísbúð,Samþykkt.  Samræmist ákvæðum laga nr. 160 / 2010. Áskilin lokaúttekt byggingarfulltrúa. Áskilið samþykki heilbrigðiseftirlits.,Sótt er um leyfi til að innrétta ísbúð í rými 0101 í húsinu á lóð nr. 24-30 við Fellsmúla. Samþykki eiganda rýmis dags. 18. maí 2018 fylgir erindi. Gjald kr. 11.000
54891 (01.08.650.2),http://gamli.rvk.is/vefur/owa/edutils.parse_page?nafn=BN054891,Fiskislóð 37C,"Sækja um að færa íbúðaskála  
Verkbeiðni 157219",Samþykkt.  Samræmist ákvæðum laga nr. 160 / 2010. Áskilin lokaúttekt byggingarfulltrúa.,Sótt er um leyfi til að færa íbúðaskála til innan lóðar nr. 37C við Fiskislóð. Gjald kr. 11.000
53919 (01.18.551.3),http://gamli.rvk.is/vefur/owa/edutils.parse_page?nafn=BN053919,Fjólugata 19,Innan- og utanhússbreytingar,"Frestað. Málinu vísað til skipulagsfulltrúa í grenndarkynningu. Uppdrættir nr. 002, 003, 004, 005 dags. 8. júní 2018.","Sótt er um leyfi til að hækka þak, stækka og endurnýja bílskúr og útbúa svalir á hluta þaks, lækka gólf í kjallara, grafa frá suðurhlið og innrétta nýja íbúð þar, breyta aðkomu, byggja nýjar svalir á 2. hæð og í risi, breyta gluggum og innra skipulagi, einangra að utan og klæða með flísum hús á lóð nr. 19 við Fjólugötu. Lögð fram umsögn skipulagsfulltrúa dags. 29. september 2017. Erindi fylgir bréf hönnuðar dags. 5. desember 2017, umsögn Minjastofnunar Íslands dags. 4. desember 2017 og minnisblað um brunavarnir dags, 9. nóvember 2017. Einnig útskrift úr gerðabók embættisafgreiðslufundar skipulagsfulltrúa frá 9. febrúar 2018 ásamt umsögn skipulagsfulltrúa dags. 9. febrúar 2018, bréf til nágranna dags. 26. febrúar 2018, samþykki eiganda Sóleyjargötu 17, tveggja eigenda Sóleyjargötu 19, eiganda Sóleyjargötu 17, eins eiganda Sóleyjargötu 15 og eins eiganda Fjólugötu 19A. Útskrift úr gerðabók embættisafgreiðslufundar skipulagsfulltrúa frá 8. júní 2018 fylgir erindi, ásamt umsögn skipulagsfulltrúa dags. 8. júní 2018.  Gjald kr. 11.000"
54674 (01.84.920.1),http://gamli.rvk.is/vefur/owa/edutils.parse_page?nafn=BN054674,Fossvogsvegur 8,Fjölbýlishús,Frestað. Vísað til athugasemda.,"Sótt er um leyfi til að byggja þriggja hæða steinsteypt fjölbýlishús með 15 íbúðum á lóð nr. 8 við Fossvogsveg. Stærð, A-rými:  2.815,6 ferm., 9.254,9 rúmm. B-rými:  xx ferm., xx rúmm. Útskrift úr gerðabók embættisafgreiðslufundar skipulagsfulltrúa frá 15. júní 2018 fylgir erindi, ásamt umsögn skipulagsfulltrúa dags. 15. júní 2018. Gjald kr. 11.000"
54850 (01.84.920.1),http://gamli.rvk.is/vefur/owa/edutils.parse_page?nafn=BN054850,Fossvogsvegur 8,Takmarkað byggingarleyfi f. aðstöðusk. og jarðvinnu,"Samþykkt.  Samræmist ákvæðum laga nr. 160 / 2010. Samþykktin fellur úr gildi við útgáfu á endanlegu byggingarleyfi. Vegna útgáfu á takmörkuðu byggingarleyfi skal umsækjandi hafa samband við yfirverkfræðing embættis byggingarfulltrúa. Með vísan til samþykktar borgarráðs frá 1. september 1998 skal utanhúss- og lóðarfrágangi vera lokið eigi síðar en innan tveggja ára frá útgáfu byggingarleyfis að viðlögðum dagsektum sbr. greinar nr. 2.4.7 og 2.9.2 í byggingarreglugerð nr. 112/2012. Frágangur á lóðamörkum verði gerður í samráði við lóðarhafa aðliggjandi lóða. Með vísan til samþykktar umhverfis- og skipulagsráðs, dags. 22. maí 2013, skal lóðarhafi, í samráði við byggingarfulltrúa, setja upp skilti til kynningar á fyrirhuguðum framkvæmdum á byggingarstað. Í samræmi við samþykkt umhverfis- og skipulagsráðs dags. 9. október 2013 skal vélknúinn þvottabúnaður vera til staðar á byggingarlóð sem tryggi að vörubílar og aðrar þungavinnuvélar verði þrifnar áður en þær yfirgefa byggingarstað. Samráð skal haft við byggingarfulltrúa um staðsetningu búnaðarins. Sérstakt samráð skal haft við yfirverkfræðing byggingarfulltrúa vegna jarðvinnu. Áskilin lokaúttekt byggingarfulltrúa.","Sótt er um takmarkað byggingarleyfi fyrir aðstöðusköpun og jarðvinnu fyrir fjölbýlishús á lóðinni Fossvogsvegur 8, sbr. erindi BN054674."
54235 (01.19.610.2),http://gamli.rvk.is/vefur/owa/edutils.parse_page?nafn=BN054235,Freyjugata 44,Garðskáli,"Samþykkt.  Samræmist ákvæðum laga nr. 160 / 2010. Með vísan til samþykktar borgarráðs frá 1. september 1998 skal utanhúss- og lóðarfrágangi vera lokið eigi síðar en innan tveggja ára frá útgáfu byggingarleyfis að viðlögðum dagsektum sbr. greinar nr. 2.4.7 og 2.9.2 í byggingarreglugerð nr. 112/2012. Frágangur á lóðamörkum verði gerður í samráði við lóðarhafa aðliggjandi lóða.  Skilyrt er að ný eignaskiptayfirlýsing sé samþykkt fyrir útgáfu byggingarleyfis, henni verður þinglýst eigi síðar en við fokheldi. Áskilin lokaúttekt byggingarfulltrúa.","Sótt er um leyfi til að byggja garðskála sem verður að hluta til staðsteyptur og að hluta til úr gleri á lóð nr. 44 við Freyjugötu. Erindi fylgir undirritað bréf fylgir erindinu. Samþykki frá meðeigenda nr. 44, samþykki hluta eiganda nr. 42 og samþykki frá hluta af eigendum Mímisvegar 8 fylgir. Útskrift úr gerðabók embættisafgreiðslufundar skipulagsfulltrúa frá 20. apríl 2018 fylgir erindinu, ásamt umsögn skipulagsfulltrúa dags. 20. apríl 2018. Útskrift úr gerðabók embættisafgreiðslufundar skipulagsfulltrúa frá 8. júní 2018 fylgir erindi. Erindi var grenndarkynnt fyrir hagsmunaaðilum að Freyjugata 42 og 46, Mímisvegi 6 og 8 og Barónsstíg 78 og 78A frá 8. maí 2018 til og með 5. júní 218. Engar athugasemdir bárust. Stærð garðskála er 40,0 ferm., 123,3 rúmm. Gjald kr. 11.000"
54787 (05.05.330.2),http://gamli.rvk.is/vefur/owa/edutils.parse_page?nafn=BN054787,Friggjarbrunnur 24,Aðskilið byggingarleyfi,Samþykkt.  Samræmist ákvæðum laga nr. 160 / 2010. Áskilin lokaúttekt byggingarfulltrúa.,"Sótt er um aðskilið byggingarleyfi fyrir innanhúsfrágangi, sjá erindi BN035304, á parhúsi nr. 24 á lóð nr. 24-26 við Friggjarbrunn. Gjald kr. 11.000"
54876 (01.18.341.3),http://gamli.rvk.is/vefur/owa/edutils.parse_page?nafn=BN054876,Fríkirkjuvegur 11,Reyndarteikningar,Frestað. Vísað til athugasemda.,"Sótt er um leyfi til að breyta erindi BN049604, þannig að innra fyrirkomulagi er breytt vegna lokaúttektar í húsi á lóð nr. 11 við Fríkirkjuveg."
54590 (05.05.610.6),http://gamli.rvk.is/vefur/owa/edutils.parse_page?nafn=BN054590,Gerðarbrunnur 15,"Reyndarteikningar v. lokaúttektar, breyting á BN037804",Samþykkt.  Samræmist ákvæðum laga nr. 160 / 2010. Frágangur á lóðamörkum verði gerður í samráði við lóðarhafa aðliggjandi lóða. Áskilin lokaúttekt byggingarfulltrúa.,"Sótt er um leyfi til að breyta erindi BN037804, sem felst í að breytt fyrirkomulag er á lóð, dyrum hefur verið komið fyrir milli bílgeymslu og anddyris og innra skipulagi kjallara hefur verið breytt, v/lokaúttektar í einbýlishúsi á lóð nr. 15 við Gerðarbrunn. Erindi fylgir samþykki lóðarhafa vegna frágangs á lóðamörkum nr. 13. Gjald kr. 11.000"
54494 (05.11.370.1),http://gamli.rvk.is/vefur/owa/edutils.parse_page?nafn=BN054494,Gissurargata 1,Einbýlishús,Samþykkt.  Samræmist ákvæðum laga nr. 160 / 2010. Með vísan til samþykktar borgarráðs frá 1. september 1998 skal utanhúss- og lóðarfrágangi vera lokið eigi síðar en innan tveggja ára frá útgáfu byggingarleyfis að viðlögðum dagsektum sbr. greinar nr. 2.4.7 og 2.9.2 í byggingarreglugerð nr. 112/2012. Frágangur á lóðamörkum verði gerður í samráði við lóðarhafa aðliggjandi lóða. Áskilin lokaúttekt byggingarfulltrúa.,"Sótt er um leyfi til að byggja staðsteypt einbýlishús með innbyggðri bílgeymslu og aukaíbúð, einangrað að utan og klætt, múrkerfi, zinki og zedrusvið á lóð nr. 1 við Gissurargötu. Erindi fylgir samþykki lóðarhafa Döllugötu 2 og 4 áritað á uppdrætti. Stærð, A-rými:  356,5 ferm., 1.234,5 rúmm. Útskrift úr gerðabók embættisafgreiðslufundar skipulagsfulltrúa frá 25. maí 2018 fylgir erindi, ásamt umsögn skipulagsfulltrúa dags. 25. maí 2018. Gjald kr. 11.000"
53998 (01.44.410.1),http://gamli.rvk.is/vefur/owa/edutils.parse_page?nafn=BN053998,Gnoðarvogur 44-46,Gististaður í fl. II á 2.hæð,Frestað. Vísað til athugasemda.,"Sótt er um leyfi fyrir gististað í flokki ll - tegund g, íbúðir, fyrir 14 gesti í húsi á lóð nr. 44 við Gnoðarvog. Lögð fram umsögn skipulagsfulltrúa dags. 5. september 2016. Gjald kr. 11.000"
54616 (02.57.620.3),http://gamli.rvk.is/vefur/owa/edutils.parse_page?nafn=BN054616,Gylfaflöt 15,Iðnaðarhúsnæði,Frestað. Vísað til athugasemda.,"Sótt er um leyfi til að byggja iðnaðarhúsnæði á tveimur hæðum á lóð nr. 15 við Gylfaflöt. Stærðir: 864,7 ferm., 3.026,05 rúmm. Gjald kr. 11.000"
54708 (01.62.910.2),http://gamli.rvk.is/vefur/owa/edutils.parse_page?nafn=BN054708,Haukahlíð 1,Mhl 06 - fjölbýlishús,Frestað. Vísað til athugasemda.,"Sótt er um leyfi til að byggja staðsteypt fjölbýlishús, einangrað og klætt að utan, með 35 íbúðum, sem verður mhl. 06 á lóð nr. 1 við Haukahlíð. Stærð, A- rými:  3.607,7 ferm., 11.298,5 rúmm. B-rými:  168,1 ferm., 506,4 rúmm. Gjald kr. 11.000"
54851 (05.11.450.5),http://gamli.rvk.is/vefur/owa/edutils.parse_page?nafn=BN054851,Haukdælabraut 16,Breyting á BN052661,Frestað. Vísað til athugasemda.,"Sótt er um leyfi til að breyta erindi BN052661 þannig að þak verður flatt og gluggum er breytt á einbýlishúsi á lóð nr. 16 við Haukdælabraut. Minnkun:  86,9 rúmm. Gjald kr. 11.000"
54669 (01.22.320.4),http://gamli.rvk.is/vefur/owa/edutils.parse_page?nafn=BN054669,Hátún 2A,Breyting inni,Frestað. Vísað til athugasemda.,"Sótt er um leyfi til að breyta fyrirkomulagi 1. hæðar, stækka innkeyrsludyr og setja nýjan glugga á suðurhlið í húsi á lóð nr. 2a við Hátún. Gjald kr. 11.000"
54661 (08.2-.--9.9),http://gamli.rvk.is/vefur/owa/edutils.parse_page?nafn=BN054661,Hólmsland-Dalbær,Endurbygging,Samþykkt.  Samræmist ákvæðum laga nr. 160 / 2010. Með vísan til samþykktar borgarráðs frá 1. september 1998 skal utanhúss- og lóðarfrágangi vera lokið eigi síðar en innan tveggja ára frá útgáfu byggingarleyfis að viðlögðum dagsektum sbr. greinar nr. 2.4.7 og 2.9.2 í byggingarreglugerð nr. 112/2012. Áskilin lokaúttekt byggingarfulltrúa.,"Sótt er um leyfi til að endurbyggja og endurbæta sumarhús að Dalbæ í Hólmslandi. Stærðarbreyting: 9,2 ferm., 22,7 rúmm. Lögð er fram umsögn Umhverfisráðs dags 23. apríl 2007 og umsögn skipulagsfulltrúa dags. 23. mars 2018. Gjald kr. 11.000"
54734 (01.34.620.2),http://gamli.rvk.is/vefur/owa/edutils.parse_page?nafn=BN054734,Hrísateigur 22,Reyndarteikning af bílskúr v/esk,Samþykkt.  Samræmist ákvæðum laga nr. 160 / 2010. Það athugist að um er að ræða samþykkt á áður gerðri framkvæmd sem gerð var án byggingarleyfis. Óvissa kann því að vera um uppbyggingu og útfærslu framkvæmdar. Hvorki er skráð verktrygging á verkið né ábyrðaraðilar. Skilyrt er að eignaskiptayfirlýsingu vegna breytinga í húsinu sé þinglýst til þess að samþykktin öðlist gildi.,"Sótt er um samþykki fyrir reyndarteikningu af bílskúr, vegna gerðar eignaskiptasamnings í fjölbýlishúsi á lóð nr. 22 við Hrísateig. Erindi fylgir samþykki meðeigenda áritað á uppdrátt. Gjald kr. 11.000"
54576 (01.17.210.2),http://gamli.rvk.is/vefur/owa/edutils.parse_page?nafn=BN054576,Hverfisgata 54,Björgunarop og svalir,"Samþykkt.  Samræmist ákvæðum laga nr. 160 / 2010. Með vísan til samþykktar borgarráðs frá 1. september 1998 skal utanhúss- og lóðarfrágangi vera lokið eigi síðar en innan tveggja ára frá útgáfu byggingarleyfis að viðlögðum dagsektum sbr. greinar nr. 2.4.7 og 2.9.2 í byggingarreglugerð nr. 112/2012. Skilyrt er að ný eignaskiptayfirlýsing sé samþykkt fyrir útgáfu byggingarleyfis, henni verður þinglýst eigi síðar en við lokaúttekt. Áskilin lokaúttekt byggingarfulltrúa.",Sótt er um leyfi til að byggja svalir á norðurhlið 3. hæðar húss á lóð nr. 54 við Hverfisgötu. Erindi fylgir samþykki meðlóðarhafa áritað á uppdrátt. Lögð er fram umsögn skipulagsfulltrúa dags. 18. apríl 2013. Gjald kr. 11.000
54791 (01.15.251.5),http://gamli.rvk.is/vefur/owa/edutils.parse_page?nafn=BN054791,Hverfisgata 61,Reyndarteikningar,"Samþykkt.  Samræmist ákvæðum laga nr. 160 / 2010. Með vísan til samþykktar borgarráðs frá 1. september 1998 skal utanhúss- og lóðarfrágangi vera lokið eigi síðar en innan tveggja ára frá útgáfu byggingarleyfis að viðlögðum dagsektum sbr. greinar nr. 2.4.7 og 2.9.2 í byggingarreglugerð nr. 112/2012. Frágangur á lóðamörkum verði gerður í samráði við lóðarhafa aðliggjandi lóða. Með vísan til samþykktar umhverfis- og skipulagsráðs, dags. 22. maí 2013, skal lóðarhafi, í samráði við byggingarfulltrúa, setja upp skilti til kynningar á fyrirhuguðum framkvæmdum á byggingarstað. Sérstakt samráð skal haft við yfirverkfræðing byggingarfulltrúa vegna jarðvinnu. Áskilin lokaúttekt byggingarfulltrúa.",Sótt er um breytingar á erindi BN044976 vegna lokaúttektar í húsi á lóð nr. 61 við Hverfisgötu. Gjald kr. 11.000
54449 (01.17.411.2),http://gamli.rvk.is/vefur/owa/edutils.parse_page?nafn=BN054449,Hverfisgata 106,Viðbygging - ný íbúð,"Samþykkt.  Samræmist ákvæðum laga nr. 160 / 2010. Með vísan til samþykktar borgarráðs frá 1. september 1998 skal utanhúss- og lóðarfrágangi vera lokið eigi síðar en innan tveggja ára frá útgáfu byggingarleyfis að viðlögðum dagsektum sbr. greinar nr. 2.4.7 og 2.9.2 í byggingarreglugerð nr. 112/2012. Skilyrt er að ný eignaskiptayfirlýsing sé samþykkt fyrir útgáfu byggingarleyfis, henni verður þinglýst eigi síðar en við lokaúttekt. Áskilin lokaúttekt byggingarfulltrúa.","Sótt er um leyfi til að byggja eina hæð og ris ofan á og gera nýja íbúð ásamt því að gera svalir á bakhlið húss á lóð nr. 106 við Hverfisgötu. Stækkun: A-rými: 64,0 ferm., 185,9 rúmm. Gjald kr. 11.000"
54452 (01.73.020.4),http://gamli.rvk.is/vefur/owa/edutils.parse_page?nafn=BN054452,Hörgshlíð 18,Viðbygging,"Frestað. Málinu vísað til skipulagsfulltrúa til ákvörðunar um grenndarkynningu. Aðaluppdrættir nr. T01, T02 dags. 16. mars 2018.","Sótt er um leyfi til að endurnýja eldri viðbyggingu úr steinsteypu í stað timburs og stækka þaksvalir ofaná viðbyggingu við fjölbýlishús á lóð nr. 18 við Hörgshlíð. Útskrift úr gerðabók embættisafgreiðslufundar skipulagsfulltrúa frá 11. maí 2018 fylgir erindinu, ásamt umsögn skipulagsfulltrúa dags. 11. maí 2018. Einnig fylgir samþykki meðeigenda dags. 26. mars 2018 áritað á uppdrátt. Gjald kr. 11.000"
54665 (02.69.370.5),http://gamli.rvk.is/vefur/owa/edutils.parse_page?nafn=BN054665,Iðunnarbrunnur 12,Íbúðarhús á 2 hæðum,Samþykkt.  Samræmist ákvæðum laga nr. 160 / 2010. Með vísan til samþykktar borgarráðs frá 1. september 1998 skal utanhúss- og lóðarfrágangi vera lokið eigi síðar en innan tveggja ára frá útgáfu byggingarleyfis að viðlögðum dagsektum sbr. greinar nr. 2.4.7 og 2.9.2 í byggingarreglugerð nr. 112/2012. Áskilin lokaúttekt byggingarfulltrúa.,"Sótt er um leyfi til að byggja tvíbýlishús, tveggja hæða með innbyggðri bílgeymslu, steinsteypt, einangrað að utan og klætt málmklæðningu á lóð nr. 12 við Iðunnarbrunn. Stærð, A-rými:  207,9 ferm., 641,1 rúmm. Gjald kr. 11.000"
54700 (01.32.230.1),http://gamli.rvk.is/vefur/owa/edutils.parse_page?nafn=BN054700,Klettagarðar 6,Breyting inni og á inngönguhurð,Samþykkt.  Samræmist ákvæðum laga nr. 160 / 2010. Með vísan til samþykktar borgarráðs frá 1. september 1998 skal utanhúss- og lóðarfrágangi vera lokið eigi síðar en innan tveggja ára frá útgáfu byggingarleyfis að viðlögðum dagsektum sbr. greinar nr. 2.4.7 og 2.9.2 í byggingarreglugerð nr. 112/2012. Áskilin lokaúttekt byggingarfulltrúa.,Sótt er um leyfi til að breyta innra fyrirkomulagi ásamt því að stækka vöruhurð og koma fyrir nýrri hurð og gluggum á suðurhlið í húsi á lóð nr. 6 við Klettagarða. Samþykki meðeiganda ódags. fylgir erindi. Gjald kr. 11.000
54888 (01.45.160.1),http://gamli.rvk.is/vefur/owa/edutils.parse_page?nafn=BN054888,Kuggavogur 5,Takmarkað byggingarleyfi f. aðstöðusk. og jarðvinnu,"Samþykkt.  Samræmist ákvæðum laga nr. 160 / 2010. Samþykktin fellur úr gildi við útgáfu á endanlegu byggingarleyfi. Vegna útgáfu á takmörkuðu byggingarleyfi skal umsækjandi hafa samband við yfirverkfræðing embættis byggingarfulltrúa. Hafa skal samráð við tæknistjóra Veitna varðandi inntök lagna. Með vísan til samþykktar borgarráðs frá 1. september 1998 skal utanhúss- og lóðarfrágangi vera lokið eigi síðar en innan tveggja ára frá útgáfu byggingarleyfis að viðlögðum dagsektum sbr. greinar nr. 2.4.7 og 2.9.2 í byggingarreglugerð nr. 112/2012. Frágangur á lóðamörkum verði gerður í samráði við lóðarhafa aðliggjandi lóða. Með vísan til samþykktar umhverfis- og skipulagsráðs, dags. 22. maí 2013, skal lóðarhafi, í samráði við byggingarfulltrúa, setja upp skilti til kynningar á fyrirhuguðum framkvæmdum á byggingarstað. Í samræmi við samþykkt umhverfis- og skipulagsráðs dags. 9. október 2013 skal vélknúinn þvottabúnaður vera til staðar á byggingarlóð sem tryggi að vörubílar og aðrar þungavinnuvélar verði þrifnar áður en þær yfirgefa byggingarstað. Samráð skal haft við byggingarfulltrúa um staðsetningu búnaðarins. Sérstakt samráð skal haft við yfirverkfræðing byggingarfulltrúa vegna jarðvinnu. Áskilin lokaúttekt byggingarfulltrúa.",Sótt er um takmarkað byggingarleyfi fyrir aðstöðusköpun og  jarðvinnu fyrir fjölbýlishús á lóð nr. 5 við Kuggavog sbr. erindi BN054411.
54826 (01.35.721.1),http://gamli.rvk.is/vefur/owa/edutils.parse_page?nafn=BN054826,Langholtsvegur 49,Viðbygging,Frestað. Málinu vísað til umsagnar skipulagsfulltrúa.,"Sótt er um leyfi til að byggja staðsteypta viðbyggingu við hús á lóð nr. 49 við Langholtsveg. Stærð viðbyggingar er: 66,8 ferm., XX rúmm. Gjald kr. 11.000"
54755 (01.47.000.6),http://gamli.rvk.is/vefur/owa/edutils.parse_page?nafn=BN054755,Langholtsvegur 165A,Íbúð í kjallara,Frestað. Vísað til athugasemda.,Sótt er um leyfi fyrir áður gerðri íbúð í kjallara sem hefur fastanúmerið 2023463 í húsi á lóð nr. 165a við Langholtsveg. Gjald kr. 11.000
54416 (01.17.220.1),http://gamli.rvk.is/vefur/owa/edutils.parse_page?nafn=BN054416,Laugav 22/Klappars 33,Reyndarteikningar,Samþykkt.  Samræmist ákvæðum laga nr. 160 / 2010. Það athugist að um er að ræða samþykkt á áður gerðri framkvæmd sem gerð var án byggingarleyfis. Óvissa kann því að vera um uppbyggingu og útfærslu framkvæmdar. Hvorki er skráð verktrygging á verkið né ábyrðaraðilar. Skilyrt er að eignaskiptayfirlýsingu vegna breytinga í húsinu sé þinglýst til þess að samþykktin öðlist gildi.,"Sótt er um samþykki fyrir áður gerðum breytingum á innra skipulagi á 2., 3. og 4. hæð á Klapparstíg 33 á lóð Laugav 22/Klappars 33. Gjald kr. 11.000"
54821 (01.17.222.3),http://gamli.rvk.is/vefur/owa/edutils.parse_page?nafn=BN054821,Laugavegur 42,Nýting geymslu í kjallara fyrir veitingastað,Frestað. Vísað til athugasemda heilbrigðiseftirlits.,"Sótt er um leyfi til að breyta erindi BN054309, um er að ræða að innrétta geymslu og fl. í rými 0006 í kjallara íbúðar- og atvinnuhúss á lóð nr. 42 við Laugaveg. Gjald kr. 11.000"
54488 (01.17.311.3 02),http://gamli.rvk.is/vefur/owa/edutils.parse_page?nafn=BN054488,Laugavegur 58A,Móttaka og starfsmannarými - Tengist 58B,"Samþykkt.  Samræmist ákvæðum laga nr. 160 / 2010. Fyrir útgáfu byggingarleyfis þarf að þinglýsa kvöð um aðgengi yfir lóðarmörk fyrir Laugaveg 58B til að nota starfsmannaaðstöðu, móttöku og töskugeymslu í húsi númer 58A við Laugaveg. Áskilin lokaúttekt byggingarfulltrúa.","Sótt er um leyfi til að breyta innra fyrirkomulagi sem felst í því að koma fyrir móttöku, starfsmannaaðstöðu og töskugeymslu fyrir 101 Hostel á aðliggjandi lóð, í húsi á lóð nr. 58b við Laugaveg. Gjald kr. 11.000"
54368 (01.17.311.4),http://gamli.rvk.is/vefur/owa/edutils.parse_page?nafn=BN054368,Laugavegur 58B,Innanhúsbreytingar,"Samþykkt.  Samræmist ákvæðum laga nr. 160 / 2010. Fyrir útgáfu byggingarleyfis þarf að þinglýsa kvöð um aðgengi yfir lóðarmörk fyrir Laugaveg 58B til að nota starfsmannaaðstöðu, móttöku og töskugeymslu í húsi númer 58A við Laugaveg. Áskilin lokaúttekt byggingarfulltrúa.","Sótt er um leyfi fyrir áður gerðum breytingum sem felast í því að gerður hefur verið gististaður í flokki ll - tegund d, gistiskáli, fyrir 27 gesti í húsi á lóð nr. 58B við Laugaveg. Tölvupóstur dags. 16.04.2018 með breyttri erindislýsingu fylgir erindi. Gjald kr. 11.000"
54750 (01.17.301.9),http://gamli.rvk.is/vefur/owa/edutils.parse_page?nafn=BN054750,Laugavegur 59,Reyndarteikningar v/lokaúttektar,Frestað. Vísað til athugasemda eldvarnareftirlits.,"Sótt er um leyfi fyrir áður gerðum breytingum á erindi BN051424,  m.a. gasskáp á baklóð og lagfærða byggingarlýsingu vegna lokaúttektar í húsi á lóð nr. 59 við Laugaveg. Gjald kr. 11.000"
54640 (01.17.311.5),http://gamli.rvk.is/vefur/owa/edutils.parse_page?nafn=BN054640,Laugavegur 60,Brunavarnir vegna rekstrarleyfis,Frestað. Vísað til athugasemda.,Sótt er um leyfi til að bæta brunavarnir í risíbúð til að uppfylla kröfur um gististað í flokki II í húsi á lóð nr. 60 við Laugaveg. Gjald kr. 11.000
54717 (01.24.010.3),http://gamli.rvk.is/vefur/owa/edutils.parse_page?nafn=BN054717,Laugavegur 118,Breyta veitingaleyfi úr flokki I í flokk II,Frestað. Vísað til athugasemda.,Sótt er um leyfi til að breyta veitingastað í flokk ll - tegund a ásamt breytingum á eldhúsi í húsi að Rauðarárstíg 8 á lóð nr. 118 við Laugaveg. Samþykki eiganda dags. 12.06.2018 fylgir erindi ásamt bréfi umsækjanda dags. 13.06.2018. Gjald kr. 11.000
54692 (02.87.350.3),http://gamli.rvk.is/vefur/owa/edutils.parse_page?nafn=BN054692,Logafold 133-135,Bílskúr,Samþykkt.  Samræmist ákvæðum laga nr. 160 / 2010. Með vísan til samþykktar borgarráðs frá 1. september 1998 skal utanhúss- og lóðarfrágangi vera lokið eigi síðar en innan tveggja ára frá útgáfu byggingarleyfis að viðlögðum dagsektum sbr. greinar nr. 2.4.7 og 2.9.2 í byggingarreglugerð nr. 112/2012. Frágangur á lóðamörkum verði gerður í samráði við lóðarhafa aðliggjandi lóða. Áskilin lokaúttekt byggingarfulltrúa.,"Sótt er um leyfi til að byggja bílskúr við hús nr. 135 á lóð nr. 133-135 við Logafold. Stærðir: 28,0 ferm., 89,6 rúmm. Gjald kr. 11.000"
54860 (04.63.300.1),http://gamli.rvk.is/vefur/owa/edutils.parse_page?nafn=BN054860,Maríubakki 1,Breyting inni,Samþykkt.  Samræmist ákvæðum laga nr. 160 / 2010. Áskilin lokaúttekt byggingarfulltrúa.,"Sótt er um leyfi til að breyta innra skipulagi, snyrtingum, starfsmannaaðstöðu og vinnuaðstöðu kennara í Breiðholtsskóla á lóð nr. 1 við Maríubakka. Gjald kr. 11.000"
54803 (01.13.201.4),http://gamli.rvk.is/vefur/owa/edutils.parse_page?nafn=BN054803,Norðurstígur 5,Endurnýjun á byggingarleyfi BN048580,"Samþykkt.  Samræmist ákvæðum laga nr. 160 / 2010. Með vísan til samþykktar borgarráðs frá 1. september 1998 skal utanhúss- og lóðarfrágangi vera lokið eigi síðar en innan tveggja ára frá útgáfu byggingarleyfis að viðlögðum dagsektum sbr. greinar nr. 2.4.7 og 2.9.2 í byggingarreglugerð nr. 112/2012. Frágangur á lóðamörkum verði gerður í samráði við lóðarhafa aðliggjandi lóða. Með vísan til samþykktar umhverfis- og skipulagsráðs, dags. 22. maí 2013, skal lóðarhafi, í samráði við byggingarfulltrúa, setja upp skilti til kynningar á fyrirhuguðum framkvæmdum á byggingarstað.  Í samræmi við samþykkt umhverfis- og skipulagsráðs dags. 9. október 2013 skal vélknúinn þvottabúnaður vera til staðar á byggingarlóð sem tryggi að vörubílar og aðrar þungavinnuvélar verði þrifnar áður en þær yfirgefa byggingarstað. Samráð skal haft við byggingarfulltrúa um staðsetningu búnaðarins. Sérstakt samráð skal haft við yfirverkfræðing byggingarfulltrúa vegna jarðvinnu. Skilyrt er að ný eignaskiptayfirlýsing sé samþykkt fyrir útgáfu byggingarleyfis, henni verður þinglýst eigi síðar en við fokheldi. Áskilin lokaúttekt byggingarfulltrúa.","Sótt er um leyfi til að byggja þriggja íbúða steinsteypt fjölbýlishús á fjórum hæðum með innbyggðum tveggja stæða bílskúr á lóð nr. 5 við Norðurstíg. Stærð, A-rými: 329 ferm., 1.127,5 rúmm. B-rými  54,7 ferm. Gjald kr. 11.000"
54423 (01.18.421.6),http://gamli.rvk.is/vefur/owa/edutils.parse_page?nafn=BN054423,Óðinsgata 9,Innanhúsbreytingar og fækka eignum,Frestað. Vísað til athugasemda.,"Sótt er um leyfi til að breyta innra skipulagi fjölga íbúðum úr tveimur í þrjár og gera þar gististað í flokki ll - tegund g íbúðir fyrir alls 24 gesti í húsi á lóð nr. 9 við Óðinsgötu. Útskrift úr gerðabók embættisafgreiðslufundar skipulagsfulltrúa frá 1. júní 2018 fylgir erindi, ásamt umsögn skipulagsfulltrúa dags. 30. maí 2018. Gjald kr. 11.000"
43574 (01.18.442.1),http://gamli.rvk.is/vefur/owa/edutils.parse_page?nafn=BN043574,Óðinsgata 14,Reyndarteikningar,Frestað. Málinu vísað til umsagnar skipulagsfulltrúa.,"Sótt er um samþykkt á áður gerðum breytingum og stækkun á einbýlishúsi á lóð nr. 14 við Óðinsgötu. Stækkun:  xx ferm., xx rúmm. Gjald kr. 8.000 + xx"
54747 (01.52.420.2),http://gamli.rvk.is/vefur/owa/edutils.parse_page?nafn=BN054747,Reynimelur 80-86,80-84 Klæðning,Frestað. Vísað til athugasemda.,Sótt er um leyfi til að klæða með álklæðningu suðurgafl húss nr. 80 á lóð nr. 80-86 við Reynimel. Umsögn burðarvirkishönnuðar dags. 14. mars fylgir. Fundargerð frá aðalfundi húsfélags dags. 22. maí 2017 fylgir. Gjald kr. 11.000
54816,http://gamli.rvk.is/vefur/owa/edutils.parse_page?nafn=BN054816,Sifjarbrunnur 10-16,Bæta við stoðvegg á suðurhlið húss,Frestað. Málinu vísað til umsagnar skipulagsfulltrúa.,Sótt er um leyfi til að byggja stoðvegg að Lofnarbrunni við raðhús á lóð nr. 10-16 við Sifjarbrunn. Gjald kr. 11.000
54786 (01.19.650.3),http://gamli.rvk.is/vefur/owa/edutils.parse_page?nafn=BN054786,Sjafnargata 14,Útbúa þaksvalir,Frestað. Með vísan til umsagnar skipulagsfulltrúa dags. 15. júní 2018.,"Sótt er um leyfi til að útbúa þaksvalir á neðra þak byggingar og endurnýja svalahandrið á húsinu á lóð nr. 14 við Sjafnargötu. Útskrift úr gerðabók embættisafgreiðslufundar skipulagsfulltrúa frá 15. júní 2018 fylgir erindi, ásamt umsögn skipulagsfulltrúa dags. 15. júní 2018. Gjald kr. 11.000"
54473 (01.67.501.7),http://gamli.rvk.is/vefur/owa/edutils.parse_page?nafn=BN054473,Skeljanes 8,Ný skráningartafla,Samþykkt.  Samræmist ákvæðum laga nr. 160 / 2010.,"Sótt er um leyfi til að breyta skráningartöflu fyrir einbýlishús á lóð nr. 8 við Skeljanes.  Brúttóstærðir samtals: 410,0 ferm., 1.296,6 rúmm. Gjald kr. 11.000"
54758 (01.24.221.1),http://gamli.rvk.is/vefur/owa/edutils.parse_page?nafn=BN054758,Skipholt 15,"Breyting innanhúss íb 101, teknir 2 veggir, eldhús fært",Samþykkt.  Samræmist ákvæðum laga nr. 160 / 2010. Áskilin lokaúttekt byggingarfulltrúa.,Sótt er um leyfi til að breyta innra skipulagi í íbúð 0101 í fjölbýlishúsi á lóð nr. 15 við Skipholt. Gjald kr. 11.000
54859 (01.25.100.4),http://gamli.rvk.is/vefur/owa/edutils.parse_page?nafn=BN054859,Skipholt 31,Bruggstofa / Krá í flokki 2,Frestað. Málinu vísað til umsagnar skipulagsfulltrúa.,Sótt er um leyfi til að gera bruggstofu ásamt veitingastað í flokki ll - tegund f - krá í húsi á lóð nr. 31 við Skipholt. Gjald kr. 11.000
54598 (01.18.224.2),http://gamli.rvk.is/vefur/owa/edutils.parse_page?nafn=BN054598,Skólavörðustígur 25,Leyfi til að hætta við séríbúð. Ris verður hluti af 0201,Frestað. Lagfæra skráningu og erindi er til umfjöllunar hjá skipulagsfulltrúa.,"Sótt er um breytingu á erindi BN051427 sem felst í því að hætt er við að framlengja aðalstiga upp á rishæð og innrétta í staðinn skrifstofur í rýmum 0101, 0201 og 0301 í húsi á lóð nr. 25 við Skólavörðustíg. Gjald kr. 11.000"
54785 (01.79.020.1),http://gamli.rvk.is/vefur/owa/edutils.parse_page?nafn=BN054785,Sléttuvegur 5-9,Breyta rými í íbúð,Frestað. Lagfæra skráningu.,Sótt er um leyfi til að fjölga um eina íbúð með því að innrétta íbúð í þjónusturými á 1. hæð í fjölbýlishúsi á lóð nr. 5-9 við Sléttuveg. Gjald kr. 11.000
54712 (04.64.800.1 07),http://gamli.rvk.is/vefur/owa/edutils.parse_page?nafn=BN054712,"Spóahólar 2, 4, 6",Klæðning,Frestað. Vísað til athugasemda.,"Sótt er um leyfi til að einangra og klæða að utan með báraðri og sléttri álklæðningu á austurhlið, suðurgafli og norðurgafli húss nr. 2 við Spóahóla á lóð nr. 1-5 við Orrahóla. Samþykki frá húsfundi dags. 21. mars 2018 fylgir erindi. Gjald kr. 11.000"
54839 (01.80.400.6),http://gamli.rvk.is/vefur/owa/edutils.parse_page?nafn=BN054839,Stóragerði 17,Léttur veggur í bílskúr,Frestað. Vísað til athugasemda.,Sótt er um leyfi til að koma fyrir léttum vegg milli eignarhluta í bílskúr fjölbýlishúss á lóð  nr. 17 við Stóragerði. Gjald kr. 11.000
54820 (01.26.140.3 01),http://gamli.rvk.is/vefur/owa/edutils.parse_page?nafn=BN054820,Suðurlandsbraut 4,Breyting á BN050670,Frestað. Vísað til athugasemda.,"Sótt er um leyfi til að breyta erindi BN050670 vegna lokaúttektar , en um er að ræða breytingu á brunahólfun stigahúss á lóð nr. 4 við Suðurlandsbraut. Gjald kr. 11.000"
54748 (04.02.310.1),http://gamli.rvk.is/vefur/owa/edutils.parse_page?nafn=BN054748,Tangabryggja 13,Reyndarteiknignar,Frestað. Lagfæra skráningu.,"Sótt er um leyfi til að breyta erindi BN051863, m.a. breyta fyrirkomulagi eldhúsa og gluggar stækkaðir á norðurhlið fjölbýlishúss á lóð nr. 13 við Tangabryggju. Gjald kr. 11.000"
54749 (04.02.310.4),http://gamli.rvk.is/vefur/owa/edutils.parse_page?nafn=BN054749,Tangabryggja 18-22,Reyndarteikningar,Samþykkt.  Samræmist ákvæðum laga nr. 160 / 2010. Frágangur á lóðamörkum verði gerður í samráði við lóðarhafa aðliggjandi lóða. Í samræmi við samþykkt umhverfis- og skipulagsráðs dags. 9. október 2013 skal vélknúinn þvottabúnaður vera til staðar á byggingarlóð sem tryggi að vörubílar og aðrar þungavinnuvélar verði þrifnar áður en þær yfirgefa byggingarstað. Samráð skal haft við byggingarfulltrúa um staðsetningu búnaðarins. Áskilin lokaúttekt byggingarfulltrúa.,"Sótt er um leyfi til að breyta erindi BN050926, samræma svalahandrið, fella út segullokun á gangahurðum, breyta yfirborðsáferð svala og fella út skyggni yfir inngangi og breyta gluggum kvista á austurhlið fjölbýlishúss á lóð nr. 18-22 við Tangabryggju. Gjald kr. 11.000"
54823 (01.11.740.1),http://gamli.rvk.is/vefur/owa/edutils.parse_page?nafn=BN054823,Tryggvagata 11,"Breyting á nýtingu herbergja, aðstaða fyrir starfsmenn og skrifstofa",Frestað. Vísað til athugasemda.,"Sótt er um leyfi til að innrétta starfsmannarými og skrifstofu í veitingastað í flokki II, teg. ? rými 0101 í húsi á lóð nr. 11 við Tryggvagötu. Gjald kr. 11.000"
54793 (01.13.210.3),http://gamli.rvk.is/vefur/owa/edutils.parse_page?nafn=BN054793,Tryggvagata 14,Breyta innréttingum,"Samþykkt.  Samræmist ákvæðum laga nr. 160 / 2010. Með vísan til samþykktar borgarráðs frá 1. september 1998 skal utanhúss- og lóðarfrágangi vera lokið eigi síðar en innan tveggja ára frá útgáfu byggingarleyfis að viðlögðum dagsektum sbr. greinar nr. 2.4.7 og 2.9.2 í byggingarreglugerð nr. 112/2012. Frágangur á lóðamörkum verði gerður í samráði við lóðarhafa aðliggjandi lóða. Með vísan til samþykktar umhverfis- og skipulagsráðs, dags. 22. maí 2013, skal lóðarhafi, í samráði við byggingarfulltrúa, setja upp skilti til kynningar á fyrirhuguðum framkvæmdum á byggingarstað. Í samræmi við samþykkt umhverfis- og skipulagsráðs dags. 9. október 2013 skal vélknúinn þvottabúnaður vera til staðar á byggingarlóð sem tryggi að vörubílar og aðrar þungavinnuvélar verði þrifnar áður en þær yfirgefa byggingarstað. Samráð skal haft við byggingarfulltrúa um staðsetningu búnaðarins. Sérstakt samráð skal haft við yfirverkfræðing byggingarfulltrúa vegna jarðvinnu. Áskilin lokaúttekt byggingarfulltrúa. Áskilið samþykki heilbrigðiseftirlits.","Sótt er um leyfi til að breyta erindi BN050404, geymsla í kjallara er stækkuð og innra skipulagi í verslunar- og þjónusturýmum á götuhæð er breytt  í hóteli á lóð nr. 14 við Tryggvagötu. Gjald kr. 11.000"
54832 (01.18.120.2),http://gamli.rvk.is/vefur/owa/edutils.parse_page?nafn=BN054832,Týsgata 1,Endurnýja íbúð,Synjað. Uppfyllir ekki kröfur um flóttaleiðir samkvæmt byggingarreglugerð nr. 112/2012.,Sótt er um leyfi til að breyta áður samþykktu erindi BN052274 þannig að hætt er við svalir á annarri hæð  í húsi á  lóð nr. 1 við Týsgötu. Gjald kr. 11.000
54650 (05.05.650.1),http://gamli.rvk.is/vefur/owa/edutils.parse_page?nafn=BN054650,Úlfarsbraut 126,"Flytja húseiningar.  
Verkbeiðni nr. 156274",Frestað. Vísað til athugasemda.,"Sótt er um leyfi til að flytja húseiningar tímabundið, að hluta til  á nýjan byggingarreit og hluta til utan byggingarreits, við lóð nr. 126 við Úlfarsárbraut. Útskrift úr gerðabók embættisafgreiðslufundar skipulagsfulltrúa frá 1. júní 2018 fylgir erindinu. Gjald kr. 11.000"
54872 (01.65.--9.9),http://gamli.rvk.is/vefur/owa/edutils.parse_page?nafn=BN054872,Þorragata 10-20,Breyting á innra skipulagi,Frestað. Málinu vísað til umsagnar skipulagsfulltrúa.,"Sótt er um leyfi til að rífa eldri viðbyggingar, breyta innra skipulagi og byggja nýja innganga við flugafgreiðslu á lóð nr. 10-20 við Þorragötu. Stærðarbreyting:  xx ferm., xx rúmm. Gjald kr. 11.000"
54602 (01.13.631.7),http://gamli.rvk.is/vefur/owa/edutils.parse_page?nafn=BN054602,Öldugata 14,Reyndarteikningar,Frestað. Vísað til athugasemda.,"Sótt er um leyfi til að skipta einbýlishúsi upp í tvær sjálfstæðar eignir á lóð nr. 14. við Öldugötu. Stækkun íbúðarhúss:  78,8 ferm., 87,1 rúmm. Minnkun bílslúrs:  1 ferm, 2,6 rúmm. Sjá svar JHJ við fyrirspurn dags. í desember 2017. Útskrift úr gerðabók embættisafgreiðslufundar skipulagsfulltrúa frá 15. júní 2018 fylgir erindi. Gjald kr. 11.000"
54885 (01.23.400.1 01),http://gamli.rvk.is/vefur/owa/edutils.parse_page?nafn=BN054885,Hátún 10,Lóðaruppdráttur,Samþykkt.  Samræmist ákvæðum laga nr. 160 / 2010. Uppdrátturinn öðlast gildi þegar honum hefur verið þinglýst.,"Óskað er eftir samþykki byggingarfulltrúa til að minnka lóð Hátúns 10 (10-14) og stofna lóðirnar Hátún 12 og Hátún 14 samanber meðfylgjandi lóðauppdrátt, dags. 14.06.2018. Lóðin Hátún 10 (10-14), staðgreininr. 1.234.001 og landeignarnr. L102923, er 42356 m². Teknir 15611 m² af lóðinni og bætt við Hátún 12 (landeignarnr. L227056). Teknir 4242 m² af lóðinni og bætt við Hátún 14 (landeignarnr. L227057). Lóðin Hátún 10 verður 22503 m². Lóðin Hátún 12, staðgreininr. 1.234.002 og landeignarnr. L227056. Teknir 15611 m² af Hátúni 10 (landeignarnr. L102923) og bætt við lóðina. Lóðin Hátún 12 verður 15611 m². Lóðin Hátún 14, staðgreininr. 1.234.003 og landeignarnr. L227057. Teknir 4242 m² af Hátúni 10 (landeignarnr. L102923) og bætt við lóðina. Lóðin Hátún 14 verður 4242 m². Sjá deiliskipulag sem samþykkt var í borgarráði þann 07.12.1993, og deiliskipulagsbreytingu sem samþykkt var í borgarráði 21.05.1996."
54886 (01.23.400.1 03),http://gamli.rvk.is/vefur/owa/edutils.parse_page?nafn=BN054886,Hátún 12,Lóðaruppdráttur,Samþykkt.  Samræmist ákvæðum laga nr. 160 / 2010. Uppdrátturinn öðlast gildi þegar honum hefur verið þinglýst.,"Óskað er eftir samþykki byggingarfulltrúa til að minnka lóð Hátúns 10 (10-14) og stofna lóðirnar Hátún 12 og Hátún 14 samanber meðfylgjandi lóðauppdrátt, dags. 14.06.2018. Lóðin Hátún 10 (10-14), staðgreininr. 1.234.001 og landeignarnr. L102923, er 42356 m². Teknir 15611 m² af lóðinni og bætt við Hátún 12 (landeignarnr. L227056). Teknir 4242 m² af lóðinni og bætt við Hátún 14 (landeignarnr. L227057). Lóðin Hátún 10 verður 22503 m². Lóðin Hátún 12, staðgreininr. 1.234.002 og landeignarnr. L227056. Teknir 15611 m² af Hátúni 10 (landeignarnr. L102923) og bætt við lóðina. Lóðin Hátún 12 verður 15611 m². Lóðin Hátún 14, staðgreininr. 1.234.003 og landeignarnr. L227057. Teknir 4242 m² af Hátúni 10 (landeignarnr. L102923) og bætt við lóðina. Lóðin Hátún 14 verður 4242 m². Sjá deiliskipulag sem samþykkt var í borgarráði þann 07.12.1993, og deiliskipulagsbreytingu sem samþykkt var í borgarráði 21.05.1996."
54887 (01.23.400.1 13),http://gamli.rvk.is/vefur/owa/edutils.parse_page?nafn=BN054887,Hátún 14,Lóðaruppdráttur,Samþykkt.  Samræmist ákvæðum laga nr. 160 / 2010. Uppdrátturinn öðlast gildi þegar honum hefur verið þinglýst.,"Óskað er eftir samþykki byggingarfulltrúa til að minnka lóð Hátúns 10 (10-14) og stofna lóðirnar Hátún 12 og Hátún 14 samanber meðfylgjandi lóðauppdrátt, dags. 14.06.2018. Lóðin Hátún 10 (10-14), staðgreininr. 1.234.001 og landeignarnr. L102923, er 42356 m². Teknir 15611 m² af lóðinni og bætt við Hátún 12 (landeignarnr. L227056). Teknir 4242 m² af lóðinni og bætt við Hátún 14 (landeignarnr. L227057). Lóðin Hátún 10 verður 22503 m². Lóðin Hátún 12, staðgreininr. 1.234.002 og landeignarnr. L227056. Teknir 15611 m² af Hátúni 10 (landeignarnr. L102923) og bætt við lóðina. Lóðin Hátún 12 verður 15611 m². Lóðin Hátún 14, staðgreininr. 1.234.003 og landeignarnr. L227057. Teknir 4242 m² af Hátúni 10 (landeignarnr. L102923) og bætt við lóðina. Lóðin Hátún 14 verður 4242 m². Sjá deiliskipulag sem samþykkt var í borgarráði þann 07.12.1993, og deiliskipulagsbreytingu sem samþykkt var í borgarráði 21.05.1996."
54757 (01.15.141.1),http://gamli.rvk.is/vefur/owa/edutils.parse_page?nafn=BN054757,Hverfisgata 15,"Tilkynnt framkvæmd - Viðgerð á skorsteinum
Verkbeiðni 37039-21",Afgreitt. Án athugasemda. Samræmist gr. 2.3.5 í byggingarreglugerð nr. 112 / 2012. Senda skal byggingarfulltrúa stutta lýsingu með upplýsingum um lok framkvæmdar sem skal árituð af þeim aðila sem sá um framkvæmdina.,Tilkynnt er um framkvæmd sem felst í því að endurgera skorstein úr léttsteypu með óbreyttu útliti á Þjóðmenningarhússins á lóð nr. 15 við Hverfisgötu. Umsögn Minjastofnunar Íslands dags. 26. mars. 2018 fylgir erindi ásamt greinargerð hönnuðar dags. 05.06.2018 um framkvæmd. Gjald kr. 11.000
54847 (01.13.422.1),http://gamli.rvk.is/vefur/owa/edutils.parse_page?nafn=BN054847,Bræðraborgarstígur 16,(fsp) - Breyta notkun,Frestað. Málinu vísað til umsagnar skipulagsfulltrúa.,"Spurt er hvort leyft yrði að breyta notkun skrifstofurýmis á 3. hæð í gististað í flokki II, teg. íbúð fyrir sex gesti í húsi á lóð nr. 16 við Bræðraborgarstíg."
54804 (01.62.880.2),http://gamli.rvk.is/vefur/owa/edutils.parse_page?nafn=BN054804,Hlíðarendi 14,(fsp) - Staðasetning vinnubúða,Afgreitt. Ekki gerð athugasemd við að koma fyrir starfsmannaaðstöðu á lóð nr. 201420 vegna byggingaframkvæmda á lóð nr. 1 við Haukahlíð.,"Spurt er hvort leyft yrði að koma fyrir starfsmannaaðstöðu, vegna framkvæmda við byggingu fjölbýlishúss á lóð nr. 1 við Haukahlíð, á lóð með landnúmer 201420 eða nr. 14 við Hlíðarenda. Erindi fylgir samþykki landeiganda 201420 dags. 15. júní 2018."
54889 (01.54.000.1),http://gamli.rvk.is/vefur/owa/edutils.parse_page?nafn=BN054889,Hringbraut 77,(fsp) - Viðbygging og bílskúr,Afgreitt. Samanber leiðbeiningar á athugarsemdarblaði.,Spurt er hvort leyft yrði að byggja viðbyggingu og bílskúr við hús á lóð nr. 77 við Hringbraut.
54871 (04.96.130.2),http://gamli.rvk.is/vefur/owa/edutils.parse_page?nafn=BN054871,Mýrarsel 5-11,[fsp) - Bæta við gluggum á vesturhlið og lækka jarðveg,Frestað. Málinu vísað til umsagnar skipulagsfulltrúa.,Spurt er hvort leyft yrði að lækka jarðveg á vesturhlið húss í sömu hæð og er á norðurhlið byggingarinnar og bæta við tveimur gluggum á vesturhlið húss á lóð nr. 11 á lóð nr. 5-11 við Mýrarsel.
