nr,url,heimilisfang,tegund,nidurstada,spurning
45811 (01.11.980.1),http://gamli.rvk.is/vefur/owa/edutils.parse_page?nafn=BN045811,Austurbakki 2,Glerfelliveggur - 1.hæð,Frestað. Vísað til athugasemda á umsóknarblaði.,Sótt er um leyfi til að setja upp fellivegg úr gleri til afmörkunar verslunarrýmis og til að koma fyrir blómakæli og geymslu í tæknirými á 1. hæð Hörpu á lóð nr. 2 við Austurbakka. Gjald kr. 9.000
45796 (01.14.020.9),http://gamli.rvk.is/vefur/owa/edutils.parse_page?nafn=BN045796,Austurstræti 11,Skábraut,Samþykkt.  Samræmist ákvæðum laga nr. 160 / 2010. Með vísan til samþykktar borgarráðs frá 1. september 1998 skal utanhúss- og lóðarfrágangi vera lokið eigi síðar en innan tveggja ára frá útgáfu byggingarleyfis að viðlögðum dagsektum sbr. greinar nr. 2.4.7 og 2.9.2 í byggingarreglugerð nr. 112/2012. Frágangur á lóðamörkum verði gerður í samráði við lóðarhafa aðliggjandi lóða. Áskilin lokaúttekt byggingarfulltrúa.,Sótt er um leyfi til að byggja skábraut og tröppur framan við Hafnarstrætisinngang Landsbanka Íslands á lóð nr. 11 við Austurstræti. Erindi fylgir umsögn samgöngustjóra Reykjavíkurborgar dags. 8. febrúar 2013. Gjald kr. 9.000
45816 (04.60.280.1),http://gamli.rvk.is/vefur/owa/edutils.parse_page?nafn=BN045816,Álfabakki 7,Aðstaða fyrir metanafreiðslu,Frestað. Vísað til athugasemda á umsóknarblaði.,"Sótt er um leyfi til að koma fyrir aðstöðu fyrir metanafgreiðslu sem samanstendur af þrem 24 feta gámum í steyptu gerði með stálhurðum á lóð Olíuverslunar Íslands nr. 7 við Álfabakka. Stærðir: xx ferm., xx rúmm. Gjald kr. 9.000 + xx"
45738 (01.43.430.1),http://gamli.rvk.is/vefur/owa/edutils.parse_page?nafn=BN045738,Álfheimar 74,Breyting inni - 3.hæð,Samþykkt.  Samræmist ákvæðum laga nr. 160 / 2010. Áskilin lokaúttekt byggingarfulltrúa. Áskilið samþykki heilbrigðiseftirlits.,Sótt er um leyfi fyrir innri breytingum á 3. hæð mhl. 02 þar sem speglunarstofur fyrir maga- og ristilspeglanir eru færðar til og þeim fjölgað í húsinu á lóð nr. 74 við Álfheima. Bréf frá hönnuði dags. 11. mars. 2013 fylgir. Gjald kr. 9.000
45844 (01.18.621.2),http://gamli.rvk.is/vefur/owa/edutils.parse_page?nafn=BN045844,Baldursgata 30,Mhl.03 2.h.br.eldhús,Samþykkt.  Samræmist ákvæðum laga nr. 160 / 2010. Áskilin lokaúttekt byggingarfulltrúa. Áskilið samþykki heilbrigðiseftirlits. Áskilið samþykki Vinnueftirlits ríkisins.,Sótt er um leyfi til þess að breyta staðsetningu á eldhúsi nýsamþykktrar íbúðar (sjá erindi BN045322) á annarri hæð matshluta 03 á lóðinni nr. 30 við Baldursgötu. Gjald kr. 9.000
45741 (01.17.120.2 01),http://gamli.rvk.is/vefur/owa/edutils.parse_page?nafn=BN045741,Bankastræti 14,Klæðning - gluggar,Samþykkt.  Samræmist ákvæðum laga nr. 160 / 2010. Áskilin lokaúttekt byggingarfulltrúa.,"Sótt er um leyfi til að klæða að utan með loftaðri, sléttri álklæðningu og fjarlægja steypta útskagandi bitaenda, skipta um glugga og koma fyrir frönskum svölum með glerhandriðum á húsinu á lóðinni nr. 14 við Bankastræti. Gjald kr. 9.000"
45735 (01.17.000.7),http://gamli.rvk.is/vefur/owa/edutils.parse_page?nafn=BN045735,Bankastræti 7,Reyndarteikningar,Samþykkt.  Samræmist ákvæðum laga nr. 160 / 2010. Skilyrt er að eignaskiptayfirlýsingu vegna breytinga í húsinu sé þinglýst til þess að samþykktin öðlist gildi.     Áskilin lokaúttekt byggingarfulltrúa. Áskilið samþykki heilbrigðiseftirlits. Áskilið samþykki Vinnueftirlits ríkisins.,"Sótt er um samþykki fyrir reyndarteikningum þar sem gerð er grein fyrir ýmsum minni háttar breytingum sem orðið hafa á framkvæmdatíma við innréttingu á farfuglaheimili í húsi á lóð nr. 7 við Bankastræti. Leiðréttar stærðir: Stækkun var 16,4 ferm., 46 rúmm. Stækkun verður 15,6 ferm., 39,3 rúmm. Gjald kr. 9.000"
45640 (01.71.010.3),http://gamli.rvk.is/vefur/owa/edutils.parse_page?nafn=BN045640,Barmahlíð 38,Breyting inni - kjallari,Frestað. Vísað til athugasemda á umsóknarblaði.,Sótt er um leyfi til að breyta innra skipulagið kjallara þannig að íbúðin stækkar í húsinu á lóð nr. 38 við Barmahlíð. Samþykki eigenda að íbúð 0201 fylgir dags. 20. feb. 2013. Gjald kr. 9.000
45462 (01.71.011.2),http://gamli.rvk.is/vefur/owa/edutils.parse_page?nafn=BN045462,Barmahlíð 56,Kjallari - Hurð í stað glugga,Samþykkt.  Samræmist ákvæðum laga nr. 160 / 2010. Með vísan til samþykktar borgarráðs frá 1. september 1998 skal utanhúss- og lóðarfrágangi vera lokið eigi síðar en innan tveggja ára frá útgáfu byggingarleyfis að viðlögðum dagsektum sbr. greinar nr. 2.4.7 og 2.9.2 í byggingarreglugerð nr. 112/2012. Áskilin lokaúttekt byggingarfulltrúa.,Sótt er um leyfi til þess að síkka stofuglugga kjallaraíbúðar og útbúa verönd á suðurhlið hússins á lóðinni nr. 56 við Barmahlíð. Samþykki meðeigenda í húsinu nr. 54-56 við Barmahlíð (á teikn.) fylgir erindinu. Gjald kr. 9.000
45772 (01.13.630.3),http://gamli.rvk.is/vefur/owa/edutils.parse_page?nafn=BN045772,Bárugata 11,Reyndarteikningar,Samþykkt.  Samræmist ákvæðum laga nr. 160 / 2010. Áskilin lokaúttekt byggingarfulltrúa.,"Sótt er um samþykkt á reyndarteikningum, sjá erindi BN045288, af gistiheimili í húsi á lóð nr. 11 við Bárugötu. Gjald kr. 9.000"
44385 (04.06.500.2),http://gamli.rvk.is/vefur/owa/edutils.parse_page?nafn=BN044385,Bíldshöfði 18,Breyting á skráningu,Frestað. Lagfæra skráningartöflu.,Sótt er um leyfi til að breyta eignarhaldi á rýmum 0201 og 0204 í atvinnuhúsi á lóð nr. 18 við Bíldshöfða. Gjald kr. 8.500
45758 (01.22.100.1),http://gamli.rvk.is/vefur/owa/edutils.parse_page?nafn=BN045758,Borgartún 18,Reyndarteikningar v/lokaúttektar,Samþykkt.  Samræmist ákvæðum laga nr. 160 / 2010. Áskilin lokaúttekt byggingarfulltrúa.,Sótt er um samþykki fyrir reyndarteikningum vegna lokaúttektar sbr. BN042899 þar sem glerveggur er fjarlægður á 3. hæð í húsinu á lóð nr. 18 við Borgartún. Gjald kr. 9.000
45815 (01.21.810.1),http://gamli.rvk.is/vefur/owa/edutils.parse_page?nafn=BN045815,Borgartún 25,Veitingastaður fl.1 - 1.hæð,Samþykkt.  Samræmist ákvæðum laga nr. 160 / 2010. Áskilin lokaúttekt byggingarfulltrúa. Áskilið samþykki heilbrigðiseftirlits.,Sótt er um leyfi til að innrétta veitingastað í flokki I á 1. hæð atvinnuhúss á lóð nr. 25 við Borgartún. Gjald kr. 9.000
42394 (01.22.010.7),http://gamli.rvk.is/vefur/owa/edutils.parse_page?nafn=BN042394,Borgartún 8-16,S2 - Hótel,Samþykkt.  Samræmist ákvæðum laga nr. 160 / 2010. Frágangur á lóðamörkum verði gerður í samráði við lóðarhafa aðliggjandi lóða. Áskilin lokaúttekt byggingarfulltrúa. Áskilið samþykki heilbrigðiseftirlits. Áskilið samþykki Vinnueftirlits ríkisins.,"Sótt er um leyfi til að byggja 7-16 hæða hótel flokki V teg. A, bygging S2 í deiliskipulagi, með 342 herbergjum, ásamt 4. áfanga bílakjallara á lóð nr. 8-16 við Borgartún. Erindi fylgir bréf aðalhönnuðar dags. 21. mars 2013, ósk um undanþágu frá byggingareglugerð 112/2012 dags. 3. apríl 2013, yfirlýsing Verkís dags. 2. apríl 2013, minnisblað um hljóðvist dags. 20. desember 2012, umsókn um breytta akstursstefnu í Skúlatúni dags. 21. desember 2010, bílastæðabókhald síðast breytt 28. mars 2012 og brunahönnun frá Verkís dags. í apríl 2013. Stærðir: Kjallari -1, geymslur 1451,8 ferm., kjallari, geymslur 1.423,9 ferm., 1. hæð móttaka 1.372,4 ferm., 2. hæð herbergi 1.426,4 ferm., 3. -7. hæð herbergi 1.232,9 ferm., 8. - 16. hæð herbergi 574,2 ferm., 17. hæð tæknirými 64,4 ferm. Samtals: 17.071,2 ferm., 61.372,2 rúmm. Gjald kr. 7.700 + 5.523.498"
45744 (01.35.100.1),http://gamli.rvk.is/vefur/owa/edutils.parse_page?nafn=BN045744,Brúnavegur 13,Sólskáli -Jökulgrunn 20,"Samþykkt.  Samræmist ákvæðum laga nr. 160 / 2010. Með vísan til samþykktar borgarráðs frá 1. september 1998 skal utanhúss- og lóðarfrágangi vera lokið eigi síðar en innan tveggja ára frá útgáfu byggingarleyfis að viðlögðum dagsektum sbr. greinar nr. 2.4.7 og 2.9.2 í byggingarreglugerð nr. 112/2012. Skilyrt er að ný eignaskiptayfirlýsing sé samþykkt fyrir útgáfu byggingarleyfis, henni verður þinglýst eigi síðar en við fokheldi. Áskilin lokaúttekt byggingarfulltrúa.","Sótt er um leyfi til að byggja sólskála við austurhlið raðhússins Jökulgrunn 20 (matshl. 22) á lóð nr. 13 við Brúnaveg. Stækkun: 16,4 ferm., 38,9 rúmm.  9.000 + 3.501"
45786 (04.79.180.6),http://gamli.rvk.is/vefur/owa/edutils.parse_page?nafn=BN045786,Búðavað 21-23,Gluggabreytingar,Samþykkt.  Samræmist ákvæðum laga nr. 160 / 2010. Með vísan til samþykktar borgarráðs frá 1. september 1998 skal utanhúss- og lóðarfrágangi vera lokið eigi síðar en innan tveggja ára frá útgáfu byggingarleyfis að viðlögðum dagsektum sbr. greinar nr. 2.4.7 og 2.9.2 í byggingarreglugerð nr. 112/2012. Áskilin lokaúttekt byggingarfulltrúa.,Sótt er um leyfi til þess að breyta gluggasetningu á öllum hliðum og breyta aðkomu að baðherbergi á annarri hæð í báðum íbúðum parhússins  á lóðinni nr. 21-23 við Búðavað. Gjald kr. 9.000
45737 (01.08.920.2),http://gamli.rvk.is/vefur/owa/edutils.parse_page?nafn=BN045737,Fiskislóð 23-25,Breyting,Samþykkt.  Samræmist ákvæðum laga nr. 160 / 2010. Áskilin lokaúttekt byggingarfulltrúa. Áskilið samþykki heilbrigðiseftirlits. Áskilið samþykki Vinnueftirlits ríkisins.,Sótt er um leyfi til að breyta innra skipulagi og starfsemi í norðurhluta atvinnuhúss á lóð nr. 23-25 við Fiskislóð. Gjald kr. 9.000
45795 (02.69.380.1),http://gamli.rvk.is/vefur/owa/edutils.parse_page?nafn=BN045795,Friggjarbrunnur 1,Breytingar inni og úti,Samþykkt.  Samræmist ákvæðum laga nr. 160 / 2010. Áskilin lokaúttekt byggingarfulltrúa.,Sótt er um leyfi til minni háttar breytinga á innra skipulagi íbúða og á lóð (sjá erindi BN037800) fjölbýlishúss á lóð nr. 1 við Friggjarbrunn. Gjald kr. 9.000
45672 (01.11.730.4),http://gamli.rvk.is/vefur/owa/edutils.parse_page?nafn=BN045672,Geirsgata 3A-3B,3B - Innrétta veitingastað,Frestað. Vísað til athugasemda á umsóknarblaði.,"Sótt er um leyfi til að stækka veitingastað með því að taka í notkun 2. hæð, innrétta 1. hæð upp á nýtt, fjölga gestum í 90 gesti, koma fyrir útiveitingum fyrir 40 gesti, breyta stiga og koma fyrir glugga á norðurhlið hússins nr. 3B á lóð nr. 3A-3B og einnig er sótt um að færa starfsmannaaðstöðu, lager, kæli og frysti á lóð nr. 5B. við Geirsgötu. Samþykki eigenda fylgir á Teikningum A3 ódags. Gjald kr. 9.000"
45804 (01.11.730.6),http://gamli.rvk.is/vefur/owa/edutils.parse_page?nafn=BN045804,Geirsgata 5-5C,5B - Breyting inni - efri hæð,Frestað. Vísað til athugasemda á umsóknarblaði.,"Sótt er um leyfi til þess að innrétta starfsmannaaðstöðu, lager og skrifstofur á efri hæð hússins nr. 5C á lóðinni nr. 5-5C við Geirsgötu. Aðstaðan þjónar veitingastað í húsinu nr. 3B við Geirsgötu. Gjald kr. 9.000"
45805 (01.11.730.6),http://gamli.rvk.is/vefur/owa/edutils.parse_page?nafn=BN045805,Geirsgata 5-5C,5C - Gluggi á gafl,Samþykkt.  Samræmist ákvæðum laga nr. 160 / 2010. Með vísan til samþykktar borgarráðs frá 1. september 1998 skal utanhúss- og lóðarfrágangi vera lokið eigi síðar en innan tveggja ára frá útgáfu byggingarleyfis að viðlögðum dagsektum sbr. greinar nr. 2.4.7 og 2.9.2 í byggingarreglugerð nr. 112/2012. Áskilin lokaúttekt byggingarfulltrúa.,Sótt er um leyfi til þess að bæta við glugga á gafli (norðurhlið) hússins nr. 5C á lóðinni nr. 5-5C við Geirsgötu. Gjald kr. 9.000
45639 (05.05.640.5),http://gamli.rvk.is/vefur/owa/edutils.parse_page?nafn=BN045639,Gerðarbrunnur 24-26,Breytingar - BN037555,Samþykkt.  Samræmist ákvæðum laga nr. 160 / 2010. Með vísan til samþykktar borgarráðs frá 1. september 1998 skal utanhúss- og lóðarfrágangi vera lokið eigi síðar en innan tveggja ára frá útgáfu byggingarleyfis að viðlögðum dagsektum sbr. greinar nr. 2.4.7 og 2.9.2 í byggingarreglugerð nr. 112/2012. Frágangur á lóðamörkum verði gerður í samráði við lóðarhafa aðliggjandi lóða. Áskilin lokaúttekt byggingarfulltrúa.,"Sótt er um leyfi til að breyta áður samþykktu erindi BN037555 þar sem koma fram breytingar á gluggum, handrið verður steypt, setlaugum bætt við á lóð, stiga milli hæða breytt úr léttri í steyptan, millipallur hækkaður, nýr steyptur veggur milli húsa 24 og 26 og veggur við göngustíg hækkaður í 1,60m í húsinu á lóð nr. 24-26 við Gerðarbrunn. Gjald kr. 9.000"
45745 (01.11.530.1),http://gamli.rvk.is/vefur/owa/edutils.parse_page?nafn=BN045745,Grandagarður 2,Breyting úti og inni,Frestað. Vísað til athugasemda á umsóknarblaði.,"Sótt er um leyfi til breytinga innanhús á 1. hæð og innrétta þar fyrir Sögusafnið með veitingasal fyrir 45 gesti í flokki II, kaffihús, sölu minjagripa og með aðstöðu til myndsýninga fyrir 10-20 manns, endurnýja þakjárn, lagfæra veggi með endurgerð glugga og hurða, rífa byggingu í sundi milli matshluta og gera nýjan inntaksklefa í Alliance húsinu á lóð nr. 2 við Grandagarð. Meðfylgjandi er umsög Minjasafns Reykjavíkur dags. 21.3. 2013. Niðurrif: xx ferm., xx rúmm. Gjald kr. 9.000"
45691 (01.11.500.1),http://gamli.rvk.is/vefur/owa/edutils.parse_page?nafn=BN045691,Grandagarður 21,Ísbúð,Frestað. Vísað til athugasemda á umsóknarblaði.,"Sótt er um leyfi til að innrétta ísbúð í mhl. 04 í rými 0101 og á millipalli sem er áður gerður í húsinu nr. 21 á lóð nr. 15-37 við Grandagarð. Samþykki Faxaflóahafnir dags. 5. mars 2013, bréf frá hönnuði dags. 04. mars 2013 Leigusamningur frá Faxaflóahöfnum dags. 31. jan. 2013 og umsögn burðarvirkshönnuðar dags. mars 2013 fylgir. Stækkun millipalls ? ferm. Gjald kr. 9.000"
45810 (05.11.470.2),http://gamli.rvk.is/vefur/owa/edutils.parse_page?nafn=BN045810,Haukdælabraut 48-56,Breyta sökklum,Frestað. Vísað til athugasemda á umsóknarblaði.,"Sótt er um leyfi til þess að breyta áður uppfylltum sökklum í óuppfyllta sökkla  í húsum nr. 52, 54 og 56 á raðhúsalóð nr. 48-56 við Haukdælabraut. Gjald kr. 9.000"
45561 (01.28.440.1),http://gamli.rvk.is/vefur/owa/edutils.parse_page?nafn=BN045561,Háaleitisbraut 58-60,Snyristofa og flóttasvalir,Frestað. Vísað til athugasemda á umsóknarblaði.,"Sótt er um leyfi til þess að að innrétta snyrtistofu (rými 0202), byggja  flóttasvalir og breyta gluggum við innhorn milli vestur- og norðurálmu í rýmum 0201 og 0202 í húsi á lóð nr. 58-60 við Háaleitisbraut. Jafnframt er erindi BN044521 dregið til baka að ósk hönnuðar. Samþykki frá aðalfundi húsfélagsins Miðbær sem haldinn var 9. júlí 2012 og bréf frá formanni húsfélagsins dags 23. janúar 2013 fylgja erindinu. Bréf hönnuðar dags. 27. febrúar 2013 fylgir erindinu. Gjald kr. 9.000"
45788 (04.73.160.1),http://gamli.rvk.is/vefur/owa/edutils.parse_page?nafn=BN045788,Helluvað 7-21,Reyndarteikningar - nr.7-13,Samþykkt.  Samræmist ákvæðum laga nr. 160 / 2010. Áskilin lokaúttekt byggingarfulltrúa.,Sótt er um samþykki á reyndarteikningum þar sem búið er að endurskilgreina brunatákn á hurðum sem liggja að brunastúkum í kjallara fjölbýlishússins nr. 7-13 á lóðinni nr. 7-21 við Helluvað. Samanber gögn sem fylgja með máli BN045789 er varða sams konar erindi fyrir hús nr. 15-21 á sömu lóð. Gjald kr. 9.000
45789 (04.73.160.1),http://gamli.rvk.is/vefur/owa/edutils.parse_page?nafn=BN045789,Helluvað 7-21,Reyndarteikningar - nr.15-21,Samþykkt.  Samræmist ákvæðum laga nr. 160 / 2010. Áskilin lokaúttekt byggingarfulltrúa.,Sótt er um samþykki á reyndarteikningum þar sem búið er að endurskilgreina brunatákn á hurðum sem liggja að brunastúkum í kjallara fjölbýlishússins nr. 15-21 á lóðinni nr. 7-21 við Helluvað. Meðfylgjandi er bréf arkitekts dags. 19.3. 2013 og umsögn eldvarnahönnuðar dags. 9.1. 2013. Gjald kr. 9.000
45809 (04.32.300.1),http://gamli.rvk.is/vefur/owa/edutils.parse_page?nafn=BN045809,Hestháls  2-4,Milliloft - breyting 01-05,Frestað. Samkvæmt gögnum embættisins er lágmarksgjald ógreitt.,"Sótt er um leyfi til að breyta skráningu á millilofti 0105 og telja það ekki sem stærð í skráningartöflu sbr. BN045625 heldur sem niðurhengt loft í iðnaðarhúsinu á lóðinni nr. 2-4 við Hestháls. Minnkun 150,6 ferm. Gjald kr. 9.000]"
45376 (01.62.880.1),http://gamli.rvk.is/vefur/owa/edutils.parse_page?nafn=BN045376,Hlíðarendi 2-6,Íþróttamiðstöð Vals - 2. áfangi,Frestað. Vísað til athugasemda á umsóknarblaði.,"Sótt er um leyfi til að byggja steinsteypta viðbyggingu sem tengja fjósið gömlu íbúðarhúsi og og gamla íþróttahúsinu, innrétta 11 gistieiningar í tengibyggingunni, innrétta minjasafn í Fjósinu og sameiginlega setustofu í gamla íbúðarhúsinu á lóð nr. 2-6 við Hlíðarenda. Erindi fylgir brunahönnun frá verkfræðistofunni Eflu dags. 8. mars 2013, umsögn Húsafriðunarnefndar dags. 21. febrúar 2011. útskrift úr gerðabók embættisafgreiðslufundar skipulagsfulltrúa frá 1. febrúar 2013 og umsögn skipulagsfulltrúa dags. 25. janúar 2013. Viðbygging:  1. hæð 538,9 ferm., 2. hæð 248,5 ferm., 3. hæð 121,2 ferm. 2. áfangi samtals:  908,6 ferm., 2.998,1 rúmm. Gjald kr. 8.500 + 269.829"
45792 (01.13.921.0),http://gamli.rvk.is/vefur/owa/edutils.parse_page?nafn=BN045792,Hringbraut 92,Breyta í einbýlishús,Frestað. Vísað til athugasemda á umsóknarblaði og til umsagnar Minjasafns Reykjavíkur.,"Sótt er um leyfi til að skrá sem eina íbúð, rífa stiga við suðurhlið og byggja nýjan ásamt nýrri útihurð við austurhlið íbúðarhússins á lóðinni nr. 92 við Hringbraut. Gjald kr. 9.000"
45798 (01.86.020.1),http://gamli.rvk.is/vefur/owa/edutils.parse_page?nafn=BN045798,Hulduland  1-3,"Klæðning, svalir",Frestað. Vísað til athugasemda á umsóknarblaði.,"Sótt er um leyfi til að stækka svalir, smíða ný svalahandrið og klæða að utan með sléttri álklæðningu á álgrind með 50 mm steinullareinangrun fjölbýlishúsið nr. 1-3 á lóðinni nr. 1-48 við Hulduland. Gjald kr. 9.000"
45797 (01.22.211.8),http://gamli.rvk.is/vefur/owa/edutils.parse_page?nafn=BN045797,Hverfisgata 125,Gustlokun,Frestað. Samkvæmt gögnum embættisins er lágmarksgjald ógreitt.,"Sótt er um leyfi til að koma fyrir gustlokun úr samlímdu hertu gleri við stiga og lyftu við innganga á norðurhlið í íbúðir Brynju, hússjóðs Öryrkjabandalagsins, í húsi á lóð nr. 125 við Hverfisgötu. Meðfylgjandi er bréf arkitekts dags. 26.3. 2013, samþykki meðeiganda í rými 0101 og eldvarnaskýrsla dags. 22.3. 2013. Gjald kr. 9.000"
45818 (01.15.140.9),http://gamli.rvk.is/vefur/owa/edutils.parse_page?nafn=BN045818,Hverfisgata 21,Breyting á byggingarlýsingu,Samþykkt.  Samræmist ákvæðum laga nr. 160 / 2010. Áskilin lokaúttekt byggingarfulltrúa. Áskilið samþykki heilbrigðiseftirlits.,Sótt er um breytingu á flokkun og starfsemi í byggingarlýsingu og breytingu á brunavarnartexta fyrir gistiheimili í húsi á lóð nr. 21 við Hverfisgötu. Gjald kr. 9.000
44977 (01.15.251.7),http://gamli.rvk.is/vefur/owa/edutils.parse_page?nafn=BN044977,Hverfisgata 57,Ljúka við byggingu húss,Frestað. Málinu vísað til umsagnar skipulagsfulltrúa.,"Sótt er um leyfi til þess að byggja úr steinsteypu tvær hæðir og rishæð, samtals sex íbúðir, ofan á hús sem nú er ein hæð og kjallari, skráð ein íbúð, á lóðinni nr. 57 við Hverfisgötu.  Útskrift úr gerðabók embættisafgreiðslufundar skipulagsstjóra frá 9. nóvember 2012 fylgir erindinu. Ný skráningartafla fylgir erindinu. Stærð: Fjölbýlishús xx ferm. og xx rúmm.  Gjald kr. 8.500 + xx."
45814 (04.07.500.1),http://gamli.rvk.is/vefur/owa/edutils.parse_page?nafn=BN045814,Höfðabakki 9,"Breytingar - 1.hæð, 2 hæð og kjallara",Frestað. Vísað til athugasemda á umsóknarblaði.,"Sótt er um leyfi til að breyta innréttingum í kjallara, á 1. og 2. hæð í millibyggingu, þar sem skrifstofur sálfræðinga verða á 2. hæð, litlar leigueiningar innréttaðar í kjallara og stigi milli hæða er fjarlægður, en nýr flóttastigi er byggður í millibyggingu T-mn í húsi á lóð nr. 9 við Höfðabakka. Stækkun xx ferm. Gjald kr. 9.000"
44696 (04.97.510.4),http://gamli.rvk.is/vefur/owa/edutils.parse_page?nafn=BN044696,Kambasel 69,Minnka 0402 - stækka 0401,"Samþykkt.  Samræmist ákvæðum laga nr. 160 / 2010. Skilyrt er að ný eignaskiptayfirlýsing sé samþykkt fyrir útgáfu byggingarleyfis, henni verður þinglýst eigi síðar en við lokaúttekt. Áskilin lokaúttekt byggingarfulltrúa.",Sótt er um leyfi til þess að færa til vegg og minnka þannig rými 0402 en stækka rými 0401 sem því nemur í fjölbýlishúsinu nr. 69 á lóðinni nr. 67-69 við Kambasel. Ný skráningartafla fylgir erindinu.  Samþykki húsfélags af húsfundi dags. 13. júní 2012 fylgir erindinu. Gjald kr. 8.500
45800 (01.35.410.8),http://gamli.rvk.is/vefur/owa/edutils.parse_page?nafn=BN045800,>Kambsvegur 22,Kvistur,Frestað. Vísað til athugasemda á umsóknarblaði.,"Sótt er um leyfi til að byggja tvo kvisti og breyta innra skipulagi í þakhæð fjölbýlishúss á lóð nr. 22 við Kambsveg. Stækkun:   27,5 rúmm. Gjald kr. 9.000 + 2.475"
44674 (01.35.260.3),http://gamli.rvk.is/vefur/owa/edutils.parse_page?nafn=BN044674,Kambsvegur 8,Svalir og viðbygging,Frestað. Vísað til athugasemda á umsóknarblaði.,"Sótt er um leyfi til þess að rífa svalir, byggja viðbyggingu að suður- og vesturhlið og nýta þak hinnar nýju viðbyggingar sem svalir íbúðar annarrar hæðar í húsinu á lóðinni nr. 8 við Kambsveg. Erindið var grenndarkynnt frá 25. febrúar til og með 25. mars 2013. Engar athugasemdir bárust. Útskrift úr gerðabók embættisafgreiðslufundar skipulagsstjóra frá 8. júní 2012 fylgir erindinu. Umsögn skipulagsstjóra (v. fyrirspurnar) dags. 7. júní 2012. fylgir erindinu. Einnig fylgir útskrift úr gerðabók embættisafgreiðslufundar skipulagsfulltrúa frá 04. apríl 2013.  Einnig lagt fram tölvubréf Selmu Guðmundsdóttur dags. 13. mars 2013 þar sem ekki er gerð athugasemd við fyrirhugaða framkvæmd. Ný skráningartafla fylgir erindinu. Stærð: Stækkun, viðbygging 40,6 ferm. og 112,5 rúmm. Gjald kr. 8.500 + 9.563"
45812 (01.32.930.2),http://gamli.rvk.is/vefur/owa/edutils.parse_page?nafn=BN045812,Köllunarklettsvegur 8,Reyndarteikningar,Frestað. Vísað til athugasemda á umsóknarblaði.,"Sótt er um samþykki á reyndarteikningum og uppfærðri brunaskýrslu, netvegg er komið fyrir á 1. hæð og vegg og útljósum bætt við á 2. hæð í atvinnuhúsi á lóð nr. 8 við Köllunarklettsveg. Meðfylgjandi er Brunahönnun dags. 6.3. 2013. Gjald kr. 9.000"
45705 (02.68.070.1),http://gamli.rvk.is/vefur/owa/edutils.parse_page?nafn=BN045705,Lambhagavegur 29,Ræktunar- og þjónustuhús,Frestað. Vísað til athugasemda heilbrigðiseftirlits á umsóknarblaði.,"Sótt er leyfi til að byggja ræktunar og þjónustuhús úr staðsteyptri steinsteypu á lóðinni nr. 29 við Lambhagaveg. Útskrift úr gerðabók embættisafgreiðslufundar skipulagsfulltrúa frá 22. mars 2013 fylgir erindinu ásamt umsögn skipulagsfulltrúa dags. 22. mars 2013. Stærð:Kjallari 1348,2 ferm., 7898,4 rúmm. 1. hæð 493,6 ferm. 2074,7 rúmm.  Botn 269,6 rúmm. Samtals eftir stækkun brúttó: 1841,8 ferm., 10242,7 rúmm. Gjald kr. 9.000 + 9.000 + 921.843"
45379 (01.18.340.9),http://gamli.rvk.is/vefur/owa/edutils.parse_page?nafn=BN045379,Laufásvegur 24,Síkka glugga til suðurs og vesturs,Samþykkt.  Samræmist ákvæðum laga nr. 160 / 2010. Með vísan til samþykktar borgarráðs frá 1. september 1998 skal utanhúss- og lóðarfrágangi vera lokið eigi síðar en innan tveggja ára frá útgáfu byggingarleyfis að viðlögðum dagsektum sbr. greinar nr. 2.4.7 og 2.9.2 í byggingarreglugerð nr. 112/2012. Áskilin lokaúttekt byggingarfulltrúa.,Sótt er um leyfi til þess að síkka glugga í suðvesturhorni og koma fyrir tvöfaldri svalahurð á vesturhlið (bakhlið) hússins á lóð nr. 24 við Laufásveg.  Útskrift úr gerðabók embættisafgreiðslufundar skipulagsstjóra frá 11. janúar 2013 fylgir erindinu. Umsögn Minjasafns Reykjavíkur dags. 15. febrúar 2013 og umsögn Minjastofnunar Íslands dags. 8. febrúar 2013 fylgja erindinu. Gjald kr. 8.500
45656 (01.36.000.6),http://gamli.rvk.is/vefur/owa/edutils.parse_page?nafn=BN045656,Laugarnesvegur 47,"Breyting - BN044459
",Synjað. Með vísan til umsagnar skipulagsfulltrúa dags. 2. apríl 2013.,"Sótt er um leyfi til að breyta áður samþykktu erindi BN04459 þannig að  húsið stækkar þar sem bætt verður við kaldri geymslu undir anddyri, innréttað verður gufubað og sturta í hluta bílgeymslu, glugga og hurð breytt, sett verður vængjahurð á bílageymslu og stiga breytt úr steyptum í timburstiga í húsinu á lóð nr. 47 við Laugarnesveg.  Útskrift úr gerðabók embættisafgreiðslufundar skipulagsfulltrúa ásamt umsögn skipulagsfulltrúa dags.02. apríl 2013 fylgja erindinu. Stækkun frá áður samþykktu er: 12,1 ferm., 28,5 rúmm. Gjald kr. 9.000 + 9.000 + 2.565"
45591 (01.24.000.5),http://gamli.rvk.is/vefur/owa/edutils.parse_page?nafn=BN045591,Laugavegur 105,1.hæð og kjallari - Móttaka og veitingastaður,Frestað. Með vísan til umsagnar Minjasafns Reykjavíkur dags. 4. apríl 2013.,"Sótt er um leyfi til að innrétta móttöku (fyrir gistiheimili á efri hæðum) og veitingastað í flokki II á 1. hæð, gera stiga milli kjallara og 1. hæðar, skyggni yfir inngang og til að breyta innra skipulagi í kjallara verslunar- og skrifstofuhúss á lóð nr. 105 við Laugaveg. Útskrift úr gerðabók embættisafgreiðslufundar skipulagsfulltrúa frá 15. mars 2013 fylgir erindinu ásamt umsögn Minjasafns Reykjavíkur dags. 4. apríl 2013, umsögn burðarvirkishönnuðar dags. 18. mars 2013 og umsögn Minjastofnunar dags. 27. mars 2013. Erindi fylgir samþykki meðlóðarhafa áritað á uppdrætti. Gjald kr. 9.000"
45776 (01.22.220.4),http://gamli.rvk.is/vefur/owa/edutils.parse_page?nafn=BN045776,Laugavegur 151,Fjölbýlishús,Frestað. Vísað til athugasemda á umsóknarblaði.,"Sótt er um leyfi til þess að byggja átta íbúða steinsteypt fjölbýlishús sem er kjallari, tvær hæðir og rishæð á lóð nr. 151-155 við Laugaveg. Sjá einnig erindi BN045836, BN045837 og BN045839 um leyfi til þess að rífa húsin nr. 151, 153 og 155 við Laugaveg.  Samþykki eiganda húss nr. 153 við Laugaveg dags. 30. mars 2013 fylgir erindinu. Beðið er um undanþágu 6.-16 hluta byggingarreglugerðar nr. 112 / 2012. Stærðir: Kjallari, bílageymsla og geymslur 365,3 ferm. Fyrsta hæð, íbúðir 255,0 ferm. Önnur hæð, íbúðir 263,3 ferm. Þriðja hæð, íbúðir 263,3 ferm. Samtals 1146,9 ferm. og 3753,6 rúmm. Gjald kr. 9.000 + 337.824"
45836 (01.22.220.4),http://gamli.rvk.is/vefur/owa/edutils.parse_page?nafn=BN045836,Laugavegur 151,Niðurrif,Frestað. Vísað til athugasemda á umsóknarblaði.,"Sótt er um leyfi til þess að rífa íbúðarhús og bílskúr á lóðinni nr. 151 við Laugaveg. Sjá erindi BN045776, Laugavegur 151-155. Samþykki meðeiganda á sameinaðri lóð nr. 151-155 við Laugaveg dags. 30. mars 2013 fylgir erindinu. Landnúmer 102866. Stærð: Íbúðarhús, matshl. 01 fastanr. 200-9784, 77,4 ferm.  Bílskúr, matshl. 02 fastanr. 200-9785, 13,5 ferm. Alls 90,9 ferm. Gjald kr. 9.000"
45837 (01.22.220.5),http://gamli.rvk.is/vefur/owa/edutils.parse_page?nafn=BN045837,Laugavegur 153,Niðurrif,Frestað. Vísað til athugasemda á umsóknarblaði.,"Sótt er um leyfi til þess að rífa íbúðarhús og geymsluskúr á lóðinni nr. 153 við Laugaveg. Sbr. erindi BN045776, Laugavegur 151-153. Samþykki meðeiganda á sameinaðri lóð nr. 151-155 við Laugaveg dags. 30. mars 2013 fylgir erindinu. Landnúmer 102867. Stærð: Íbúðarhús, matshl. 01 fastanr. 200-9786 og 200-9787, 130,7 ferm.  Geymsluskúr, matshl. 02 fastanr. 200-9788, 21,6 ferm. Alls 152,3 ferm. Gjald kr. 9.000"
45839 (01.22.220.6),http://gamli.rvk.is/vefur/owa/edutils.parse_page?nafn=BN045839,Laugavegur 155,Niðurrif,Frestað. Samkvæmt gögnum embættisins er lágmarksgjald ógreitt.,"Sótt er um leyfi til þess að rífa íbúðarhús á lóðinni nr. 155 við Laugaveg. Sbr. erindi BN045776, Laugavegur 151-153. Samþykki meðeiganda á sameinaðri lóð nr. 151-155 við Laugaveg dags. 30. mars 2013 fylgir erindinu. Landnúmer 102868. Stærð: Íbúðarhús, matshl. 01 fastanr. 200-9789, 29,3 ferm.  Gjald kr. 9.000"
45688 (01.17.302.0),http://gamli.rvk.is/vefur/owa/edutils.parse_page?nafn=BN045688,Laugavegur 55,Veitingahús í fl. 3,Synjað. Með vísan til umsagnar skipulagsfulltrúa dags. 3. apríl 2013.,Sótt er um leyfi til þess að starfrækja veitingastað í flokki III í bakhúsi þar sem rekinn hefur verið veitingastaður í flokki II á lóðinni nr. 55 við Laugaveg. Innra fyrirkomulag staðarins er óbreytt að sögn tilvonandi rekstaraðila. Útskrift úr gerðabók embættisafgreiðslufundar skipulagsfulltrúa frá 04. apríl 2013 ásamt umsögn skipulagsfulltrúa dags. 03. apríl 2013 fylgja erindinu. Gjald kr. 9.000
45822 (01.87.410.1),http://gamli.rvk.is/vefur/owa/edutils.parse_page?nafn=BN045822,Láland 18-24,Nr. 22 - endurnýjun botnplötu og lagna,Samþykkt.  Samræmist ákvæðum laga nr. 160 / 2010. Áskilin lokaúttekt byggingarfulltrúa.,Sótt er um leyfi til að endurgera steypta botnsplötu og lagnir í einbýlishúsi nr. 22 á lóð nr. 18-24 við Láland. Erindi fylgir umsögn burðarvirkishönnuðar dags. 2. apríl 2013. Gjald kr. 9.000
45730 (01.15.252.1),http://gamli.rvk.is/vefur/owa/edutils.parse_page?nafn=BN045730,Lindargata 46-46A,Fjarskiptaloftnet,Samþykkt.  Samræmist ákvæðum laga nr. 160 / 2010. Áskilin lokaúttekt byggingarfulltrúa.,Sótt er um leyfi til að staðsetja farsímaloftnet á þaki og sendi í rými 0104 í íbúðahúsi Félagsstofnunar stúdenta á lóð nr. 46A við Lindargötu. Gjald kr. 9.000
45604 (01.71.000.1),http://gamli.rvk.is/vefur/owa/edutils.parse_page?nafn=BN045604,Miklabraut 68,Reyndarteikningar af kjallara,Samþykkt.  Samræmist ákvæðum laga nr. 160 / 2010. Skilyrt er að eignaskiptayfirlýsingu vegna breytinga í húsinu sé þinglýst til þess að samþykktin öðlist gildi.     Áskilin lokaúttekt byggingarfulltrúa.,"Sótt er um samþykki á reyndarteikningu vegna eignaskiptayfirlýsingar af mhl. 01, kjallara fjöleignahúss á lóð nr. 68 við Miklubraut. Gjald kr. 9.000 + 9.000"
45845 (01.11.530.3),http://gamli.rvk.is/vefur/owa/edutils.parse_page?nafn=BN045845,Mýrargata 26,"takmark.byggingarleyfi - veggir 4. hæð, plata y. 4. hæð",Samþykkt.  Samræmist ákvæðum laga nr. 160 / 2010. Samþykktin fellur úr gildi við útgáfu á endanlegu byggingarleyfi. Vegna útgáfu á takmörkuðu byggingarleyfi skal umsækjandi hafa samband við yfirverkfræðing embættis byggingarfulltrúa.,Sótt er um takmarkað byggingarleyfi  fyrir uppsteypu á veggjum á 4. hæð og plötu yfir 4. hæð samkvæmt beiðni í húsinu á lóðinni nr. 26 við Mýrargötu.   Erindið er vegna byggingaleyfis nr. BN044699 sem samþykkt var þann 17.07 2012 og breytingu á BN035993 sem samþykkt var 27.05 2007.
45802 (01.18.213.2),http://gamli.rvk.is/vefur/owa/edutils.parse_page?nafn=BN045802,Njálsgata 13A,Viðbygging - útbygging rifin,Frestað. Vísað til athugasemda á umsóknarblaði.,"Sótt er um leyfi til að rífa inngang á gafli og byggja viðbyggingu með svölum á bakhlið einbýlishúss á lóð nr. 13A við Njálsgötu. Niðurrif:  xx ferm., xx rúmm. Viðbygging:  xx ferm., xx rúmm. Gjald kr. 9.000 + xx"
45799 (01.11.2-9.5 01),http://gamli.rvk.is/vefur/owa/edutils.parse_page?nafn=BN045799,Norðurgarður 1,"Milliloft, stoðveggur, vatnsúðakerfi",Frestað. Vísað til athugasemda á umsóknarblaði.,"Sótt er um leyfi til að fella niður sprinklerkerfi, breyta millilofti yfir lyftarageymslu og byggja nýjan stoðvegg við spennistöð í frystigeymslu á lóð nr. 1 við Norðurtanga. Meðfylgjandi er eldvarnarskýrsla dags. 22.3. 2013. Stærðarbreytingar?? Gjald kr. 9.000"
45717 (01.34.330.7),http://gamli.rvk.is/vefur/owa/edutils.parse_page?nafn=BN045717,Rauðalækur 14,Svalir,Frestað. Málinu vísað til skipulagsfulltrúa til ákvörðunar um grenndarkynningu. Vísað er til uppdrátta  BN01 og BN02 dags. 25. mars 2013. Lagfæra skráningartöflu.,"Sótt er um leyfi til að setja upp svalir úr galvaniseruðu stáli á suðausturhlið fyrstu, annarrar og þriðju hæðar hússins á lóðinni nr. 14 við Rauðalæk. Umsögn skipulagsfulltrúa (vegna fyrirspurnar) dags. 11. mars 2013 fylgir erindinu. Yfirlýsing burðarvirkishönnuðar (á teikn.) og ný skráningartafla fylgja erindinu. Gjald kr. 9.000"
43933 (01.54.011.5),http://gamli.rvk.is/vefur/owa/edutils.parse_page?nafn=BN043933,Reynimelur 50,Áður gerð íbúð í kjallara,Samþykkt.  Samræmist ákvæðum laga nr. 160 / 2010. Skilyrt er að eignaskiptayfirlýsingu vegna breytinga í húsinu sé þinglýst til þess að samþykktin öðlist gildi.     Áskilin lokaúttekt byggingarfulltrúa.,"Sótt er um samþykkt á reyndarteikningu, þar sem gerð er grein fyrir áður gerðri ósamþykktri íbúð í kjallara fjölbýlishúss á lóð nr. 50 við Reynimel. Erindi fylgir sameignarsamningur dags. 27. nóvember 1975 og þinglýst breyting á skiptayfirlýsingu dags. 25. mars 1993, íbúðarskoðun byggingarfulltrúa dags. 28. september og 3. október 2012. Gjald kr. 8.000"
45824 (04.91.440.1),http://gamli.rvk.is/vefur/owa/edutils.parse_page?nafn=BN045824,Skógarsel 10,eldsneytistankar,Frestað. Vísað til athugasemda á umsóknarblaði.,Sótt er um leyfi til að endurnýja eldsneytistanka og afgreiðsluplan við afgreiðslustöð N1 á lóð nr. 10 við Skógarsel. Gjald kr. 9.000
45784 (01.19.740.7),http://gamli.rvk.is/vefur/owa/edutils.parse_page?nafn=BN045784,Smáragata 12,"Þak, kvistir, svalir, útgangar","Samþykkt.  Samræmist ákvæðum laga nr. 160 / 2010. Með vísan til samþykktar borgarráðs frá 1. september 1998 skal utanhúss- og lóðarfrágangi vera lokið eigi síðar en innan tveggja ára frá útgáfu byggingarleyfis að viðlögðum dagsektum sbr. greinar nr. 2.4.7 og 2.9.2 í byggingarreglugerð nr. 112/2012. Frágangur á lóðamörkum verði gerður í samráði við lóðarhafa aðliggjandi lóða. Skilyrt er að ný eignaskiptayfirlýsing sé samþykkt fyrir útgáfu byggingarleyfis, henni verður þinglýst eigi síðar en við lokaúttekt. Áskilin lokaúttekt byggingarfulltrúa.","Sótt er um leyfi til að gera breytingar innanhúss, endurnýja þak og byggja þrjá kvisti, byggja nýjar svalir til vesturs, fjarlægja skorstein, byggja úr steinsteypu með timburþaki geymsluskúr á lóð, gera nýjan sérinngang á austurhlið og útgang úr kjallara, sbr. fyrirspurn BN043116, á íbúðarhúsi á lóð nr. 12 við Smáragötu. Erindi fylgir samkomulag eigenda dags. 7. mars 2013 Stækkun húss:  8,96 rúmm. Geymsluskúr:  25 ferm., 67,3 rúmm. Gjald kr. 9.000 + 6.867"
45820 (04.06.140.2),http://gamli.rvk.is/vefur/owa/edutils.parse_page?nafn=BN045820,Smiðshöfði 21,Reyndarteikningar,Frestað. Vísað til athugasemda á umsóknarblaði.,Sótt er um samþykkt á reyndarteikningu af atvinnuhúsi á lóð nr. 21 við Smiðshöfða. Gjald kr. 9.000
45821 (01.18.400.8 02),http://gamli.rvk.is/vefur/owa/edutils.parse_page?nafn=BN045821,Spítalastígur 4,Fjölbýlishús,Synjað. Samræmist ekki deiliskipulagi.,"Sótt er um leyfi til þess að byggja þriggja hæða steinsteypt fjölbýlishús með þremur íbúðum á lóðinni nr. 4B við Spítalastíg. Stærð: 1. hæð; íbúð, stigahús 67,7 ferm. 2.hæð; íbúð, stigahús 93,5 ferm. 3.hæð; íbúð, stigahús 93,5 ferm. Alls 254,7 ferm. og 670,4 rúmm. Gjald kr. 9.000 + 60.336"
45813 (01.24.110.3),http://gamli.rvk.is/vefur/owa/edutils.parse_page?nafn=BN045813,Stakkholt 2-4,Breytingar inni,Samþykkt.  Samræmist ákvæðum laga nr. 160 / 2010. Frágangur á lóðamörkum verði gerður í samráði við lóðarhafa aðliggjandi lóða. Áskilin lokaúttekt byggingarfulltrúa.,"Sótt er um leyfi til að breyta erindi BN045197, þar sem stærðir breytast innbyrðis milli matshluta og bílakjallari minnkar í fjölbýlishúsi á lóð nr. 2-4 við Stakkholt. Breyttar stærðir: Mhl.01, bílakjallari:  3.800,4 ferm. Mhl.02, íbúðir:  4.394,4 ferm. Mhl.03, íbúðir:  2.330,4 ferm. Mhl.04, íbúðir:  3.841,2 ferm. Mhl.05, íbúðir:  1.710,4 ferm. Mhl.06, íbúðir:  2.312,7 ferm. Heildarstærð húss, mhl. 02-06:  14.541,5 ferm., 44.516,4 rúmm. Bílgeymsla, mhl. 01:  3.800,4 ferm., 12.355,3 rúmm. B-rými, svalir og svalagangar:  990,5 ferm., x rúmm. Samtals mhl. 01-06:  18.393,5 ferm., 56.871,7 rúmm. Gjald kr. 9.000 + xxx"
45682 (04.03.880.1),http://gamli.rvk.is/vefur/owa/edutils.parse_page?nafn=BN045682,Stórhöfði 15,Breytingar - 1.hæð,Frestað. Vísað til athugasemda eldvarnaeftirlits á umsóknarblaði.,"Sótt er um leyfi til að breyta innra fyrirkomulagi á 1. hæð og koma fyrir vörumóttökuhurð og hurð á norðurhlið hússins á lóð nr. 15 við Stórhöfða. Samþykki meðeigenda (ódags.) fylgir, einnig bréf arkitekts dags. 26.2. 2013 og annað 22.3. 2013 og umsögn burðarvirkishönnuðar dags. 22.3. 2013. Gjald kr. 9.000"
45775 (04.02.310.1),http://gamli.rvk.is/vefur/owa/edutils.parse_page?nafn=BN045775,Tangabryggja 14-24,Breyta í íbúðir og atvinnustarfssemi,Samþykkt.  Samræmist ákvæðum laga nr. 160 / 2010. Með vísan til samþykktar borgarráðs frá 1. september 1998 skal utanhúss- og lóðarfrágangi vera lokið eigi síðar en innan tveggja ára frá útgáfu byggingarleyfis að viðlögðum dagsektum sbr. greinar nr. 2.4.7 og 2.9.2 í byggingarreglugerð nr. 112/2012. Frágangur á lóðamörkum verði gerður í samráði við lóðarhafa aðliggjandi lóða. Áskilin lokaúttekt byggingarfulltrúa.,"Sótt er um leyfi til að innrétta 15 íbúðir á 2. og 3. hæð með nýtanlegu risi og 5 einingar atvinnuhúsnæðis á 1. hæð í þegar byggðu húsi á lóð nr. 14-16 við Tangabryggju. Stærðir: húsið hefur staðið ónotað, fokhelt í 15 ár. 1. hæð 585,5 ferm., 2. hæð 563,1 ferm., 3. hæð 563,1 ferm., ris 255,7 ferm., Samtals 1.967,4 ferm., 6.265,6 rúmm. Meðfylgjandi er bréf arkitekts dags. 20.3. 2013 og annað dags. 3.4. 2013. Gjald kr. 9.000"
45763 (04.21.220.3),http://gamli.rvk.is/vefur/owa/edutils.parse_page?nafn=BN045763,Urriðakvísl 18,Kvistir,Samþykkt.  Samræmist ákvæðum laga nr. 160 / 2010. Með vísan til samþykktar borgarráðs frá 1. september 1998 skal utanhúss- og lóðarfrágangi vera lokið eigi síðar en innan tveggja ára frá útgáfu byggingarleyfis að viðlögðum dagsektum sbr. greinar nr. 2.4.7 og 2.9.2 í byggingarreglugerð nr. 112/2012. Áskilin lokaúttekt byggingarfulltrúa.,"Sótt er um leyfi til að byggja kvisti og stækka stofu yfir hluta svala á 2. hæð einbýlishúss á lóð nr. 18 við Urriðakvísl. Stækkun:  3,6 ferm., 28,8 rúmm. Gjald kr. 9.000 + 2.592"
45780 (04.71.200.1),http://gamli.rvk.is/vefur/owa/edutils.parse_page?nafn=BN045780,Vatnsveituv. Fákur,Faxaból 9 - Samnýting eignarhluta,Samþykkt.  Samræmist ákvæðum laga nr. 160 / 2010. Áskilin lokaúttekt byggingarfulltrúa.,Sótt er um leyfi til að samnýta eignarhluta 0101 og 0102 sem einn eignarhluta þar sem um sama eignarhald er að ræða á báðum eignarhlutum í hesthúsinu á lóð nr. 9 Faxaból. Gjald kr. 9.000
45207 (01.17.140.4),http://gamli.rvk.is/vefur/owa/edutils.parse_page?nafn=BN045207,Vegamótastígur 4,Útisvæði,Samþykkt.  Samræmist ákvæðum laga nr. 160 / 2010. Allur frágangur á svæði útiveitinga er á ábyrgð umsækjanda og ber honum að sjá til þess að allt rusl sé þrifið jafnóðum og fjarlægt. Áskilin lokaúttekt byggingarfulltrúa.,Sótt er um stöðuleyfi fyrir áður gerðu útisvæði framan við veitingahús í flokki III og leyfi til að auka gestafjölda í 120 í veitingahúsi á lóð nr. 4 við Vegamótastíg. Erindi fylgir samþykki meðlóðarhafa ódagsett. Gjald kr. 8.500
45356 (01.13.211.3),http://gamli.rvk.is/vefur/owa/edutils.parse_page?nafn=BN045356,Vest.6-10A/Tryggv.18,Opna milli rýma 0102 og 0104,Samþykkt.  Samræmist ákvæðum laga nr. 160 / 2010. Áskilin lokaúttekt byggingarfulltrúa.,Sótt er um leyfi til þess að koma fyrir dyrum með eldvarnarhurð milli rýma 0104 og 0102 á fyrstu hæð hússins nr. 18 (matshl. 05) við Tryggvagötu á lóðinni Vest.6-10A/Tryggv.18. Rými 0104 er sameignarrými en rými 0102 er verslunarrými í séreign. Samþykki meðeigenda (vantar tvo) fylgir erindinu. Gjald kr. 8.500
45749 (01.38.210.3),http://gamli.rvk.is/vefur/owa/edutils.parse_page?nafn=BN045749,Vesturbrún 20,Steyptur garðveggur,Samþykkt.  Samræmist ákvæðum laga nr. 160 / 2010. Með vísan til samþykktar borgarráðs frá 1. september 1998 skal utanhúss- og lóðarfrágangi vera lokið eigi síðar en innan tveggja ára frá útgáfu byggingarleyfis að viðlögðum dagsektum sbr. greinar nr. 2.4.7 og 2.9.2 í byggingarreglugerð nr. 112/2012. Frágangur á lóðamörkum verði gerður í samráði við lóðarhafa aðliggjandi lóða. Áskilin lokaúttekt byggingarfulltrúa.,Sótt er um leyfi til að setja steyptan garðvegg við austurhluta lóðar nr. 20 við Vesturbrún. Meðfylgjandi er samþykki eigenda Vesturbrúnar 22 dags. 7.4. 2013. Gjald kr. 9.000
45619 (01.17.030.3),http://gamli.rvk.is/vefur/owa/edutils.parse_page?nafn=BN045619,Þingholtsstræti 3-5,Breyting kjallara,Samþykkt.  Samræmist ákvæðum laga nr. 160 / 2010. Áskilin lokaúttekt byggingarfulltrúa. Áskilið samþykki heilbrigðiseftirlits. Áskilið samþykki Vinnueftirlits ríkisins.,Sótt er breytingar á innra skipulagi kjallara Centerhotels á lóð nr. 3-5 við Þingholtsstræti. Gjald kr. 9.000 + 9.000
45599 (04.68.210.1),http://gamli.rvk.is/vefur/owa/edutils.parse_page?nafn=BN045599,Þórufell 2-20,Utanhússviðhald,Samþykkt.  Samræmist ákvæðum laga nr. 160 / 2010. Með vísan til samþykktar borgarráðs frá 1. september 1998 skal utanhúss- og lóðarfrágangi vera lokið eigi síðar en innan tveggja ára frá útgáfu byggingarleyfis að viðlögðum dagsektum sbr. greinar nr. 2.4.7 og 2.9.2 í byggingarreglugerð nr. 112/2012. Áskilin lokaúttekt byggingarfulltrúa.,"Sótt er um leyfi til að hækka svalahandrið í 120 cm og klæða þau að utan samfara múrviðgerðum og gluggaskiptum, einnig er sótt um að koma reyklúgu fyrir í stigagangi og loka svölum 95% með ál/glerkerfi á íbúðum í húsi nr.6, 203 og 403, nr. 16, 201 og 303, nr. 18 nr. 303 og 403 og í nr. 20, 201, 301, 302, 304, 401 og 403 í fjölbýlishúsi á lóð nr. 2-20 við Þórufell. Meðfylgjandi er bréf aðalhönnuðar dags. 20.2. 2013 og fundargerð aðalfundar húsfélagsins dags. 19.3. 2012. Stærðir samtals brúttó sbr. ofanskráða upptalningu:  54,83 ferm.. 125,73 rúmm. Gjald kr. 9.000 + 11.316"
45832 (01.53.220.1),http://gamli.rvk.is/vefur/owa/edutils.parse_page?nafn=BN045832,Ægisíða 111,Áður gerður bílskúr,Frestað. Vísað til athugasemda á umsóknarblaði.,"Sótt er um samþykki á þegar byggðum bílskúr úr timbri á lóð nr. 111 við Ægisíðu. Stærðir: 50,2 ferm., 129 rúmm."
45843 (04.60.280.1),http://gamli.rvk.is/vefur/owa/edutils.parse_page?nafn=BN045843,Álfabakki 7,mæliblað,Samþykkt.  Samræmist ákvæðum laga nr. 160 / 2010.,"Óskað er eftir samþykki byggingarfulltrúans til að endurútgefa mæliblað fyrir lóðina Álfabakki 7 (staðgreinir 4.602.801, landnr. 111717). Við endurútgáfuna er bætt við byggingareitum, fjarlægð kvöð um opin bílastæði og blaðið tölvuvætt.  Álfabakki 7 (staðgreinir 4.602.801, landnr. 111717, leigulóð) er 3.728 m2 og verður áfram 3.728 m2. Sjá deiliskipulag samþykkt í borgarráði 13.4. 1999 og eldra mæliblað fyrst útgefið 7.10. 1975."
45840,http://gamli.rvk.is/vefur/owa/edutils.parse_page?nafn=BN045840,"Laugavegur 151, 153, 155",mæliblað,Samþykkt.  Samræmist ákvæðum laga nr. 160 / 2010.,"Óskað er eftir  samþykki byggingarfulltrúans til að sameina þrjár lóðir, Laugavegur 151 ( Staðgreinir 1.222.204, landnr. 102866, eignalóð), Laugavegur 153 (Staðgreinir 1.222.205, landnr. 102867, eignarlóð) og Laugavegur 155 ( Staðgreinir 1.222.206, landnr. 102868, eignarlóð),  í nýja  lóð Laugavegur 151 ¿ 155 ( Staðgreinir 1.222.215, landnr. 102866)

Lóðin Laugavegur 151 ( Staðgreinir 1.222.204, landnr. 102866) er talin 214 m2, teknir 13 m2 af lóðinni og lagðir við borgarland ( Landnr. 217188), teknir 201 m2 af lóðinni  og lagðir við nýja lóð Laugavegur 151-155 ( Staðgreinir 1.222.215, landnr. 102866) .  Lóðin Laugavegur 151 ( Staðgreinir 1.222.204, landnr. 102866) verður  0 m2 og verður afmáð úr skrám.

Lóðin Laugavegur 153 ( Staðgreinir 1.222.205, landnr. 102867) er talin 173,1 m2,  teknir 173,1 m2 af lóðinni  og lagðir við nýja lóð Laugavegur 151-155 ( Staðgreinir 1.222.215, landnr. 102866) .  Lóðin Laugavegur 153 ( Staðgreinir 1.222.205, landnr. 102867) verður  0 m2 og verður afmáð úr skrám.

Lóðin Laugavegur 155 ( Staðgreinir 1.222.206, landnr. 102868) er talin 67,4 m2,  teknir 67,4 m2 af lóðinni  og lagðir við nýja lóð Laugavegur 151-155 ( Staðgreinir 1.222.215, landnr. 102866) .  Lóðin Laugavegur 155 ( Staðgreinir 1.222.206, landnr. 102868) verður  0 m2 og verður afmáð úr skrám.

Nýja lóðin Laugavegur 151-155 ( Staðgreinir 1.222.215, landnr. 102866) verður,  með þvi að taka 201 m2 af lóðinni  Laugavegur 151 ( Staðgreinir 1.222.204, landnr. 102866), með því að taka 173,1 m2 af lóðinni  Laugavegur 153 ( Staðgreinir 1.222.205, landnr. 102867), með því að taka 67,4 m2 af lóðinni  Laugavegur 155 ( Staðgreinir 1.222.206, landnr. 102868) og með lagfæringu um 6 m2 á lóðastærð vegna hnitsetningar, 447 m2.  

Sjá samþykkt afgreiðslufundar skipulagsstjóra  dags. 24.10 2008 og auglýsingu í  B-deild Stjórnartíðinda dags. 25.9.2008."
45704 (01.14.041.4),http://gamli.rvk.is/vefur/owa/edutils.parse_page?nafn=BN045704,Aðalstræti 9,(fsp) - Bar í fl.3,Jákvætt. Með vísan til skilyrða í umsögn skipulagsfulltrúa dags. 2. apríl 2013.,"Spurt er hvort leyft yrði að starfrækja vínveitingastað í flokki III á fyrstu hæð hússins á lóðinni nr. 9 við Aðalstræti. Bréf umboðsmanns fyrirspyrjanda dags. 5. mars 2013 fylgir erindinu. Útskrift úr gerðabók embættisafgreiðslufundar skipulagsfulltrúa frá 04. apríl 2013 ásamt umsögn skipulagsfulltrúa dags. 02. apríl 2013, fylgja erindinu."
45666 (01.14.041.4),http://gamli.rvk.is/vefur/owa/edutils.parse_page?nafn=BN045666,Aðalstræti 9,(fsp) - Breyta í íbúðir,Nei. Með vísan til umsagnar skipulagsfulltrúa dags. 4. apríl 2013.,Spurt er hvort leyft yrði að innrétta 5-6 íbúðir á 2. hæð í íbúðar- og atvinnuhúsi á lóð nr. 9 við Aðalstræti. Útskrift úr gerðabók embættisafgreiðslufundar skipulagsfulltrúa frá 04. apríl 2013 ásamt umsögn skipulagsfulltrúa dags. 04. apríl 2013 fylgja erindinu.
45833 (01.18.621.2),http://gamli.rvk.is/vefur/owa/edutils.parse_page?nafn=BN045833,Baldursgata 30,"(fsp) - Kvistur, þakgluggar",Frestað. Málinu vísað til umsagnar skipulagsfulltrúa.,"Spurt er hvort leyft yrði að byggja kvist á vesturhlið, koma fyrir þakglugga á norðurhlið og breikka dyr út á svalir rishæðar fjölbýlishúss á lóð nr. 30 við Baldursgötu."
45783 (04.23.500.3),http://gamli.rvk.is/vefur/owa/edutils.parse_page?nafn=BN045783,Bleikjukvísl 6,(fsp) - Trépallur og skjólveggir,Jákvætt. Með vísan til skilyrða í umsögn skipulagsfulltrúa dags. 3. apríl 2013.,Spurt er hvort leyfi fengist til að nýta hluta af graslendi í eigu Reykjavíkurborgar til að koma fyrir palli og skjólvegg norðanmegin við húsið á lóð nr. 6 við Bleikjukvísl. Útskrift úr gerðabók embættisafgreiðslufundar skipulagsfulltrúa frá 04. apríl 2013 ásamt umsögn skipulagsfulltrúa dags. 03. apríl 2013 fylgja erindinu.
45803 (01.22.010.7),http://gamli.rvk.is/vefur/owa/edutils.parse_page?nafn=BN045803,Borgartún 8-16,(fsp) - B1 Veitingahús 1.h.,Frestað. Málinu vísað til umsagnar skipulagsfulltrúa.,Spurt er hvort leyft yrði að starfrækja veitingahús í flokki III (en til vara í flokki II) á fyrstu hæð hússins nr. 16 á lóðinni nr 8-16 við Borgartún. Jafnframt er spurt um aðstöðu fyrir veitingastaðinn til útiveitinga sunnan hússins.
45828 (01.27.220.1),http://gamli.rvk.is/vefur/owa/edutils.parse_page?nafn=BN045828,Bólstaðarhlíð 52-56,(fsp) - Íbúðir jarðhæð,Frestað. Málinu vísað til umsagnar skipulagsfulltrúa.,"Spurt er hvort leyft yrði að færa þvottaaðstöðu inn í hitaklefa og innrétta tvær íbúðir í rýmum sem eru merkt ""straustofa, þvottavél, þurrkklefi og óráðstafað"", alls u.þ.b. 90 fermetrar á jarðhæð fjölbýlishúss á lóðinni nr. 52-56 við Bólstaðahlíð. Í húsinu yrðu samtals 28 íbúðir eftir breytinguna. Bílastæði á lóð eru 28 talsins."
45829 (01.18.551.2),http://gamli.rvk.is/vefur/owa/edutils.parse_page?nafn=BN045829,Fjólugata 21,(fsp) - Svalalokun,Jákvætt. Að uppfylltum skilyrðum enda verði sótt um byggingarleyfi.,Spurt er hvort byggja megi létta svalalokun yfir gamlar svalir (sólskýli) við íbúð á neðri hæð í íbúðarhúsi á lóð nr. 21 við Fjólugötu. Samþykki íbúðareiganda á efri hæð fylgir.
45681 (01.51.700.3),http://gamli.rvk.is/vefur/owa/edutils.parse_page?nafn=BN045681,Granaskjól 27,(fsp) - Nýta óútgrafið rými,Jákvætt. Að uppfylltum skilyrðum enda verði sótt um byggingarleyfi. Byggingarleyfisumsókn verður grenndarkynnt berist hún.,"Spurt er hvort leyfi fengist til að taka í notkun óútgrafið rými, ca. 77 ferm stækkun, koma fyrir gluggum og kjallaratröppum  á hliðar hússins á lóð nr. 27 við Granaskjól. Útskrift úr gerðabók embættisafgreiðslufundar skipulagsfulltrúa  frá 04. apríl 2013, ásamt umsögn skipulagsfulltrúa dags. 21.03.2013  fylgja erindinu"
45793 (01.24.760.5),http://gamli.rvk.is/vefur/owa/edutils.parse_page?nafn=BN045793,Gunnarsbraut 40,(fsp) - Stækkun og endurnýjun á þaki,Frestað. Málinu vísað til umsagnar skipulagsfulltrúa.,Spurt er hvort leyft yrði að hækka þak og innrétta íbúðarrými í fjölbýlishúsi á lóð nr. 40 við Gunnarsbraut.
45787 (02.57.570.2),http://gamli.rvk.is/vefur/owa/edutils.parse_page?nafn=BN045787,Gylfaflöt 9,(fsp) - Kælisamstæða,Jákvætt. Að uppfylltum skilyrðum enda verði sótt um byggingarleyfi.,Spurt er hvort sækja þurfi um byggingarleyfi til að koma fyrir kælisamstæðu á austurhluta þaksvala 3. hæðar atvinnuhúss á lóð nr. 9 við Gylfaflöt.
45827 (01.80.200.3),http://gamli.rvk.is/vefur/owa/edutils.parse_page?nafn=BN045827,Heiðargerði 16,(fsp) - Viðbygging,Frestað. Málinu vísað til umsagnar skipulagsfulltrúa.,Spurt er hvort leyft yrði að breyta deiliskipulagi til að rúma viðbyggingu til suðurs eins og sýnt er á meðfylgjandi skissum af einbýlishúsi á lóð nr. 16 við Heiðargerði.
45806 (01.17.210.2),http://gamli.rvk.is/vefur/owa/edutils.parse_page?nafn=BN045806,Hverfisgata 54,(fsp) - Svalir 3.hæð,Frestað. Málinu vísað til umsagnar skipulagsfulltrúa.,Spurt er hvort leyft yrði að byggja svalir fyrir íbúð 0301 á norðurhlið (götuhlið) þriðju hæðar íbúða- og atvinnuhúss á lóðinni nr. 54 við Hverfisgötu.
45830 (01.35.500.8),http://gamli.rvk.is/vefur/owa/edutils.parse_page?nafn=BN045830,Kleppsvegur 104,(fsp) - Bílskúr,Frestað. Málinu vísað til umsagnar skipulagsfulltrúa.,Spurt er hvort samþykki fengist fyrir áður gerðum bílskúr í suðvesturhorni lóðar og jafnframt hvort leyft yrði að stækka um helming sama bílskúr á lóð nr. 104 við Kleppsveg.
45794 (01.34.520.8),http://gamli.rvk.is/vefur/owa/edutils.parse_page?nafn=BN045794,Laugarnesvegur 83,(fsp) - Bílastæði,Nei. Samræmist ekki deiliskipulagi.,Spurt er hvort leyft yrði að bæta við tveimur bílastæðum á lóðinni nr. 83 við Laugarnesveg. Eitt bílastæði er fyrir á lóðinni.
45835 (01.17.302.1),http://gamli.rvk.is/vefur/owa/edutils.parse_page?nafn=BN045835,Laugavegur 53B,(fsp) - Kaffihús,Frestað. Málinu vísað til umsagnar skipulagsfulltrúa.,Spurt er hvort leyft yrði að breyta verslunarrými (rými 0101) í kaffihús á jarðhæð hússins nr. 53B við Laugaveg.  Bréf fyrirspyrjanda dags. 5 apríl 2013 fylgir erindinu.
45807 (01.17.302.0),http://gamli.rvk.is/vefur/owa/edutils.parse_page?nafn=BN045807,Laugavegur 55,(fsp) - Útiveitingar,Frestað. Málinu vísað til umsagnar skipulagsfulltrúa.,Spurt er hvort leyft yrði að útbúa aðstöðu til útiveitinga við veitingastað á baklóð hússins nr. 55 við Laugaveg. Jafnframt er spurt um hámarksfjölda gesta á veitingastaðnum og hvort koma mætti fyrir ferðasalernum við staðinn yfir sumartímann.
45825 (01.19.110.5),http://gamli.rvk.is/vefur/owa/edutils.parse_page?nafn=BN045825,Njálsgata 78,(fsp) - Kvistir -samþ.íb.í risi,Frestað. Málinu vísað til umsagnar skipulagsfulltrúa.,"Spurt er hvort leyft yrði að byggja kvisti á norðurhlið, hækka og lengja kvist á suðurhlið og fá samþykkta íbúð á rishæð hússins nr. 78 við Njálsgötu."
45823 (01.74.410.8),http://gamli.rvk.is/vefur/owa/edutils.parse_page?nafn=BN045823,Ofanleiti 27-29,(fsp) - 29 - Sólstofa,Jákvætt. Að uppfylltum skilyrðum enda verði sótt um byggingarleyfi sem fylgi samþykki meðeigenda.,Spurt er hvort byggja megi létta sólstofu undir svalir við íbúð 0101 í fjölbýlishúsi á lóð nr. 29 við Ofanleiti.
45779 (01.13.620.6),http://gamli.rvk.is/vefur/owa/edutils.parse_page?nafn=BN045779,Ránargata 7A,(fsp) - Eignaskiptayfirlýsingar,Nei. Íbúðin er m.a. ósamþykkjanleg vegna lofthæðar.,"Spurt er hvort kjallaraíbúð sé samþykkt í fjölbýlishúsi á lóð nr. 7A við Ránargötu. Erindi fylgir þinglýstur samningur um eignaskipti dags. 17. september 1956, þinglýst breyting á eignaskiptasamningi dags. 30. janúar 1973 og þinglýst afsal dags. 15. nóvember 1982. Skoðunarskýrsla byggingarfulltrúa dags. 5. apríl 2013 fylgir erindinu."
45826 (01.29.230.1),http://gamli.rvk.is/vefur/owa/edutils.parse_page?nafn=BN045826,Síðumúli 10,(fsp) - Kaffihús,Jákvætt. Að uppfylltum skilyrðum enda verði sótt um byggingarleyfi.,Spurt er hvort leyft yrði að starfrækja kaffihús í rými 0103 á fyrstu hæð hússins nr. 10 við Síðumúla.
45734 (01.35.820.5),http://gamli.rvk.is/vefur/owa/edutils.parse_page?nafn=BN045734,Skipasund 43,(fsp) - Viðbygging til austurs,Jákvætt. Með vísan til umsagnar skipulagsfulltrúa dgs. 26. mars 2013. Byggingarleyfisumsókn verður grenndarkynnt berist hún,"Spurt er hvort leyft yrði að byggja viðbyggingu við norðausturhlið og að byggja bílskúr við einbýlishús á lóð nr. 43 við Skipasund. Útskrift úr gerðabók embættisafgreiðslufundar skipulagsfulltrúa frá 4. apríl 2013, ásamt umsögn skipulagsfulltrúa dags. 26. mars 2013, fylgja erindinu."
45756 (01.18.200.6),http://gamli.rvk.is/vefur/owa/edutils.parse_page?nafn=BN045756,Skólavörðustígur 17B,(fsp) - Svalir o.fl.,Jákvætt. Með vísan til umsagnar skipulagsfulltrúa dags. 3. apríl 2013 og leiðbeininga á fyrirspurnarblaði. Sækja þarf um byggingarleyfi.,Spurt er hvort leyft yrði að breyta innra fyrirkomulagi íbúðar 0201 og jafnframt byggja tvennar svalir á framhlið og einar svalir á bakhlið annarrar hæðar hússins nr. 17B við Skólavörðustíg. Útskrift úr gerðabók embættisafgreiðslufundar skipulagsfulltrúa frá 04. apríl 2013 ásamt umsögn skipulagsfulltrúa dags. 03. apríl 2013 fylgja erindinu.
45782 (01.24.001.1),http://gamli.rvk.is/vefur/owa/edutils.parse_page?nafn=BN045782,Snorrabraut 27-29,(fsp) - 27 - Veitingasala,Jákvætt. Með vísan til umsagnar skipulagsfulltrúa dags. 4. apríl 2013 og leiðbeininga á fyrirspurnarblaði.,Spurt er hvort leyft yrði að starfrækja veitingaverslun í flokki I í rými 0101 á fyrstu hæð í húsinu á lóð nr. 27 við Snorrabraut. Útskrift úr gerðabók embættisafgreiðslufundar skipulagsfulltrúa frá 04. apríl 2013 fylgir erindinu.
45808,http://gamli.rvk.is/vefur/owa/edutils.parse_page?nafn=BN045808,Svefnklefar - Capsule Hotels,(fsp) - Svefnklefar,Sjá leiðbeiningar á fyrirspurnarblaði.,Spurt er hvaða leyfi þurfi til og hvaða lög og reglur gildi um og hvaða öryggiskröfur þurfi að uppfylla og hvaða hreinlætis- og öryggiskröfur séu í gildi og hvaða eftirlit og þjónustu sé ætlast að sé til staðar ef leigja á Capsule Hostel út sem gistirými.
45801 (01.13.321.8),http://gamli.rvk.is/vefur/owa/edutils.parse_page?nafn=BN045801,Vesturgata 57A,(fsp) - Endurbyggja bílskúr,Frestað. Málinu vísað til umsagnar skipulagsfulltrúa.,"Spurt er hvort endurbyggja megi og endurnýja  frá grunni úr steypu og timbri og færa frá lóðarmörkum, geymslu (áður bílskúr) á lóðinni nr. 57A við Vesturgötu."
45718 (02.34.320.4),http://gamli.rvk.is/vefur/owa/edutils.parse_page?nafn=BN045718,Vættaborgir 67-69,(fsp) - Svalaskýli nr. 67,Frestað. Með vísan til umsagnar skipulagsfulltrúa dags. 4. apríl 2013.,Spurt er hvort leyft yrði að byggja glerskála á svölum parhúss nr. 67 á lóðinni nr. 67-69 við Vættaborgir. Samþykki eigenda Vættaborga 69 (á teikn.) fylgir erindinu.  Einnig umsögn skipulagsfulltrúa dags. 3. apríl 2013 og útskrift úr gerðabók embættisafgreiðslufundar skipulagsfulltrúa dags. 4. apríl 2013
