nr,url,heimilisfang,tegund,nidurstada,spurning
46079 (01.14.041.5),http://gamli.rvk.is/vefur/owa/edutils.parse_page?nafn=BN046079,Aðalstræti 7,Loka sundi,Frestað. Málinu vísað til umsagnar skipulagsfulltrúa.,Sótt er um leyfi til þess að loka sundi að lóð nr. 9 á lóð nr. 7 við Aðalstræti. Gjald kr. 9.000
45847 (04.68.100.1),http://gamli.rvk.is/vefur/owa/edutils.parse_page?nafn=BN045847,Asparfell 2-12,Æsufell 2-6 - Reyndarteikningar,Samþykkt.  Samræmist ákvæðum laga nr. 160 / 2010. Með vísan til samþykktar borgarráðs frá 1. september 1998 skal utanhúss- og lóðarfrágangi vera lokið eigi síðar en innan tveggja ára frá útgáfu byggingarleyfis að viðlögðum dagsektum sbr. greinar nr. 2.4.7 og 2.9.2 í byggingarreglugerð nr. 112/2012. Áskilin lokaúttekt byggingarfulltrúa.,"Sótt er um leyfi til að byggja svalalokanir, einnig eru lagðar fram reyndarteikningar af öllum hæðum fjölbýlishússins Æsufell 2-6 á lóð nr. 2- 12 við Asparfell. Stækkun brúttó rúmm: nr. 2 er 699,8 rúmm. Nr. 4 597,7 rúmm. Nr. 6, 615,4 samtals: 1.912,9 rúmm. Gjald kr. 9.000"
45986 (01.26.140.1),http://gamli.rvk.is/vefur/owa/edutils.parse_page?nafn=BN045986,Ármúli 1,"Viðbygging, breyting inni, breyting úti",Frestað. Umsóknin er til umfjöllunar hjá skipulagsfulltrúa.,"Sótt er um leyfi til að færa út inndregna neðri hæð austan við stigahús, breyta innra skipulagi hæða og koma fyrir mötuneyti í kjallara sem mun þjónusta skrifstofuhæðir hússins á lóð nr. 1 við Ármúla. Umsögn burðarvirkishönnuðar dags. 6. apríl 2013  og bréf frá hönnuði dags. 28. maí 2013 fylgja erindi. Stækkun: 89,3 ferm., 375,1 rúmm. Gjald kr. 9.000"
46021 (01.71.010.7),http://gamli.rvk.is/vefur/owa/edutils.parse_page?nafn=BN046021,Barmahlíð 46,Breyting inni - 0201,Samþykkt.  Samræmist ákvæðum laga nr. 160 / 2010. Áskilin lokaúttekt byggingarfulltrúa.,Sótt er um leyfi til þess að færa eldhús og opna milli stofu og nýs eldhúss á annarri hæð hússins á lóðinni nr. 46 við Barmahlíð. Samþykki meðeigenda í húsi (á teikn.) fylgir erindinu. Kauptilboð dags. 26.apríl fylgir erindinu. Umsögn burðarvirkishönnuðar dags. 22. maí 2013 fylgir erindinu.  Gjald kr. 9.000
45896 (01.18.431.5),http://gamli.rvk.is/vefur/owa/edutils.parse_page?nafn=BN045896,Bergstaðastræti 28,Svalir og reyndarteikningar,"Frestað. Lagfæra skráningartöflu. Málinu vísað til  skipulagsfulltrúa til ákvörðunar um grenndarkynningar. Vísað er til uppdrátta 1209-01, 1209-02 dags. 12. apríl 2013.","Sótt er um leyfi fyrir nýjum svölum með tröppum út í garð, og leyfi fyrir  reyndarteikningum fyrir innri breytingum á kjallara, 1. hæð, 2 hæð og risi , svo og  að gera húsið að einbýlishúsi á lóð nr. 28 við Bergstaðastræti. Bréf frá hönnuði dags. 24. maí 2013,  samþykki eigenda aðliggjandi lóða og umsögn frá Minjasafni Reykjavíkur dags. 31 maí 2013 og Minjastofnun Íslands dags. 31. maí 2013 fylgja. Gjald kr. 9.000"
45985 (01.16.221.0),http://gamli.rvk.is/vefur/owa/edutils.parse_page?nafn=BN045985,Blómvallagata 10,"Stækka kvisti, þaksvalir","Frestað. Vísað til athugasemda á umsóknarblaði. Málinu vísað til skipulagsfulltrúa til ákvörðunar um grenndarkynningu. Vísað er til uppdrátta C40.001, 002, 003 og 004 síðast breytt 27. maí 2013.","Sótt er um leyfi til að endurbæta þakrými sem er hluti íbúðar 0301, stækka kvist, byggja svalir og nýjan kvist við þær, fækka þakgluggum og stækka á fjölbýlishúsi á lóð nr. 10 við Blómvallagötu. Meðfylgjandi er bréf hönnuðar dags. 7.5. 2013, umboð vegna byggingarleyfisumsóknar dags. 7.5. 2013, umsögn skipulagsfulltrúa dags. 5. október 2012. Stækkun. xx ferm., xx rúmm Gjald kr. 9.000 + xx"
45902 (04.06.140.3),http://gamli.rvk.is/vefur/owa/edutils.parse_page?nafn=BN045902,Dvergshöfði 27,Breyting - 1.og 2.hæð,"Samþykkt.  Samræmist ákvæðum laga nr. 160 / 2010. Skilyrt er að ný eignaskiptayfirlýsing sé samþykkt fyrir útgáfu byggingarleyfis, henni verður þinglýst eigi síðar en við lokaúttekt. Áskilin lokaúttekt byggingarfulltrúa. Áskilið samþykki heilbrigðiseftirlits.","Sótt er um leyfi til að innrétta á fyrstu hæð austurálmu verslun og vélaverkstæði, í vesturálmu trésmíðaverkstæði, á annarri hæð að endurinnrétta austurálmu sem skrifstofurými, matstað og geymslu/lager. Jafnframt er sótt um leyfi til að stækka anddyri/afgreiðslu á fyrstu hæð vesturálmu í húsinu á lóð nr. 27 við Dvergshöfða. Samþykki meðeigenda dags. 23. maí 2013, bréf frá hönnuði dags. 28. maí 2013 og umsögn burðarvirkishönnuðar dags. 23. apríl 2013 fylgja erindi. Stækkun: 3,6 ferm., 14,4 rúmm. Gjald kr. 9.000"
46031 (04.03.520.9),http://gamli.rvk.is/vefur/owa/edutils.parse_page?nafn=BN046031,Eldshöfði 19,Skipta í tvo eignarhluta,Samþykkt.  Samræmist ákvæðum laga nr. 160 / 2010. Skilyrt er að eignaskiptayfirlýsingu vegna breytinga í húsinu sé þinglýst til þess að samþykktin öðlist gildi.     Áskilin lokaúttekt byggingarfulltrúa.,Sótt er um leyfi til að skipta í tvo eignahluta atvinnuhúsi á lóð nr. 19 við Eldshöfða. Gjald kr. 9.000
46016 (01.36.650.2),http://gamli.rvk.is/vefur/owa/edutils.parse_page?nafn=BN046016,Engjateigur 9,Breyting inni,Frestað. Vísað til athugasemda á umsóknarblaði.,"Sótt er um samþykki á þegar gerðum breytingum í kjallara þar sem samkomusalur fyrir 105 gesti er innréttaður, komið fyrir móttökueldhúsi og snyrtingum fjölgað í Verkfræðingahúsi á lóð nr. 9 við Engjateig.. Meðfylgjandi er bréf arkitekts dags 13. maí 2013. Gjald kr. 9.000"
46083 (01.53.231.0),http://gamli.rvk.is/vefur/owa/edutils.parse_page?nafn=BN046083,Faxaskjól 12,Viðbygging,Frestað. Vísað til athugasemda á umsóknarblaði. Málinu vísað til umsagnar skipulagsfulltrúa.,"Sótt er um leyfi til að byggja viðbyggingu úr timbri við norðurhlið, geymsluskúra í norðvesturhorni lóðar, breyta innra skipulagi og breyta í einbýlishús tvíbýlishúsi á lóð nr. 12 við Faxaskjól. Stækkun húss:  32 ferm., xx rúmm. Geymsluskúrar:  6,7 ferm., xx rúmm. Gjald kr. 9.000"
46009 (01.18.551.2),http://gamli.rvk.is/vefur/owa/edutils.parse_page?nafn=BN046009,Fjólugata 21,Svalalokun,Frestað. Með vísan til umsagnar skipulagsfulltrúa dags. 31. maí 2013.,"Sótt er um leyfi til þess að byggja sólskýli á nyrðri svölum á vesturhlið fyrstu hæðar hússins á lóðinni nr. 21 við Fjólugötu. Samþykki meðeiganda (á teikn.) fylgir erindinu ásamt útskrift úr gerðabók embættisafgreiðslufundar skipulagsfulltrúa frá 31. maí 2013 og umsögn skipulagsfulltrúa dags. 31. maí 2013. Stærð: Svalaskýli 4,3 ferm. og 10,3 rúmm. Gjald kr. 9.000"
46082 (01.15.251.3),http://gamli.rvk.is/vefur/owa/edutils.parse_page?nafn=BN046082,Frakkastígur 6A,"Ofanábygging - kvistir, svalir",Frestað. Vísað til athugasemda á umsóknarblaði.,"Sótt er um leyfi til að lyfta einbýlishúsi og hækka kjallara um 130 cm., byggja viðbyggingu á norðvesturhlið, byggja svalir suðvestan megin, kvist á bakhlið og innrétta fjórar íbúðir í einbýlishúsi á lóð nr. 6A við Frakkastíg. Stækkun:  43 ferm., xx rúmm. Gjald kr. 9.000"
45536 (01.13.341.6),http://gamli.rvk.is/vefur/owa/edutils.parse_page?nafn=BN045536,Framnesvegur 44,Endurnýjun - BN038787,Frestað. Málinu vísað til umsagnar skipulagsfulltrúa.,"Sótt er um leyfi til að endurnýja erindið BN038787 samþykkt 25. nóv. 2008, þar sem sótt var um að breyta verslun og vörugeymslum á 1. hæð og í kjallara í íbúð sbr. fyrirspurn BN033690 dags. 4.4.2006 í húsi á lóð nr. 44 við Framnesveg. Samþykki meðeigenda ódags. fylgir. Gjald kr. 9.000"
46022 (01.11.430.1),http://gamli.rvk.is/vefur/owa/edutils.parse_page?nafn=BN046022,Grandagarður 16,Breyting 1.og 2.hæð - svalir,Frestað. Vísað til athugasemda á umsóknarblaði.,Sótt er um leyfi til að breyta innra skipulagi í skrifstofurými 1. og 2. hæðar og koma fyrir lyftu á milli hæða svo og að koma fyrir svölum og skyggni á húsið á lóð nr. 16 við Grandagarð. Útskrift úr gerðabók embættisafgreiðslufundar skipulagsfulltrúa frá 31. maí 2013 fylgir erindinu ásamt umsögn skipulagsfulltrúa dags. 30. maí 2013. Gjald kr. 9.000
46081 (01.11.530.1),http://gamli.rvk.is/vefur/owa/edutils.parse_page?nafn=BN046081,Grandagarður 2,Aðskilið byggingarleyfi - 1.hæð,Samþykkt.  Samræmist ákvæðum laga nr. 160 / 2010. Áskilin lokaúttekt byggingarfulltrúa. Áskilið samþykki heilbrigðiseftirlits.,"Sótt er um aðskilið byggingarleyfi fyrir Sögusafnið ehf. og kaffihús í tengslum við það í flokki II, sbr. erindi BN45745 á 1. hæð Alliance hússins, á lóð nr. 2 við Grandagarð. Snyrtingar eru til staðar, eldhús og starfsmannaaðstaða er tengt við núverandi lagnir. Meðfylgjandi er bréf frá arkitekt dags. 28.5. 2013. Gjald kr. 9.000"
46056 (01.11.530.1),http://gamli.rvk.is/vefur/owa/edutils.parse_page?nafn=BN046056,Grandagarður 2,Breyting jarðhæð,Frestað. Vísað til athugasemda eldvarnaeftirlits á umsóknarblaði.,Sótt er um leyfi til að breyta innra skipulagi í mhl. 02 rými 0101 og að fylla uppí opnun milli matshluta í húsi á lóð nr. 2 við Grandagarð. Gjald kr. 9.000
45937 (04.30.400.1),http://gamli.rvk.is/vefur/owa/edutils.parse_page?nafn=BN045937,Grjótháls 7-11,Breyting á vatnsúðakerfi,Samþykkt.  Samræmist ákvæðum laga nr. 160 / 2010. Áskilin lokaúttekt byggingarfulltrúa. Áskilið samþykki heilbrigðiseftirlits.,Sótt er um leyfi til að breyta vatnsúðakerfi og raflögnum og breyta hillukerfi í mhl. 03 í húsinu á lóð nr. 7-11 við Grjótháls. Gjald kr. 9.000
45949 (05.11.330.5),http://gamli.rvk.is/vefur/owa/edutils.parse_page?nafn=BN045949,Haukdælabraut 11-15,Raðhús - staðsteypt,Frestað. Lagfæra skráningartöflu.,"Sótt er um leyfi til að byggja staðsteypt raðhús, þrjá matshluta, á einni hæð með kjallara undir vesturhluta (mhl. 03)  á lóð nr. 11-15 við Haukdælabraut. Farið er fram á að erindið BN045137 verði fellt úr gildi. Bréf frá hönnuði dags. 12. maí 2013 og frá eiganda ódags. fylgir. Stærð:  Mhl. 01:  Íbúð 172,7 ferm., bílgeymsla 26,7 ferm.  Samtals 199,4 ferm., 739,2 rúmm. Mhl. 02:  Íbúð 171,3ferm., bílgeymsla 26,7 ferm.  Samtals 198,0 ferm., 738,9 rúmm. Mhl. 03:  Kjallari 80,3 ferm., 1. hæð íbúð 135,5 ferm., bílgeymsla 26,7 ferm.  Samtals 239, 239,3 ferm., 1006,1 rúmm. Mhl. 01, 02, 03:  636,7 ferm., 2484,2 rúmm. Gjald kr. 9.000"
45669 (05.11.330.5),http://gamli.rvk.is/vefur/owa/edutils.parse_page?nafn=BN045669,Haukdælabraut 11-15,takmarkað byggingarleyfi,Samþykkt.  Samræmist ákvæðum laga nr. 160 / 2010. Samþykktin fellur úr gildi við útgáfu á endanlegu byggingarleyfi. Vegna útgáfu á takmörkuðu byggingarleyfi skal umsækjandi hafa samband við yfirverkfræðing embættis byggingarfulltrúa.,"Sótt er um takmarkað byggingarleyfi fyrir jarðvinnu vegna raðhúss á lóðinni nr. 11-15 við  Haukdælabraut, erindi nr. BN045137. Bréf umsækjanda dags. 29. maí og 31. maí 2013 fylgja erindinu."
46071 (01.22.320.1),http://gamli.rvk.is/vefur/owa/edutils.parse_page?nafn=BN046071,Hátún 2,Rampi og hringstigi,Frestað. Vísað til athugasemda á umsóknarblaði.,"Sótt er um leyfi til að gera skábraut úr jarðfyllingu fyrir aðkomu og stæði líkvagns og bílastæða fyrir fatlaða kirkjugesti ásamt skábraut að aðalinngangi og heimild fyrir hringstiga, þvermál 180 cm úr stáli, sem þjónar sem flóttaleið fyrir kirkjugesti Hvítasunnukirkjunnar á lóð nr. 2 við Hátún. Gjald kr. 9.000"
46042 (01.80.200.3),http://gamli.rvk.is/vefur/owa/edutils.parse_page?nafn=BN046042,Heiðargerði 16,Viðbygging,Frestað. Vísað til fyrri athugasemda á umsóknarblaði.,"Sótt er um leyfi til að byggja einnar hæðar, léttbyggða viðbyggingu við eldri viðbyggingu á suðurhlið, klæða með liggjandi lerkiborðum, breyta innra skipulagi og klæða að utan með bárujárni einbýlishús á lóð nr. 16 við Heiðargerði. Erindi fylgir samþykki lóðarhafa Heiðargerðis 14 áritað á uppdrátt. Stækkun:  6,9 ferm., 47,1 rúmm. Gjald kr. 9.000"
46030 (04.73.350.2),http://gamli.rvk.is/vefur/owa/edutils.parse_page?nafn=BN046030,Hestavað 5-7,Reyndarteikning v/lokaúttektar,Samþykkt.  Samræmist ákvæðum laga nr. 160 / 2010.  Áskilin lokaúttekt byggingarfulltrúa.,"Sótt er um samþykki fyrir reyndarteikningu vegna lokaúttektar þar sem gerð er grein fyrir breytingum á geymslum og sorpgeymslum, leiðrétt byggingarlýsing og lítils háttar breytingar á lóð fjölbýlishúss á lóð nr. 5-7 við Hestavað. Sjá erindi BN045312, BN044697 og BN031477. Gjald kr. 9.000"
45989 (02.29.740.3),http://gamli.rvk.is/vefur/owa/edutils.parse_page?nafn=BN045989,Hesthamrar 11,Viðbygging,Frestað. Vísað til athugasemda eldvarnaeftirlits á umsóknarblaði.,"Sótt er um leyfi fyrir áður gerðri tengibygginu á milli íbúðarhúss og bílageymslu og setlaug á lóð nr. 11 við Hesthamra. Stækkun tengibyggingar: 10,1 ferm., 25,3 rúmm. Gjald kr. 9.000"
46084 (01.52.610.1),http://gamli.rvk.is/vefur/owa/edutils.parse_page?nafn=BN046084,Hofsvallagata -sundl.,Heitur pottur - br. staðsetningu o.fl.,Samþykkt.  Samræmist ákvæðum laga nr. 160 / 2010. Áskilin lokaúttekt byggingarfulltrúa. Áskilið samþykki heilbrigðiseftirlits.,Sótt er um leyfi til breytinga á nýsamþykktu erindi BN045159 sem felast í breyttri staðsetningu á heitum potti og stækkun á sundlaugarsvæði við Vesturbæjarlaug á lóð við Hofsvallagötu. Gjald kr. 9.000
45990 (01.17.100.1),http://gamli.rvk.is/vefur/owa/edutils.parse_page?nafn=BN045990,Hverfisgata 12,Gistiheimili,Frestað. Vísað til athugasemda á umsóknarblaði.,Sótt er um leyfi til þess að innrétta gistiheimili í flokki II með hámarksgestafjölda allt að 15 manns í húsinu á lóðinni nr. 12 við Hverfisgötu. Ný skráningartafla fylgir erindinu. Umsögn skipulagsfulltrúa dags. 20. mars 2013 fylgir erindinu. Gjald kr. 9.000
45879 (01.15.141.0),http://gamli.rvk.is/vefur/owa/edutils.parse_page?nafn=BN045879,Hverfisgata 19,Viðbygging - Þjóðleikhús,Frestað. Vísað til athugasemda á umsóknarblaði.,"Sótt er um leyfi til að byggja leikmunageymslu og vörumóttöku við austurhlið Þjóðleikhússins á lóð nr. 19 við Hverfisgötu. Erindi fylgir umsögn Minjasafns Reykjavíkur dags. 31. maí 2013. Stækkun:  141,6 ferm., 1.115 rúmm. Gjald kr. 9.000"
46069 (02.85.260.2),http://gamli.rvk.is/vefur/owa/edutils.parse_page?nafn=BN046069,Jöklafold 20,Breytt skráning,Frestað. Vísað til athugasemda á umsóknarblaði.,"Sótt er um leyfi fyrir áður gerðu rými undir bílskúr sem notað verður sem  geymslurými fyrir 0001 og skrá tvo sérafnotafleti fyrir 0001 og 0101 á lóð nr. 20 við Jöklafold. Stækkun rýmis undir bílskúr: XX ferm.,  XX rúmm.  Gjald kr. 9.000"
46057 (01.32.500.1),http://gamli.rvk.is/vefur/owa/edutils.parse_page?nafn=BN046057,Klettagarðar 15,Breyting inni,Samþykkt.  Samræmist ákvæðum laga nr. 160 / 2010. Áskilin lokaúttekt byggingarfulltrúa. Áskilið samþykki heilbrigðiseftirlits.,Sótt er um leyfi til að breyta innra skipulagi mhl. 02 þannig að komið verður fyrir starfsmannaaðstöðu í rými 0102 og búningaaðstöðu fyrir starfsmenn í rými 0201 og að gera matshluta 02 að séreign á lóð nr. 15 við Klettagarða. Tölvupóstur frá VSÓ dags. 28. maí 2013. Gjald kr. 9.000
45817 (01.72.100.1),http://gamli.rvk.is/vefur/owa/edutils.parse_page?nafn=BN045817,Kringlan  4-12,S-271 - 2. hæð breyting,Frestað. Vísað til athugasemda eldvarnaeftirlits á umsóknarblaði.,"Sótt er um leyfi til að breyta innra fyrirkomulagi einingar S-271 og skipta henni í tvær einingar, S-271-1 og S-271-2 með sameiginlegri snyrtingu og aðstöðu starfsfólks í einingu S-271-2 á annarri hæð í Kringlunni á lóð nr. 4-12 við Kringluna. Erindi fylgir bréf frá Verkís dags. í maí 2013. Gjald kr. 9.000"
46059 (01.44.510.2),http://gamli.rvk.is/vefur/owa/edutils.parse_page?nafn=BN046059,Langholtsvegur 178,Reyndarteikningar,Frestað. Vísað til athugasemda á umsóknarblaði.,Sótt er um samþykki fyrir reyndarteikningum þar sem sýndar eru innri breytingar og komið er fyrir öryggisgrind við björgunarop á þaki norðausturhliðar hússins á lóðinni nr. 178 við Langholtsveg.  Gjald kr. 9.000
46072 (01.34.520.5),http://gamli.rvk.is/vefur/owa/edutils.parse_page?nafn=BN046072,Laugarnesvegur 77,Kvistir,Frestað. Vísað til athugasemda á umsóknarblaði.,Sótt er um leyfi til þess að byggja kvisti á norðvestur- og suðausturþekju hússins á lóðinni nr. 77 við Laugarnesveg. Umsögn skipulagsfulltrúa dags. 10. október 2012 fylgir erindinu. Stærð: Kvistir xx ferm. og xx rúmm. Gjald kr. 9.000 + xx]
46078 (01.24.000.5),http://gamli.rvk.is/vefur/owa/edutils.parse_page?nafn=BN046078,Laugavegur 105,Breyting 1.hæð og kjallara,Frestað. Vísað til athugasemda á umsóknarblaði.,"Sótt er um leyfi til að breyta innra skipulagi í nýsamþykktu veitingahúsi, fjarlægja eldhús og stiga niður í kjallara í húsi á lóð nr. 105 við Laugaveg. Sjá erindi BN045591 Gjald kr. 9.000"
46005 (01.17.150.2 01),http://gamli.rvk.is/vefur/owa/edutils.parse_page?nafn=BN046005,Laugavegur 18B,Verslun og kaffihús,Frestað. Vísað til athugasemda á umsóknarblaði.,Sótt er um leyfi til þess að innrétta verslun og kaffihús í flokki II (tegund e) á fyrstu hæð hússins á lóðinni nr. 18B við Laugaveg. Útskrift úr gerðabók embættisafgreiðslufundar skipulagsfulltrúa frá 31. maí 2013 fylgir erindinu. Gjald kr. 9.000
46010 (01.15.230.1),http://gamli.rvk.is/vefur/owa/edutils.parse_page?nafn=BN046010,Lindargata 57-66,"59 - Stjórnstöð fyrir snjóbræðslukerfi - 2.hæð
Vb.nr.086510",Frestað. Vísað til athugasemda eldvarnaeftirlits á umsóknarblaði.,Sótt er um leyfi til að koma fyrir stjórnstöð fyrir snjóbræðslu fyrir hluta Hverfisgötu á einu bílastæði á 2. hæð bílgeymslu á lóð nr. 57-66 við Lindargötu. Gjald kr. 9.000
46080 (04.64.270.1),http://gamli.rvk.is/vefur/owa/edutils.parse_page?nafn=BN046080,Lóuhólar 2-6,Fiskbúð - 01-08,Frestað. Vísað til athugasemda á umsóknarblaði.,"Sótt er um leyfi til að innrétta fiskbúð með matreiðslu og flökunarrými, komið verður fyrir nýjum vinnsludyrum á suðurhlið í mhl.01 í rými 0108 í verslunarhúsinu á nr. 2-4 á lóð 2-6 við Lóuhóla. Bréf frá umsækjanda ódags. fylgir. Gjald kr. 9.000"
46044 (01.24.110.4),http://gamli.rvk.is/vefur/owa/edutils.parse_page?nafn=BN046044,Mjölnisholt 12-14,Viðbygging,Frestað. Vísað til athugasemda á umsóknarblaði. Málinu vísað til umsagnar skipulagsfulltrúa.,"Sótt er um leyfi til breytinga innanhúss og til stækkunar á hóteli á lóð nr. 12-14 við Mjölnisholt. Meðfylgjandi eru yfirlýsing burðarvirkishönnuðar dags. 15.5. 2013, varmatapsútreikningar dags. 15.5. 2013 og eldvarnaskýrsla dags. 23.5. 2013. Stærðir - stækkun: 1.485,1 ferm.,  4.493,2 rúmm. Samtals eftir stækkun: 6.834,9 ferm., 23.901,1 rúmm. Gjald kr. 9.000"
45948 (01.11.640.1),http://gamli.rvk.is/vefur/owa/edutils.parse_page?nafn=BN045948,Mýrargata  2-8,Breyting - kjallari og 1.hæð,Frestað. Samkvæmt gögnum embættisins er lágmarksgjald ógreitt.,"Sótt er um leyfi til að breyta áður samþykktu erindi BN044340 þar sem búningsklefi starfsmanna er fluttur í kjallara, undirbúningseldhúsi komið fyrir og á 1. hæð er eldhúsi breytt, bætt við björgunaropi og geymslu við bar er tvískipt í Marina hótel á lóð nr. 2-8 við Mýrargötu. Skýrsla brunahönnuðar dags. 30. apríl. 2013 fylgir. Gjald kr. 9.000 + 9.000"
46070 (04.23.280.2),http://gamli.rvk.is/vefur/owa/edutils.parse_page?nafn=BN046070,Nethylur 2,"Mhl. 01 - ""Kökugallerý""",Frestað. Vísað til athugasemda á umsóknarblaði.,Sótt er um leyfi til þess að starfrækja veitingaverslun (kökugallerý) í verslunar og þjónustuhúsi (matshl. 01) á lóðinni nr. 2 við Nethyl. Bréf umsækjanda dags. 28.05.2013 fylgir erindinu. Gjald kr. 9.000
45932 (01.14.051.5),http://gamli.rvk.is/vefur/owa/edutils.parse_page?nafn=BN045932,Pósthússtræti 11,Útiveitingar,Samþykkt.  Samræmist ákvæðum laga nr. 160 / 2010. Allur frágangur á svæði útiveitinga er á ábyrgð umsækjanda og ber honum að sjá til þess að allt rusl sé þrifið jafnóðum og fjarlægt.,Sótt er um leyfi fyrir afgreiðsluborði utandyra og útiveitingaaðstöðu fyrir 43 gesti á gangstétt fyrir framan Hótel Borg á lóðinni nr. 11 við Pósthússtræti. Umsögn skrifstofu eigna og atvinnuþróunar dags. 29. maí 2013 fylgir erindinu. Gjald kr. 9.000
46067 (01.14.051.5),http://gamli.rvk.is/vefur/owa/edutils.parse_page?nafn=BN046067,Pósthússtræti 9,"Breyting á baraðstöðu, breyting kjallara",Frestað. Vísað til athugasemda á umsóknarblaði.,Sótt er um leyfi til að breyta baraðstöðu og afgreiðslu á mat á 1. hæð og fella burtu hluta af léttum vegg í kjallara í veitingahúsi á lóð nr. 9 við Pósthússtræti. Gjald kr. 9.000
45993 (01.13.010.5),http://gamli.rvk.is/vefur/owa/edutils.parse_page?nafn=BN045993,Seljavegur 2,Reyndarteikningar - líkamsrækt,Frestað. Vísað til athugasemda á umsóknarblaði.,Sótt er um samþykki á reyndarteikningum þar sem svæði 0103 og 0201 sem hefur verið notað fyrir leikhús hefur verið breytt í líkamsræktarstöð í húsinu á lóð nr. 2 við Seljaveg. Gjald kr. 9.000
46015 (01.36.600.1),http://gamli.rvk.is/vefur/owa/edutils.parse_page?nafn=BN046015,Sigtún 38,Viðbygging,Frestað. Vísað til athugasemda á umsóknarblaði.,"Sótt er um leyfi til að fella út af teikningum áður samþykkta stækkun á sal sjá erindi BN037136, sem ekki hefur verið byggð við Grand Hótel á lóð nr. 38 við Sigtún. Minnkun:  xxxx Gjald kr. 9.000"
46076 (01.29.510.6),http://gamli.rvk.is/vefur/owa/edutils.parse_page?nafn=BN046076,Síðumúli 25,Rampur,Frestað. Vísað til athugasemda á umsóknarblaði.,Sótt er um leyfi til að byggja skábraut að kjallara mhl. 02 á nr. 25A á lóð nr. 25 við Síðumúla. Gjald kr. 9.000
46008 (01.29.230.4),http://gamli.rvk.is/vefur/owa/edutils.parse_page?nafn=BN046008,Síðumúli 4,Klæðning,Samþykkt.  Samræmist ákvæðum laga nr. 160 / 2010. Með vísan til samþykktar borgarráðs frá 1. september 1998 skal utanhúss- og lóðarfrágangi vera lokið eigi síðar en innan tveggja ára frá útgáfu byggingarleyfis að viðlögðum dagsektum sbr. greinar nr. 2.4.7 og 2.9.2 í byggingarreglugerð nr. 112/2012. Áskilin lokaúttekt byggingarfulltrúa.,Sótt er um leyfi til þess að klæða með liggjandi báruáli og sléttum álplötum húsið á lóðinni nr. 4 við Síðumúla. Gjald kr. 9.000
45995 (05.05.380.4),http://gamli.rvk.is/vefur/owa/edutils.parse_page?nafn=BN045995,Sjafnarbrunnur 4-10,Reyndarteikningar,Frestað. Vísað til athugasemda á umsóknarblaði.,"Sótt er um samþykki fyrir reyndarteikningu, þar sem gerð er grein fyrir minni háttar breytingum á innra skipulagi og útliti sem orðið hafa á byggingartíma raðhúss á lóð nr. 4-10 við Sjafnarbrunn. Sjá erindi BN037030, BN037483 og BN039097 Gjald kr. 9.000"
45939 (01.46.210.1),http://gamli.rvk.is/vefur/owa/edutils.parse_page?nafn=BN045939,Skeifan 11,Breyting inni - Fönn,Samþykkt.  Samræmist ákvæðum laga nr. 160 / 2010. Áskilin lokaúttekt byggingarfulltrúa. Áskilið samþykki heilbrigðiseftirlits.,Sótt er um leyfi til að breyta áður samþykktu erindi BN045583. Ræstiaðstaða er færð og innra skipulagi verslunar breytt í húsinu á lóð nr. 11 við Skeifuna. Gjald kr. 9.000
45824 (04.91.440.1),http://gamli.rvk.is/vefur/owa/edutils.parse_page?nafn=BN045824,Skógarsel 10,Eldsneytistankar,Samþykkt.  Samræmist ákvæðum laga nr. 160 / 2010. Áskilin lokaúttekt byggingarfulltrúa. Áskilið samþykki heilbrigðiseftirlits.,Sótt er um leyfi til að endurnýja eldsneytistanka og afgreiðsluplan við afgreiðslustöð N1 á lóð nr. 10 við Skógarsel. Gjald kr. 9.000 + 9.000
45911 (01.17.020.2),http://gamli.rvk.is/vefur/owa/edutils.parse_page?nafn=BN045911,Skólastræti 3,3B - vinnustofur listamanna,Frestað. Vísað til athugasemda á umsóknarblaði. Með vísan til umsagnar skipulagsfulltrúa dags. 30. maí 2013.,"Sótt er um leyfi til þess að lækka botnplötu, endurbyggja framhlið og stækka hús nr. 3B á lóðinni nr. 3 við Skólastræti. Jafnframt er sótt um að innrétta vinnustofur fyrir fjóra listamenn í húsinu. Útskrift úr gerðabók embættisafgreiðslufundar skipulagsfulltrúa frá 31. maí 2013 fylgir erindinu ásamt umsögn skipulagsfulltrúa dags. 30. maí 2013. Samþykki meðlóðarhafa (á teikn.) fylgir erindinu. Ný skráningartafla fylgir erindinu. Stærð: Stækkun xx ferm. og xx rúmm. Gjald kr. 9.000"
44933 (01.18.141.7),http://gamli.rvk.is/vefur/owa/edutils.parse_page?nafn=BN044933,Skólavörðustígur 42,Breytingar kjallara og 1.hæð,Frestað. Vísað til athugasemda heilbrigðiseftirlits á umsóknarblaði.,Sótt er um leyfi til að innrétta gestamóttöku með morgunverðareldhúsi og gerð grein fyrir ýmsum breytingum á kjallara v/lokaúttektar á erindi BN041529 í gistiheimili á lóð nr. 42 við Skólavörðustíg. Gjald kr. 8.500
46073 (01.15.430.6),http://gamli.rvk.is/vefur/owa/edutils.parse_page?nafn=BN046073,Skúlagata 32-34,Klæðning og stækkun svala,Frestað. Vísað til athugasemda á umsóknarblaði.,"Sótt er um leyfi til að klæða suðlægar hliðar á 1 - 4 hæð aðalbyggingar og hliðar útbygginga á 1 - 2 hæð, einangrað að utan með 50 mm.  steinullarplötum og klæddar með álklæðningu og að breyta þrennum svölum á 2. til 4. hæð suðurhliðar þannig að þær breyta um sköpulag og stækka þær á húsinu á lóð nr. 32-34 við Skúlagötu. Stækkun 13,0 ferm., 55,8 rúmm. Gjald kr. 9.000"
46075 (01.79.050.1),http://gamli.rvk.is/vefur/owa/edutils.parse_page?nafn=BN046075,Sléttuvegur 3,Klæðning - lyfta - svalalokanir,Frestað. Vísað til athugasemda á umsóknarblaði. Málinu vísað til umsagnar skipulagsfulltrúa.,"Sótt er um leyfi til að fjarlægja múrklæðningu og  í staðinn komi álklæðning, koma fyrir lyftu, svalalokun, þvottahús fært til og bætt er við nýrri íbúð í rými 0403 í húsi á lóð nr. 1-3 við Sléttuveg. Stækkun vegna lyftu og sólstofa á svalir : XX ferm., XX rúmm. Gjald kr. 9.000"
45659 (01.23.000.3),http://gamli.rvk.is/vefur/owa/edutils.parse_page?nafn=BN045659,Sóltún 1,Breyting - 8. og 9. hæð,Samþykkt.  Samræmist ákvæðum laga nr. 160 / 2010. Áskilin lokaúttekt byggingarfulltrúa.,Sótt er um leyfi til að breyta innra fyrirkomulagi 8. hæðar og 9. hæðar í húsinu í mhl 02 Mánatún 3-5 á lóð nr. 1 við Sóltún. Umsögn burðarvirkishönnuðar dag 5. apríl 2013. Gjald kr. 9.000 + 9.000
46055 (08.1-.--5.2),http://gamli.rvk.is/vefur/owa/edutils.parse_page?nafn=BN046055,Strípsvegur 100,"Lokahús, nýbygging",Frestað. Vísað til athugasemda á umsóknarblaði. Málinu vísað til umsagnar skipulagsfulltrúa.,"Sótt er um leyfi til að staðsteypa með flötu torfþaki lokahús Orkuveitunnar fyrir kalt vatn í Vatnsendakrikum. Húsið er hnitasett á afstöðumynd. Stærðir 49,8 ferm., 202,1 rúmm. Gjald kr. 9.000"
45984 (01.26.110.1),http://gamli.rvk.is/vefur/owa/edutils.parse_page?nafn=BN045984,Suðurlandsbraut 2,Bakhús - tölvuverslun og verkstæði,Frestað. Vísað til athugasemda á umsóknarblaði.,"Sótt er um leyfi til að innrétta tölvuverslun og verkstæði í mhl 03, komið verður fyrir nýjum stiga og vörulyftu og að endurnýja glugga og hurðir í húsinu á lóð nr. 2 við Suðurlandsbraut. Umsögn burðarvirkshönnuðar dags. 22. maí 2013 fylgir. Gjald kr. 9.000"
44356 (01.45.410.7),http://gamli.rvk.is/vefur/owa/edutils.parse_page?nafn=BN044356,Súðarvogur 20,Klæðning,Samþykkt.  Samræmist ákvæðum laga nr. 160 / 2010. Með vísan til samþykktar borgarráðs frá 1. september 1998 skal utanhúss- og lóðarfrágangi vera lokið eigi síðar en innan tveggja ára frá útgáfu byggingarleyfis að viðlögðum dagsektum sbr. greinar nr. 2.4.7 og 2.9.2 í byggingarreglugerð nr. 112/2012. Áskilin lokaúttekt byggingarfulltrúa.,Sótt er um leyfi til að klæða að utan með báruðum álplötum húsið á lóðinni nr. 20 við Súðavog.  Gjald kr. 8.500
45698 (01.14.121.0),http://gamli.rvk.is/vefur/owa/edutils.parse_page?nafn=BN045698,Templarasund 3,Breytingar innanhúss - mhl.06,Samþykkt.  Samræmist ákvæðum laga nr. 160 / 2010. Þinglýsa þarf lóðarskiptasamningi eigi síðar en við lokaúttekt. Áskilin lokaúttekt byggingarfulltrúa. Áskilið samþykki heilbrigðiseftirlits. Áskilið samþykki Vinnueftirlits ríkisins.,Sótt er um leyfi til breytinga innanhúss í hótelhluta á öllum hæðum í gistiheimili á lóð nr. 4 við Kirkjutorg og nr. 3 við Templarasund. Meðfylgjandi er bréf arkitekts dags. 9. apríl 2013 og annað dags. 18.apríl 2013 og enn annað dags. 18. apríl 2013 einnig yfirlýsing eigenda dags. 17. apríl 2013 og bréf eldvarnahönnuðar dags. 14. desember 2012. Gjald kr. 9.000 + 9.000
44847 (01.14.310.3),http://gamli.rvk.is/vefur/owa/edutils.parse_page?nafn=BN044847,Tjarnargata 43,Reyndarteikning - bílskúrar,Samþykkt.  Samræmist ákvæðum laga nr. 160 / 2010. Skilyrt er að eignaskiptayfirlýsingu vegna breytinga í húsinu sé þinglýst til þess að samþykktin öðlist gildi.     Áskilin lokaúttekt byggingarfulltrúa.,"Sótt er um samþykki fyrir núverandi fyrirkomulagi og áður gerðri stækkun á tvöföldum bílskúr (matshl. 02) norðan við þríbýlishús á lóðinni nr. 43 við Tjarnargötu. Ný skráningartafla fylgir erindinu. Samþykki meðeigenda (á teikn.) fylgir erindinu. Áður gerð stækkun matshl. 02: 14 ferm. og 31,5 rúmm. Gjald kr. 8.500"
45605 (01.13.210.4),http://gamli.rvk.is/vefur/owa/edutils.parse_page?nafn=BN045605,Tryggvagata 16,Breyting  - 4. og 5. hæð,Frestað. Vísað til athugasemda á umsóknarblaði.,"Sótt er um leyfi til að breyta þaki, setja kvisti með skúrþaki á báðar hliðar, svalir á suðurhlið og innrétta íbúðir á 4. og 5. hæð íbúðar- og atvinnuhúss á lóð nr. 16 við Tryggvagötu. Erindi fylgir þinglýst eignaskiptayfirlýsing dags. 15. september 2005 og samkomulag eigenda Tryggvagötu 16 (ekki þinglýst), dags. 7. desember 2004 og fsp. dags. 20. nóvember 2012 ásamt úrksrift úr gerðabók embættisafgreiðslufundar skipulagsfulltrúa frá 8. mars 2013 og umsögn skipulagsfulltrúa dags. 6. mars 2013. Umsögn burðarvirkishönnuðar dags. 23. maí og bréf hönnuðar dags. 24. maí 2013 fylgja erindinu. Stækkun:  xx ferm., xx rúmm. Gjald kr. 9.000 + xx"
46077 (01.33.890.3),http://gamli.rvk.is/vefur/owa/edutils.parse_page?nafn=BN046077,Vatnagarðar 20,Stækkun 2. hæð,Frestað. Vísað til athugasemda á umsóknarblaði. Málinu vísað til umsagnar skipulagsfulltrúa.,"Sótt er um leyfi til að stækka 2. hæð, koma fyrir á þeirri hæð skrifstofum , fundarherbergi, setustofu og eldhúsi fyrir kynningar og á 1. hæð að innrétta kennslurými, koma fyrir matsal nemenda, innkeyrsluhurð að vestanverðu er lokað og komið fyrir nýjum inngangi inn í húsið á lóð nr. 20 við Vatnagarða. Stækkun 2. hæðar er: 139,8 ferm Gjald kr. 9.000"
45958 (01.52.400.3),http://gamli.rvk.is/vefur/owa/edutils.parse_page?nafn=BN045958,Víðimelur 62,Hækkun á risi,Frestað. Vísað til athugasemda á umsóknarblaði.,"Sótt er um leyfi til að hækka ris, byggja tvo kvisti og svalir á fjölbýlishús á lóð nr. 62 við Víðimel. Stækkun:  xx ferm., xx rúmm. Gjald kr. 9.000"
46028 (01.17.030.3),http://gamli.rvk.is/vefur/owa/edutils.parse_page?nafn=BN046028,Þingholtsstræti 3-5,"Geymsla, reyktjald, rennihurð",Samþykkt.  Samræmist ákvæðum laga nr. 160 / 2010. Áskilin lokaúttekt byggingarfulltrúa. Áskilið samþykki heilbrigðiseftirlits.,Sótt er um leyfi til þess að koma fyrir geymslu við setustofu móttöku í kjallara í matshl. 02 og breyta reyktjaldi í rennihurð í kjallara milli matshluta 02 og  03 á lóðinni nr. 3-5 við Þingholtsstræti. Gjald kr. 9.000
46068 (04.77.380.2),http://gamli.rvk.is/vefur/owa/edutils.parse_page?nafn=BN046068,Þingvað 19,Einbýlishús,Frestað. Vísað til athugasemda á umsóknarblaði.,"Sótt er um leyfi til að byggja einbýlishús með innbyggðri bílgeymslu, neðri hæð er byggð úr forsteyptum einingum og efri hæð úr timbri á lóð nr. 19 við Þingvað. Jafnframt er óskað eftir að áður samþykkt erindi BN040298 verði fellt úr gildi. Stærð:  1. hæð bílgeymsla 36,5 ferm., íbúð 185,3 ferm., 2. hæð íbúð 54,2 ferm. Samtals 276 ferm., 9,6,2 rúmm. Gjald kr. 9.000"
46109,http://gamli.rvk.is/vefur/owa/edutils.parse_page?nafn=BN046109,Áland,tölusetningar,Samþykkt.  Samræmist ákvæðum laga nr. 160 / 2010.,"Byggingarfulltrúi leggur til að lóð leikskóla LSH. landnr. 108680 nú skráð Klifvegur-Fossvogsbl.40, verði skráð sem Áland 6, á lóðinni eru mh. 01, 03, 04, 12 og 14. Jafnframt er lagt til að lóð leikskóla Reykjavíkur, Furuborg verði tölusett sem Áland 6, en afmörkun þeirra lóðar liggur ekki fyrir á mæliblaði."
46096,http://gamli.rvk.is/vefur/owa/edutils.parse_page?nafn=BN046096,Álmgerði,töluseting,Samþykkt.  Samræmist ákvæðum laga nr. 160 / 2010.,"Byggingarfulltrúi leggur til að lóð endurhæfingardeildar LSH, landnr. 107763, nú skráð sem Grensásvegur 62 verði tölusett sem Álmgerði 1, á lóðinni eru mh. 01, 02 og 03."
46103,http://gamli.rvk.is/vefur/owa/edutils.parse_page?nafn=BN046103,Biskupsgata,tölusetning,Samþykkt.  Samræmist ákvæðum laga nr. 160 / 2010.,"Byggingarfulltrúi leggur til að ""lóð"" með landnr. 113408 við Reynisvatn verði tölusett sem Biskupsgata 40 á lóðinni eru matshlutar 01-06."
46122 (04.05.640.1),http://gamli.rvk.is/vefur/owa/edutils.parse_page?nafn=BN046122,Bíldshöfði 7,leiðrétting,Samþykkt.  Samræmist ákvæðum laga nr. 160 / 2010.,"Á afgreiðslufundi byggingarfulltrúa þann 4. desember 2007 var samþykkt byggingarleyfisumsókn frá B.M.-Vallá hf og Fasteignafélagsins Ártúns ehf, um leyfi til þess að byggja mötuneyti, starfsmannaaðstöðu og smurstöð, sem viðbyggingu við matshluta 11 á lóðinni nr. 7 við Bíldshöfða. Vegna málsins var álagt gatnagerðargjald reiknað svo: 564,8 ferm @ 11028 kr./ferm. = 6.259.113 kr. Við álagninguna yfirsást að lóðarhafa var heimilt m.v.t. úthlutunarskilmála að byggja allt að 45.661 rúmm. á lóðinni áður en frekari gatnagerðargjald yrði álagt. Samtals hefur verið byggt að lóðinni 30. 246 rúmm og má því byggja 45.661-30.246 ferm. = 15. 415 rúmm áður en til greiðslu gatnagerðargjalda kemur. Rétt álagning gjalda vegna byggingarleyfis BN037393 er: Byggingarleyfisgjald 167.688 kr. Úttektargjöld  138.000 kr. Yfirferð raflagnauppdrátta 17.100 kr. Lágmarksgjald 6.800 kr. Málinu fylgir samantekt dags. 7. maí 2013 og önnur samantekt skrifstofustj. Framkvæmdasvið ódagsett."
46106,http://gamli.rvk.is/vefur/owa/edutils.parse_page?nafn=BN046106,Dvergshöfði,staðföng,Samþykkt.  Samræmist ákvæðum laga nr. 160 / 2010.,"Byggingarfulltrúi leggur til að matshlutar á lóð með landnr. 110629 nr. 9 við Bíldshöfða fái staðföng við Dvergshöfða. Staðföng verði mh. 04, Dvergshöfði 2 og 05 verði Dvergshöfði 4."
46093,http://gamli.rvk.is/vefur/owa/edutils.parse_page?nafn=BN046093,Eggertsgata,tölusetningar,Samþykkt.  Samræmist ákvæðum laga nr. 160 / 2010.,"Byggingarfulltrúi leggur til að lóð þjónustumiðstöðvar Reykjavíkurborgar við Eggertsgötu verði tölusett sem Eggertsgata 35. Var áður skráð við Njarðargötu. Landnr. 106678, mh. 01 og 02."
46110,http://gamli.rvk.is/vefur/owa/edutils.parse_page?nafn=BN046110,Gufunesvegur,tölusetningar,Samþykkt.  Samræmist ákvæðum laga nr. 160 / 2010.,"Byggingarfulltrúi leggur til að lóðir og fasteignir við Gufunesveg verði tölusettar sem hér segir: Gufunesvegur 1. Bæjarhús Gufunesbæjar verði Gufunesvegur 1, landnr. 108942 matshlutar 01, 02, 04 og 05, fastanr. 203-8400. Gufnesvegur 13. Lóð Orkuveitur Reykjavíkur fyrir skolpdælustöð verði Gufunesvegur 13, landnúmer 193702 matshluti 01, fastanúmer 226-3614. Gufunesvegur 15. Lóð Sorpu. Lóðin var áður skráð Gufunesvegur 10 verði Gufunesvegur 15, landnr. 108956 matshlutar 01-08, fastanr. 203-8476. Gufunesvegur 17. Lóð fyrir Áburðaverksmiðju verði Gufunesvegur 17, landnr. 108955, staðföng á lóðinni verði: Gufunesvegur 17, mh. 19 og 54 Gufunesvegur 19, mh. 15 Gufunesvegur 21, mh. 04 og 52 Gufunesvegur 23, mh. 03 Gufunesvegur 25, mh. 02 Gufunesvegur 27, mh. 30 Gufunesvegur 29, mh. 53 Gufunesvegur 31, mh. 01 Gufunesvegur 33, mh. 65 Gufunesvegur 35, mh. 66 Gufunesvegur 37, mh. 47 Gufunesvegur 37A, mh. 43 Gufunesvegur 39, mh. 11, 12 og 13 Gufunesvegur 41, mh. 51 Gufunesvegur 43, mh. 10 Gufunesvegur 45, mh. 55 Gufunesvegur 51, mh. 08 Gufunesvegur 53, mh. 07 Fastanr. er 203-8422 Málinu fylgja tvö yfirlitsblöð úr LUKR í stærð A3 með innfærðum staðföngum, matshlutanr. og lóðarnúmerum."
46094,http://gamli.rvk.is/vefur/owa/edutils.parse_page?nafn=BN046094,Gufunesvegur Gamli,breytt staðfang,Samþykkt.  Samræmist ákvæðum laga nr. 160 / 2010.,"Byggingarfulltrúi leggur til að staðfangi lóðar með landnr. 108951, nú Gufunesvegur 1 verði breytt í Gamli Gufunesvegur 1,  á lóðinni eru tveir mh. með fastanúrmer 203-8413 og 203-8414."
46091,http://gamli.rvk.is/vefur/owa/edutils.parse_page?nafn=BN046091,Háteigsvegur,tölusetning,Samþykkt.  Samræmist ákvæðum laga nr. 160 / 2010.,"Byggingarfulltrúi leggur til að íþróttahús HÍ á lóðinni Stakkahlíð 1 fái staðfangið Háteigsvegur 58, landnr. 103595, mh. 10."
46090,http://gamli.rvk.is/vefur/owa/edutils.parse_page?nafn=BN046090,Hofsvallagata - Tölusetning,tölusetning,Samþykkt.  Samræmist ákvæðum laga nr. 160 / 2010.,"Byggingarfulltrúi leggur til að lóð sundalaugar við Hofsvallagötu verði tölusett sem Hofsvallagata 54, landnr. 106073, mh. 01, 02 og 03."
46097,http://gamli.rvk.is/vefur/owa/edutils.parse_page?nafn=BN046097,Holtavegur,tölusetning,Samþykkt.  Samræmist ákvæðum laga nr. 160 / 2010.,"Byggingarfulltrúi leggur til að mh. 03 á lóð nr. 28 við Holtaveg verði tölusettur sem Holtavegur 30, landnr. 104939."
46113,http://gamli.rvk.is/vefur/owa/edutils.parse_page?nafn=BN046113,Kirkjutorg,tölusetning,Samþykkt.  Samræmist ákvæðum laga nr. 160 / 2010.,"Byggingarfulltrúi leggur til að bakhús við Kirkjutorg, landnúmer 100901, mh. 06, verði tölusett sem Kirkjutorg 4A."
46092,http://gamli.rvk.is/vefur/owa/edutils.parse_page?nafn=BN046092,Kleppsvegur - Kleppsgarðar,tölusetning,Samþykkt.  Samræmist ákvæðum laga nr. 160 / 2010.,"Byggingarfulltrúi leggur til að lóð Kleppsspítala við Kleppsgarða með landnúmer 104957, verði tölusett sem Kleppsgarðar 2.  Núverandi skráning er Kleppsvegur, Kleppur. Staðföng á lóðinni verða : Kleppsgarðar 2, matshluti 01 Kleppsgarðar 4, matshluti 24 Kleppsgarðar 6, matshluti 16 Kleppsgarðar 8, matshluti 17 Kleppsgarðar 10, matshluti 20 Kleppsgarðar 12, matshluti 22 Kleppsgarðar 14, matshluti 25 Kleppsgarðar 1, matshlutar 06 og 21 Kleppsgarðar 3A matshluti 15 var áður skráð Kleppur 0. Eigandi  Orkuveita R. Kleppsgarðar 3, matshlutar 02, 04 og 05 Kleppsgarðar 5, matshluti 18 Fastanúmer eigna spítalans er 202-0289, en matshluta 15, 202-0302.  Eignir spítalans við  Kleppsskaft halda staðföngum sínum.  Málinu fylgir uppdráttur úr LUKR í stærð A3 með innfærðum staðföngum og matshlutanúmerum."
46104,http://gamli.rvk.is/vefur/owa/edutils.parse_page?nafn=BN046104,Raufarsel,tölusetning,Samþykkt.  Samræmist ákvæðum laga nr. 160 / 2010.,"Byggingarfulltrúi leggur til að mh. 01 (kirkja) á lóð með landnr. 112925, Raufarsel 4-8 verði skráður sem Raufarsel 4 og mh. 02 verði Raufarsel 8."
46098,http://gamli.rvk.is/vefur/owa/edutils.parse_page?nafn=BN046098,Sigtún,tölusetning,Samþykkt.  Samræmist ákvæðum laga nr. 160 / 2010.,"Byggingarfulltrúi leggur til að lóð Ásmundarsafns við Sigtún landnr. 104704 verði tölusett sem Sigtún 44, mh. 01 og 02."
46114,http://gamli.rvk.is/vefur/owa/edutils.parse_page?nafn=BN046114,Stekkjarbakki,tölusetningar,Samþykkt.  Samræmist ákvæðum laga nr. 160 / 2010.,"Stekkjarbakki - Tölusetningar

Byggingarfulltrúi leggur til að fasteignir við Stekkjarbakka sem tengist Höfðabakka verði tölusettar með oddatölum, enda eru fasteignir við þann hluta Stekkjarbakka sem tengist Breiðholtsbraut tölusettar með sléttum tölum. Tölusetning verði sem hér segir :

Stekkjarbakki 1, fasteignir á landnúmeri 110991, mh.01,01,02, og 71, nú skráð sem Blesugróf Skálará verður Stekkjarbakki 1, undirheiti Skálará.

Stekkjarbakki 3, fasteignir á landnúmeri 110994, mh.01,02, og 70, nú skráð sem Blesugróf Heimahvammur verður Stekkjarbakki 3, undirheiti Heimahvammur.

Stekkjarbakki 5, fasteignir á landnúmeri 110996, mh.01,02, nú skráð sem Blesugróf skúrar verður Stekkjarbakki 5.

Stekkjarbakki 7, fasteignir á landnúmeri 111764, mh.01,03, nú skráð sem Stekkjarbakki verður Stekkjarbakki 7. Eru eignir Orkuveitu Reykjavíkur.

Stekkjarbakki 9, fasteignir á landnúmeri 111000, mh.01,02,03 og 70, nú skráð sem Blesugróf Gilsbakki verður Stekkjarbakki 9, undirheiti Gilsbakki.

Stekkjarbakki 11, fasteignir á landnúmeri 111001, mh.01, nú skráð sem Blesugróf Laufás verður Stekkjarbakki 11, undirheiti Laufás.

Málinu fylgjr uppdráttur úr LUKR í stærð A3 með innfærðum upplýsingum."
46095,http://gamli.rvk.is/vefur/owa/edutils.parse_page?nafn=BN046095,Stjörnugróf,breytt staðfang,Samþykkt.  Samræmist ákvæðum laga nr. 160 / 2010.,"Byggingarfulltrúi leggur til að lóð með landnr. 108933 nú skráð Bústaðablettur 9, verði skráð sem Stjörnugróf 11 á lóðinni er mh. 01."
46101,http://gamli.rvk.is/vefur/owa/edutils.parse_page?nafn=BN046101,Stóragerði,tölusetning,Samþykkt.  Samræmist ákvæðum laga nr. 160 / 2010.,Byggingarfulltrúi leggur til að lóð Hvassaleitisskóla landnr. 107732 verði tölusett sem Stóragerði 11A.
46100,http://gamli.rvk.is/vefur/owa/edutils.parse_page?nafn=BN046100,Suðurlandsbraut,breytt staðfang,Samþykkt.  Samræmist ákvæðum laga nr. 160 / 2010.,"Byggingarfulltrúi leggur til að fasteign með landnr. 104952, nú skráð Holtavegur MLV-ÞLB27, fái staðfang sem Suðurlandsbraut 27. Matshlutar eru 01 og 70."
46108,http://gamli.rvk.is/vefur/owa/edutils.parse_page?nafn=BN046108,Sundabakki,tölusetningar,Samþykkt.  Samræmist ákvæðum laga nr. 160 / 2010.,"Byggingarfulltrúi leggur til að vöruhótel EÍ við Sundabakka, landnr. 103905 verði tölusett sem Sundabakki 2, mh. 09. Jafnframt er lagt til að Sundaskáli 4, landnr. 174247, verði tölusettur sem Sundabakki 6, mh. 01."
46107,http://gamli.rvk.is/vefur/owa/edutils.parse_page?nafn=BN046107,Sæbraut,tölusetning,Samþykkt.  Samræmist ákvæðum laga nr. 160 / 2010.,"Byggingarfulltrúi leggur til að lóð Orkuveitu við Sæbraut landnr. 173289, verði tölusett sem Sæbraut 101."
46099,http://gamli.rvk.is/vefur/owa/edutils.parse_page?nafn=BN046099,Vatnsveituvegur,tölusetning,Samþykkt.  Samræmist ákvæðum laga nr. 160 / 2010.,"Byggingarfulltrúi leggur til að fasteign með landnr. 111012, nú skráð Blesugróf Hraunteigur, fái staðfangið Vatnsveituvegur 104, undirheiti Hraunteigur. matshl. er 01."
46102,http://gamli.rvk.is/vefur/owa/edutils.parse_page?nafn=BN046102,Vegbrekkur,breytt staðfang,Samþykkt.  Samræmist ákvæðum laga nr. 160 / 2010.,"Byggingarfulltrúi leggur til að lóð Orkuveitu með landnr. 197582 nú Suðurlandsvegur 200, verði tölusett sem Vegbrekkur 43, á lóðinni er mh. 01."
46105,http://gamli.rvk.is/vefur/owa/edutils.parse_page?nafn=BN046105,Vesturhlíð,tölusetningar,Samþykkt.  Samræmist ákvæðum laga nr. 160 / 2010.,"Byggingarfulltrúi leggur til að lóð Fossvogskirkjugarða verði tölusett sem  Vesturhlíð 2, landnr. 107495. Staðföng á lóðinni verði: Vesturhlíð 2, mh. 02 Vesturhlíð 4, mh. 01 Vesturhlíð 6, mh. 03, kirkjan Vesturhlíð 8, mh. 04 og 05 Vesturhlíð 8B, mh. 06, er í reit B Vesturhlíð 8H, mh. 07, er í reit H Vesturhlíð 80, mh. 08, er í reit O"
46004 (01.28.010.2),http://gamli.rvk.is/vefur/owa/edutils.parse_page?nafn=BN046004,Álftamýri 7-9,(fsp) - 7 - Gistiheimili,Jákvætt. Að uppfylltum skilyrðum enda verði sótt um byggingarleyfi.,"Spurt er hvort innrétta megi gistiheimili eða gistiskála í kjallara, á 1. og 2. hæð í skrifstofuhúsi á lóð nr. 7-9 við Álftamýri. Útskrift úr gerðabók embættisafgreiðslufundar skipulagsfulltrúa frá 31, maí 2013 fylgir erindinu ásamt umsögn skipulagsfulltrúa dags. 28. maí 2013."
46058 (01.18.621.2),http://gamli.rvk.is/vefur/owa/edutils.parse_page?nafn=BN046058,Baldursgata 30,(fsp) - Breyta í íbúð,Frestað. Málinu vísað til umsagnar skipulagsfulltrúa.,"Spurt hvort leyfi fengist til að breyta atvinnuhúsnæði á jarðhæð, rými 0101 í íbúð eða að innrétta íbúðir til útleigu fyrir ferðarmenn í húsinu á lóð nr. 30 við Baldursgötu."
46063 (01.15.440.8),http://gamli.rvk.is/vefur/owa/edutils.parse_page?nafn=BN046063,Hverfisgata 101A,(fsp) - Svalir,Frestað. Málinu vísað til umsagnar skipulagsfulltrúa.,Spurt er hvort leyfi fengist til að koma fyrir svölum á norðurhlið á 1. hæð hússins á lóð nr. 101A við Hverfisgötu.
46064 (01.45.700.2),http://gamli.rvk.is/vefur/owa/edutils.parse_page?nafn=BN046064,Knarrarvogur 4,(fsp) - Breyta í íbúð,Nei. Samræmist ekki deiliskipulagi,Spurt er hvort leyfi fengist til að breyta skrifstofurými í rishæð í íbúðarhúsnæði í skrifstofuhúsnæðinu á lóð nr. 4 við Knarrarvog
46006 (01.19.110.5),http://gamli.rvk.is/vefur/owa/edutils.parse_page?nafn=BN046006,Njálsgata 78,(fsp) - Hækka þak,Jákvætt. Að uppfylltum skilyrðum sbr. umsögn skipulagsfulltrúa dags. 27. maí 2013. Sækja þarf um byggingarleyfi sem taki mið af athugasemdum í umsögn.,Spurt er hvort leyft yrði að hækka rishæð og setja svalir á suðurhlið sömu hæðar hússins á lóðinni nr. 78 við Njálsgötu. Útskrift úr gerðabók embættisafgreiðslufundar skipulagsfulltrúa frá 31. maí 2013 ásamt umsögn skipulagsfulltrúa dags. 27. maí 2013.
46062 (01.19.101.8),http://gamli.rvk.is/vefur/owa/edutils.parse_page?nafn=BN046062,Njálsgata 81,(fsp) - Samþykkja íbúð,Frestað. Vísað til athugasemda á fyrirspurnarblaði.,"Spurt er hvort leyfi fengist til að kjallararými verði samþykkt sem íbúð í húsinu á lóð nr. 81 við Njálsgötu.  Veðbandayfirlit dags. 5 apríl 2013, afsal af rými 0001 dags. 1. feb 2012 og frá 7. apríl 1997 fylgir."
46060 (01.36.430.8),http://gamli.rvk.is/vefur/owa/edutils.parse_page?nafn=BN046060,Sigtún 29,(fsp) - Bílskúr,"Jákvætt. Að uppfylltum skilyrðum enda verði sótt um byggingarleyfi, sjá einnig athugasemdir á fyrirspurnarblaði.",Spurt er hvort leyfi fengist til að byggja tvöfaldan bílskúr á lóð nr. 29 við Sigtún.
