nr,url,heimilisfang,tegund,nidurstada,spurning
46079 (01.14.041.5),http://gamli.rvk.is/vefur/owa/edutils.parse_page?nafn=BN046079,Aðalstræti 7,Loka húsasundi,Frestað. Vísað til athugasemda á umsóknarblaði.,Sótt er um leyfi til þess að loka húsasundi með timburgrindverki á lóðinni nr. 7 við Aðalstræti. Umsögn Minjastofnunar Íslands dags. 6. júní 2013 fylgir erindinu. Útskrift úr gerðabók skipulagsfulltrúa dags. 18. júní 2013 fylgir erindinu. Gjald kr. 9.000
46200 (01.14.041.4),http://gamli.rvk.is/vefur/owa/edutils.parse_page?nafn=BN046200,Aðalstræti 9,Breyting á brunaviðvörunarkerfi,Frestað. Vísað til athugasemda á eldvarnaeftirlits umsóknarblaði.,Sótt er um leyfi til að breyta texta um brunavarnir sbr. erindi BN045089 í kaffihúsinu á lóð nr. 9 við Aðalstræti.     Gjald kr. 9.000
46188 (01.28.010.2),http://gamli.rvk.is/vefur/owa/edutils.parse_page?nafn=BN046188,Álftamýri  7-9,7 - Gistiheimili,Frestað. Vísað til athugasemda á umsóknarblaði. Málinu vísað til umsagnar skipulagsfulltrúa.,"Sótt er um leyfi til að breyta skrifstofum á 1. og 2. hæð í gististað í flokki III, tegund A fyrir 26 gesti, og innrétta kjallara sem matsal fyrir 15 gesti, eldhús og starfsmannaaðstöðu sbr. fyrirspurn BN046004, í húsi á lóð nr. 7-9 við Álftamýri. Meðfylgjandi er umsögn burðarþolshönnuðar dags. 18.6. 2013 og samþykki meðeigenda dags. 13.6. 2013. Jákvæð umsögn skipulagsfulltrúa dags. 28. maí 2013 (vegna fyrirspurnarerindis BN046004) fylgir erindinu. Gjald kr. 9.000"
46179 (01.28.310.1),http://gamli.rvk.is/vefur/owa/edutils.parse_page?nafn=BN046179,Álftamýri 79,Breytingar á eldhúsi - VB.nr. 089287,Samþykkt.  Samræmist ákvæðum laga nr. 160 / 2010. Áskilin lokaúttekt byggingarfulltrúa. Áskilið samþykki heilbrigðiseftirlits.,Sótt er um leyfi til endurnýjunar og breytinga á innra fyrirkomulagi skólaeldhúss í Álftamýrarskóla  á lóð nr. 79 við Álftamýri. Gjald kr. 9.000
45896 (01.18.431.5),http://gamli.rvk.is/vefur/owa/edutils.parse_page?nafn=BN045896,Bergstaðastræti 28,Svalir og reyndarteikningar,Frestað. Grenndarkynningu ólokið.,"Sótt er um leyfi fyrir nýjum svölum með tröppum út í garð, samþykki fyrir  reyndarteikningum á innra fyrirkomulagi í kjallara og á fyrstu, annarri og þriðju hæð svo og að breyta í einbýlishús húsinu á lóðinni nr. 28 við Bergstaðastræti. Bréf frá hönnuði dags. 24. maí 2013,  samþykki eigenda aðliggjandi lóða og umsögn frá Minjasafni Reykjavíkur dags. 31 maí 2013 og Minjastofnun Íslands dags. 31. maí 2013 fylgir. Gjald kr. 9.000 + 9.000"
46149 (01.22.010.7),http://gamli.rvk.is/vefur/owa/edutils.parse_page?nafn=BN046149,Borgartún 8-16,"H1, smávægileg breyting á BN045590",Samþykkt.  Samræmist ákvæðum laga nr. 160 / 2010. Áskilin lokaúttekt byggingarfulltrúa.,Sótt er um leyfi fyrir áður samþykktu erindi BN045590 þannig að rými 0903 (sýningarsalur) verður gert að skrifstofu og hætt verður við hurð sem átti að snúa inn í matsal frá því rými í Höfðatúni 2 á lóð nr. 8-16 við Borgartún. Gjald kr. 9.000
46157 (04.79.180.1),http://gamli.rvk.is/vefur/owa/edutils.parse_page?nafn=BN046157,Búðavað 1-3,Viðbygging og fl.,Synjað. Með vísan til umsagnar skipulagsfulltrúa dags. 21. júní 2013.,"Sótt  er um leyfi til að byggja við báðar íbúðir mhl. 01 og 02 þannig að anddyri þeirra stækkar. Jafnframt er sótt um leyfi til þess að setja glugga á austurhlið og breyta innra fyrirkomulagi í mhl. 01 í parhúsinu á lóð nr. 1-3 við Búðavað.   Útskrift úr gerðabók embættisafgreiðslufundar skipulagsfulltrúa frá 21. júní 2013 fylgir erindinu ásamt umsögn skipulagsfulltrúa dags. 21. júní 2013. Stækkun: mhl. 01 stækkar um  9,8 ferm., XXXrúmm.  mhl. 02 stækkar um 9,8 ferm., XXX rúmm. Gjald kr. 9.000"
46016 (01.36.650.2),http://gamli.rvk.is/vefur/owa/edutils.parse_page?nafn=BN046016,Engjateigur 9,Breyting inni,"Samþykkt.  Samræmist ákvæðum laga nr. 160 / 2010. Skilyrt er að ný eignaskiptayfirlýsing sé samþykkt fyrir útgáfu byggingarleyfis, henni verður þinglýst eigi síðar en við lokaúttekt. Áskilin lokaúttekt byggingarfulltrúa. Áskilið samþykki heilbrigðiseftirlits.","Sótt er um leyfi til þess að breyta eldhúsi, koma fyrir salerni fyrir fatlaða og setja upp sturtuklefa í kjallara Verkfræðingahússins á lóðinni nr. 9 við Engjateig.. Meðfylgjandi er bréf arkitekts dags 13. maí 2013. Gjald kr. 9.000"
46174 (01.08.760.1),http://gamli.rvk.is/vefur/owa/edutils.parse_page?nafn=BN046174,Fiskislóð 47,Dreifistöð,"Samþykkt.  Samræmist ákvæðum laga nr. 160 / 2010. Frágangur á lóðamörkum verði gerður í samráði við lóðarhafa aðliggjandi lóða. Skilyrt er að lóðarskiptasamningur sé samþykktur fyrir útgáfu byggingarleyfis, honum verður þinglýst eigi síðar en við fokheldi. Áskilin lokaúttekt byggingarfulltrúa.","Sótt er um leyfi til að reisa dreifistöð fyrir Orkuveitu Reykjavíkur á sérmerktum reit innan lóðar nr. 47 við Fiskislóð.  Samþykki meðeigenda lóðar dags. 21. maí  2013 Stærð: 8,2 ferm., 22,1 rúmm.  Gjald kr. 9.000"
46128 (01.18.330.8),http://gamli.rvk.is/vefur/owa/edutils.parse_page?nafn=BN046128,Grundarstígur 10,Breyta stefnu á út-ljósi í kjallara,Samþykkt.  Samræmist ákvæðum laga nr. 160 / 2010. Áskilin lokaúttekt byggingarfulltrúa.,Sótt er um leyfi til að breyta stefnu ÚT-ljóss í kjallara Hannesarholts á lóð nr. 10 við Grundarstíg. Gjald kr. 9.000
46048 (01.21.610.1),http://gamli.rvk.is/vefur/owa/edutils.parse_page?nafn=BN046048,Guðrúnartún 1,"Stækkun, ofanábygging, tengibygging",Frestað. Vísað til umsagnar Orkuveitu Reykjavíkur.,"Sótt er um leyfi til að stækka húsið til vesturs, byggja ofan á norðurhúsið og breikka tengibyggingu milli norður- og suðurhúss . Jafnframt er sótt um  niðurfellingu á kvöð um gröft  og legur holræsis á lóð nr. 1 við Guðrúnartún. Umsögn burðarvirkshönnuðar dags. 30. maí 2013 og bréf frá hönnuði dags. 18. júní 2013 fylgir. Stækkun: 1672,1 ferm., 9762,4 rúmm. Gjald kr. 9.000"
46189 (01.17.111.6),http://gamli.rvk.is/vefur/owa/edutils.parse_page?nafn=BN046189,Hverfisgata 28,Endurbygging og breyting,Frestað. Vísað til athugasemda á umsóknarblaði. Málinu vísað til umsagnar skipulagsfulltrúa.,"Sótt er um leyfi til að endurbyggja og breyta skv. samþykktu deiliskipulagi, lyfta og bæta við kjallara sem verður staðsteyptur sem og 1. hæðin, húsinu á lóðinni nr. 28 við Hverfisgötu. Stærðir samtals fyrir breytingu: xx ferm., xx rúmm. Stækkun: xx ferm., xx rúmm. Samtals eftir stækkun: xx ferm., xx rúmm. Gjald kr. 9.000"
46176 (01.15.251.7),http://gamli.rvk.is/vefur/owa/edutils.parse_page?nafn=BN046176,Hverfisgata 57,Rífa hluta af steyptum veggjum,Frestað. Vísað til athugasemda á umsóknarblaði.,Sótt er um leyfi til að rífa hluta steyptra veggja húss á lóð nr. 57 við Hverfisgötu. Gjald kr. 9.000
45970 (01.44.121.1),http://gamli.rvk.is/vefur/owa/edutils.parse_page?nafn=BN045970,Karfavogur 25,Kvistur,Frestað. Vísað til athugasemda á umsóknarblaði.,"Sótt er um leyfi til að byggja kvist á norður þak hússins á lóð nr. 25 við Karfavog. Sbr. fyrirspurnarerindi BN045315 sem fékk jákvæða umfjöllun.  Stækkun:  3,5 rúmm. Gjald kr. 9.000"
46138 (01.86.300.1),http://gamli.rvk.is/vefur/owa/edutils.parse_page?nafn=BN046138,Kvistaland 18-24,Lengja geymslu á kosnað bílskúrs,Samþykkt.  Samræmist ákvæðum laga nr. 160 / 2010. Með vísan til samþykktar borgarráðs frá 1. september 1998 skal utanhúss- og lóðarfrágangi vera lokið eigi síðar en innan tveggja ára frá útgáfu byggingarleyfis að viðlögðum dagsektum sbr. greinar nr. 2.4.7 og 2.9.2 í byggingarreglugerð nr. 112/2012. Áskilin lokaúttekt byggingarfulltrúa.,"Sótt er um leyfi til að stækka geymslu inn í bílskúr, breikka bílskúrshurð, síkka glugga og klæða þakkant með málmi og timbri á húsinu nr. 18 á lóð nr. 18 til 24 við Kvistaland. Gjald kr. 9.000"
46059 (01.44.510.2),http://gamli.rvk.is/vefur/owa/edutils.parse_page?nafn=BN046059,Langholtsvegur 178,Reyndarteikningar,Samþykkt.  Samræmist ákvæðum laga nr. 160 / 2010. Skilyrt er að eignaskiptayfirlýsingu vegna breytinga í húsinu sé þinglýst til þess að samþykktin öðlist gildi.     Áskilin lokaúttekt byggingarfulltrúa.,Sótt er um samþykki fyrir reyndarteikningum þar sem sýndar eru innri breytingar og komið er fyrir öryggisgrind við björgunarop á þaki norðausturhliðar hússins á lóðinni nr. 178 við Langholtsveg.  Samþykki meðeigenda dags. 18 mars. 2013 fylgir. Gjald kr. 9.000
46182 (01.35.321.7),http://gamli.rvk.is/vefur/owa/edutils.parse_page?nafn=BN046182,Langholtsvegur 18,Bílskúr - breyta eignarhaldi,Frestað. Vísað til athugasemda á umsóknarblaði.,"Sótt er um leyfi til að byggja bílageymslu úr steinsteypu og að breyta eignarhaldi þannig að þvottherbergi 0202 verður í eigu 0201 í húsinu á lóð nr.  18 við Langholtsveg. Fyrirspurnarerindi BN044419 dags. 8. maí 2012 fylgir erindinu. Stærð bílskúrs: 40,0 ferm., 146,8 rúmm.  Gjald kr. 9.000"
46072 (01.34.520.5),http://gamli.rvk.is/vefur/owa/edutils.parse_page?nafn=BN046072,Laugarnesvegur 77,Kvistir,Frestað. Vísað til athugasemda á umsóknarblaði.,Sótt er um leyfi til þess að byggja kvisti á norðvestur- og suðausturþekju hússins á lóðinni nr. 77 við Laugarnesveg. Umsögn skipulagsfulltrúa dags. 10. október 2012 fylgir erindinu. Stærð: Stækkun kvistir xx rúmm. Gjald kr. 9.000
46078 (01.24.000.5),http://gamli.rvk.is/vefur/owa/edutils.parse_page?nafn=BN046078,Laugavegur 105,Breyting 1.hæð og kjallara,"Samþykkt.  Samræmist ákvæðum laga nr. 160 / 2010. Skilyrt er að ný eignaskiptayfirlýsing sé samþykkt fyrir útgáfu byggingarleyfis, henni verður þinglýst eigi síðar en við lokaúttekt. Áskilin lokaúttekt byggingarfulltrúa. Áskilið samþykki heilbrigðiseftirlits.","Sótt er um leyfi til að breyta innra skipulagi í nýsamþykktu veitingahúsi, fjarlægja eldhús og stiga niður í kjallara í húsi á lóð nr. 105 við Laugaveg. Sjá erindi BN045591. Um er að ræða veitingahús í flokki 2. Gjald kr. 9.000 + 9.000"
46012 (01.19.520.2),http://gamli.rvk.is/vefur/owa/edutils.parse_page?nafn=BN046012,Leifsgata 6,Burðarveggur - kjallaraíb.,Samþykkt.  Samræmist ákvæðum laga nr. 160 / 2010. Áskilin lokaúttekt byggingarfulltrúa.,Sótt er um leyfi til þess að fjarlægja steinsteyptan vegg milli eldhúss og stofu í kjallaraíbúð hússins á lóðinni nr. 6 við Leifsgötu. Umsögn burðarvirkishönnuðar dags. 5. júní 2013 fylgir erindinu. Gjald kr. 9.000.
46187 (04.32.400.1),http://gamli.rvk.is/vefur/owa/edutils.parse_page?nafn=BN046187,Lyngháls 5,Breyting 2. hæð,Frestað. Vísað til athugasemda á umsóknarblaði.,"Sótt er um leyfi til að breyta erindi BN044779 þannig að komið er fyrir skrifstofu og lager í rými 0202, gluggar á suðurhlið breytast  annars vegar póstastaðsetning og breytinga á glugga í vöruhurð og milliloft yfir einingunni er fjarlægð og er því minnkun á flatamáli hússins á lóð nr. 5 við Lyngháls. Minnkun um 40,0 ferm. Gjald kr. 9.000"
45739 (01.14.030.9),http://gamli.rvk.is/vefur/owa/edutils.parse_page?nafn=BN045739,Lækjartorg 1,Reyndarteikningar,Samþykkt.  Samræmist ákvæðum laga nr. 160 / 2010. Skilyrt er að þinglýst verði yfirlýsingu um samruna eigna til að samþykktin öðlist gildi. Áskilin lokaúttekt byggingarfulltrúa. Áskilið samþykki heilbrigðiseftirlits.,"Sótt er um samþykki á reyndarteikningum og sameiningu matshluta 02 og 04 við matshluta 01 í húsi Héraðsdóms Reykjavíkur á lóð nr. 1 við Lækjartorg.  Meðfylgjandi er bréf arkitekts dags. 12.3. 2013, brunahönnun dags. 21.5. 2013 og tölvupóstur arkitekts dags. 24.6. 2013. Gjald kr. 9.000 + 9.000"
46192 (01.18.320.2),http://gamli.rvk.is/vefur/owa/edutils.parse_page?nafn=BN046192,Miðstræti 7,Stöðuleyfi fyrir gám,"Samþykkt.  Samræmist ákvæðum laga nr. 160 / 2010. Ruslagámur fjarlægist fyrir lok september 2013.

Sigurður Pálmi Ásbergsson vék af fundi við afgreiðslu málsins.","Vegna framkvæmda er sótt um stöðuleyfi fyrir ruslagám í bílastæði á götu framan við einbýlishúsið á lóðinni nr. 7 við Miðstræti. Fyrirhuguð verklok eru í byrjun september 2013. Sjá einnig erindi BN044215, Miðstræti 7 - Svalalokun, sem samþykkt var 15. maí 2012. Umboð eiganda (tölvubréf dags. 25. júní 2013) fylgir erindinu. Gjald kr. 9.000"
46180 (01.71.000.1),http://gamli.rvk.is/vefur/owa/edutils.parse_page?nafn=BN046180,Miklabraut 68,Bílastæði,Frestað. Vísað til athugasemda á umsóknarblaði. Málinu vísað til umsagnar Samgönguskrifstofu.,"Sótt er um leyfi fyrir fjórum bílastæðum, þar sem eitt er merkt einkastæði en hin nýtast atvinnustarfsemi og íbúum hússins á lóð nr. 68 við Miklubraut. Útskrift úr gerðabók embættisafgreiðslufundar skipulagsfulltrúa (vegna fyrirspurnarerindis BN046033) fylgir erindinu. Gjald kr. 9.000"
46165 (01.51.711.8),http://gamli.rvk.is/vefur/owa/edutils.parse_page?nafn=BN046165,Nesvegur 44,Svalir og áðurgerðar breytingar,Frestað. Nýjum uppdráttum vísað til skipulagsfulltrúa.,"Sótt er um samþykki fyrir áður gerðum breytingum á innra fyrirkomulagi, komið hefur verið fyrir eldhúsi og salerni í kjallara og eldhús á fyrstu hæð hefur verið fært til. Jafnframt er sótt um leyfi til þess að síkka glugga og byggja svalir á austurhlið hússins á lóðinni nr. 44 við Nesveg. Gjald kr. 9.000"
46070 (04.23.280.2),http://gamli.rvk.is/vefur/owa/edutils.parse_page?nafn=BN046070,Nethylur 2,"Mhl. 01 - ""Kökugallerý""",Frestað. Vísað til athugasemda eldvarnaeftirlits á umsóknarblaði.,"Sótt er um leyfi til þess að starfrækja veitingaverslun (kökugallerý) í verslunar og þjónustuhúsi (matshl. 01, rými 0102) á lóðinni nr. 2 við Nethyl. Umboð eiganda dags. 7. júní 2013 fylgir erindinu. Bréf umsækjanda dags. 28. maí 2013 fylgir erindinu. Gjald kr. 9.000"
45802 (01.18.213.2),http://gamli.rvk.is/vefur/owa/edutils.parse_page?nafn=BN045802,Njálsgata 13A,Viðbygging - útbygging rifin,Samþykkt.  Samræmist ákvæðum laga nr. 160 / 2010. Með vísan til samþykktar borgarráðs frá 1. september 1998 skal utanhúss- og lóðarfrágangi vera lokið eigi síðar en innan tveggja ára frá útgáfu byggingarleyfis að viðlögðum dagsektum sbr. greinar nr. 2.4.7 og 2.9.2 í byggingarreglugerð nr. 112/2012. Skilyrt er að þinglýst verði yfirlýsingu um samruna eigna eigi síðar en við fokheldi. Áskilin lokaúttekt byggingarfulltrúa.,"Sótt er um leyfi til að rífa inngang á gafli og byggja viðbyggingu með svölum á bakhlið einbýlishúss á lóð nr. 13A við Njálsgötu. Umsögn Minjastofnunar dags. 17. maí 2013 og umsögn Minjasafns Reykjavíkur dags. 31. maí 2013 fylgja erindinu. Niðurrif:  6,4 ferm., 34,4 rúmm. Viðbygging:  14,1 ferm., 69,1 rúmm. Gjald kr. 9.000"
46168 (01.18.650.5),http://gamli.rvk.is/vefur/owa/edutils.parse_page?nafn=BN046168,Nönnugata 16,Leiðrétta merkingu rýma og skráningartöflu,Frestað. Vantar samþykki meðeigenda.,"Sótt er um leyfi til að leiðrétta merkingar rýma sbr. BN045062, þar sem rými 0013 verður afmarkað úr rými 0008 og verður rými 0013 í eigu 0101 í húsinu á lóð nr. 16 við Nönnugötu. Gjald kr. 9.000"
46178 (04.36.020.1),http://gamli.rvk.is/vefur/owa/edutils.parse_page?nafn=BN046178,Rofabær 34,Breyting inni - VB.nr. 089290,Frestað. Vísað til athugasemda á umsóknarblaði.,"Sótt er um leyfi til breytinga innanhúss á innréttingum í eldhúsi, hurð á snyrtingu fatlaðra og stólageymslu auk breytinga á ræstivörugeymslu í Árbæjarskóla á lóð nr. 34 við Rofabæ. Gjald kr. 9.000"
46167 (01.36.6-9.8),http://gamli.rvk.is/vefur/owa/edutils.parse_page?nafn=BN046167,Sigtún Ásmundarsafn,Þakstyrking,Samþykkt.  Samræmist ákvæðum laga nr. 160 / 2010. Með vísan til samþykktar borgarráðs frá 1. september 1998 skal utanhúss- og lóðarfrágangi vera lokið eigi síðar en innan tveggja ára frá útgáfu byggingarleyfis að viðlögðum dagsektum sbr. greinar nr. 2.4.7 og 2.9.2 í byggingarreglugerð nr. 112/2012. Áskilin lokaúttekt byggingarfulltrúa.,"Sótt er um samþykki á teikningum, sem sýna styrkingu á flötu þaki með 12-14 cm steypulagi og járnbindingu á Ásmundarsafni á lóð við Sigtún. Gjald kr. 9.000"
46203 (05.05.350.1),http://gamli.rvk.is/vefur/owa/edutils.parse_page?nafn=BN046203,Sjafnarbrunnur 1-3,takmarkað byggingarleyfi - lagnir og botnplata,Samþykkt.  Samræmist ákvæðum laga nr. 160 / 2010. Samþykktin fellur úr gildi við útgáfu á endanlegu byggingarleyfi. Vegna útgáfu á takmörkuðu byggingarleyfi skal umsækjandi hafa samband við yfirverkfræðing embættis byggingarfulltrúa.,"Sótt er um  takmarkað byggingarleyfi fyrir  fyrir undirstöðum, lögnum í grunn og botnplötu hússins á lóðinni nr. 1-3 við Sjafnarbrunn sbr. erindi BN045215."
46126 (01.70.340.1),http://gamli.rvk.is/vefur/owa/edutils.parse_page?nafn=BN046126,Skógarhlíð 10,Br. á áður samþykktu erindi,"Samþykkt.  Samræmist ákvæðum laga nr. 160 / 2010. Skilyrt er að ný eignaskiptayfirlýsing sé samþykkt fyrir útgáfu byggingarleyfis, henni verður þinglýst eigi síðar en við lokaúttekt. Áskilin lokaúttekt byggingarfulltrúa. Áskilið samþykki heilbrigðiseftirlits.","Sótt er um leyfi til að breyta erindi BN045524 þannig að flutt er til móttaka, starfsmannaaðstaða og salernisaðstaðan í gistiheimilinu í húsinu  á lóð nr. 10 við Skógarhlíð. Gjald kr. 9.000"
46172 (01.17.130.8),http://gamli.rvk.is/vefur/owa/edutils.parse_page?nafn=BN046172,Skólavörðustígur 5,Stækka svalir,Frestað. Málinu vísað til umsagnar skipulagsfulltrúa.,"Sótt er um leyfi til stækkunar svala á suð-vesturhlið hússins á lóðinni nr. 5 við Skólavörðustíg. Meðfylgjandi er bréf arkitekts dags. 9.6. 2013, umsögn Minjastofnunar Íslands dags. 13.6. 2013 og umsögn Minjasafns Reykjavíkur dags. 20. júní 2013. Gjald kr. 9.000"
46073 (01.15.430.6),http://gamli.rvk.is/vefur/owa/edutils.parse_page?nafn=BN046073,Skúlagata 32-34,Klæðning og stækkun svala,"Samþykkt.  Samræmist ákvæðum laga nr. 160 / 2010. Með vísan til samþykktar borgarráðs frá 1. september 1998 skal utanhúss- og lóðarfrágangi vera lokið eigi síðar en innan tveggja ára frá útgáfu byggingarleyfis að viðlögðum dagsektum sbr. greinar nr. 2.4.7 og 2.9.2 í byggingarreglugerð nr. 112/2012. Skilyrt er að ný eignaskiptayfirlýsing sé samþykkt fyrir útgáfu byggingarleyfis, henni verður þinglýst eigi síðar en við lokaúttekt. Áskilin lokaúttekt byggingarfulltrúa.","Sótt er um leyfi til að klæða suðlægar hliðar á 1. til 4. hæð aðalbyggingar og hliðar útbygginga á 1. og 2. hæð með álklæðningu og stækka og breyta þrennum svölum á 2. til 4. hæð suðurhliðar hússins á lóðinni nr. 32-34 við Skúlagötu. Stækkun : 13,0 ferm., 55,8 rúmm. Gjald kr. 9.000"
46190 (01.24.010.5),http://gamli.rvk.is/vefur/owa/edutils.parse_page?nafn=BN046190,Snorrabraut 35,Reyndarteikningar v/eignaskiptasamnings,Samþykkt.  Samræmist ákvæðum laga nr. 160 / 2010. Skilyrt er að eignaskiptayfirlýsingu vegna breytinga í húsinu sé þinglýst til þess að samþykktin öðlist gildi.     Áskilin lokaúttekt byggingarfulltrúa.,Sótt er um samþykki á reyndarteikningum vegna  eignarskiptasamnings  á fjölbýlishúsinu á lóð nr. 35 við Snorrabraut.  Gjald kr. 9.000
46155 (01.23.000.3),http://gamli.rvk.is/vefur/owa/edutils.parse_page?nafn=BN046155,Sóltún 1,Br. á áður samþ. erindi BN045300,Samþykkt.  Samræmist ákvæðum laga nr. 160 / 2010. Frágangur á lóðamörkum verði gerður í samráði við lóðarhafa aðliggjandi lóða. Áskilin lokaúttekt byggingarfulltrúa.,"Sótt er um samþykki á breytingum á erindi BN045300 sem felur í sér frest frá nýrri byggingarreglugerð 112/2012 og samþykki á takmörkuðu byggingarleyfi fyrir jarðvinnu, aðstöðusköpun, sökkla, grunnlagnir og uppsteypu kjallara, helstu breytingar nú eru lækkaðar salarhæðir, breyting á utanhússklæðningu og útlitsbreytingar samfara þeim í fjölbýlishúsi á lóð nr. 7-17 við Mánatún 1-17/Sóltún 1-3. Stærðir stækkun: 68,8 ferm. brúttó, minnkun 1.361,0 rúmm. brúttó. Stærðir eftir breytingar,  14.411,3 ferm. brúttó. 46.554,0 rúmm. brúttó. Gjald kr. 9.000"
46055 (08.1-.--5.2),http://gamli.rvk.is/vefur/owa/edutils.parse_page?nafn=BN046055,Strípsvegur 100,"Lokahús, nýbygging",Frestað. Er enn til umfjöllun hjá skipulagsfulltrúa.,"Sótt er um leyfi til að staðsteypa með flötu torfþaki lokahús Orkuveitunnar fyrir kalt vatn í Vatnsendakrikum. Húsið er hnitasett á afstöðumynd. Stærðir 49,8 ferm., 202,1 rúmm. Gjald kr. 9.000"
46166 (04.64.570.1),http://gamli.rvk.is/vefur/owa/edutils.parse_page?nafn=BN046166,Suðurhólar 25,Flytja hús,Samþykkt.  Samræmist ákvæðum laga nr. 160 / 2010.,"Sótt er um leyfi til að flytja leikskóla að Hömluholti í Eyja- og Miklaholtshreppi af lóðinni nr. 25 við Suðurhóla. Meðfylgjandi er bréf umsækjanda dags. 12.6. 2013 og samþykki byggingarfulltrúans í Eyja- og Miklaholtshreppi og Helgafellssveit. Stærð 90,f ferm., 300 rúmm. Gjald kr. 9.000"
46134 (01.60.320.1),http://gamli.rvk.is/vefur/owa/edutils.parse_page?nafn=BN046134,Sæmundargata 2,"Hús nr.4, breyting inni",Samþykkt.  Samræmist ákvæðum laga nr. 160 / 2010. Áskilin lokaúttekt byggingarfulltrúa. Áskilið samþykki heilbrigðiseftirlits.,"Sótt er um leyfi til smávægilegra tilfæringa innandyra ásamt nýrri útidyrahurð og útskotsglugga á Háskólatorgi á lóð nr. 4 við Sæmundargötu. Stærðir stækkun: 34,2 ferm., 79,7 rúmm. Stærðir samtals: 6.671,9 ferm., 31.583,5 rúmm. Gjald kr. 9.000"
46181 (01.35.650.1),http://gamli.rvk.is/vefur/owa/edutils.parse_page?nafn=BN046181,Sæviðarsund 15-19,17 - Stækkun íbúðar - 0201,Frestað. Lagfæra skráningartöflu.,Sótt er um leyfi til að stækka íbúð 0201 með því að setja upp vegg í sameiginlegum stigagangi í húsinu á lóð nr. 17 við Sæviðarsund.  Gjald kr. 9.000
45605 (01.13.210.4),http://gamli.rvk.is/vefur/owa/edutils.parse_page?nafn=BN045605,Tryggvagata 16,Breyting  - 4. og 5. hæð,Frestað. Vísað til athugasemda á umsóknarblaði.,"Sótt er um leyfi til að breyta þaki, setja kvisti með skúrþaki á báðar hliðar, svalir á suðurhlið og innrétta íbúðir á 4. og 5. hæð íbúðar- og atvinnuhúss á lóð nr. 16 við Tryggvagötu. Erindi fylgir þinglýst eignaskiptayfirlýsing dags. 15. september 2005 og samkomulag eigenda Tryggvagötu 16 (ekki þinglýst), dags. 7. desember 2004 og fsp. dags. 20. nóvember 2012 ásamt útskrift úr gerðabók embættisafgreiðslufundar skipulagsfulltrúa frá 8. mars 2013 og umsögn skipulagsfulltrúa dags. 6. mars 2013.  Umsögn burðarvirkishönnuðar dags. 23. maí og bréf hönnuðar dags. 24. maí 2013 fylgja erindinu. Stækkun:  xx ferm., xx rúmm. Gjald kr. 9.000 + xx"
45923 (04.34.210.1),http://gamli.rvk.is/vefur/owa/edutils.parse_page?nafn=BN045923,Tunguháls 8,Reyndarteikningar,Frestað. Vísað til athugasemda á umsóknarblaði.,"Sótt er um samþykkt á reyndarteikningu, viðbygging við norðurenda er felld niður og milligólf í mhl. 01 er fellt burt í atvinnuhúsi á lóð nr. 8 við Tunguháls. Jafnframt er erindi BNO39209  og BN041330 dregið til baka. Bréf frá hönnuði dags. 14. júní 2013, samþykki meðeigendum og yfirlýsingu vegna lóðarnotkunar dags. 11. des 2006 fylgir. Nýjar stærðir eftir breytingu: Mhl. 01:  1.080 ferm., 6.061,2 rúmm. Mhl. 02:  3.120,2 ferm., 13.901,4 rúmm. Samtals:  4.200,2 ferm., 19.962,6 rúmm. Stækkun: 2.390,9  ferm.,  9.342,8 rúmm. Gjald kr. 9.000"
46185 (01.16.100.8),http://gamli.rvk.is/vefur/owa/edutils.parse_page?nafn=BN046185,Túngata 7,Breytt skráning,Frestað. Vísað til athugasemda á umsóknarblaði.,Sótt er um að skrá sem einbýlishús húsið á lóðinni nr. 7 við Túngötu. Gjald kr. 9.000
46025 (02.69.850.4),http://gamli.rvk.is/vefur/owa/edutils.parse_page?nafn=BN046025,Úlfarsbraut 76,Einbýlishús,Samþykkt.  Samræmist ákvæðum laga nr. 160 / 2010. Frágangur á lóðamörkum verði gerður í samráði við lóðarhafa aðliggjandi lóða. Áskilin lokaúttekt byggingarfulltrúa.,"Sótt er um leyfi til að byggja steinsteypt einbýlishús á tveimur hæðum með innbyggðri bílgeymslu á lóð nr. 76 við Úlfarsbraut. 1. hæð íbúð:  122,3 ferm., 2. hæð íbúð 115,,4 ferm., bílgeymsla 50,6 ferm. Samtals:  288,3 ferm., 1.074,4 rúmm. Gjald kr. 9.000 + 9.000"
46183 (00.07.800.0),http://gamli.rvk.is/vefur/owa/edutils.parse_page?nafn=BN046183,Vallá 125762,Eggjahús,Frestað. Vísað til athugasemda á umsóknarblaði. Málið er enn til umfjöllunar hjá skipulagsstofnun.,"Sótt er um leyfi til að byggja hænsnahús sem verður staðsteypt bygging á lóð að Vallá landnúmer 125762 á Kjalarnesi. Jákvæð fyrirspurn BN045872 dags. 14. Maí 2013 fylgir. Stærð:  1217,1 ferm., 5581,2 rúmm. Gjald kr. 9.000"
45958 (01.52.400.3),http://gamli.rvk.is/vefur/owa/edutils.parse_page?nafn=BN045958,Víðimelur 62,Hækkun á risi,Frestað. Milli funda.,"Sótt er um leyfi til að hækka ris, byggja tvo kvisti og svalir á fjölbýlishús á lóð nr. 62 við Víðimel. Meðfylgjandi er samþykki meðeigenda á lóð, og útskrift úr gerðabók embættisafgreiðslufundar skipulagsfulltrúa frá 21. júní 2013 fylgir erindinu ásamt umsögn skipulagsfulltrúa dags. 20. júní 2013. Stækkun:  xx ferm., xx rúmm. Gjald kr. 9.000 + 9.000"
46068 (04.77.380.2),http://gamli.rvk.is/vefur/owa/edutils.parse_page?nafn=BN046068,Þingvað 19,Einbýlishús,Frestað. Vísað til athugasemda á umsóknarblaði.,"Sótt er um leyfi til að byggja einbýlishús með innbyggðri bílgeymslu, neðri hæð er byggð úr forsteyptum einingum og efri hæð úr timbri á lóð nr. 19 við Þingvað. Jafnframt er óskað eftir að áður samþykkt erindi BN040298 verði fellt úr gildi. Stærð:  1. hæð bílgeymsla 36,5 ferm., íbúð 185,3 ferm., 2. hæð íbúð 54,2 ferm. Samtals 276 ferm., 9,6,2 rúmm. Gjald kr. 9.000"
46194,http://gamli.rvk.is/vefur/owa/edutils.parse_page?nafn=BN046194,Hólmsheiðarvegur,staðföng,Samþykkt.  Samræmist ákvæðum laga nr. 160 / 2010.,"Byggingarfulltrúi leggur til að landspildur og fasteignir þeim tengdar við  Hólmsheiðarveg fái ný staðföng. Þau voru áður skráð sem Vesturlandsv. Reynisv. landnúmer abcdef. Landnúmer verða óbreytt.

Hólmsheiðarvegur 130, landnúmer 218717 Hólmsheiðarvegur 131, landnúmer 113425 Hólmsheiðarvegur 133, landnúmer 113416 Hólmsheiðarvegur 135, landnúmer 113414 Hólmsheiðarvegur 137, landnúmer 113410 Hólmsheiðarvegur 139, landnúmer 220238 Hólmsheiðarvegur 143, landnúmer 220240 Hólmsheiðarvegur 151, landnúmer 113452"
46195 (01.42.800.4),http://gamli.rvk.is/vefur/owa/edutils.parse_page?nafn=BN046195,Kjalarvogur 10,ný staðföng,Samþykkt.  Samræmist ákvæðum laga nr. 160 / 2010.,"Byggingarfulltrúi leggur til að fasteignir á lóðinni  Kjalarvogur 10, landnúmer 105187, fái staðföng eftir matshlutaskiptingu.  Málinu fylgir útprentun úr Borgarvefsjá með innfærðum upplýsingum. Kjalarvogur 10, mhl. 04 Kjalarvogur 10B, mhl. 03 Kjalarvogur 10C, mhl. 02 og 08 Kjalarvogur 10D, mhl. 13 Kjalarvogur 10E, mhl. 06 Kjalarvogur 10F, mhl. 05 Kjalarvogur 10G, mhl. 14"
46196 (01.45.100.3),http://gamli.rvk.is/vefur/owa/edutils.parse_page?nafn=BN046196,Kleppsmýrarvegur 8,ný staðföng,Samþykkt.  Samræmist ákvæðum laga nr. 160 / 2010.,"Byggingarfulltrúi leggur til að fasteignir á lóðinni  Kleppsmýrarvegur 8, landnúmer 105603, fái staðföng eftir matshlutaskiptingu.  Málinu fylgir útprentun úr Borgarvefsjá með innfærðum upplýsingum. Kleppsmýrarvegur 8 mhl. 04 Kleppsmýrarvegur 8 mhl. 02 Kleppsmýrarvegur 8 mhl. 05"
46191,http://gamli.rvk.is/vefur/owa/edutils.parse_page?nafn=BN046191,Langavatnsvegur,tölusetning fasteigna,Samþykkt.  Samræmist ákvæðum laga nr. 160 / 2010.,"Byggingarfulltrúi leggur til að fasteignir í Reynisvatnslandi, sem liggja að Langavatni, eða eru í grennd, nú skráðar sem Vesturlandsv. Reynisv ( landnúmer ), verði framvegis þannig skráðar við Langavatnsveg :

Langavatnsvegur 2, landnúmer 113417, á lóðinni eru matshlutar 01 og 02

Langavatnsvegur 4, landnúmer 113413, á lóðinni eru matshluti 01 

Langavatnsvegur 6, landnúmer 113409, á lóðinni eru matshlutar 01 og 02

Langavatnsvegur 1, landnúmer 113422, á lóðinni er ekki skráð bygging Langavatnsvegur 3, landnúmer 113423, á lóðinni er ekki skráð bygging

Langavatnsvegur 5, landnúmer 113429, á lóðinni er ekki skráð bygging

Langavatnsvegur 7, landnúmer 113426, á lóðinni eru matshlutar 01, 02,03 og 04

Langavatnsvegur 9, landnúmer 113418, á lóðinni eru matshlutar 01 og 02

Langavatnsvegur 11, landnúmer 113420, á lóðinni er ekki skráð bygging"
46193,http://gamli.rvk.is/vefur/owa/edutils.parse_page?nafn=BN046193,Mjódalsvegur,staðföng,Samþykkt.  Samræmist ákvæðum laga nr. 160 / 2010.,"Samþykkt var í borgarráði þa  16. maí 2013 að götuslóði milli Vegbrekkna og Hólmsheiðarvegar fengi heitið  Mjódalsvegur. Byggingarfulltrúi leggur til að landspildur og fasteignir þeim tengdar fái ný staðföng við Mjódalsveg.  En þau voru áður skráð sem Vesturlandsv. Reynisv. landnúmer abcdef. Landnúmer verða óbreytt.

Mjódalsvegur 2, landnúmer 113433 Mjódalsvegur 4, landnúmer 113431 Mjódalsvegur 6, landnúmer 113435 Mjódalsvegur 14, landnúmer 113440 Mjódalsvegur 16, landnúmer 195206 Mjódalsvegur 1, landnúmer 172480, var áður skráð  Hólmsheiði sprengiefn. Mjódalsvegur 3, landnúmer 113434 Mjódalsvegur 5, landnúmer 113443 Mjódalsvegur 7, landnúmer 113442 Mjódalsvegur 9, landnúmer 113448 Mjódalsvegur 11, landnúmer 195981 Mjódalsvegur 15, landnúmer 195207"
46197 (01.45.140.1),http://gamli.rvk.is/vefur/owa/edutils.parse_page?nafn=BN046197,Súðarvogur 3-5,ný staðföng,Samþykkt.  Samræmist ákvæðum laga nr. 160 / 2010.,"Byggingarfulltrúi leggur til að fasteignir á lóðinni  Súðarvogur 3 - 5, landnúmer 105601, fái staðföng eftir matshlutaskiptingu.  Jafnframt er lagt til að lóðin verði tölusett sem  Súðarvogur 3.  Málinu fylgir útprentun úr Borgarvefsjá með innfærðum upplýsingum. Súðarvogur 3, mhl. 09 Súðarvogur 3A, mhl. 01,10 Súðarvogur 3B, mhl. 05,18,22 Súðarvogur 5, mhl. 12,13 Súðarvogur 5A, mhl. 19"
46198,http://gamli.rvk.is/vefur/owa/edutils.parse_page?nafn=BN046198,Vegbrekkur,nýtt staðfang,Samþykkt.  Samræmist ákvæðum laga nr. 160 / 2010.,"Byggingarfulltrúi leggur til að land sumarbústaðar við ""enda"" Vegbrekkna, sem er úr Hólmslandi og hefur landnúmer 113451, nú skráð sem ""Hólmsland  Bláskógar"" fái staðfang sem Vegbrekkur 99 með undirheiti Bláskógar."
46171 (04.23.300.5 03),http://gamli.rvk.is/vefur/owa/edutils.parse_page?nafn=BN046171,Álakvísl 96-136,(fsp) - 110-122 - Gróðurhús,Frestað. Málinu vísað til umsagnar skipulagsfulltrúa.,Spurt er hvort staðsetja megi 10 ferm. kalt gróðurhús á verönd við hús nr. 114 á lóð nr. 96-136 við Álakvísl.
46169 (01.24.360.5),http://gamli.rvk.is/vefur/owa/edutils.parse_page?nafn=BN046169,Flókagata 1,(fsp) - Reisa tjaldskýli - ný aðkoma,Nei. Með vísan til umsagnar skipulagsfulltrúa dags. 21. júní 2013.,Spurt er hvort leyft yrði að reisa sóltjald á lóð og koma fyrir nýrri aðkomu að lóðinni nr. 1 við Flókagötu. Útskrift úr gerðabók embættisafgreiðslufundar skipulagsfulltrúa frá 21. júní 2013 fylgir erindinu ásamt umsögn skipulagsfulltrúa dags. 21. júní 2013.
46177 (01.24.360.5),http://gamli.rvk.is/vefur/owa/edutils.parse_page?nafn=BN046177,Flókagata 1,(fsp) - Hlið,Nei. Með vísan til umsagnar skipulagsfulltrúa dags. 21. júní 2013.,Spurt er hvort leyft yrði að saga úr steyptu grindverki við lóðarmörk að Flókagötu og koma þar fyrir fyrir hliði að lóðinni nr. 1 við Flókagötu. Sjá einnig erindi BN046169 þar sem spurt er um tjaldskýli og umsögn skipulagsfulltrúa dags. 21. júní 2013
46132 (01.18.421.5),http://gamli.rvk.is/vefur/owa/edutils.parse_page?nafn=BN046132,Freyjugata 1,(fsp) - Nýjar íbúðir á 3.h.,Nei. Með vísan til umsagnar skipulagsfulltrúa dags. 19. júní 2013.,Spurt er hvort leyft yrði að breyta þakformi og útbúa íbúð eða íbúðir á þakhæð (4.hæð) hússins nr. 1 við Freyjugötu. Útskrift úr gerðabók embættisafgreiðslufundar skipulagsfulltrúa frá 21. júní 2013 fylgir erindinu ásamt umsögn skipulagsfulltrúa dags. 19. júní 2013.
46184 (01.52.030.1),http://gamli.rvk.is/vefur/owa/edutils.parse_page?nafn=BN046184,Hringbraut 119,(fsp) - Hárgreiðslust.rými 0108,Jákvætt. Að uppfylltum skilyrðum enda verði sótt um byggingarleyfi.,Spurt er hvort leyft yrði að innrétta nýja hárgreiðslu- og snyrtistofu í rými 0108 í húsinu nr. 119 við Hringbraut.
46175 (01.17.301.3),http://gamli.rvk.is/vefur/owa/edutils.parse_page?nafn=BN046175,Hverfisgata 82,(fsp) - íb.rish.- 02-0401,Íbúðin er samþykkt sbr. uppdrætti frá 12. apríl 1967.,Spurt er hvort íbúð 02-0401 sé samþykkt íbúð í húsinu nr. 82 við Hverfisgötu.
46173 (02.54.680.3),http://gamli.rvk.is/vefur/owa/edutils.parse_page?nafn=BN046173,Langirimi 21-23,(fsp) - 21 - Breyta í íbúðir,Frestað. Málinu vísað til umsagnar skipulagsfulltrúa.,Spurt er hvort leyft yrði að breyta verslunar- og þjónusturýmum í íbúðarhúsnæði á annarri hæð hússins á lóðinni nr. 21-23 við Langarima. Bréf fyrirspyrjanda (ódags.) fylgir erindinu.
46119 (01.22.141.0),http://gamli.rvk.is/vefur/owa/edutils.parse_page?nafn=BN046119,Samtún 38,(fsp) - Bílskúr,Nei. Með vísan til umsagnar skipulagsfulltrúa dags. 18. júní 2013.,Spurt er hvort byggja megi bílskúr sbr. umsögn skipulagsfulltrúa dags. 27.mars 2007 við íbúðarhús á lóð nr. 38 við Samtún. Útskrift úr gerðabók embættisafgreiðslufundar skipulagsfulltrúa frá 21. júní 2013 fylgir erindinu ásamt umsögn skipulagsfulltrúa dags. 18. júní 2013.
46199 (01.83.100.8),http://gamli.rvk.is/vefur/owa/edutils.parse_page?nafn=BN046199,Sogavegur 178,(fsp) - Sólpallur,Jákvætt. Að uppfylltum skilyrðum enda verði sótt um byggingarleyfi.,Spurt er hvort leyft yrði að gera dyraop og byggja sólpall við suðurhlið hússins  á lóðinni nr. 178 við Sogaveg.
46186 (04.71.200.1),http://gamli.rvk.is/vefur/owa/edutils.parse_page?nafn=BN046186,Vatnsveituv. Fákur,(fsp) - Stækka hesthús,Frestað. Málinu vísað til umsagnar skipulagsfulltrúa.,Spurt er hvort leyfi fengist til að stækka hesthús til vesturs þannig að komið verður fyrir taðþró á fyrstu hæð og setustofu og kaffi/eldhúsaðstaðu á annarri hæð hesthússins Faxaból 9 hús 2 á lóðinni Vatnsveituv. Fákur.
