nr,url,heimilisfang,tegund,nidurstada,spurning
46241 (01.11.980.1),http://gamli.rvk.is/vefur/owa/edutils.parse_page?nafn=BN046241,Austurbakki 2,Innrétting - 8.hæð,Samþykkt.  Samræmist ákvæðum laga nr. 160 / 2010. Áskilin lokaúttekt byggingarfulltrúa. Áskilið samþykki heilbrigðiseftirlits.,Sótt er um leyfi til að innrétta fjölnotarými á 8. hæð tónlistar- og ráðstefnuhússins Hörpu á lóð nr. 2 við Austurbakka. Meðfylgjandi eru minnisblöð frá Mannviti vegna eldvarna dags. 16. ágúst 2013. Gjald kr. 9.000
46338 (01.67.310.8),http://gamli.rvk.is/vefur/owa/edutils.parse_page?nafn=BN046338,Bauganes 37A,Áhaldageymsla,Frestað. Vísað til athugasemda á umsóknarblaði.,"Sótt er um leyfi til að byggja áhalda- og hjólageymslu við einbýlishús á lóð nr. 37A við Bauganes. Áhaldageymsla:  22 ferm., 45 rúmm. Gjald kr. 9.000"
46423 (01.18.520.4),http://gamli.rvk.is/vefur/owa/edutils.parse_page?nafn=BN046423,Bergstaðastræti 44,Br.inni 3.og 4.h.,Frestað. Vísað til athugasemda á umsóknarblaði.,Sótt er um leyfi til þess að minnka íbúð 0301 en stækka íbúð 0302 sem því nemur. Jafnframt er sótt um að færa inngangsdyr íbúðar á fjórðu hæð niður í stigagang á þriðju hæð hússins á lóðinni nr. 44 við Bergstaðastræti. Ný skráningartafla fylgir erindinu. Gjald kr. 9.000]
46340 (04.06.510.1),http://gamli.rvk.is/vefur/owa/edutils.parse_page?nafn=BN046340,Bíldshöfði 20,Farsímaloftnet,Frestað. Vísað til athugasemda á umsóknarblaði.,Sótt er um leyfi til að setja upp þrjú farsímaloftnet á útveggi austur- vestur- og norðurhlið hússins á lóð nr. 20 við Bíldshöfða. Samþykki eigenda húss dags. 21. Júní 2013 fylgir.  Gjald kr. 9.000
46416 (01.22.010.7),http://gamli.rvk.is/vefur/owa/edutils.parse_page?nafn=BN046416,Borgartún 8-16A,"Nr. 12-14, þjónustuver - breyting",Frestað. Vísað til athugasemda á umsóknarblaði.,Sótt er um leyfi til að breyta innréttingum og fyrirkomulagi í þjónustuveri 0102 á fyrstu hæð skrifstofubyggingar nr. 12-14 á lóð nr. 8-16A við Borgartún. Gjald kr. 9.000
46314 (01.67.211.7),http://gamli.rvk.is/vefur/owa/edutils.parse_page?nafn=BN046314,Einarsnes 58A,Viðbygging,Frestað. Lagfæra skráningartöflu.,"Sótt er um leyfi til þess að byggja einnar hæðar timburviðbyggingu með þaksvölum að suðvesturhlið hússins á lóðinni nr. 58A við Einarsnes.  Fyrirspurnarerindi sem fékk jákvæða afgreiðslu 2. júlí 2013 fylgir erindinu.  Stærð: Viðbygging 13,4 ferm. og 40,9 rúmm. Gjald kr. 9.000"
46310 (01.11.730.5),http://gamli.rvk.is/vefur/owa/edutils.parse_page?nafn=BN046310,Geirsgata 3,Veitingahús,Frestað. Vísað til athugasemda á umsóknarblaði.,"Sótt er um leyfi til að breyta nýtingu úr verðbúð í veitingahús í flokki II, þar sem núverandi gluggum og hurðum verði breytt og op í steinsteypta plötu verði stækkað og strompurinn sem var reykhússtrompur, verður lagfærður og gerður nýtanlegur  fyrir arinstæði og útigrill, koma fyrir  aðstöðu fyrir 58 útigesti  og inni fyrir 92 gesti, alls 150 gesti, koma fyrir sorpi og gasgeymslu á útisvæði einnig er sótt um tímabundna opnun frá 2. hæð Geirsgötu nr. 3 inn í hús á lóð nr. 3A-B í húsinu á lóðinni nr. 3 við Geirsgötu.  Útskrift úr gerðabók embættisafgreiðslufundar skipulagsfulltrúa frá 16. ágúst 2013 fylgir erindinu ásamt umsögn skipulagsfulltrúa dags. 16. ágúst 2013. Gjald kr. 9.000"
46387 (01.46.110.2),http://gamli.rvk.is/vefur/owa/edutils.parse_page?nafn=BN046387,Grensásvegur 11,Breyting á húsnúmeri og reyndarteikningu,Frestað. Lagfæra skráningartöflu.,Sótt er um leyfi til að breyta húsnúmeri Grensásvegur 11 í Grensásveg 11/ Skeifan 10 og jafnframt er sótt um samþykki fyrir reyndarteikningum þar sem koma fram ýmsar breytingar í húsinu á lóð nr. 11 við Grensásveg.   Gjald kr. 9.000
46421 (01.80.121.4),http://gamli.rvk.is/vefur/owa/edutils.parse_page?nafn=BN046421,Grensásvegur 24,"Gistiheimili - 0101, 0201",Samþykkt.  Samræmist ákvæðum laga nr. 160 / 2010. Áskilin lokaúttekt byggingarfulltrúa. Áskilið samþykki heilbrigðiseftirlits.,"Sótt er um leyfi til að breyta notkun íbúðar 0201, verslunar 0101 og kjallara 0001 í gistiheimili í flokki III, tegund b, með fimm herbergjum fyrir níu gesti, jafnframt er erindi BN046049 dregið til baka, einnig er sótt um að breyta glugga og hurðum á vesturhlið húss á lóð nr. 24 við Grensásveg. Útskrift úr gerðabók embættisafgreiðslufundar skipulagsfulltrúa frá 14. júní 2013 fylgdi fyrra erindinu sem og umsögn skipulagsfulltrúa dags. 13. júní 2013. Jafnframt eru erindi BN46049 og BN045991 dregin til baka. Gjald kr. 9.000"
46419 (04.30.010.1),http://gamli.rvk.is/vefur/owa/edutils.parse_page?nafn=BN046419,Grjótháls 10,Reyndarteikningar,Frestað. Vísað til athugasemda á umsóknarblaði.,Sótt er um samþykki fyrir reyndarteikningum vegna lokaúttektar sbr. BN042569 þar sem kemur fram milliloft og leyfi til fyrir skiltum á húsið á lóð nr. 10 við Grjótháls. Bréf frá brunaverkfræðingi dags. 13. ágúst 2013 og tölvupóstur frá hönnuði dags. 15 ágúst. 2013 fylgir. Stærð millilofts: XX ferm. Gjald kr. 9.000
46447 (05.11.330.5),http://gamli.rvk.is/vefur/owa/edutils.parse_page?nafn=BN046447,Haukdælabraut 11-15,takmarkað byggingarleyfi,Samþykkt.  Samræmist ákvæðum laga nr. 160 / 2010. Samþykktin fellur úr gildi við útgáfu á endanlegu byggingarleyfi. Vegna útgáfu á takmörkuðu byggingarleyfi skal umsækjandi hafa samband við yfirverkfræðing embættis byggingarfulltrúa.,Sótt er um takmarkað byggingarleyfi fyrir undurstöðum og lögnum í grunni húsanna á lóðinni nr. 11 - 15 við Haukdælabraut sbr. erindi BN045949.
46404 (01.24.430.2),http://gamli.rvk.is/vefur/owa/edutils.parse_page?nafn=BN046404,Háteigsvegur 7,Niðurrif,Samþykkt.  Samræmist ákvæðum laga nr. 160 / 2010. Áskilin lokaúttekt byggingarfulltrúa. Áskilið samþykki heilbrigðiseftirlits.,"Sótt er um leyfi til að rífa og fjarlægja steinsteypt iðnaðarhús á lóð nr. 7 við Háteigsveg. Stærðir niðurrif  1.802 ferm., 5.794 rúmm. Gjald kr. 9.000"
46131 (01.13.432.0),http://gamli.rvk.is/vefur/owa/edutils.parse_page?nafn=BN046131,Holtsgata 24,Endurn. á  BN043534,Frestað. Vísað til athugasemda á umsóknarblaði.,"Sótt er um endurnýjun á erindi BN043534 þar sem samþykkt var að byggja tvo kvisti á bakhlið og innrétta þar vinnuherbergi í fjölbýlishúsi á lóð nr. 24 við Holtsgötu. Erindið var samþykkt 22.11. 2011 og var grenndarkynnt þá, engar athugasemdir bárust, samþykki meðeigenda fylgdi með. Útskrift úr gerðabók skipulagsfulltrúa frá 26. júlí 2013 fylgir með erindinu.  Gjald kr. 9.000 + 9.000"
46372 (05.18.510.2),http://gamli.rvk.is/vefur/owa/edutils.parse_page?nafn=BN046372,Hólmsheiðarvegur 141,Stöðuleyfi,Samþykkt.  Samræmist ákvæðum laga nr. 160 / 2010. Áskilin lokaúttekt byggingarfulltrúa.,"Sótt er um tímabundið stöðuleyfi í eitt ár fyrir færanlega kennslustofu samsíða nýbyggðu skýli Fisfélags Reykjavíkur á lóð nr. 141 við Hólmsheiðarveg. Meðfylgjandi er bréf frá Fisfélagi Reykjavíkur dags. 24.7. 2013, og annað dags. 14.8. 2013. Stærðir 60 ferm., 170 rúmm. Gjald kr. 9.000"
46050 (04.34.330.1),http://gamli.rvk.is/vefur/owa/edutils.parse_page?nafn=BN046050,Hraunbær 102,D og E - Breytingar 1.hæð,Samþykkt.  Samræmist ákvæðum laga nr. 160 / 2010. Áskilin lokaúttekt byggingarfulltrúa.,Sótt er um leyfi til þess að breyta fyrirkomulagi eldhúsa í íbúðum 0103 D og 0103 E  og bað og þvottahús í 0103 D og 0102 E og minnka geymslu í 0101D á fyrstu hæð í matshlutum 07 og 08 á lóðinni 102 við Hraunbæ. Sjá einnig erindin BN045674 dags. 19. mars. 2013 og BN045162 dags.  4.desember 2012. Gjald kr. 9.000
46316 (01.52.030.1),http://gamli.rvk.is/vefur/owa/edutils.parse_page?nafn=BN046316,Hringbraut 119,Hárgreiðslu - og snyrtistofa,Frestað. Vísað til athugasemda á umsóknarblaði.,Sótt er um leyfi til að breyta tveggja hæða atvinnurými (rými 0102) í hárgreiðslu og snyrtistofu í húsinu á lóð nr. 119 við Hringbraut. Gjald kr. 9.000 + 9.000
46368 (01.86.020.1),http://gamli.rvk.is/vefur/owa/edutils.parse_page?nafn=BN046368,Hulduland  1-11 2-48,Nr.26 hringstigi af svölum,Samþykkt.  Samræmist ákvæðum laga nr. 160 / 2010. Með vísan til samþykktar borgarráðs frá 1. september 1998 skal utanhúss- og lóðarfrágangi vera lokið eigi síðar en innan tveggja ára frá útgáfu byggingarleyfis að viðlögðum dagsektum sbr. greinar nr. 2.4.7 og 2.9.2 í byggingarreglugerð nr. 112/2012. Áskilin lokaúttekt byggingarfulltrúa.,Sótt er um leyfi  til að koma fyrir hringstiga af svölum niður í garð raðhússins nr. 26 á lóð nr. 1-11 2-48 við Hulduland. Samþykki meðlóðarhafa ódags. Fyrirspurn BN042559 dags. 2. nóv. 2011 fylgir. Gjald kr. 9.000
46313 (04.07.500.1),http://gamli.rvk.is/vefur/owa/edutils.parse_page?nafn=BN046313,Höfðabakki 9,Breytingar í kjallara E-húss,Samþykkt.  Samræmist ákvæðum laga nr. 160 / 2010. Áskilin lokaúttekt byggingarfulltrúa. Áskilið samþykki heilbrigðiseftirlits.,"Sótt er um leyfi til að breyta innanhúss í kjallara mhl. 04 rými 0006 þar sem búningsklefinn verður stækkaður, komið verður fyrir hjólageymslu, skjalageymslu og húsgagnageymslu í húsinu á lóð nr. 9 við Höfðabakka. Bréf frá hönnuði dags. 16. Júlí 2013 fylgir. Gjald kr. 9.000"
46249 (04.07.500.1),http://gamli.rvk.is/vefur/owa/edutils.parse_page?nafn=BN046249,Höfðabakki 9,Breytingar á lóð,Frestað. Vísað til athugasemda eldvarnaeftirlits á umsóknarblaði.,"Sótt er um leyfi til að breyta fyrirkomulagi lóðar, fjölga bílastæðum úr 603 í 652, hjólastæðum og skýlum fjölgað, komið fyrir sorpgerðum fyrir flokkað sorp, ""görðum"" fjölgað og göngu- og hjólaleiðir bættar á lóð nr. 9 við Höfðabakka. Gjald kr. 9.000"
46402 (02.68.070.1),http://gamli.rvk.is/vefur/owa/edutils.parse_page?nafn=BN046402,Lambhagavegur 29,Breyting á staðsetningu sbr. BN045705,Frestað. Vísað til athugasemda á umsóknarblaði.,"Sótt er um leyfi til að breyta áður samþykktu erindi BN045705 þannig að ræktunarhús verður fært um 50 cm til austurs innan byggingareits, jafnframt er sótt um leyfi til þess að breyta útliti og stækka matshluta 02-ræktunarhús á lóð nr. 29 við Lambhagaveg. Stækkun: XX ferm., rúmm.  Gjald kr. 9.000"
46433 (02.68.070.1),http://gamli.rvk.is/vefur/owa/edutils.parse_page?nafn=BN046433,Lambhagavegur 29,takmarkað byggingarleyfi,Frestað.,"Sótt er um takmarkað byggingarleyfi fyrir jarðvinnu, lögnum í grunni og undirstöðum hússins á lóðinni nr. 29 við Lambhagaveg, mhl.02  sbr.(BN045705)."
46150 (01.36.520.2),http://gamli.rvk.is/vefur/owa/edutils.parse_page?nafn=BN046150,Laugateigur 46,Kvistur og svalir,Frestað. Vísað til athugasemda á umsóknarblaði.,"Sótt er um leyfi til að gera við þak, breyta og stækka kvist á suðurhlið og byggja svalir við hann, sbr. fyrirspurn BN045904 dags. 30. apríl 2013,  á tvíbýlishúsi á lóð nr 46 við Laugateig. Samþykki meðeigenda í húsum nr. 46 og 48 við Laugateig fylgir erindinu. Gjald kr. 9.000"
46151 (01.36.520.3),http://gamli.rvk.is/vefur/owa/edutils.parse_page?nafn=BN046151,Laugateigur 48,Kvistur og svalir,Frestað. Vísað til athugasemda á umsóknarblaði.,"Sótt er um leyfi til að gera við þak, breyta og stækka kvist á suðurhlið og byggja svalir við hann, sbr. fyrirspurn BN045904 dags. 30.4. 2013,  á tvíbýlishúsi á lóð nr 48 við Laugateig. Gjald kr. 9.000"
46425 (01.24.000.5),http://gamli.rvk.is/vefur/owa/edutils.parse_page?nafn=BN046425,Laugavegur 105,Breyting inni,Samþykkt.  Samræmist ákvæðum laga nr. 160 / 2010. Áskilin lokaúttekt byggingarfulltrúa. Áskilið samþykki heilbrigðiseftirlits. Áskilið samþykki Vinnueftirlits ríkisins.,"Sótt er um leyfi til að breyta leyfilegum gestafjölda í 260, færa starfsmannaaðstöðu í rými á 3. hæð og fella burt eldvarnarhurðir á göngum, sjá erindi BN045029, í gistiskála á 3. 4. og 5. hæð húss á lóð nr. 105 við Laugaveg. Gjald kr. 9.000"
46417 (01.17.430.2),http://gamli.rvk.is/vefur/owa/edutils.parse_page?nafn=BN046417,Laugavegur 84,Kaffihús,Frestað. Vísað til athugasemda á umsóknarblaði.,Sótt er um leyfi til þess að breyta fyrirkomulagi og innrétta kaffihús í flokki I í núverandi veitingaverslun á fyrstu hæð hússins á lóðinni nr. 84 við Laugaveg. Fyrirspurnarerindi sem fékk jákvæða afgreiðslu þann 18. júní 2013 fylgir erindinu. Gjald kr. 9.000
45960 (04.32.700.1),http://gamli.rvk.is/vefur/owa/edutils.parse_page?nafn=BN045960,Lyngháls 10,Fjölgun eignarhluta,Frestað. Vísað til athugasemda á umsóknarblaði.,"Sótt er um leyfi til að rífa tvö léttbyggð anddyri, setja innkeyrsluhurðir í 0101, 0102, 0103 og 0104 og fjölga eignarhlutum úr 13 í 17 í verslunar- og skrifstofuhúsi á lóð nr. 10 við Lyngháls. Niðurrif:  xx. ferm., xx rúmm. Gjald kr. 9.000"
46279 (01.52.300.3),http://gamli.rvk.is/vefur/owa/edutils.parse_page?nafn=BN046279,Meistaravellir 9-13,Klæðning - svalalokun,Frestað. Vísað til athugasemda á umsóknarblaði.,"Sótt er um leyfi til þess að byggja svalalokanir og klæða með sléttri álklæðningu suðurhlið hússins á lóðinni nr. 9-13 við Meistaravelli. Erindi fylgir umsögn burðarvirkishönnuðar dags. 6. júlí 2013, viðgerðartillögur frá Verksýn dags. í mars 2013, minnisblað frá verkfræðistofunni EFLU dags. 14. mars 2013, fundargerð húsfélagsins dags. 6. nóvember 2012 og samþykki eigenda (vantar fjóra) dags. 19. október 2012. Mótmæli eins eiganda (í tölvubréfi) dags. 14. ágúst 2013 fylgir erindinu. Stækkun:  xx ferm., xx rúmm. Útskrift úr gerðabók skipulagsfulltrúa frá 29. júlí 2013 ásamt umsögn skipulagsfulltrúa dags. 24. júlí 2013  fylgja með erindinu. Stærð: Svalalokanir xx rúmm. Gjald kr. 9.000"
46165 (01.51.711.8),http://gamli.rvk.is/vefur/owa/edutils.parse_page?nafn=BN046165,Nesvegur 44,Svalir og áður gerðar breytingar,Frestað. Lagfæra skráningartöflu.,"Sótt er um samþykki fyrir áður gerðum breytingum á innra fyrirkomulagi, komið hefur verið fyrir eldhúsi og salerni í kjallara og eldhús á fyrstu hæð hefur verið fært til. Jafnframt er sótt um leyfi til þess að síkka glugga og byggja svalir á austurhlið hússins á lóðinni nr. 44 við Nesveg. Útskrift úr gerðabók embættisafgreiðslufundar skipulagsfulltrúa frá 16. ágúst 2013 fylgir erindinu. Grenndarkynning stóð yfir frá 15. júlí til 13. ágúst  2013. Engar athugasemdir bárust. Gjald kr. 9.000"
39465 (01.18.030.4),http://gamli.rvk.is/vefur/owa/edutils.parse_page?nafn=BN039465,Óðinsgata 4,Reyndarteikningar,Samþykkt.  Samræmist ákvæðum laga nr. 160 / 2010. Skilyrt er að eignaskiptayfirlýsingu vegna breytinga í húsinu sé þinglýst til þess að samþykktin öðlist gildi.,"Vegna gerðar eignaskiptayfirlýsingar er sótt um samþykki fyrir núverandi fyrirkomulagi matshluta 01 og 02 og jafnframt gerð grein fyrir þremur áður gerðum séreignum, tveimur í kjallara matshluta 01 (eign 0001-íbúð og eign 0002-ósamþykkt íbúð) og einni í matshluta 02 (eign 0107-séreign)  á lóðinni nr. 4 við Óðinsgötu. Skoðunarskýrslur byggingarfulltrúa (vegna eignar 01-0002 dags, 28. maí 2010 og eignar 02-0107 dags. 28. maí 2010 fylgja erindinu. Afsalsbréf dags. 16. ágúst 1991 (vegna eignar 01-0001), 14. apríl 2000 (vegna eignar 02-0107) og 22. september 2004 (vegna eignar 01-0002)  fylgja erindinu."
46227 (01.13.620.6),http://gamli.rvk.is/vefur/owa/edutils.parse_page?nafn=BN046227,Ránargata 7A,Raunteikn.áðurg.ósamþ.íbúð,Frestað. Vísað til athugasemda eldvarnaeftirlits á umsóknarblaði.,"Sótt er um samþykki fyrir áður gerðri séreign (ósamþ. íbúð) í kjallara og núverandi innra fyrirkomulagi á fyrstu, annarri og þriðju hæð fjölbýlishússins á lóðinni nr. 7A við Ránargötu. Skoðunarskýrsla byggingarfulltrúa dags. 5. apríl 2013 og afsalsbréf dags. 26. nóvember 1982 fylgja erindinu. Samþykki meðeigenda í húsi og samþykki eigenda Ránargötu 9A (vegna sorpgeymslu í undirgangi húsanna) fylgja erindinu á teikningum. Bréf hönnuðar dags. 9. júlí 2013 fylgir erindinu. Gjald kr. 9.000"
46405 (01.29.310.3),http://gamli.rvk.is/vefur/owa/edutils.parse_page?nafn=BN046405,Síðumúli 16-18,Gámur - stöðuleyfi,Frestað. Milli funda.,Sótt er um tímabundið stöðuleyfi fyrir 40 feta geymslugám við hús nr. 16 á lóðinni nr. 16-18 við Síðumúla. Gjald kr. 9.000
46413 (01.19.740.7),http://gamli.rvk.is/vefur/owa/edutils.parse_page?nafn=BN046413,Smáragata 12,Gluggar - kjallari,Frestað. Samkvæmt gögnum embættisins er lágmarksgjald ógreitt.,Sótt er um leyfi til að breyta innréttingum í kjallara sbr. erindi BN045784 samþ. 9.4. 2013 í fjölbýlishúsinu á lóð nr. 12 við Smáragötu. Gjald kr. 9.000
46420 (01.26.110.1),http://gamli.rvk.is/vefur/owa/edutils.parse_page?nafn=BN046420,Suðurlandsbraut 2,Reyndarteikningar,Samþykkt.  Samræmist ákvæðum laga nr. 160 / 2010. Áskilin lokaúttekt byggingarfulltrúa.,Sótt er um samþykki fyrir reyndarteikningum sbr. BN04598 vegna lokaúttektar í mhl. 03 í húsinu á lóð nr. 2 við Suðurlandsveg. Gjald kr. 9.000
46320 (00.00.000.0),http://gamli.rvk.is/vefur/owa/edutils.parse_page?nafn=BN046320,Tangabryggja 14-24,Reyndarteikningar,Frestað. Lagfæra skráningartöflu.,"Sótt er um leyfi til að breyta erindi BN045775 sem samþykkt var þann 9. apríl 2013 þannig að settur verður lagnastokkur í miðju húss, sameina bað og þvottaherbergi, hringstigar í íbúð 0304 og 0301 breytast í stiga, aðrir hringstigar minnka og koma fyrir sturtuaðstöðu 0101 til 0105 í húsinu á lóð nr. 14-16 við Tangabryggju.  Bréf frá lagnahönnuði dags. 30. júlí 2013. Gjald kr. 9.000 + 9.000"
46422 (01.14.200.1),http://gamli.rvk.is/vefur/owa/edutils.parse_page?nafn=BN046422,Tjarnargata 30,Loka bakinngangi ofl.,Samþykkt.  Samræmist ákvæðum laga nr. 160 / 2010. Með vísan til samþykktar borgarráðs frá 1. september 1998 skal utanhúss- og lóðarfrágangi vera lokið eigi síðar en innan tveggja ára frá útgáfu byggingarleyfis að viðlögðum dagsektum sbr. greinar nr. 2.4.7 og 2.9.2 í byggingarreglugerð nr. 112/2012. Áskilin lokaúttekt byggingarfulltrúa.,"Sótt er um leyfi til að loka bakinngangi, brjóta niður tröppur og breikka dyr út á svalir á suðurhlið einbýlishúss á lóð nr. 30 við Tjarnargötu. Gjald kr. 9.000"
46350 (04.32.920.1),http://gamli.rvk.is/vefur/owa/edutils.parse_page?nafn=BN046350,Tunguháls 10,Reyndarteikningar,Frestað. Vísað til athugasemda eldvarnaeftirlits á umsóknarblaði.,Sótt er um samþykki á reyndarteikningum sbr. BN045386 vegna lokaúttektar þar sem hurð á vegg á módúllínu 9 er ekki til staðar og brunakerfi breytist á annarri hæð í húsinu á lóð nr. 10 við Tunguháls. Gjald kr. 9.000
46344 (04.32.700.3),http://gamli.rvk.is/vefur/owa/edutils.parse_page?nafn=BN046344,Tunguháls 17,Geymsluloft,Samþykkt.  Samræmist ákvæðum laga nr. 160 / 2010. Áskilin lokaúttekt byggingarfulltrúa.,"Sótt er um leyfi til að koma fyrir nýjum millipalli til að nota sem geymsluloft í suðurenda og  komið verður fyrir gluggum á neðri hæð hússins á lóð nr. 17 við Tunguháls. Sbr. BN039743 Stækkun millipalls 34,3 ferm. Gjald kr. 9.000"
45923 (04.34.210.1),http://gamli.rvk.is/vefur/owa/edutils.parse_page?nafn=BN045923,Tunguháls 8,Reyndarteikningar,Samþykkt.  Samræmist ákvæðum laga nr. 160 / 2010. Áskilin lokaúttekt byggingarfulltrúa. Þinglýsa skal lóðarskiptasamningi til að samþykktin öðlist gildi.,"Sótt er um samþykkt á reyndarteikningu, viðbygging við norðurenda er felld niður og milligólf í mhl. 01 er fellt burt í atvinnuhúsi á lóð nr. 8 við Tunguháls. Jafnframt er erindi BNO39209  og BN041330 dregið til baka. Bréf frá hönnuði dags. 14. júní 2013, samþykki meðeigenda og yfirlýsing vegna lóðarnotkunar dags. 11. des 2006 fylgir. Nýjar stærðir eftir breytingu: Mhl. 01:  1.080 ferm., 6.061,2 rúmm. Mhl. 02:  3.120,2 ferm., 13.901,4 rúmm. Samtals:  4.200,2 ferm., 19.962,6 rúmm. Stækkun: 2.390,9  ferm.,  9.342,8 rúmm. Gjald kr. 9.000"
46430 (02.69.860.6),http://gamli.rvk.is/vefur/owa/edutils.parse_page?nafn=BN046430,Úlfarsbraut 116,Bílag.reyklosun,Samþykkt.  Samræmist ákvæðum laga nr. 160 / 2010. Áskilin lokaúttekt byggingarfulltrúa.,Vegna lokaúttektar er sótt um leyfi til þess að breyta stærð reyklosunarops í bílageymslukjallara hússins á lóðinni nr. 116 við Úlfarsbraut. Gjald kr. 9.000
46403 (02.69.850.4),http://gamli.rvk.is/vefur/owa/edutils.parse_page?nafn=BN046403,Úlfarsbraut 76,Innistiga breytt - mannop fært sbr. BN046025,Samþykkt.  Samræmist ákvæðum laga nr. 160 / 2010. Áskilin lokaúttekt byggingarfulltrúa.,Sótt er um leyfi til að breyta áður samþykktu erindi BN046025 þannig að mannop inn í rými 0102 verði fært og stiga breytt í húsinu á lóð nr. 76 við Úlfarsbraut. Gjald kr. 9.000
46183 (00.07.800.0),http://gamli.rvk.is/vefur/owa/edutils.parse_page?nafn=BN046183,Vallá 125762,Eggjahús,Samþykkt.  Samræmist ákvæðum laga nr. 160 / 2010. Áskilin lokaúttekt byggingarfulltrúa. Áskilið samþykki heilbrigðiseftirlits.,"Sótt er um leyfi til að byggja steinsteypt hænsnahús á lóð að Vallá landnúmer 125762 á Kjalarnesi. Fyrirspurnarerindi BN045872 (jákv.) dags. 14. maí 2013 fylgir, einnig útreikningur á varmatapi dags. 8. júlí 2013 og bréf hönnuðar dags. 9 júlí  2013. Bréf frá skipulagsstofnun dags. 17. júlí 2013 Stærð:  1264,4 ferm., 5.787,2 rúmm. Gjald kr. 9.000"
45958 (01.52.400.3),http://gamli.rvk.is/vefur/owa/edutils.parse_page?nafn=BN045958,Víðimelur 62,Hækkun á risi,Frestað. Málinu vísað til skipulagsfulltrúa til ákvörðunar um grenndarkynningu. Vísað er til uppdráttrar  A101 dags. 23. apríl 2013.,"Sótt er um leyfi til að hækka ris, byggja tvo kvisti og svalir á fjölbýlishús á lóð nr. 62 við Víðimel. Meðfylgjandi er samþykki meðeigenda á lóð, og útskrift úr gerðabók embættisafgreiðslufundar skipulagsfulltrúa frá 21. júní 2013, einnig umsögn skipulagsfulltrúa dags. 20. júní 2013, útskrift úr gerðabók skipulagsfulltrúa dags 19. júlí 2013 og umsögn skipulagsfulltrúa dags. 17. júlí 2013. Stækkun:  xx ferm., xx rúmm. Gjald kr. 9.000 + 9.000"
46434 (02.40.430.3),http://gamli.rvk.is/vefur/owa/edutils.parse_page?nafn=BN046434,Barðastaðir 65,bréf byggingarfulltrúa,Samþykkt.  Samræmist ákvæðum laga nr. 160 / 2010. Bréf byggingarfulltrúa samþykkt.,Lagt fram bréf byggingarfulltrúa dags. 19. ágúst 2013 vegna dagsekta á lóðinni nr. 65 við Barðastaði.
46428,http://gamli.rvk.is/vefur/owa/edutils.parse_page?nafn=BN046428,Brautarholtsvegur,staðföng,Samþykkt.  Samræmist ákvæðum laga nr. 160 / 2010.,"Byggingarfulltrúi leggur til að lóðir og lendur við Brautarholtsveg á  Kjalarnesi fái staðföng sem hér segir :

Landspilda með óþekktu landnúmeri milli ""Hólalands"" og ""Presthúsa"", fái staðfang sem  Brautarholtsvegur 65.

Landspilda með landnúmer 125743, nú skráð ""Presthús 125743"", fái staðfang sem  Brautarholtsvegur 69, undirheiti  Presthús.

Lóð með landnúmer 125860, nú skráð ""Presthús 125860"", fái staðfang sem  Brautarholtsvegur 71, undirheiti  Presthús.

Landspilda með landnúmer 125662, nú skráð ""Nesvík 125662"", fái staðfang sem  Brautarholtsvegur 73, undirheiti  Nesvík.  Matshluti 02, félagsheimili verði  Brautarholtsvegur 73 og mhl. 01, sumarbústaður verði nr. 73A.

Landspilda með landnúmer 204065, nú skráð ""Brautarholt VII-B"", fáí staðfang sem  Brautarholtsvegur 75, undirheiti  Spilda VII-B.

Landspilda með landnúmer 173358, nú skráð  ""Brautarholt 7  173358"", fái staðfang sem  Brautarholtsvegur 77, undirheiti  Spilda VII.

Landspilda með landnúmer 204064 nú skráð ""Brautarholt VII-A"", fái staðfang sem  Brautarholtsvegur 79, undirheiti  Spilda  VII-A.

Landspilda með landnúmer 125660 nú skráð ""Brautarholt 1"", fái staðfang sem  Brautarholtsvegur 83, undirheiti  Spilda I, matshlutar 02 og 03 verði nr. 83 og mhl. 04, golfskáli verði nr. 81.

Landspilda með landnúmer 173355, nú skráð ""Brautarholt 6 173355"", fái staðfang sem  Brautarholtsvegur 85, undirheiti  Spilda VI, matshluti 05, sóknarkirkja verði nr. 85, en aðrir matshlutar 85A.

Lóð með landnúmer 173344 nú skráð ""Brautarholt IV"", fái staðfang sem  Brautarholtsvegur 87, undirheiti  Spilda IV.

Landspilda með landnúmer 173360 nú skráð ""Brautarholt 8 173360"", fái staðfang sem  Brautarholtsvegur 89, undirheiti  Spilda VIII.

Landspilda með landnúmer nú skráð ""Krókur 125712"", fái staðfang sem  Brautarholtsvegur 30, undirheiti  Krókur.  Önnur staðföng matshluta verði,  Lyngás, nr. 30,  Krókur nr.40 og Háagerði verði  Hofsgrund 50.

Málinu fylgir uppdráttur með innfærðum staðföngum.  Sér uppdráttur  A3 vegna lóðarinnar  Brautarholtsvegur 80."
46429,http://gamli.rvk.is/vefur/owa/edutils.parse_page?nafn=BN046429,Brautarholtsvegur,staðföng,Samþykkt.  Samræmist ákvæðum laga nr. 160 / 2010.,"Byggingarfulltrúi leggur til að lóðir og lendur við Brautarholtsveg á  Kjalarnesi fái staðföng sem hér segir :

Landspilda með landnúmer 125845 nú skráð ""Í  Lykkjulandi 125845"", fái staðfang sem  Brautarholtsvegur 48.

Landspilda með óþekktu landnúmeri, vestan  Hofsgrundar, fái staðfang sem  Brautarholtsvegur 74.

Lóð með landnúmer 221217, áður landnúmer 125652, vistheimilið í  Arnarholti, fái staðfang sem  Brautarholtsvegur 80.  Önnur staðföng matshluta á lóð verði,mhl. 03 nr.80,mhl.04 80A, mhl. 05 80B, mhl. 02 80C,mhl. 01 80D, mhl. 06 80E, mhl.  07 80F.

Landspilda með landnúmer 125651 nú skráð ""Arnarholt 125651"", fái staðfang sem  Brautarholtsvegur 82, undirheiti  Arnarholt.

Landspilda með landnúmer 125663 nú skráð ""Brautarholt 2 125663"", fái staðfang sem  Brautarholtsvegur 84, undirheiti  Spilda II.

Lóð með landnúmer 204063,nú skráð ""Brautarholt VI-A, fái staðfang sem  Brautarholtsvegur 86, undirheiti  Spilda VI-A.

Lóð með landnúmer 125664 nú skráð ""Brautarholt 3 125664"", fái staðfang sem  Brautarholtsvegur 88.

Lóð með landnúmer 209825 nú skráð ""Brautarholt 10"", fái staðfang sem  Brautarholtsvegur 90, undirheiti  Spilda X.

Lóð með landnúmer 173345, nú skráð ""Brautarholt 5 173345"", fái staðfang sem  Brautarholtsvegur 92, undirheiti  Spilda V.

Lóð með landnúmer 175694,nú skráð ""Brautarholt, Kjal. 9"", fái staðfang sem  Brautarholtsvegur 94,undirheiti  Spilda IX.

Lóð með landnúmer 188269, nú skráð ""Brautarholt 11, Kjal. 9"", fái staðfang sem  Brautarholtsvegur 96, undirheiti  Spilda XI.

Málinu fylgir uppdráttur með innfærðum staðföngum.  Sér uppdráttur  A3 vegna lóðarinnar  Brautarholtsvegur 80."
46427,http://gamli.rvk.is/vefur/owa/edutils.parse_page?nafn=BN046427,Brautarholtsvegur,staðföng,Samþykkt.  Samræmist ákvæðum laga nr. 160 / 2010.,"Byggingarfulltrúi leggur til að lóðir og lendur við Brautarholtsveg á  Kjalarnesi fái staðföng sem hér segir :

Lóð með landnúmer 125702, nú skráð sem ""Jörfi"", fái staðfang sem  Brautarholtsvegur 15 undirheiti  Jörfi.

Jörð með landnúmer 125689, nú skráð  ""Hof"" 125689, fái staðfang sem  Brautarholtsvegur 19 undirheiti  Hof.

Lóð með landnúmer 175989, nú skráð  ""Furugrund"", fái staðfang sem  Brautarholtsvegur 21, undirheiti  Furugrund.

Lóð með landnúmer 178722, nú skráð  ""Gimli"", fái staðfang sem  Brautarholtsvegur 23, undirheiti  Gimli.

Lóð með landnúmer 125714, nú skráð  ""Lykkja 1  125714"", fái staðfang sem  Brautarholtsvegur 25, undirheiti  Lykkja.

Landspilda með landnúmer 125721, nú skráð  ""Spilda úr Lykkju Kjal"", fái staðfang sem  Brautarholtsvegur 27, undirheiti  Hofsvík.

Lóð með landnúmer 211300, nú skráð ""Lykkja 2A"", fái staðfang sem  Brautarholtsvegur 29.

Lóð með landnúmer 125719, nú skráð ""Lykkja 4 125719"" , fái staðfang sem  Brautarholtsvegur 31.

Lóð með landnúmer 125715, nú skráð ""Lykkja2B"" , fái staðfang sem  Brautarholtsvegur 35.

Lóð með landnúmer 178400,nú skráð ""Laufás"", fái staðfang sem  Brautarholtsvegur 37, undirheiti  Laufás.

Landspilda með óþekktu landnúmeri norðan ""Hólalands"", fái staðfang sem  Brautarholtsvegur 59.

Lóð með landnúmer 125718, nú skráð  ""Hjassi 125718"", fái staðfang sem  Brautarholtsvegur 61, undirheiti  Hjassi.

Landspilda með landnúmer 125716, nú skráð ""Hólaland 125716"", fái staðfang sem  Brautarholtsvegur 63, undirheiti  Hólaland.

Málinu fylgir uppdráttur með innfærðum staðföngum.  Sér uppdráttur  A3 vegna lóðarinnar  Brautarholtsvegur 80."
46426 (01.16.030.5),http://gamli.rvk.is/vefur/owa/edutils.parse_page?nafn=BN046426,Hávallagata 9,Leiðr.bókun BN045707,Samþykkt.  Samræmist ákvæðum laga nr. 160 / 2010. Frágangur á lóðamörkum verði gerður í samráði við lóðarhafa aðliggjandi lóða. Með vísan til samþykktar borgarráðs frá 1. september 1998 skal utanhúss- og lóðarfrágangi vera lokið eigi síðar en innan tveggja ára frá útgáfu byggingarleyfis að viðlögðum dagsektum sbr. greinar nr. 2.4.7 og 2.9.2 í byggingarreglugerð nr. 112/2012. Áskilin lokaúttekt byggingarfulltrúa.,"Leiðrétt er hér með bókun á afgreiðslufundi byggingarfulltrúa þann 16. apríl 2013.   Erindi BN045707 - Hávallagata 9 var ranglega bókað svo: ""Sótt er um leyfi til að byggja við kjallara, koma fyrir svölum á þaki viðbyggingar og rífa niður núverandi bílskúr og byggja nýjan bílskúr með þaksvölum við húsið á lóð nr. 9 við Hávallagötu."" Rétt bókun erindisins hljóðar svo: ""Sótt er um leyfi til að byggja við kjallara, koma fyrir svölum á þaki viðbyggingar, rífa núverandi bílskúr og byggja nýja bílgeymslu að austurhlið hússins á lóðinni nr. 9 við Hávallagötu."""
46439 (05.11.360.6),http://gamli.rvk.is/vefur/owa/edutils.parse_page?nafn=BN046439,Ísleifsgata 10-16,mæliblað,Samþykkt.  Samræmist ákvæðum laga nr. 160 / 2010.,"Óskað er eftir  samþykki byggingarfulltrúans til að breyta lóðamörkum lóðanna Ísleifsgata 2-8, Ísleifsgata 10-16, Ísleifsgata 18-24 og Ísleifsgata 26-32 eins og sýnt er á meðfylgandi uppdráttum Landupplýsingadeildar dagsettum 19. 8. 2013. Lóðin Ísleifsgata 2-8 (staðgr. 5.113.605, landnr. 214833)  er 1400 m², bætt við lóðina 8 m² frá Ísleifsgötu 10-16. Lóðin verður 1408 m² og verður skráð sem Ísleifsgata 2-10. Lóðin Ísleifsgata 10-16 (staðgr. 5.113.606, landnr. 214834)  er 1144 m², teknir  8 m²  af lóðinni og bætt við Ísleifsgötu 2-8, teknir  3 m² af lóðinni og bætt við Ísleifsgötu 18-24,  leiðrétt vegna fermetrabrota  1 m².   Lóðin verður 1134 m² og verður skráð sem Ísleifsgata 12-18.  Lóðin Ísleifsgata 18-24 (staðgr. 5.113.104, landnr. 214835) er 1144 m²,  teknir 13 m² af lóðinni og bætt við Ísleifsgötu 26-32, bætt 3 m²  við lóðina frá Ísleifsgötu 10-16.  Lóðin verður 1134 m² og verður skráð sem Ísleifsgata 20-26. Lóðin Ísleifsgata 26-32 (staðgr. 5.113.105, landnr. 214836) er 1144 m², bætt  13 m² við lóðina frá Íslefsgötu 18-24. Lóðin verður 1157 m² og verður skráð sem Ísleifsgata 28-36 Sbr. deiliskipulagsbreytingu samþykkt í umhverfis- og skipulagsráðs 13. 02. 2013 og í borgarráði 21. 02. 2013 og auglýsingu í B-deild Stjórnartíðinda þann 10. 06. 2013."
46440 (05.11.310.4),http://gamli.rvk.is/vefur/owa/edutils.parse_page?nafn=BN046440,Ísleifsgata 18-24,mæliblað,Samþykkt.  Samræmist ákvæðum laga nr. 160 / 2010.,"Óskað er eftir  samþykki byggingarfulltrúans til að breyta lóðamörkum lóðanna Ísleifsgata 2-8, Ísleifsgata 10-16, Ísleifsgata 18-24 og Ísleifsgata 26-32 eins og sýnt er á meðfylgandi uppdráttum Landupplýsingadeildar dagsettum 19. 8. 2013. Lóðin Ísleifsgata 2-8 (staðgr. 5.113.605, landnr. 214833)  er 1400 m², bætt við lóðina 8 m² frá Ísleifsgötu 10-16. Lóðin verður 1408 m² og verður skráð sem Ísleifsgata 2-10. Lóðin Ísleifsgata 10-16 (staðgr. 5.113.606, landnr. 214834)  er 1144 m², teknir  8 m²  af lóðinni og bætt við Ísleifsgötu 2-8, teknir  3 m² af lóðinni og bætt við Ísleifsgötu 18-24,  leiðrétt vegna fermetrabrota  1 m².   Lóðin verður 1134 m² og verður skráð sem Ísleifsgata 12-18.  Lóðin Ísleifsgata 18-24 (staðgr. 5.113.104, landnr. 214835) er 1144 m²,  teknir 13 m² af lóðinni og bætt við Ísleifsgötu 26-32, bætt 3 m²  við lóðina frá Ísleifsgötu 10-16.  Lóðin verður 1134 m² og verður skráð sem Ísleifsgata 20-26. Lóðin Ísleifsgata 26-32 (staðgr. 5.113.105, landnr. 214836) er 1144 m², bætt  13 m² við lóðina frá Íslefsgötu 18-24. Lóðin verður 1157 m² og verður skráð sem Ísleifsgata 28-36 Sbr. deiliskipulagsbreytingu samþykkt í umhverfis- og skipulagsráðs 13. 02. 2013 og í borgarráði 21. 02. 2013 og auglýsingu í B-deild Stjórnartíðinda þann 10. 06. 2013."
46441 (05.11.310.5),http://gamli.rvk.is/vefur/owa/edutils.parse_page?nafn=BN046441,Ísleifsgata 26-32,mæliblað,Samþykkt.  Samræmist ákvæðum laga nr. 160 / 2010.,"Óskað er eftir  samþykki byggingarfulltrúans til að breyta lóðamörkum lóðanna Ísleifsgata 2-8, Ísleifsgata 10-16, Ísleifsgata 18-24 og Ísleifsgata 26-32 eins og sýnt er á meðfylgandi uppdráttum Landupplýsingadeildar dagsettum 19. 8. 2013. Lóðin Ísleifsgata 2-8 (staðgr. 5.113.605, landnr. 214833)  er 1400 m², bætt við lóðina 8 m² frá Ísleifsgötu 10-16. Lóðin verður 1408 m² og verður skráð sem Ísleifsgata 2-10. Lóðin Ísleifsgata 10-16 (staðgr. 5.113.606, landnr. 214834)  er 1144 m², teknir  8 m²  af lóðinni og bætt við Ísleifsgötu 2-8, teknir  3 m² af lóðinni og bætt við Ísleifsgötu 18-24,  leiðrétt vegna fermetrabrota  1 m².   Lóðin verður 1134 m² og verður skráð sem Ísleifsgata 12-18.  Lóðin Ísleifsgata 18-24 (staðgr. 5.113.104, landnr. 214835) er 1144 m²,  teknir 13 m² af lóðinni og bætt við Ísleifsgötu 26-32, bætt 3 m²  við lóðina frá Ísleifsgötu 10-16.  Lóðin verður 1134 m² og verður skráð sem Ísleifsgata 20-26. Lóðin Ísleifsgata 26-32 (staðgr. 5.113.105, landnr. 214836) er 1144 m², bætt  13 m² við lóðina frá Íslefsgötu 18-24. Lóðin verður 1157 m² og verður skráð sem Ísleifsgata 28-36 Sbr. deiliskipulagsbreytingu samþykkt í umhverfis- og skipulagsráðs 13. 02. 2013 og í borgarráði 21. 02. 2013 og auglýsingu í B-deild Stjórnartíðinda þann 10. 06. 2013."
46438 (05.11.360.5),http://gamli.rvk.is/vefur/owa/edutils.parse_page?nafn=BN046438,Ísleifsgata 2-8,mæliblað,Samþykkt.  Samræmist ákvæðum laga nr. 160 / 2010.,"Óskað er eftir  samþykki byggingarfulltrúans til að breyta lóðamörkum lóðanna Ísleifsgata 2-8, Ísleifsgata 10-16, Ísleifsgata 18-24 og Ísleifsgata 26-32 eins og sýnt er á meðfylgandi uppdráttum Landupplýsingadeildar dagsettum 19. 8. 2013. Lóðin Ísleifsgata 2-8 (staðgr. 5.113.605, landnr. 214833)  er 1400 m², bætt við lóðina 8 m² frá Ísleifsgötu 10-16. Lóðin verður 1408 m² og verður skráð sem Ísleifsgata 2-10. Lóðin Ísleifsgata 10-16 (staðgr. 5.113.606, landnr. 214834)  er 1144 m², teknir  8 m²  af lóðinni og bætt við Ísleifsgötu 2-8, teknir  3 m² af lóðinni og bætt við Ísleifsgötu 18-24,  leiðrétt vegna fermetrabrota  1 m².   Lóðin verður 1134 m² og verður skráð sem Ísleifsgata 12-18.  Lóðin Ísleifsgata 18-24 (staðgr. 5.113.104, landnr. 214835) er 1144 m²,  teknir 13 m² af lóðinni og bætt við Ísleifsgötu 26-32, bætt 3 m²  við lóðina frá Ísleifsgötu 10-16.  Lóðin verður 1134 m² og verður skráð sem Ísleifsgata 20-26. Lóðin Ísleifsgata 26-32 (staðgr. 5.113.105, landnr. 214836) er 1144 m², bætt  13 m² við lóðina frá Íslefsgötu 18-24. Lóðin verður 1157 m² og verður skráð sem Ísleifsgata 28-36 Sbr. deiliskipulagsbreytingu samþykkt í umhverfis- og skipulagsráðs 13. 02. 2013 og í borgarráði 21. 02. 2013 og auglýsingu í B-deild Stjórnartíðinda þann 10. 06. 2013."
46437 (02.85.720.2),http://gamli.rvk.is/vefur/owa/edutils.parse_page?nafn=BN046437,Jöklafold 4,bréf byggingarfulltrúa,Samþykkt.  Samræmist ákvæðum laga nr. 160 / 2010. Bréf byggingarfulltrúa samþykkt.,Lagt fram bréf byggingarfulltrúa dags. 27. júní 2013 vegna óleyfisframkvæmda á lóðinni nr.4 við Jöklafold.
46435 (04.38.650.2),http://gamli.rvk.is/vefur/owa/edutils.parse_page?nafn=BN046435,Skógarás 21,bréf byggingarfulltrúa,Samþykkt.  Samræmist ákvæðum laga nr. 160 / 2010. Bréf byggingarfulltrúa samþykkt.,Lagt fram bréf byggingarfulltrúa dags. 15. ágúst 2013 vegna dagsekta á lóðinni nr. 21 við Skógarás.
46436 (04.38.650.3),http://gamli.rvk.is/vefur/owa/edutils.parse_page?nafn=BN046436,Skógarás 23,bréf byggingarfulltrúa,Samþykkt.  Samræmist ákvæðum laga nr. 160 / 2010. Bréf byggingarfulltrúa samþykkt.,Lagt fram bréf byggingarfulltrúa dags. 15. ágúst 2013 vegna dagsekta á lóðinni nr. 23 við Skógarás.
46410 (01.13.621.6),http://gamli.rvk.is/vefur/owa/edutils.parse_page?nafn=BN046410,Bárugata 4,(fsp) - Endurb.bílskúr - geymsla,Frestað. Málinu vísað til umsagnar skipulagsfulltrúa.,Spurt er hvort leyft yrði að endurbyggja bílskúr sem rifinn var árið 2011 á lóðinni nr. 4 við Bárugötu. Jafnframt er spurt hvort leyft yrði að byggja stærri skúr en þann sem rifinn var. Sjá einnig erindi BN042969. Bréf fyrirspyrjanda dags. 9. ágúst fylgir erindinu.
46408 (01.82.401.0),http://gamli.rvk.is/vefur/owa/edutils.parse_page?nafn=BN046408,Básendi 2,(fsp) - Bílskúr,Frestað. Málinu vísað til umsagnar skipulagsfulltrúa.,Spurt er hvort leyft yrði að byggja bílskúr á lóðinni nr. 2 við Básenda.
46386 (01.45.440.9),http://gamli.rvk.is/vefur/owa/edutils.parse_page?nafn=BN046386,Dugguvogur 23,(fsp) - Breyta í vinnustofu,Jákvætt. Að uppfylltum skilyrðum enda verði sótt um byggingarleyfi. Vísað til leiðbeininga á fyrirspurnarblaði.,Spurt er hvort breyta megi núverandi skrifstofu í vinnustofu listamanns með búsetuaðstöðu í einingu 0305 í húsi á lóð nr. 23 við Dugguvog.
46411 (01.18.551.1),http://gamli.rvk.is/vefur/owa/edutils.parse_page?nafn=BN046411,Fjólugata 23,(fsp) - Breyting úti og inni,Frestað. Gera þarf betur grein fyrir erindinu með vísan til leiðbeininga á fyrirspurnarblaði.,Spurt er um eftirfarandi: Hvort leyft yrði að - 1)Gera dyraop á bakhlið. 2)Breyta stigapalli í kjallara úr sameign í séreign. 3)Koma fyrir dyraopi milli stigapalls í kjallara og stiga milli kjallara og stigapalls á fyrstu hæð. 4)Breikka  dyr milli eldhúss og borðstofu á fyrstu hæð. 5)Stækka og flytja til útigeymslu á lóðinni nr. 23 við Fjólugötu.
46364 (01.29.540.7),http://gamli.rvk.is/vefur/owa/edutils.parse_page?nafn=BN046364,Grensásvegur 16A,(fsp) - Gistiheimili,Jákvætt. Að uppfylltum skilyrðum enda verði sótt um byggingarleyfi.,"Spurt er hvort breyta megi húsnæði úr skrifstofum í gistiheimili/hótel þar sem á 2. og 3. hæð yrðu innréttuð gistiherbergi, á 1. hæð móttaka og veitingasalur og baðaðstaða með sundlaug og gufubaði í kjallara hússins á lóðinni nr. 16A við Grensásveg. Útskrift úr gerðabók embættisafgreiðslufundar skipulagsfulltrúa frá 16. ágúst 2013 fylgir erindinu ásamt umsögn skipulagsfulltrúa dags. 16. ágúst 2013."
46398 (04.97.410.2),http://gamli.rvk.is/vefur/owa/edutils.parse_page?nafn=BN046398,Hálsasel 35,(fsp) - Kvistur - svalalokun,Frestað. Málinu vísað til umsagnar skipulagsfulltrúa.,Spurt er hvort leyfi fengist til að koma fyrir kvistum á vesturhlið og loka svölum á suðvesturhlið hússins á lóð nr. 35 við Hálsasel.
46146 (01.18.340.1),http://gamli.rvk.is/vefur/owa/edutils.parse_page?nafn=BN046146,Laufásvegur 10,(fsp) - Kvistur og svalir,Frestað. Að uppfylltum skilyrðum enda verði sótt um byggingarleyfi. Byggingarleyfisumsókn verður grenndarkynnt berist hún.,Spurt er hvort leyft yrði að byggja kvist og svalir á vesturhlið (bakhlið) hússins á lóðinni nr. 10 við Laufásveg. Erindi svipaðs efnis var samþykkt 9. apríl 1987 en komst ekki í framkvæmd. Útskrift úr gerðabók embættisafgreiðslufundar skipulagsfulltrúa frá 16. ágúst 2013 fylgir erindinu ásamt umsögn skipulagsfulltrúa dags. 13. ágúst 2013.
46418 (01.17.411.9),http://gamli.rvk.is/vefur/owa/edutils.parse_page?nafn=BN046418,Laugavegur  89-91,(fsp) - Stigi milli hæða,Jákvætt. Að uppfylltum skilyrðum enda verði sótt um byggingarleyfi. Með vísan til leiðbeininga á fyrirspurnarblaði.,Spurt er hvort leyfi fengist til að koma fyrir stiga milli fyrstu og annarrar hæðar hússins á lóðinni nr. 89 við Laugaveg.
46407 (01.26.400.1),http://gamli.rvk.is/vefur/owa/edutils.parse_page?nafn=BN046407,Suðurlandsbraut 18,(fsp) - Hundaskóli,Erindi vísað til Heilbrigðiseftirlits,Spurt er hvort leyfi  fengist til að halda verklega hluta hundanámskeiðs utan dagvinnutíma og um helgar á fyrstu hæð bílastæðahússins á lóð nr. 18 Suðurlandsbraut.
46186 (04.71.200.1),http://gamli.rvk.is/vefur/owa/edutils.parse_page?nafn=BN046186,Vatnsveituv. Fákur,(fsp) - Stækka hesthús,Jákvætt. Að uppfylltum skilyrðum enda verði sótt um byggingarleyfi. Með vísan til umsagnar skipulagsfulltrúa dags. 16. ágúst 2013.,Spurt er hvort leyfi fengist til að stækka hesthús til vesturs þannig að komið verður fyrir taðþró á fyrstu hæð og setustofu og kaffi/eldhúsaðstöðu á annarri hæð hesthússins Faxaból 9 hús 2 á lóðinni Vatnsveituv. Fákur. Útskrift úr gerðabók embættisafgreiðslufundar skipulagsfulltrúa frá 16. ágúst 2013 fylgir erindinu ásamt umsögn skipulagsfulltrúa dags. 16. ágúst 2013.
46401 (01.18.010.1),http://gamli.rvk.is/vefur/owa/edutils.parse_page?nafn=BN046401,"1"">Þingholtsstræti 23",(fsp) - Breyta atvinnuhúsnæði í íbúð,Jákvætt. Að uppfylltum skilyrðum enda verði sótt um byggingarleyfi. Með vísan til umsagnar skipulagsfulltrúa dags. 14. ágúst 2013.,Spurt er hvort leyft yrði að breyta tannlæknastofu á annarri hæð í íbúð í húsinu á lóðinni nr. 23 við Þingholtsstræti. Útskrift úr gerðabók embættisafgreiðslufundar skipulagsfulltrúa frá 16. ágúst 2013 fylgir erindinu ásamt umsögn skipulagsfulltrúa dags. 14. ágúst 2013.
46409 (04.11.220.1),http://gamli.rvk.is/vefur/owa/edutils.parse_page?nafn=BN046409,Þjóðhildarstígur 2-6,(fsp) - Viðbygging,Frestað. Málinu vísað til umsagnar skipulagsfulltrúa.,Spurt er hvort leyft yrði að byggja um það bil 120 fermetra viðbyggingu að suðurhlið annarrar hæðar atvinnuhússins á lóðinni nr. 2-6 við Þjóðhildarstíg. Bréf hönnuðar dags. 8. ágúst 2013 fylgir erindinu.
46424 (01.18.420.5),http://gamli.rvk.is/vefur/owa/edutils.parse_page?nafn=BN046424,Þórsgata 10,(fsp) - Breyta vinnustofu í íbúð,Jákvætt. Að uppfylltum skilyrðum enda verði sótt um byggingarleyfi.,Spurt er hvort leyft yrði að breyta skilgreiningu bakhúss (matshl. 02) úr vinnustofu í íbúð á lóðinni nr. 10 við Þórsgötu. Á samþykktum teikningum frá 20. júlí 1997 er sýnd íbúð í bakhúsinu en á síðustu samþykktu teikningum frá 6. desember 2009 er húsnæðið hins vegar skilgreint sem vinnustofa. Bréf fyrirspyrjanda dags. 13. ágúst 2013 fylgir erindinu
