nr,url,heimilisfang,tegund,nidurstada,spurning
46933 (01.11.980.1),http://gamli.rvk.is/vefur/owa/edutils.parse_page?nafn=BN046933,Austurbakki 2,Breyting inni - Kaldalón,Samþykkt.  Samræmist ákvæðum laga nr. 160 / 2010. Áskilin lokaúttekt byggingarfulltrúa. Áskilið samþykki heilbrigðiseftirlits.,Sótt er um leyfi til að loka dyrum varanlega og fjarlægja neyðarljós og panikslá að sviði Kaldalóns í módúl WO/W10-W11 í Tónlistar- og ráðstefnuhúsinu Hörpu á lóð nr. 2 við Austurbakka. Gjald kr. 9.000
46867 (01.43.020.8 01),http://gamli.rvk.is/vefur/owa/edutils.parse_page?nafn=BN046867,Álfheimar 2,Verslun,Samþykkt.  Samræmist ákvæðum laga nr. 160 / 2010. Áskilin lokaúttekt byggingarfulltrúa. Áskilið samþykki heilbrigðiseftirlits.,"Sótt er um leyfi til að innrétta verslun í matshluta 01, rými 0203 í verslunarhúsi á lóð nr. 2 við Álfheima. Gjald kr. 9.000"
46746 (01.43.800.4),http://gamli.rvk.is/vefur/owa/edutils.parse_page?nafn=BN046746,Álfheimar 49,Aðstaða fyrir metanafgreiðslu,Frestað. Vísað til athugasemda eldvarnaeftirlits á umsóknarblaði.,"Sótt er um leyfi til að koma fyrir metanafgreiðslu sem samanstendur af tveimur 24 feta gámafletum klæddum með dúk á grind með metanhylkjum og gám sem inniheldur metanpressu innan steyptra veggja á þrjá vegu en metandælan verður austasta dælan undir skyggni við eldsneytisafgreiðslustöð á lóð nr. 49 við Álfheima. Meðfylgjandi er brunahönnunarskýrsla frá Eflu dags. október 2013 ásamt útskrift úr gerðabók embættisafgreiðslufundar skipulagsfulltrúa frá 13. desember 2013 og umsögn skipulagsfulltrúa dags. 7. nóvember 2013. Erindið var grenndarkynnt frá 13. nóvember til og með 11. desember 2013. Engar athugasemdir bárust. Stærðir stækkun: mhl. 03, A og C rými, 90 ferm., 234 rúmm. Stækkun mhl. 03: 15 ferm., 57 rúmm. Gjald kr. 9.000"
46939 (00.01.000.0),http://gamli.rvk.is/vefur/owa/edutils.parse_page?nafn=BN046939,Álfsnes 125650,Reyndarteikningar - o.fl.,Samþykkt.  Samræmist ákvæðum laga nr. 160 / 2010. Áskilin lokaúttekt byggingarfulltrúa.,"Sótt er um samþykki á reyndarteikningum sbr. erindið BN046125 þar sem komið er fyrir nýjum palli og gluggum breytt í mhl. 13, vigtarhúsi með landnr. 125650 á lóð Sorpu í Álfsnesi. Gjald kr. 9.000"
46937 (01.19.210.2),http://gamli.rvk.is/vefur/owa/edutils.parse_page?nafn=BN046937,Barónsstígur 32,Færanlegir tengigangar,Samþykkt.  Samræmist ákvæðum laga nr. 160 / 2010. Áskilin lokaúttekt byggingarfulltrúa. Áskilið samþykki heilbrigðiseftirlits.,"Sótt er um leyfi til að koma fyrir tengigöngum, T-46B og T-48B með stigalyftu, sem koma frá geymslu á Stórhöfða, tengja saman og við núverandi aðliggjandi kennslustofur K-45B og K-2B við Austurbæjarskóla á lóð nr. 32 við Barónsstíg. Gjald kr. 9.000"
46943 (01.25.010.2),http://gamli.rvk.is/vefur/owa/edutils.parse_page?nafn=BN046943,Brautarholt 24,Eldvarnir,Frestað. Vísað til athugasemda eldvarnaeftirlits á umsóknarblaði.,Sótt er um leyfi til að breyta eldvörnum í samræmi við athugasemdir slökkviliðs höfuðborgasvæðisins á 1. og 2. hæð í húsinu á lóð nr. 24 við Brautarholt. Brunaskýrsla dags.  desember 2013 fylgir Gjald kr. 9.000
46796 (01.45.440.9),http://gamli.rvk.is/vefur/owa/edutils.parse_page?nafn=BN046796,Dugguvogur 23,Vinnustofa - íbúð,Frestað. Málinu vísað til umsagnar skipulagsfulltrúa.,Sótt er um leyfi til að breyta skrifstofurými 0305 í vinnustofu listamanns með búsetumöguleika fyrir einstakling eða par sbr. fyrirspurn BN046386 og byggja svalir á suðausturhlið húss á lóð nr. 23 við Dugguvog. Meðfylgjandi eru samþykktir meðeigenda. Gjald kr. 9.000
46936 (01.41.011.8),http://gamli.rvk.is/vefur/owa/edutils.parse_page?nafn=BN046936,Efstasund 79,Rishæð,Frestað. Vísað til athugasemda á umsóknarblaði.,"Sótt er um leyfi til að endurnýja þak, rífa upprunanlegt valmaþak og byggja risþak með svölum skv. deiliskipulagi samþ. 2005 á hús á lóð nr. 79 við Efstasund. Stærðir stækkun 40,8 ferm., 99,2 rúmm. Gjald kr. 9.000"
46681 (01.39.200.1),http://gamli.rvk.is/vefur/owa/edutils.parse_page?nafn=BN046681,Engjavegur 13,Svínahús - Húsdýragarður,Samþykkt.  Samræmist ákvæðum laga nr. 160 / 2010. Með vísan til samþykktar borgarráðs frá 1. september 1998 skal utanhúss- og lóðarfrágangi vera lokið eigi síðar en innan tveggja ára frá útgáfu byggingarleyfis að viðlögðum dagsektum sbr. greinar nr. 2.4.7 og 2.9.2 í byggingarreglugerð nr. 112/2012. Áskilin lokaúttekt byggingarfulltrúa. Áskilið samþykki heilbrigðiseftirlits.,"Sótt er um leyfi til að byggja svínahús mhl. 13 þar sem burðarvirkið er stálrammi, undirstöðurnar og gólfplatan steypt í Húsdýragarðinum á lóð nr. 13 Engjaveg.  Útskrift úr gerðabók embættisafgreiðslufundar skipulagsfulltrúa frá 25. október 2013 fylgir erindinu. Stærð húss:  A-rými:  197,5 ferm., 724,6 rúmm.  B-rými: 52,4 ferm., 160,5 rúmm. Samt. 249,9 ferm., 885,4 rúmm.  Gjald kr. 9.000"
46842 (01.27.001.8),http://gamli.rvk.is/vefur/owa/edutils.parse_page?nafn=BN046842,Flókagata 67,Bílskúr - stækkun - endurnýjun á þaki,Synjað. Með vísan til umsagnar skipulagsfulltrúa dags. 9. desember 2013.,"Sótt er um leyfi til að byggja við og hækka þakið á bílskúrnum á lóð nr. 67 við Flókagötu. Útskrift úr gerðabók embættisafgreiðslufundar skipulagsfulltrúa frá 13. desember 2013 fylgir erindinu ásamt umsögn skipulagsfulltrúa dags. 9. desember 2013. Stækkun: 18.3 ferm., 76,2 rúmm.  Gjald kr. 9.000"
46945 (02.69.570.2),http://gamli.rvk.is/vefur/owa/edutils.parse_page?nafn=BN046945,Freyjubrunnur 3-5,"Færa þvottahús, útitröppur, nýjar svalir á 1. hæð og lóð lækkurð",Frestað. Málinu vísað til umsagnar skipulagsfulltrúa.,"Sótt er um leyfi til að færa þvottahús og fjarlægja eldvarnarvegg á milli geymslukjallara og íbúðar í mhl. 01 rými 0001, koma fyrir svölum á 1. hæð á íbúðum í mhl. 01 og  02 lækka og aðlaga lóð til samræmis við aðliggjandi lóðir og koma fyrir staðsteyptum útitröppum sitt hvoru megin við húsið á lóð nr. 3-5 við Freyjubrunn. Gjald kr. 9.000"
46749 (02.69.350.4),http://gamli.rvk.is/vefur/owa/edutils.parse_page?nafn=BN046749,Friggjarbrunnur 17-19,Endurnýjun - BN037651,Samþykkt.  Samræmist ákvæðum laga nr. 160 / 2010. Frágangur á lóðamörkum verði gerður í samráði við lóðarhafa aðliggjandi lóða. Áskilin lokaúttekt byggingarfulltrúa.,"Sótt er um endurnýjun á samþykkt byggingaráforma, sjá erindi BN037651, þar sem leyft var að byggja parhús úr forsteyptum einingum á tveimur hæðum auk  kjallara  og lagnakjallara að hluta með innbyggðri bílgeymslu á 1. hæð á lóð nr. 17 og 19 við Friggjarbrunn. Stærð: 485,2 ferm., 1425,5 rúmm. Gjald kr. 9.000"
46957 (04.61.200.4),http://gamli.rvk.is/vefur/owa/edutils.parse_page?nafn=BN046957,Gilsárstekkur 8,Stækkun og breytingar,Frestað. Málinu vísað til umsagnar skipulagsfulltrúa.,"Sótt er um leyfi til þess að breyta innra fyrirkomulagi, breyta bílgeymslu í móttökuherbergi og byggja ofan á svalir á annarri hæð hússins á lóðinni nr. 8 við Gilsárstekk. Stækkun xx Gjald kr. 9.000"
45602 (01.46.100.1),http://gamli.rvk.is/vefur/owa/edutils.parse_page?nafn=BN045602,Grensásvegur 3-7,5 - Veitingaleyfi fl. II,Samþykkt.  Samræmist ákvæðum laga nr. 160 / 2010. Áskilin lokaúttekt byggingarfulltrúa. Áskilið samþykki heilbrigðiseftirlits. Áskilið samþykki Vinnueftirlits ríkisins.,"Sótt er um leyfi til að breyta flokkun veitingastaðar úr veitingaflokki I í flokk II, tegund c, í veitingastofu á fyrstu hæð atvinnuhúss nr. 5 á lóðinni nr. 3-7 við Grensásveg. Hámarksfjöldi gesta er 49 og starfsmenn ekki fleiri en sex.  Sjá erindi BN040698  frá 24. nóvember 2009 þar sem einnig var sótt um breytingu á veitingaflokki. Gjald kr. 9.000"
46938 (01.41.110.1),http://gamli.rvk.is/vefur/owa/edutils.parse_page?nafn=BN046938,Holtavegur 11,Lyfta fyrir hjólastóla,Samþykkt.  Samræmist ákvæðum laga nr. 160 / 2010. Áskilin lokaúttekt byggingarfulltrúa.,Sótt er um leyfi til að koma fyrir lyftu fyrir hjólastóla í frístundahúsinu á lóð nr. 11 við Holtaveg. Gjald kr. 9.000
46802 (04.74.130.2),http://gamli.rvk.is/vefur/owa/edutils.parse_page?nafn=BN046802,Hólavað 29-43,Raðhús,Frestað. Vísað til athugasemda á umsóknarblaði.,"Sótt er um leyfi til þess að byggja tvílyft raðhús úr forsteyptum einingum með átta íbúðum og átta innbyggðum bílgeymslum sbr. erindi BN032951 á lóð nr. 29-43 við Hólavað. Meðfylgjandi er EC-vottun eininga dags. 28.6. 2013. Stærðir: Hús nr. 29 (matshl. 01) íbúð 1. hæð 52,8 ferm., 2. hæð 72,0 ferm., bílgeymsla 27,2 ferm., samtals 152,0 ferm., 534,4 rúmm.  Hús nr. 31 (matshl. 02), hús nr. 33 (matshl. 03), hús nr. 35 (matshl. 04), hús nr. 37 (matshl. 05), hús nr. 39 (matshl. 06), hús nr. 41 (matshl. 07) og hús nr. 43 (matshl. 08) eru öll sömu stærðar og hús nr. 29 eða samtals 152,0 ferm. og 534,4 rúmm hvert.  Raðhúsið er samtals 1173,6 ferm., 4275,2 rúmm. Gjald kr. 9.000"
46950 (01.15.141.0),http://gamli.rvk.is/vefur/owa/edutils.parse_page?nafn=BN046950,Hverfisgata 19,Flettiskilti,Frestað. Vísað til athugasemda á umsóknarblaði.,Sótt er um leyfi til að koma fyrir flettiskilti austan við aðalinngang Þjóðleikhússins á lóð nr. 19 við Hverfisgötu. Gjald kr. 9.000
46649 (01.17.110.3),http://gamli.rvk.is/vefur/owa/edutils.parse_page?nafn=BN046649,Hverfisgata 32,Niðurrif,Samþykkt.  Samræmist ákvæðum laga nr. 160 / 2010. Þinglýsa skal yfirlýsingu um sameiningu fasteigna til að unnt sé að taka eignirnar af skrá að loknu niðurrifi. Skilyrt er að gengið verði frá samþykkt um lóðabreytingar á reitnum fyrir útgáfu byggingarleyfis. Áskilin lokaúttekt byggingarfulltrúa. Áskilið samþykki heilbrigðiseftirlits.,"Sótt er um leyfi til þess að rífa hús á lóð nr. 32 við Hverfisgötu. Umsögn minjastofnunar Íslands dags. 28. júní 2013 og umsögn minjasafns Reykjavíkur dags. 30. september 2013 fylgja erindinu. Niðurrif: Fastanr. 200-4438, merkt 01-0001 - iðnaður, stærð 152,9 ferm. - Fastanr. 200-4439, merkt 01-0101 - íbúðareign, stærð 279,0 ferm. Samtals 431,9 ferm. Gjald kr. 9.000"
46650 (01.17.110.5),http://gamli.rvk.is/vefur/owa/edutils.parse_page?nafn=BN046650,Hverfisgata 34,Niðurrif,Samþykkt.  Samræmist ákvæðum laga nr. 160 / 2010. Þinglýsa skal yfirlýsingu um sameiningu fasteigna til að unnt sé að taka eignirnar af skrá að loknu niðurrifi. Skilyrt er að gengið verði frá samþykkt um lóðabreytingar á reitnum fyrir útgáfu byggingarleyfis. Áskilin lokaúttekt byggingarfulltrúa. Áskilið samþykki heilbrigðiseftirlits.,"Sótt er um leyfi til þess að rífa hús á lóð nr. 34 við Hverfisgötu. Umsögn minjastofnunar Íslands dags. 28. júní 2013 og umsögn minjasafns Reykjavíkur dags. 30. september 2013 fylgja erindinu. Niðurrif: Fastanr. 200-4446, merkt 01-0101 - iðnaður, stærð 96,1 ferm.  Fastanr. 200-4447, merkt 01-0201 - íbúðareign, stærð 38,0 ferm. Fastanr. 200-4448, merkt 01-0202 - íbúðareign, stærð 68,5 ferm. Fastanr. 200-4449, merkt 01-0301 - íbúðareign, stærð 35,9 ferm. Fastanr. 200-4450, merkt 01-0302 - íbúðareign, stærð 70,6 ferm. Samtals 309,1 ferm. Gjald kr. 9.000"
46941 (04.07.500.1),http://gamli.rvk.is/vefur/owa/edutils.parse_page?nafn=BN046941,Höfðabakki 9,Breytingar á lóð,Frestað. Málinu vísað til umsagnar skipulagsfulltrúa.,Sótt er um leyfi til að breyta áður samþykktu erindi BN046249 þannig að komið er fyrir um 5 m háum stuðlabergssúlum í 10 cm djúpri tjörn í kring um súlurnar við innkeyrsluna og setja á þær merki fyrirtækjanna sem eru með aðsetur á lóðinni nr. 9 við Höfðabakka. Gjald kr. 9.000
46942 (01.17.000.5),http://gamli.rvk.is/vefur/owa/edutils.parse_page?nafn=BN046942,Ingólfsstræti 2A,Breyting inni,Frestað. Vísað til athugasemda á umsóknarblaði.,"Sótt er um leyfi til að breyta innanhúss á öllum hæðum, koma fyrir lyftu frá kjallara upp á 2. hæð, breyta 3. hæð til veisluhalda, breyta áhorfenda rými á 1. og 2. hæð þannig að upphækkanir séu færanlegar og gólf geti verið slétt og breyta fyrirkomulagi í kjallara í Gamla Bíói á lóðinni nr. 2A við Ingólfsstræti. Gjald kr. 9.000"
46846 (04.99.310.2),http://gamli.rvk.is/vefur/owa/edutils.parse_page?nafn=BN046846,Jafnasel  2-4,Verslun - breyting inni,Samþykkt.  Samræmist ákvæðum laga nr. 160 / 2010. Áskilin lokaúttekt byggingarfulltrúa. Áskilið samþykki heilbrigðiseftirlits.,"Sótt er um leyfi til að breyta innra skipulagi kjallara og 1. hæðar þannig að starfsmannaaðstaða er staðsett í kjallara, komið er fyrir vörulyftu og aðstöðu til eldunar í ofni með útblástursháfi, tæknirými skermað af, verslun á 1. hæð og skrifstofa verslunarstjóra eru stækkaðar í húsinu á lóð nr. 2-4 við Jafnasel. Gjald kr. 9.000"
46916 (01.34.510.1),http://gamli.rvk.is/vefur/owa/edutils.parse_page?nafn=BN046916,Kirkjusandur 2,Breyta fundaherbergi sbr. BN046346,Samþykkt.  Samræmist ákvæðum laga nr. 160 / 2010. Áskilin lokaúttekt byggingarfulltrúa.,Sótt er um leyfi til þess að sameina tvö fundaherbergi í eitt á fimmtu hæð hússins á lóðinni nr. 2 við Kirkjusand. Sbr. erindi BN046346. Gjald kr. 9.000
46929 (01.72.100.1),http://gamli.rvk.is/vefur/owa/edutils.parse_page?nafn=BN046929,Kringlan  4-12,"Breyta skráningu - Mhl. 1, 2 og 3",Frestað. Vísað til athugasemda á umsóknarblaði.,Sótt er um leyfi til að breyta matshlutaskiptingu og skráningu verslunarmiðstöðvarinnar Kringlunnar á lóð nr. 4-12 við Kringluna. Gjald kr. 9.000
46908 (01.38.510.6),http://gamli.rvk.is/vefur/owa/edutils.parse_page?nafn=BN046908,Laugarásvegur 62,"Stækkun, breyting inni",Frestað. Lagfæra skráningartöflu.,"Sótt er um leyfi til að breyta innra skipulagi og til að innrétta geymslu í sökkulrými norðvestan við einbýlishúsið á lóðinni nr. 62 við Laugarásveg. Stækkun:  29,3 ferm., 60 rúmm. Gjald 9.000"
45438 (01.24.210.1),http://gamli.rvk.is/vefur/owa/edutils.parse_page?nafn=BN045438,Laugavegur 164,Skjalasafn,"Samþykkt.  Samræmist ákvæðum laga nr. 160 / 2010. Með vísan til samþykktar borgarráðs frá 1. september 1998 skal utanhúss- og lóðarfrágangi vera lokið eigi síðar en innan tveggja ára frá útgáfu byggingarleyfis að viðlögðum dagsektum sbr. greinar nr. 2.4.7 og 2.9.2 í byggingarreglugerð nr. 112/2012. Frágangur á lóðamörkum verði gerður í samráði við lóðarhafa aðliggjandi lóða. Lóðarskiptayfirlýsing skal vera samþykkt fyrir útgáfu byggingarleyfis, henni verður þinglýst eigi síðar en við lokaúttekt. Áskilin lokaúttekt byggingarfulltrúa.","Sótt er um leyfi til að byggja yfir þaksvalir, setja valmaþak, einangra og klæða að utan með málmklæðningu, breyta innra skipulagi og innrétta skjalasafn í iðnaðarhúsi á lóð nr. 164 við Laugaveg. Erindi fylgir minnisblað frá Almennu verkfræðistofunni um ástand steyptra veggja dags. 23. janúar 2013. Stækkun:  35 ferm., 1.932,1 rúmm. Gjald kr. 9.000 + 173.889"
45273 (01.17.150.1),http://gamli.rvk.is/vefur/owa/edutils.parse_page?nafn=BN045273,Laugavegur 18,Breyta úr flokki I í flokk II,Frestað. Vísað til athugasemda á umsóknarblaði.,Sótt er um leyfi til að breyta notkun rýmis á annarri hæð úr veitingastað í flokki I í flokk II í húsinu á lóðinni nr. 18 við Laugaveg. Útskrift úr gerðabók embættis afgreiðslufundar skipulagsfulltrúa  frá 13. desember 2013 fylgir erindinu ásamt umsögn skipulagsfulltrúa dags. 12. desember 2013. Gjald kr. 8.500
46944 (01.17.402.1),http://gamli.rvk.is/vefur/owa/edutils.parse_page?nafn=BN046944,Laugavegur 77,"Breyting - kjallara, stækkun 1.hæðar og innri breytinar á 2. 3. og 5.hæð",Frestað. Málinu vísað til umsagnar skipulagsfulltrúa.,"Sótt er um leyfi til að færa fram útvegg inndreginnar 1. hæðar og skipta henni í fjögur verslunarrými, koma fyrir hringstiga á þak útbyggingar 1. hæðar og breyta innra skipulagi kjallara, 1., 2., 3. og 5 hæðar í húsi á lóð nr. 77 við Laugaveg. Stækkun: 44,2 ferm., 992,8 rúmm. Gjald kr. 9.000"
46417 (01.17.430.2),http://gamli.rvk.is/vefur/owa/edutils.parse_page?nafn=BN046417,Laugavegur 84,Kaffihús fl. I,Samþykkt.  Samræmist ákvæðum laga nr. 160 / 2010. Áskilin lokaúttekt byggingarfulltrúa. Áskilið samþykki heilbrigðiseftirlits.,Sótt er um leyfi til þess að breyta fyrirkomulagi og innrétta kaffihús í flokki I í núverandi veitingaverslun á fyrstu hæð hússins á lóðinni nr. 84 við Laugaveg. Fyrirspurnarerindi sama efnis sem fékk jákvæða afgreiðslu þann 18. júní 2013 fylgir erindinu. Samþykki eiganda (á teikn.) fylgir erindinu. Gjald kr. 9.000
46930 (05.05.370.1),http://gamli.rvk.is/vefur/owa/edutils.parse_page?nafn=BN046930,Nönnubrunnur 1,Breyting inni - breyting úti,Samþykkt.  Samræmist ákvæðum laga nr. 160 / 2010. Með vísan til samþykktar borgarráðs frá 1. september 1998 skal utanhúss- og lóðarfrágangi vera lokið eigi síðar en innan tveggja ára frá útgáfu byggingarleyfis að viðlögðum dagsektum sbr. greinar nr. 2.4.7 og 2.9.2 í byggingarreglugerð nr. 112/2012. Áskilin lokaúttekt byggingarfulltrúa.,"Sótt er um leyfi til breytinga á innra skipulagi og útliti sem felast í breyttu lyftuopi, breytinga á skipulagi baðherbergja, þvottaherbergja og eldhúsa, breyttum gluggum á bað- og þvottaherbergjum íbúðar 0302 og litlum skilvegg á norðurhlið fjölbýlishússins, sjá erindi BN046659, á lóð nr. 1 við Nönnubrunn. Gjald kr. 9.000"
46954 (01.74.310.1),http://gamli.rvk.is/vefur/owa/edutils.parse_page?nafn=BN046954,Ofanleiti 2,Reyndarteikningar o.fl.,Frestað. Vísað til athugasemda á umsóknarblaði.,"Sótt er um leyfi til að breyta innra skipulagi, færa hringstiga að kjallara, bæta við flóttaleið á vesturhlið og koma fyrir klæddum kæliröftum á suðurhlið 2. hæðar skrifstofuhúss á lóð nr. 2 við Ofanleiti. Gjald kr. 9.000"
46910 (01.74.310.1),http://gamli.rvk.is/vefur/owa/edutils.parse_page?nafn=BN046910,Ofanleiti 2,Byggja hjólageymslu á lóð,Samþykkt.  Samræmist ákvæðum laga nr. 160 / 2010. Með vísan til samþykktar borgarráðs frá 1. september 1998 skal utanhúss- og lóðarfrágangi vera lokið eigi síðar en innan tveggja ára frá útgáfu byggingarleyfis að viðlögðum dagsektum sbr. greinar nr. 2.4.7 og 2.9.2 í byggingarreglugerð nr. 112/2012. Áskilin lokaúttekt byggingarfulltrúa.,"Sótt er um leyfi til að byggja hjólageymslu úr timbri með stálburðarvirki á steyptri plötu vestan við skrifstofuhús á lóð nr. 2 við Ofanleiti. Stærð:  118,6 ferm., 330,2 rúmm. Gjald kr. 9.000"
46808 (01.18.030.3),http://gamli.rvk.is/vefur/owa/edutils.parse_page?nafn=BN046808,Óðinsgata 2,Sýningarsalur 1.h.,Frestað. Vísað til athugasemda á umsóknarblaði.,Sótt er um leyfi til þess að breyta innra fyrirkomulagi og starfrækja fjölnota menningarrými ásamt verslun á fyrstu hæð hússins á lóðinni nr. 2 við Óðinsgötu. Afrit af samþykki húsfélagsfundar dags. 10. september 2013 fylgir erindinu. Umsögn skipulagsfulltrúa dags. 13. september 2013 fylgir erindinu. Gjald kr. 9.000
46953 (01.29.520.3),http://gamli.rvk.is/vefur/owa/edutils.parse_page?nafn=BN046953,Síðumúli 30,"Lager, starfsmannainngangur o.fl.",Frestað. Vísað til athugasemda á umsóknarblaði.,"Sótt er um leyfi fyrir nýjum starfsmannainngangi, nýrri vörumóttöku, hjólageymslu á austurhluta lóðar og fyrir áður gerðri breytingu þar sem bílageymslu, rými nr. 0202 var breytt í lagerhúsnæði á lóð nr. 30 við Síðumúla. Bréf frá hönnuði dags. 12. desember 2012. og þinglýst bréf um samning um bílastæði dags. 15 febrúar 2013 fylgir erindi. Stækkun: Hjólaskýli  XX ferm XX rúmm. Gjald kr. 9.000"
46564 (01.17.111.4),http://gamli.rvk.is/vefur/owa/edutils.parse_page?nafn=BN046564,Smiðjustígur 4,"Hljómalindarreitur, hótel - 1.áfangi","Samþykkt.  Samræmist ákvæðum laga nr. 160 / 2010. Skilyrt er að gengið verði frá samþykkt um lóðabreytingar á reitnum fyrir útgáfu byggingarleyfis. Frágangur á lóðamörkum verði gerður í samráði við lóðarhafa aðliggjandi lóða. Með vísan til samþykktar umhverfis- og skipulagsráðs, dags. 22. maí 2013, skal lóðarhafi, í samráði við byggingarfulltrúa, setja upp skilti til kynningar á fyrirhuguðum framkvæmdum á byggingarstað. Í samræmi við samþykkt umhverfis- og skipulagsráðs dags. 9. október 2013 skal vélknúinn þvottabúnaður vera til staðar á byggingarlóð sem tryggi að vörubílar og aðrar þungavinnuvélar verði þrifnar áður en þær yfirgefa byggingarstað. Samráð skal haft við byggingarfulltrúa. Áskilin lokaúttekt byggingarfulltrúa. Áskilið samþykki heilbrigðiseftirlits. Áskilið samþykki Vinnueftirlits ríkisins.","Sótt er um leyfi til að byggja 1. áfanga hótels á Hljómalindarreit, mhl. 01 sem er fimm hæða steinsteypt hús með 55 herbergjum og móttöku og mhl. 02 sem er einnar hæðar bílgeymslukjallari fyrir 25 bíla á lóð nr. 4 við Smiðjustíg. Meðfylgjandi er minnisblað vegna eldvarna frá Eflu dags. 6. september 2013, greinargerð um hljóðvist dags. í október 2013 ásamt útskrift úr gerðabók embættisafgreiðslufundar skipulagsfulltrúa frá 4. október 2013. Stærð mhl. 01:  1. hæð 326,5 ferm., 2. hæð 440,2 ferm., 3. og 4. hæð 492,8 ferm. og 5. hæð 349,5 ferm. Samtals:  2.106,7 ferm., 7.456,2 rúmm. B-rými 162 ferm. Mhl. 02:  678,4 ferm., 2.482,9 rúmm. Gjald 9.000"
46616 (01.17.111.4),http://gamli.rvk.is/vefur/owa/edutils.parse_page?nafn=BN046616,Smiðjustígur 4,takmarkað byggingarleyfi,Samþykkt.  Samræmist ákvæðum laga nr. 160 / 2010. Skilyrt er að gengið verði frá samþykkt um lóðabreytingar á reitnum fyrir útgáfu byggingarleyfis. Samþykktin fellur úr gildi við útgáfu á endanlegu byggingarleyfi. Vegna útgáfu á takmörkuðu byggingarleyfi skal umsækjandi hafa samband við yfirverkfræðing embættis byggingarfulltrúa.,Þingvangur ehf. óskar eftir takmörkuðu byggingarleyfi fyrir jarðvinnu á lóðinni nr. 4 við Smiðjustíg. sbr. erindi BN046564. Um er að ræða svæðið þar sem svo kallaður Hjartagarður er í dag og mun verða hluti af lóð nr 4 við Smiðjustíg þegar nýtt mæliblað hefur verið samþykkt. Ósk Þingvangs er að fá leyfi til að kanna jarðlög og útbúa malar púða sem athafnasvæði fyrir fyrirhugaðar framkvæmdir á reitnum. Með þessu leyfi þá getum við undirbúið okkur og nágranna ef mikið verður um fleigun eða sprengingar ef/þegar endanlegt framkvæmdarleyfi verður veitt.  Einnig erum við að lágmarka umferð og athafnir tækja við Hverfisgötu þar sem við þurfum að þvera gangbraut sem er við innkeyrslu inn á svæðið.  Ekki verður unnið við aðra verkþætti en hér eru nefndir.
46646 (01.17.111.4),http://gamli.rvk.is/vefur/owa/edutils.parse_page?nafn=BN046646,Smiðjustígur 4,Niðurrif,Samþykkt.  Samræmist ákvæðum laga nr. 160 / 2010. Þinglýsa skal yfirlýsingu um sameiningu fasteigna til að unnt sé að taka eignirnar af skrá að loknu niðurrifi. Skilyrt er að gengið verði frá samþykkt um lóðabreytingar á reitnum fyrir útgáfu byggingarleyfis. Áskilin lokaúttekt byggingarfulltrúa. Áskilið samþykki heilbrigðiseftirlits.,"Sótt er um leyfi til að rífa mhl.01 á lóð nr. 4 við Smiðjustíg. Niðurrif:  Mhl. 01, fastanr. 200-4476 0001, 200-4477 0101, 200-4478 0201, 200-4479 0301 og 200-4480 0401, allt íbúðareignir samtals 527,3 ferm. Gjald kr. 9.000."
46647 (01.17.111.5),http://gamli.rvk.is/vefur/owa/edutils.parse_page?nafn=BN046647,Smiðjustígur 4A,Niðurrif,Samþykkt.  Samræmist ákvæðum laga nr. 160 / 2010. Skilyrt er að gengið verði frá samþykkt um lóðabreytingar á reitnum fyrir útgáfu byggingarleyfis. Áskilin lokaúttekt byggingarfulltrúa. Áskilið samþykki heilbrigðiseftirlits.,"Sótt er um leyfi til að rífa mhl.01 á lóð nr. 4A við Smiðjustíg. Niðurrif:  Fastanr. 200-4481 01 merkt 0101 veitingahús 288,7 ferm. Gjald kr. 9.000"
46648 (01.17.111.7),http://gamli.rvk.is/vefur/owa/edutils.parse_page?nafn=BN046648,Smiðjustígur 6,Niðurrif,Samþykkt.  Samræmist ákvæðum laga nr. 160 / 2010. Skilyrt er að gengið verði frá samþykkt um lóðabreytingar á reitnum fyrir útgáfu byggingarleyfis. Áskilin lokaúttekt byggingarfulltrúa. Áskilið samþykki heilbrigðiseftirlits.,"Sótt er um leyfi til að rífa mhl.04 á lóð nr. 6 við Smiðjustíg. Niðurrif:  Fastanr. 221-7677 04 merkt 0101 veitingahús 288,9 ferm. Gjald kr. 9.000"
46904 (02.53.610.4),http://gamli.rvk.is/vefur/owa/edutils.parse_page?nafn=BN046904,Sóleyjarimi 13,Fjölbýlishús,Frestað. Vísað til athugasemda á umsóknarblaði.,"Sótt er um leyfi til að byggja staðsteypt fjölbýlishús með 10 íbúðum á tveim hæðum, með kjallara að hluta, með flötu þaki, einangrað og klætt málm- og timburklæðningu á lóð nr. 13 við Sóleyjarrima. Erindi fylgir útreikningur á heildarleiðnitapi húss ódagsettur. Stærð:  Kjallari 133,2 ferm., 1. hæð 695,4 ferm., 2. hæð 695,4 ferm. Samtals 1.524 ferm., 4.614,9 rúmm. Gjald kr. 9.000"
46744 (01.23.000.3),http://gamli.rvk.is/vefur/owa/edutils.parse_page?nafn=BN046744,Sóltún 1,Svalaskýli,Samþykkt.  Samræmist ákvæðum laga nr. 160 / 2010. Með vísan til samþykktar borgarráðs frá 1. september 1998 skal utanhúss- og lóðarfrágangi vera lokið eigi síðar en innan tveggja ára frá útgáfu byggingarleyfis að viðlögðum dagsektum sbr. greinar nr. 2.4.7 og 2.9.2 í byggingarreglugerð nr. 112/2012. Áskilin lokaúttekt byggingarfulltrúa.,"Sótt er um leyfi til að byggja svalaskýli við allar íbúðirnar 40 á annari til sjöundu hæð í fjölbýlishúsi á lóð nr. 3-5 við Mánatún. Stærðir samtals 1.020,1 rúmm. Gjald kr. 9.000 + 9.000"
46869 (01.23.000.3),http://gamli.rvk.is/vefur/owa/edutils.parse_page?nafn=BN046869,Sóltún 1,Mánatún 1-17 / Sóltún 1-3 - Breytingar,Samþykkt.  Samræmist ákvæðum laga nr. 160 / 2010. Frágangur á lóðamörkum verði gerður í samráði við lóðarhafa aðliggjandi lóða. Áskilin lokaúttekt byggingarfulltrúa.,"Sótt er um leyfi til að breyta erindi BN046155, sjá einnig erindi BN045300 en þar er stuðst við byggingareglugerð nr. 441/1998. Nú er sótt um breytingar á íbúðum 01.09, 02.09, 03.09, 04.09, 05.09 og 06.09, nýjar svalir í vestur, steyptir veggir í stað léttra og fyrirkomulagi breytt á bað- og þvottaherbergjum í fjölbýlishúsi nr. 7-17, mhl. 02, á lóð nr. 1-17 við Mánatún/1-3 við Sóltún. Meðfylgjandi er bréf arkitekts dags. 25.11. 2013 og annað dags. 6.12. 2013. Stækkun: -0,3 ferm., 26,4 rúmm., B-rými 66,4 ferm. Gjald kr. 9.000"
46946 (01.24.110.3),http://gamli.rvk.is/vefur/owa/edutils.parse_page?nafn=BN046946,Stakkholt 2-4,Íbúð 1.hæð mhl.4 - geymslur bílageymslu,Frestað. Vísað til athugasemda á umsóknarblaði.,Sótt er um leyfi til færa inngang mhl. 04 í efri kjallara og innrétta íbúð þar sem áður var inngangur og sorpgeymsla ásamt því að innrétta lokaðar geymslur í bílakjallara fjölbýlishúss á lóð nr. 2-4 við Stakkholt. Gjald kr. 9.000
46926 (04.07.310.1),http://gamli.rvk.is/vefur/owa/edutils.parse_page?nafn=BN046926,Stórhöfði 34-40,Skemma - áður gert,Frestað. Málinu vísað til umsagnar skipulagsfulltrúa.,"Sótt er um samþykki á þegar byggðri skemmu úr stálgrind sem er klædd með báruáli, mhl. 07, á lóðarhluta lóðarinnar Stórhöfða 34-40. Stærðir: 662,6 ferm., 4.770 rúmm. Gjald kr. 9.000"
46880,http://gamli.rvk.is/vefur/owa/edutils.parse_page?nafn=BN046880,Strandvegur / Eiðsvík v/Geldinganes,Gámar - Stöðuleyfi,Samþykkt.  Samræmist ákvæðum laga nr. 160 / 2010. Stöðuleyfi í eitt ár. Gámarnir skulu fjarlægðir fyrir 17. desember 2014.,Sótt er um endurnýjun á stöðuleyfi fyrir aðstöðugáma Kayakklúbbsins og einn nýjan 20 feta gám suðvestan við núverandi gáma á svæði klúbbsins við Strandveg í Eiðisvík við Geldinganes. Umsögn skrifstofu rekstrar og umhirðu dags. 11. desember 2013 fylgir erindinu. Gjald kr. 9.000
46595 (01.26.300.3),http://gamli.rvk.is/vefur/owa/edutils.parse_page?nafn=BN046595,Suðurlandsbraut 10,Shushi-staður,Frestað. Vísað til athugasemda á umsóknarblaði.,Sótt er um leyfi til að innrétta sushi veitingastað í fl. II á 1. hæð í rými 01-0101 sbr. fyrirspurn BN046360 í húsi á lóð nr. 10 við Suðurlandsbraut. Gjald kr. 9.000 + 9.000
46949 (01.63.120.1),http://gamli.rvk.is/vefur/owa/edutils.parse_page?nafn=BN046949,Sæmundargata 14,20 - Reyndarteikningar - K4,Frestað. Vísað til athugasemda á umsóknarblaði.,"Sótt er um samþykki á þegar gerðum breytingum sem felast í tilfærslu innveggja, speglun íbúða og breyttu sorpgerði á stúdentagörðum, sbr. erindi BN044592, í húsi nr. 20 á lóð nr. 14-20 við Sæmundargötu. Gjald kr. 9.000"
46948 (01.63.120.1),http://gamli.rvk.is/vefur/owa/edutils.parse_page?nafn=BN046948,Sæmundargata 14,18 - Reyndarteikningar - K3,Frestað. Vísað til athugasemda á umsóknarblaði.,"Sótt er um samþykki á þegar gerðum breytingum sem felast í tilfærslu innveggja, speglun íbúða, breyttu sorpgerði og breyttum svölum á stúdentagörðum, sbr. erindi BN044447, í húsi nr. 18 á lóð nr. 14-20 við Sæmundargötu. Gjald kr. 9.000"
46913 (04.02.310.1),http://gamli.rvk.is/vefur/owa/edutils.parse_page?nafn=BN046913,Tangabryggja 14-24,Breyting á fyrstu hæð,Synjað. Uppdrættir bera ekki annað með sér en að um íbúðir sé að ræða.,Sótt er um leyfi til að breyta innra fyrirkomulag atvinnuhúsnæðis á fyrstu hæð hússins á lóðinni nr. 14-16 við Tangabryggju.  Útskrift úr gerðabók embættisafgreiðslufundar skipulagsfulltrúa frá 13. desember fylgi erindinu. Sjá einnig erindi BN045775. Gjald kr. 9.000
46951 (01.13.210.4),http://gamli.rvk.is/vefur/owa/edutils.parse_page?nafn=BN046951,Tryggvagata 16,Útisalerni - Hljómskálagarður,Frestað. Málinu vísað til umsagnar skipulagsfulltrúa.,"Sótt er um leyfi til að staðsetja útisalerni í Hljómskálagarðinum til móts við Bragagötu, 10 metra frá gangstétt við Sóleyjargötu."
46935 (01.82.230.2),http://gamli.rvk.is/vefur/owa/edutils.parse_page?nafn=BN046935,Tunguvegur 10,Breyting - BN046667,Samþykkt.  Samræmist ákvæðum laga nr. 160 / 2010. Áskilin lokaúttekt byggingarfulltrúa.,Sótt er um samþykki fyrir leiðréttum teikningum af innra fyrirkomulagi kjallaraíbúðar hússins á lóðinni nr. 10 við Tunguveg. Sjá einnig erindi BN046667 sem samþykkt var 22. október 2013. Gjald kr. 9.000
46377 (01.14.042.0),http://gamli.rvk.is/vefur/owa/edutils.parse_page?nafn=BN046377,Veltusund 3B,Endurnýjun byggingarleyfis,Frestað. Vísað til athugasemda á umsóknarblaði.,"Sótt er um leyfi til að breyta útliti í átt til upprunalegs útlits, sbr. erindi BN031458 samþ. 31.5. 2005, jafnframt er sótt um leyfi fyrir núverandi innra skipulagi allra hæða hússins á lóð nr. 3B við Veltusund. Umsögn Minjastofnun Íslands dags. 19 sept. 2013 fylgir  sem og umsögn Minjasafns Reykjavíkur dags. 15.11. 2013. Gjald kr. 9.000"
46955 (01.17.311.9),http://gamli.rvk.is/vefur/owa/edutils.parse_page?nafn=BN046955,Vitastígur 12,Húðflúrstofa,Frestað. Vísað til athugasemda á umsóknarblaði.,Sótt er um leyfi til þess að breyta lítillega innra fyrirkomulagi og starfrækja húðflúrstofu í verslunarrými á fyrstu hæð hússins á lóðinni nr. 12 við Vitastíg. Samþykki eins eigenda í tölvubréfi dags. 16. desember 2013 fylgir erindinu. Gjald kr. 9.000
45755 (01.54.010.4),http://gamli.rvk.is/vefur/owa/edutils.parse_page?nafn=BN045755,Víðimelur 47,Kjallaraíbúð,Frestað. Vísað til athugasemda á umsóknarblaði.,Sótt er um leyfi til breytinga á innra skipulagi í kjallara og gerð íbúðar í rými 0001 í húsinu á lóð nr. 47 við Víðimel. Virðingargjörð dags. 1. nóvember 1941 og afrit af þinglýstum  húsaleigusamningi dags. 12. september 2013 fylgja erindi. Gjald kr. 9.000
46940 (01.54.521.3),http://gamli.rvk.is/vefur/owa/edutils.parse_page?nafn=BN046940,Ægisíða 60,Reyndateikningar v/eignaskiptasamnings,Frestað. Vísað til athugasemda á umsóknarblaði.,"Vegna gerðar eignaskiptayfirlýsingar er sótt um samþykki fyrir áður gerðum breytingum á innra fyrirkomulagi, aðallega í kjallara og á rishæð hússins á lóðinni nr. 60 við Ægisíðu. Samningur um sambyggingu og sameign dags. 15. nóvember 1953 og virðingargjöð dags. 15. janúar 1958 fylgja erindinu. Gjald kr. 9.000"
46961 (01.11.850.1),http://gamli.rvk.is/vefur/owa/edutils.parse_page?nafn=BN046961,Hafnarstræti 15,mæliblað,Samþykkt.  Samræmist ákvæðum laga nr. 160 / 2010.,"Óskað er eftir  samþykki byggingarfulltrúans til að breyta lóðamörkum lóðanna Hafnarstræti 15, Hafnarstræti 17, Hafnarstræti 19 og Pósthússtræti 1, eins og sýnt er meðfylgjandi uppdráttum Landupplýsingadeildar dagsettum 11. 12. 2013. Hafnarstræti 15 (staðgr. 1.118.501, landnr. 100097), lóðin er 226 m², lóðin verður  226 m², þ.e. óbreytt. Hafnarstræti 17 (staðgr. 1.118.502, landnr. 100098), lóðin er 408 m², bætt er 22 m² við lóðina frá Pósthússtræti 1,  bætt er 4 m² við lóðina úr óútvísuðu landi (landnr. 218177), bætt er 90 m² við lóðina úr óútvísuðu landi (landnr. 218177) , leiðrétt um 1 m² vegna fermetrabrota, lóðin Hafnarstræti 17 (staðgr. 1.118.502, landnr. 100098) verður  525 m², nb. í Þjóðskrá Íslands er lóðin Hafnarstrætti 17V (staðgr. 1.118.507, landnr. 178922), talin 0,0 m², sbr. og skjal Skipulags- og byggingarsviðs, verknúmer BN021470, dags. 19. 07. 2000. Hafnarstræti 19 (staðgr. 1.118.503, landnr. 100099), lóðin er 362 m², bætt er 56 m² við lóðina úr óútvísuðu landi (landnr. 218177),  lóðin Hafnarstræti 19 (staðgr. 1.118.503, landnr. 100099) verður  418 m². Pósthússtræti 1 (staðgr. 1.118.506, landnr. 100102), lóðin er  245 m², teknir eru  186 m² af lóðinni og bætt við óútvísað land (landnr. 218177), teknir eru 22 m² af lóðinni og bætt við Hafnarstræti 17, leiðrétt um 1 m² vegna fermetrabrota, lóðin Pósthússtræti 1 (staðgr. 1.118.506, landnr. 100102) verður 36 m². Sjá samþykkt borgarráðs, dags. 25. 07. 2013, samþykkt embættisafgreiðslufundar skipu-lagsfulltrúa, dags. 20. 09. 2013 og auglýsingu í B-deild Stjórnartíðinda, dags. 07. 11. 2013."
46963 (01.11.850.2),http://gamli.rvk.is/vefur/owa/edutils.parse_page?nafn=BN046963,Hafnarstræti 17,mæliblað,Samþykkt.  Samræmist ákvæðum laga nr. 160 / 2010.,"Óskað er eftir  samþykki byggingarfulltrúans til að breyta lóðamörkum lóðanna Hafnarstræti 15, Hafnarstræti 17, Hafnarstræti 19 og Pósthússtræti 1, eins og sýnt er meðfylgjandi uppdráttum Landupplýsingadeildar dagsettum 11. 12. 2013. Hafnarstræti 15 (staðgr. 1.118.501, landnr. 100097), lóðin er 226 m², lóðin verður  226 m², þ.e. óbreytt. Hafnarstræti 17 (staðgr. 1.118.502, landnr. 100098), lóðin er 408 m², bætt er 22 m² við lóðina frá Pósthússtræti 1,  bætt er 4 m² við lóðina úr óútvísuðu landi (landnr. 218177), bætt er 90 m² við lóðina úr óútvísuðu landi (landnr. 218177) , leiðrétt um 1 m² vegna fermetrabrota, lóðin Hafnarstræti 17 (staðgr. 1.118.502, landnr. 100098) verður  525 m², nb. í Þjóðskrá Íslands er lóðin Hafnarstrætti 17V (staðgr. 1.118.507, landnr. 178922), talin 0,0 m², sbr. og skjal Skipulags- og byggingarsviðs, verknúmer BN021470, dags. 19. 07. 2000. Hafnarstræti 19 (staðgr. 1.118.503, landnr. 100099), lóðin er 362 m², bætt er 56 m² við lóðina úr óútvísuðu landi (landnr. 218177),  lóðin Hafnarstræti 19 (staðgr. 1.118.503, landnr. 100099) verður  418 m². Pósthússtræti 1 (staðgr. 1.118.506, landnr. 100102), lóðin er  245 m², teknir eru  186 m² af lóðinni og bætt við óútvísað land (landnr. 218177), teknir eru 22 m² af lóðinni og bætt við Hafnarstræti 17, leiðrétt um 1 m² vegna fermetrabrota, lóðin Pósthússtræti 1 (staðgr. 1.118.506, landnr. 100102) verður 36 m². Sjá samþykkt borgarráðs, dags. 25. 07. 2013, samþykkt embættisafgreiðslufundar skipu-lagsfulltrúa, dags. 20. 09. 2013 og auglýsingu í B-deild Stjórnartíðinda, dags. 07. 11. 2013."
46964 (01.11.850.3),http://gamli.rvk.is/vefur/owa/edutils.parse_page?nafn=BN046964,Hafnarstræti 19,mæliblað,Samþykkt.  Samræmist ákvæðum laga nr. 160 / 2010.,"Óskað er eftir  samþykki byggingarfulltrúans til að breyta lóðamörkum lóðanna Hafnarstræti 15, Hafnarstræti 17, Hafnarstræti 19 og Pósthússtræti 1, eins og sýnt er meðfylgjandi uppdráttum Landupplýsingadeildar dagsettum 11. 12. 2013. Hafnarstræti 15 (staðgr. 1.118.501, landnr. 100097), lóðin er 226 m², lóðin verður  226 m², þ.e. óbreytt. Hafnarstræti 17 (staðgr. 1.118.502, landnr. 100098), lóðin er 408 m², bætt er 22 m² við lóðina frá Pósthússtræti 1,  bætt er 4 m² við lóðina úr óútvísuðu landi (landnr. 218177), bætt er 90 m² við lóðina úr óútvísuðu landi (landnr. 218177) , leiðrétt um 1 m² vegna fermetrabrota, lóðin Hafnarstræti 17 (staðgr. 1.118.502, landnr. 100098) verður  525 m², nb. í Þjóðskrá Íslands er lóðin Hafnarstrætti 17V (staðgr. 1.118.507, landnr. 178922), talin 0,0 m², sbr. og skjal Skipulags- og byggingarsviðs, verknúmer BN021470, dags. 19. 07. 2000. Hafnarstræti 19 (staðgr. 1.118.503, landnr. 100099), lóðin er 362 m², bætt er 56 m² við lóðina úr óútvísuðu landi (landnr. 218177),  lóðin Hafnarstræti 19 (staðgr. 1.118.503, landnr. 100099) verður  418 m². Pósthússtræti 1 (staðgr. 1.118.506, landnr. 100102), lóðin er  245 m², teknir eru  186 m² af lóðinni og bætt við óútvísað land (landnr. 218177), teknir eru 22 m² af lóðinni og bætt við Hafnarstræti 17, leiðrétt um 1 m² vegna fermetrabrota, lóðin Pósthússtræti 1 (staðgr. 1.118.506, landnr. 100102) verður 36 m². Sjá samþykkt borgarráðs, dags. 25. 07. 2013, samþykkt embættisafgreiðslufundar skipu-lagsfulltrúa, dags. 20. 09. 2013 og auglýsingu í B-deild Stjórnartíðinda, dags. 07. 11. 2013."
46965 (01.11.850.6),http://gamli.rvk.is/vefur/owa/edutils.parse_page?nafn=BN046965,Pósthússtræti 1,mæliblað,Samþykkt.  Samræmist ákvæðum laga nr. 160 / 2010.,"Óskað er eftir  samþykki byggingarfulltrúans til að breyta lóðamörkum lóðanna Hafnarstræti 15, Hafnarstræti 17, Hafnarstræti 19 og Pósthússtræti 1, eins og sýnt er meðfylgjandi uppdráttum Landupplýsingadeildar dagsettum 11. 12. 2013. Hafnarstræti 15 (staðgr. 1.118.501, landnr. 100097), lóðin er 226 m², lóðin verður  226 m², þ.e. óbreytt. Hafnarstræti 17 (staðgr. 1.118.502, landnr. 100098), lóðin er 408 m², bætt er 22 m² við lóðina frá Pósthússtræti 1,  bætt er 4 m² við lóðina úr óútvísuðu landi (landnr. 218177), bætt er 90 m² við lóðina úr óútvísuðu landi (landnr. 218177) , leiðrétt um 1 m² vegna fermetrabrota, lóðin Hafnarstræti 17 (staðgr. 1.118.502, landnr. 100098) verður  525 m², nb. í Þjóðskrá Íslands er lóðin Hafnarstrætti 17V (staðgr. 1.118.507, landnr. 178922), talin 0,0 m², sbr. og skjal Skipulags- og byggingarsviðs, verknúmer BN021470, dags. 19. 07. 2000. Hafnarstræti 19 (staðgr. 1.118.503, landnr. 100099), lóðin er 362 m², bætt er 56 m² við lóðina úr óútvísuðu landi (landnr. 218177),  lóðin Hafnarstræti 19 (staðgr. 1.118.503, landnr. 100099) verður  418 m². Pósthússtræti 1 (staðgr. 1.118.506, landnr. 100102), lóðin er  245 m², teknir eru  186 m² af lóðinni og bætt við óútvísað land (landnr. 218177), teknir eru 22 m² af lóðinni og bætt við Hafnarstræti 17, leiðrétt um 1 m² vegna fermetrabrota, lóðin Pósthússtræti 1 (staðgr. 1.118.506, landnr. 100102) verður 36 m². Sjá samþykkt borgarráðs, dags. 25. 07. 2013, samþykkt embættisafgreiðslufundar skipu-lagsfulltrúa, dags. 20. 09. 2013 og auglýsingu í B-deild Stjórnartíðinda, dags. 07. 11. 2013."
46959 (04.38.780.2),http://gamli.rvk.is/vefur/owa/edutils.parse_page?nafn=BN046959,Viðarás 91-101,Byggingarleyfi fellt úr gildi (nr.91),,Þann 11. desember 2012 voru samþykkt byggingaráform BN045226.  Óskað er eftir að byggingarleyfið verði fellt úr gildi og samkvæmt skoðun hafa engar framkvæmdir hafist.  Jafnframt verða álögð gjöld felld niður eftir því sem við á.
46885 (01.14.041.4),http://gamli.rvk.is/vefur/owa/edutils.parse_page?nafn=BN046885,Aðalstræti 9,(fsp) - Veitingastaður,Jákvætt. Að uppfylltum skilyrðum sbr. umsög skipulagsfulltrúa dags. 12. desember 2013. Sækja skal um byggingarleyfi.,Spurt er hvort leyft yrði að innrétta veitingastað í rými 0101 þar sem á samþykktum uppdráttum er gerð grein fyrir leiktækjasal á fyrstu hæð hússins nr. 9 við Aðalstræti. Útskrift úr gerðabók embættisafgreiðslufundar skipulagsfulltrúa frá 13. desember 2013 fylgir erindinu ásamt umsögn skipulagsfulltrúa dags. 12. desember 2013.
46952 (01.18.441.4),http://gamli.rvk.is/vefur/owa/edutils.parse_page?nafn=BN046952,Bergstaðastræti 27,(fsp) - Klára byggingu húss,Frestað. Málinu vísað til umsagnar skipulagsfulltrúa.,"Spurt er hvort ljúka megi byggingu fjölbýlishúss úr steinsteypu  skv. samþykktum teikningum frá 1945, fyrsti áfangi er þegar byggður, á lóðinni nr. 27 við Bergstaðastræti. (Timburhús á lóðinni verði flutningshús og því fundinn staður í samráði við borgaryfirvöld)."
46924 (01.18.530.1),http://gamli.rvk.is/vefur/owa/edutils.parse_page?nafn=BN046924,Bergstaðastræti 48,(fsp) - Lækka gólf kjallara,Jákvætt. Að uppfylltum skilyrðum enda verði sótt um byggingarleyfi og samþykki allra meðeigenda fylgir ásamt umsögn löggilds burðarvirkishönnuðar.,Spurt er hvort samþykki fáist fyrir áður gerðri dýpkun kjallara í fjölbýlishúsi á lóð nr. 48 við Bergstaðastræti.
46947 (01.19.630.7),http://gamli.rvk.is/vefur/owa/edutils.parse_page?nafn=BN046947,Bergstaðastræti 73,(fsp) - Bílgeymsla,Frestað. Málinu vísað til umsagnar skipulagsfulltrúa.,Spurt er hvort leyft yrði að byggja nýja tvöfalda bílgeymslu með tengigangi yfir í einbýlishús á lóð nr. 73 við Bergstaðastræti.
46920 (04.37.200.2),http://gamli.rvk.is/vefur/owa/edutils.parse_page?nafn=BN046920,Deildarás 4,(fsp) - Séríbúð á jarðhæð,Nei. Með vísan til umsagnar skipulagsfulltrúa dags. 12. desember 2013.,Spurt er hvort leyft yrði að útbúa séríbúð á jarðhæð einbýlishússins nr. 4 við Deildarás. Um er að ræða íbúð fyrir fatlaðan einstakling. Útskrift úr gerðabók embættisafgreiðslufundar skipulagsfulltrúa frá 13. desember 2013 fylgir erindinu ásamt umsögn skipulagsfulltrúa dags. 12. desember 2013.
46958 (01.36.020.4),http://gamli.rvk.is/vefur/owa/edutils.parse_page?nafn=BN046958,Hrísateigur 14,(fsp) - Íbúðir,Frestað. Málinu vísað til umsagnar skipulagsfulltrúa.,Spurt er hvort innrétta megi fimm íbúðir í húsinu á lóð nr. 14 við Hrísateig.
46922 (02.58.410.2),http://gamli.rvk.is/vefur/owa/edutils.parse_page?nafn=BN046922,Hrísrimi  7-11,(fsp) - 9 - Hlífðarveggur á svalir,Frestað. Gera þarf betur grein fyrir erindinu.,Spurt er hvort leyft yrði að koma fyrir hlífðarvegg innan við svalahandrið á íbúð 0203 á fjölbýlishúsi nr. 9 á lóð nr. 7-11 við Hrísrima. Erindi fylgir samþykki meðlóðarhafa ódagsett.
46854 (01.18.351.0),http://gamli.rvk.is/vefur/owa/edutils.parse_page?nafn=BN046854,Laufásvegur 19,(fsp) - Breyta í íbúðir - 1.hæð,Jákvætt. Að uppfylltum skilyrðum með vísan til umsagnar skipulagsfulltrúa dags. 9. desember 2013 enda verði sótt um byggingarleyfi.,Spurt er hvort leyft yrði að breyta skrifstofu á jarðhæð í tvær íbúðir í húsi á lóð nr. 19 við Laufásveg.  Ljósmyndir fylgja Útskrift úr gerðabók embættisafgreiðslufundar skipulagsfulltrúa frá 13. desember 2013 fylgir erindinu ásamt umsögn skipulagsfulltrúa dags. 9. desember 2013.
46956 (01.53.221.0),http://gamli.rvk.is/vefur/owa/edutils.parse_page?nafn=BN046956,Sörlaskjól 6,(fsp) - Íbúð kjallara,Jákvætt. Að uppfylltum skilyrðum enda verði sótt um byggingarleyfi.,"Spurt er hvort leyft yrði að breyta fyrirkomulagi íbúðar sem skráð er ""ósamþykkt íbúð"" og fá hana þannig skráða sem ""íbúð"" í húsinu nr. 6 við Sörlaskjól. Bréf fyrirspyrjanda dags. 10. desember 2013 og afsal dags. 20. janúar 1975 fylgja erindinu. Íbúðaskoðun byggingarfulltrúa dags. 10. apríl 2003 fylgir erindinu."
46861,http://gamli.rvk.is/vefur/owa/edutils.parse_page?nafn=BN046861,Ægisíða,(fsp) - Færanlegt kaffihús,Nei. Með vísan til umsagnar skipulagsfulltrúa dags. 12. desember 2013.,Spurt er hvort staðsetja mætti færanlega kennslustofu nálægt Grímsstaðavör við Ægisíðu og nýta húsnæðið sem kaffihús . Útskrift úr gerðabók embættisafgreiðslufundar skipulagsfulltrúa frá 13. desember 2013 fylgir erindinu ásamt umsögn skipulagsfulltrúa dags. 12. desember 2013.
