nr,url,heimilisfang,tegund,nidurstada,spurning
48883 (01.14.021.2),http://gamli.rvk.is/vefur/owa/edutils.parse_page?nafn=BN048883,Austurstræti 5,Jarðhæð og kjallara breytt í verslun,Samþykkt.  Samræmist ákvæðum laga nr. 160 / 2010. Áskilin lokaúttekt byggingarfulltrúa. Áskilið samþykki Vinnueftirlits ríkisins.,"Sótt er um leyfi til að breyta innra skipulagi, koma fyrir hringstiga milli 1. hæðar og kjallara, klæða gluggakerfi koparáfellum og innrétta verslun á 1. hæð og í kjallara verslunar- og skrifstofuhúss á lóð nr. 5 við Austurstræti. Gjald kr. 9.500"
48927 (01.26.200.2),http://gamli.rvk.is/vefur/owa/edutils.parse_page?nafn=BN048927,Ármúli 5,Breyting á eignarhaldi,Frestað. Vísað til athugasemda á umsóknarblaði.,"Sótt er um leyfi til að fjölga eignum úr tveimur í þrjár í matshluta 01 á 2. hæð rýmisnúmer 0201, sbr. erindi BN041990, í húsi á lóð nr. 5 við Ármúla. Gjald kr. 9.823"
48931 (01.18.121.1),http://gamli.rvk.is/vefur/owa/edutils.parse_page?nafn=BN048931,Baldursgata 39,Reyndarteikningar,Frestað. Vísað til athugasemda á umsóknarblaði.,"Sótt er um samþykki fyrir breytingum sem orðið hafa á byggingartíma, sjá erindi BN044743, breytt innra skipulag, milliloft fellt út og svalir grynnkaðar í gistiheimili í flokki II teg. e á lóð nr. 39 við Baldursgötu. Minnkun:  13,1 ferm. Gjald kr. 9.823"
48209 (01.19.031.4),http://gamli.rvk.is/vefur/owa/edutils.parse_page?nafn=BN048209,Barónsstígur 28,Fjölbýlishús,.Frestað. Vísað til athugasemda á umsóknarblaði.,"Sótt er um leyfi til að byggja fjölbýlishús úr steyptum samlokueiningum, fjórar hæðir og kjallara með átta íbúðum á lóð nr. 28 við Barónsstíg. Útskrift úr gerðabók embættisafgreiðslufundar skipulagsfulltrúa frá 3. október 2014 fylgir erindinu ásamt umsögn skipulagsfulltrúa dags. 3. október 2014 og umsögn Minjastofnunar Íslands dags, 4. febrúar 2015. Jafnframt er erindi BN047706 dregið til baka. Stærð:  Kjallari 84,7 ferm., 1., 2. og 3. hæð 81 ferm., 4. hæð 78,3 ferm. Samtals: 406 ferm., 1.287 rúmm. Gjald kr. 9.500"
48932 (01.18.030.9),http://gamli.rvk.is/vefur/owa/edutils.parse_page?nafn=BN048932,Bergstaðastræti 13,0101 - breyta í atvinnuhúsnæði,Frestað. Málinu vísað til umsagnar skipulagsfulltrúa.,Sótt er um leyfi til að breyta íbúðarhúsnæði rými 0101 sem áður var atvinnuhúsnæði í hárgreiðslustofu í húsinu á lóð nr. 13 við Bergstaðastræti.  Gjald kr. 9.823
48383 (01.18.530.1),http://gamli.rvk.is/vefur/owa/edutils.parse_page?nafn=BN048383,Bergstaðastræti 48,Dýpkun á plötu - kjallara,Frestað. Vísað til athugasemda á umsóknarblaði.,Sótt er um leyfi til að lækka gólf í kjallara íbúðarhúss á lóð nr. 48 við Bergstaðastræti. Meðfylgjandi er matsgerð dags. 7. mars. 2014 og tölvupóstar eigenda. Gjald kr. 9.500
48567 (01.71.310.9),http://gamli.rvk.is/vefur/owa/edutils.parse_page?nafn=BN048567,Blönduhlíð 28-30,Reyndarteikningar af 28-30,Samþykkt.  Samræmist ákvæðum laga nr. 160 / 2010. Áskilin lokaúttekt byggingarfulltrúa.,"Sótt er um leyfi fyrir áður gerðum breytingum á húsi nr. 28-30 og breyta skráningartöflu, hætt er við að sækja um að byggja staðsteypta hjóla- og bílageymslu fyrir parhús nr. 30 á lóð nr.  28 - 30 við Blönduhlíð. Útskrift úr gerðabók embættisafgreiðslufundar skipulagsfulltrúa frá 12. desember 2014 fylgir erindinu ásamt umsögn skipulagsfulltrúa dags. 12. desember 2014. Bréf frá umsækjanda dags. 23. nóvember 2014 og samþykki frá eigendum Hamrahlíðar 13, Blönduhlíðar 26 og 28 fylgja erindi, einnig tölvupóstur frá eigendum íbúðar á nr. 30 dags. 26. febrúar. 2015. Gjald kr. 9.500 + 9.823"
48777 (01.21.910.2),http://gamli.rvk.is/vefur/owa/edutils.parse_page?nafn=BN048777,Borgartún  35-37,35 - Breyta matsal í skrifstofu,Frestað. Vísað til athugasemda á umsóknarblaði.,Sótt er um leyfi til að leggja matsal á 6. hæð niður og innrétta hæðina sem skrifstofuhæð fyrir 12 starfsmenn og nýta fundarsalinn á 1. hæð líka sem matsal í húsi nr. 35 á lóð nr. 35-37 við Borgartún. Gjald kr. 9.823
48845 (01.18.663.3),http://gamli.rvk.is/vefur/owa/edutils.parse_page?nafn=BN048845,Bragagata 34,Raðhús - breyta í tvær íbúðir,Frestað. Vísað til athugasemda á umsóknarblaði.,"Sótt er um leyfi til að skipta í tvær íbúðir raðhúsi á lóð nr. 34A við Bragagötu, Gjald kr. 9.823"
48826 (01.24.220.5),http://gamli.rvk.is/vefur/owa/edutils.parse_page?nafn=BN048826,Brautarholt 16,Reyndarteikningar,Frestað. Vísað til athugasemda á umsóknarblaði.,"Sótt er um leyfi fyrir áður gerðum breytingum í rýmum 0201,0202 og 0203 í húsinu á lóð nr. 16 við Brautarholt. Gjald kr. 9.823"
48868 (01.54.511.3),http://gamli.rvk.is/vefur/owa/edutils.parse_page?nafn=BN048868,Dunhagi 18-20,Endurnýjun - breyting á fjölbýlishúsi,Frestað. Vísað til athugasemda á umsóknarblaði.,"Sótt er um leyfi til breytinga innanhúss sem felast í því að fjölga íbúðum á  2. og 3. hæð úr fjórum í tíu á hvorri hæð, breyta innréttingum verslunarrýmis á 1. hæð, breyta kjallara með geymslum og þvottahúsum og færa sorpgeymslur og barnavagna- og hjólageymslur út í tvær einingar í bílskúr, sbr. erindi BN043923 samþykkt 14. febrúar 2012 og BN044484 samþ. 12. júní 2012, við fjölbýlishús á lóð nr. 18-20  við Dunhaga. Meðfylgjandi er umsögn samgöngustjóra dags. 19. febrúar 2015 og samþykki meðeignda dags. 26. febrúar 2015. Gjald kr. 9.823"
48930 (04.06.140.3),http://gamli.rvk.is/vefur/owa/edutils.parse_page?nafn=BN048930,Dvergshöfði 27,Reyndarteikningar v/lokaúttektar,Frestað. Vísað til athugasemda á umsóknarblaði.,"Sótt er um leyfi fyrir áður gerðum breytingum vegna lokaúttektar, sjá erindi BN045902 á 1. og 2. hæð hússins á lóð nr. 27 við Dvergshöfða. Gjald kr. 9.823"
48836 (04.03.520.5),http://gamli.rvk.is/vefur/owa/edutils.parse_page?nafn=BN048836,Eldshöfði 9,Skipta upp kjallara og 1.hæð,Frestað. Vísað til athugasemda á umsóknarblaði.,"Sótt er um leyfi til að fjölga eignum, byggja skábraut og koma fyrir nýjum innkeyrsluhurðum fyrir miðjubilin í húsi á lóð nr. 9 við Eldshöfða. Gjald kr. 9.823"
48792 (01.11.140.3),http://gamli.rvk.is/vefur/owa/edutils.parse_page?nafn=BN048792,Eyjarslóð 5,Safn - veitingaaðstaða,Frestað. Málinu vísað til umsagnar skipulagsfulltrúa.,Sótt er um leyfi til að breyta hluta af rými 0101 í safn/ skóla og veitingastað í flokki III fyrir 242 gesti í húsinu á lóð nr. 5 við Eyjarslóð. Gjald kr. 9.823
48815 (01.53.340.1),http://gamli.rvk.is/vefur/owa/edutils.parse_page?nafn=BN048815,Faxaskjól 19,Farsímaloftnet,Frestað. Málið er til athugunar.,Sótt er um leyfi til að setja upp tvö farsímaloftnet á skorstein skolpdælustöðvar á lóð nr. 19 við Faxaskjól.  Samþykki eiganda dags. 24. október 2013 og húsaleigusamningur frá 22. október 2013 fylgja erindi. Gjald kr. 9.823
48940 (01.11.523.0),http://gamli.rvk.is/vefur/owa/edutils.parse_page?nafn=BN048940,Fiskislóð 10,Breyting - 1. hæð - stigahús,Frestað. Málinu vísað til umsagnar skipulagsfulltrúa.,"Sótt er um leyfi til að byggja nýtt stigahús með lyftu fyrir hreyfihamlaða og sameiginlega  innbyggða kalda sorpgeymslu  í staðin fyrir flóttastiga, stigahús verður  aðalinngangur fyrir 2. hæð, færa bílastæði fyrir hreyfihamlaða á baklóð fært að stigahúsinu og breyta smávægilega á 1.hæð í húsinu á lóð nr. 10 við Fiskislóð.  Bréf frá hönnuði þar sem hann gerir grein fyrir breytingum og sækir um fá leyfi frá byggingareglugerð 112/2012 6.4.12 gr. 7 dags. 19. febrúar 2015 Tölvupóstur frá hönnuði með samþykkt frá faxaflóahöfnum dags. 26. febrúar 2015 fylgir. Stækkun húss:  76,8 ferm., 267,5 rúmm. Gjald kr. 9.823"
48941 (01.08.740.1),http://gamli.rvk.is/vefur/owa/edutils.parse_page?nafn=BN048941,Fiskislóð 53-69,53-55 - Breyting inni/útlit,Frestað. Vísað til athugasemda á umsóknarblaði.,"Sótt er um leyfi til að innrétta líkamsræktarstöð með tveimur sölum, búningsaðstöðu og móttöku og glerhurðum og gluggum breytt í framhlið hússins á lóð nr. 53-69 við Fiskislóð. Gjald kr. 9.823"
48943 (01.18.231.7),http://gamli.rvk.is/vefur/owa/edutils.parse_page?nafn=BN048943,Frakkastígur 26A,Veitingastaður,Frestað. Málinu vísað til umsagnar skipulagsfulltrúa.,"Sótt er um leyfi til að stækka kvisti, stækka bíslag til norðurs, stækka glugga, einangra og klæða að utan með borðaklæðningu, breyta innra skipulagi og innrétta veitingahús í flokki II fyrir 48 gesti í húsi á lóð nr. 26A við Frakkastíg. Stækkun:  3,5 ferm., 21,8 rúmm. Gjald kr. 9.823"
48776 (01.17.210.9),http://gamli.rvk.is/vefur/owa/edutils.parse_page?nafn=BN048776,Frakkastígur 8,3. áfangi,Frestað. Er til umfjöllunar hjá skipulagsfulltrúa.,"Sótt er um leyfi til að byggja 3. áfanga Frakkastígsreits, að byggja nýbyggingu á Laugavegi 41B sem í verður sameiginlegt stiga- og lyftuhús, rífa stigahús á bakhlið Laugavegs 43, stækka til norðurs og hækka þak á norðurhlið, setja kvisti á Laugaveg 45, tengja efri hæðir Laugavegs 43 og 45 við nýbyggingu og innrétta skrifstofur á efri hæðum og verslanir á jarðhæðum á lóð nr. 8 við Frakkastíg. Samtals 3. áfangi:   1.429,1 ferm., 4.426,8 rúmm. Gjald kr. 9.823"
48962 (01.17.210.9),http://gamli.rvk.is/vefur/owa/edutils.parse_page?nafn=BN048962,Frakkastígur 8,Takmarkað byggingarleyfi 3. áfangi,"Samþykkt.  Samræmist ákvæðum laga nr. 160 / 2010. Með vísan til samþykktar borgarráðs frá 1. september 1998 skal utanhúss- og lóðarfrágangi vera lokið eigi síðar en innan tveggja ára frá útgáfu byggingarleyfis að viðlögðum dagsektum sbr. greinar nr. 2.4.7 og 2.9.2 í byggingarreglugerð nr. 112/2012. Með vísan til samþykktar umhverfis- og skipulagsráðs, dags. 22. maí 2013, skal lóðarhafi, í samráði við byggingarfulltrúa, setja upp skilti til kynningar á fyrirhuguðum framkvæmdum á byggingarstað. Í samræmi við samþykkt umhverfis- og skipulagsráðs dags. 9. október 2013 skal vélknúinn þvottabúnaður vera til staðar á byggingarlóð sem tryggi að vörubílar og aðrar þungavinnuvélar verði þrifnar áður en þær yfirgefa byggingarstað. Samráð skal haft við byggingarfulltrúa um staðsetningu búnaðarins. Sérstakt samráð skal haft við yfirverkfræðing byggingarfulltrúa vegna jarðvinnu. Frágangur á lóðamörkum verði gerður í samráði við lóðarhafa aðliggjandi lóða. Samþykktin fellur úr gildi við útgáfu á endanlegu byggingarleyfi. Vegna útgáfu á takmörkuðu byggingarleyfi skal umsækjandi hafa samband við yfirverkfræðing embættis byggingarfulltrúa. Áskilin lokaúttekt byggingarfulltrúa.",Sótt er um  takmarkað byggingarleyfi vegna jarðvinnu fyrir 3. áfanga BN048776 sem er í vinnslu hjá byggingarfulltrúa og takmarkað leyfi vegna jarðvinnu þar er eingöngu veitt á grundvelli v/aðstæðna og aðkomu að vinnusvæði samkvæmt fyrirliggjandi aðalteikningum á lóðinni nr. 8 við Frakkastíg.
48961 (01.17.210.9),http://gamli.rvk.is/vefur/owa/edutils.parse_page?nafn=BN048961,Frakkastígur 8,Takmarkað byggingarleyfi 1. og 2. áfangi,"Samþykkt.  Samræmist ákvæðum laga nr. 160 / 2010. Með vísan til samþykktar borgarráðs frá 1. september 1998 skal utanhúss- og lóðarfrágangi vera lokið eigi síðar en innan tveggja ára frá útgáfu byggingarleyfis að viðlögðum dagsektum sbr. greinar nr. 2.4.7 og 2.9.2 í byggingarreglugerð nr. 112/2012. Með vísan til samþykktar umhverfis- og skipulagsráðs, dags. 22. maí 2013, skal lóðarhafi, í samráði við byggingarfulltrúa, setja upp skilti til kynningar á fyrirhuguðum framkvæmdum á byggingarstað. Í samræmi við samþykkt umhverfis- og skipulagsráðs dags. 9. október 2013 skal vélknúinn þvottabúnaður vera til staðar á byggingarlóð sem tryggi að vörubílar og aðrar þungavinnuvélar verði þrifnar áður en þær yfirgefa byggingarstað. Samráð skal haft við byggingarfulltrúa um staðsetningu búnaðarins. Sérstakt samráð skal haft við yfirverkfræðing byggingarfulltrúa vegna jarðvinnu. Frágangur á lóðamörkum verði gerður í samráði við lóðarhafa aðliggjandi lóða. Samþykktin fellur úr gildi við útgáfu á endanlegu byggingarleyfi. Vegna útgáfu á takmörkuðu byggingarleyfi skal umsækjandi hafa samband við yfirverkfræðing embættis byggingarfulltrúa. Áskilin lokaúttekt byggingarfulltrúa.","Sótt er um takmarkað byggingarleyfi vegna jarðvinnu fyrir 1. og 2.  áfanga að Frakkastígsreit sem og undirstöður og lagnir í grunn fyrir 1. og 2. áfanga. sbr. erindi BN047643 og áður samþ. takmarkað byggingarleyfi BN048188, sem var fyrir aðstöðusköpun á lóð og upphaf jarðvegsframkvæmda á lóðinni nr. 8 við Frakkastíg."
48703 (05.05.350.2),http://gamli.rvk.is/vefur/owa/edutils.parse_page?nafn=BN048703,"03"">Friggjarbrunnur 18",Fjölbýlishús,Frestað. Lagfæra skráningu.,"Sótt er um leyfi til að byggja steinsteypt fjölbýlishús, þrjár hæðir og kjallara með sjö íbúðum og bílgeymslu á lóð nr. 18 við Friggjarbrunn. Útskrift úr gerðabók embættisafgreiðslufundar skipulagsfulltrúa frá 6. febrúar 2015 fylgir erindinu ásamt umsögn skipulagsfulltrúa dags. 5. febrúar 2015, greinargerð hönnunarstjóra um ábyrgðarsvið hönnuða dags. 20. janúar 2015 og útreikningur á orkuramma dags. 17. desember 2014. Stærð:  Kjallari 208,5 ferm., 1. hæð 238,7 ferm., 2. hæð 232,1 ferm., 3. hæð 137,1 ferm. A-rými samtals:  816,4 ferm., 2.393,4 rúmm. B-rými (þ.m.t. bílgeymsla):  160,8 ferm.  Samtals 977,2 ferm., 2.668,4 rúmm. Gjald kr. 9.500"
48967 (02.69.310.3),http://gamli.rvk.is/vefur/owa/edutils.parse_page?nafn=BN048967,Friggjarbrunnur 53,Takmarkað byggingarleyfi,"Samþykkt.  Samræmist ákvæðum laga nr. 160 / 2010. Með vísan til samþykktar umhverfis- og skipulagsráðs, dags. 22. maí 2013, skal lóðarhafi, í samráði við byggingarfulltrúa, setja upp skilti til kynningar á fyrirhuguðum framkvæmdum á byggingarstað. Í samræmi við samþykkt umhverfis- og skipulagsráðs dags. 9. október 2013 skal vélknúinn þvottabúnaður vera til staðar á byggingarlóð sem tryggi að vörubílar og aðrar þungavinnuvélar verði þrifnar áður en þær yfirgefa byggingarstað. Samráð skal haft við byggingarfulltrúa um staðsetningu búnaðarins. Sérstakt samráð skal haft við yfirverkfræðing byggingarfulltrúa vegna jarðvinnu. Frágangur á lóðamörkum verði gerður í samráði við lóðarhafa aðliggjandi lóða. Samþykktin fellur úr gildi við útgáfu á endanlegu byggingarleyfi. Vegna útgáfu á takmörkuðu byggingarleyfi skal umsækjandi hafa samband við yfirverkfræðing embættis byggingarfulltrúa. Áskilin lokaúttekt byggingarfulltrúa.",Sótt er um takmarkað byggingarleyfi vegna aðstöðusköpunar og jarðvinnu að Friggjarbrunni 53 sbr. erindi BN048621.
48870 (01.11.430.1),http://gamli.rvk.is/vefur/owa/edutils.parse_page?nafn=BN048870,Grandagarður 16,Kaffi/veitingarstað í fl. II - 2.hæð,Frestað. Er til umfjöllunar hjá skipulagsfulltrúa.,Sótt er um leyfi til að koma fyrir kaffi/veitingastað í flokki II fyrir 60 gesti á 2. hæð og breyta lítillega í eldhúsi í húsinu á lóð nr. 16 við Grandagarð. Gjald kr. 9.823
47882 (01.19.010.8),http://gamli.rvk.is/vefur/owa/edutils.parse_page?nafn=BN047882,Grettisgata 52,Áður gerð íbúð í kjallara,Samþykkt.  Samræmist ákvæðum laga nr. 160 / 2010. Skilyrt er að eignaskiptayfirlýsingu vegna breytinga í húsinu sé þinglýst til þess að samþykktin öðlist gildi.     Áskilin lokaúttekt byggingarfulltrúa.,"Sótt er um leyfi til að skrá áður gerða íbúð sem ""ósamþykkta íbúð"" í rými 0001 í kjallara fjölbýlishúss á lóð nr. 52 við Grettisgötu. Erindi fylgir samþykki meðeigenda á teikningum, þinglýst afsal dags. 5. maí 1997, íbúðarskoðun dags. 18. september 2014 og virðingargjörð dags. 18. nóvember 1976. Gjald kr. 9.500 + 9.500"
48869 (01.21.630.3),http://gamli.rvk.is/vefur/owa/edutils.parse_page?nafn=BN048869,Guðrúnartún 8,"Tilfærslur á veggjum, breyting eldhúsi",Frestað. Vísað til athugasemda heilbrigðiseftirlits á umsóknarblaði.,"Sótt er um leyfi til að breyta innra skipulagi, koma fyrir móttöku og útbúa reyklosun úr kjallara hússins á lóð nr. 8 við Guðrúnartún.  Gjald kr. 9.823"
48060 (01.11.850.2),http://gamli.rvk.is/vefur/owa/edutils.parse_page?nafn=BN048060,Hafnarstræti 17,Hótel - veitingarekstur,Frestað. Vísað til athugasemda á umsóknarblaði.,"Sótt er um leyfi til að byggja hótel í flokki V með 50 herbergjum úr steinsteypu með mansardþaki sem verður tengt við nýbyggingu á lóðinni Hafnarstræti 19, norðan og vestan við verndað timburhús sem fyrir er á lóð og verður endurbyggt í upprunalegri mynd með hótelherbergum á efri hæðum og morgunverðasal i hlöðnum steinkjallara, á lóð nr. 17 við Hafnarstræti. Útskrift úr gerðabók embættisafgreiðslufundar skipulagsfulltrúa frá 24. október 2014 fylgir erindinu ásamt umsögn skipulagsfulltrúa dags. 16. október 2014. Einnig fylgir greinargerð vegna hljóðvistar dags. í nóvember 2014, brunahönnun frá Mannvit dags. 2. febrúar 2015, útreikningur á varmatapi dags. 3. febrúar 2015, skýrsla um ástandsskoðun og prófanir frá Mannvit dags. 22. janúar 2015, minnisblöð frá verkfræðistofunni Hnit dags. 8. apríl, 18. júlí, 18. nóvember og 21. og 27. nóvember 2014 og 20. janúar 2015, umsagnir Minjastofnunar Íslands dags. 9. september og 4. desember 2014 og 12. janúar og 9. febrúar 2015 og 23. febrúar 2015, bréf frá skrifstofu eigna og atvinnuþróunar dags. 3. febrúar 2015 og bréf frá verkfræðistofunni Hnit dags. 9. febrúar 2015, Bréf frá hönnuði dags. 19. febrúar 2015 fylgja erindi. Áður samþykkt niðurrif:  225,2 ferm., 686,9 rúmm. Stækkun:  1.439,9 ferm., 4.990,4rúmm.  Gjald kr. 9.500 + 9.823"
48059 (01.11.850.3),http://gamli.rvk.is/vefur/owa/edutils.parse_page?nafn=BN048059,Hafnarstræti 19,Hótel - verslunarrekstur,Frestað. Vísað til athugasemda á umsóknarblaði.,"Sótt er um leyfi til að byggja hótel í flokki V með 50 herbergjum sem verður tengt við hús á lóðinni í Hafnarstræti 17, sótt er um að rífa húsið vegna bágs ástands á steypuvirki og byggja nýbyggingu þar sem frontur að Hafnarstræti  verður endurbyggður í núverandi mynd, steinsteypt og einangrað að innan, verslunarrými á jarðhæð með flötu þaki og verður 4. hæð inndregin Hafnarstrætismegin á lóð nr. 19 við Hafnarstræti . Útskrift úr gerðabók embættisafgreiðslufundar skipulagsfulltrúa frá 24. október 2014 fylgir erindinu ásamt umsögn skipulagsfulltrúa dags. 16. október 2014. Einnig fylgir greinargerð vegna hljóðvistar dags. í nóvember 2014, brunahönnun frá Mannvit dags. 2. febrúar 2015, útreikningur á varmatapi dags. 3. febrúar 2015, skýrsla um ástandsskoðun og prófanir frá Mannvit dags. 22. janúar 2015, minnisblöð frá verkfræðistofunni Hnit dags. 8. apríl, 18. júlí, 18. nóvember og 21. og 27. nóvember 2014 og 20. janúar 2015, umsagnir Minjastofnunar Íslands dags. 9. september og 4. desember 2014 og 12. janúar og 9. febrúar 2015 og 23 febrúar, bréf frá skrifstofu eigna og atvinnuþróunar dags. 3. febrúar 2015 og bréf frá verkfræðistofunni Hnit dags. 9. febrúar 2015, Bréf frá hönnuði dags. 19. febrúar 2015 fylgja erindi. Áðurbyggt skv. FMR 1.133,2 ferm., 3.696,0 rúmm.  Niðurrif:  1.108,3 ferm., 3.645,0 rúmm.  Stækkun alls 739,6 ferm., 3.066,5 rúmm. Stærðir nýs hús:  1.877,4 ferm. , 6.762,5 rúmm.  Gjald kr. 9.500 + 9.823"
48877 (01.43.010.1),http://gamli.rvk.is/vefur/owa/edutils.parse_page?nafn=BN048877,Holtavegur 23,Viðbygging við eldhús,"Samþykkt.  Samræmist ákvæðum laga nr. 160 / 2010. Með vísan til samþykktar borgarráðs frá 1. september 1998 skal utanhúss- og lóðarfrágangi vera lokið eigi síðar en innan tveggja ára frá útgáfu byggingarleyfis að viðlögðum dagsektum sbr. greinar nr. 2.4.7 og 2.9.2 í byggingarreglugerð nr. 112/2012. Með vísan til samþykktar umhverfis- og skipulagsráðs, dags. 22. maí 2013, skal lóðarhafi, í samráði við byggingarfulltrúa, setja upp skilti til kynningar á fyrirhuguðum framkvæmdum á byggingarstað. Áskilin lokaúttekt byggingarfulltrúa. Áskilið samþykki heilbrigðiseftirlits.","Sótt er um leyfi til að byggja við úr stálsamlokueiningum á steyptum undirstöðum og betrumbæta eldhús í Langholtsskóla á lóð nr. 23 við Holtaveg. Stækkun: 28,6 ferm., 73 rúmm. Samtals mhl. 1 eftir stækkun: 6.751,7 ferm., 25. 699,1 rúmm. Gjald kr. 9,823"
48882 (01.17.100.1),http://gamli.rvk.is/vefur/owa/edutils.parse_page?nafn=BN048882,Hverfisgata 12,Breyting á BN046886,Frestað. Vísað til athugasemda eldvarnaeftirlits á umsóknarblaði.,Sótt er um leyfi til að breyta veitingasal í norðurhorni í kaffiaðstöðu starfsfólks í veitingastað í húsi á lóð nr. 12 við Hverfisgötu. Gjald kr. 9.823
48878 (01.15.141.1),http://gamli.rvk.is/vefur/owa/edutils.parse_page?nafn=BN048878,Hverfisgata 15,Þrepa/hjólastólalyfta,Samþykkt.  Samræmist ákvæðum laga nr. 160 / 2010. Áskilin lokaúttekt byggingarfulltrúa.,"Sótt er um leyfi til að koma hjólastólalyftu fyrir í austurenda 1. hæðar til að brúa hæðarmun milli sýningarýma í Þjóðmenningarhúsinu, áður Safnahúsinu, á lóð nr. 15 við Hverfisgötu. Gjald kr. 9.825"
48880 (01.17.110.2),http://gamli.rvk.is/vefur/owa/edutils.parse_page?nafn=BN048880,Hverfisgata 30,Breyting inni - 1.h. 2.h.og kjallari,Frestað. Vísað til athugasemda á umsóknarblaði.,"Sótt er um leyfi til að breyta innra skipulagi  og stiga í kjallara, 1. og 2. hæð á áður samþykktu erindi, BN047133. í hóteli á Hljómalindarreit á lóð nr. 30 við Hverfisgötu. Stærð var: 1.449,1 ferm. Stærð verður:  1.432,8 ferm. Minnkar um 16,3 ferm. Gjald kr. 9.823"
48175 (01.36.110.9),http://gamli.rvk.is/vefur/owa/edutils.parse_page?nafn=BN048175,Kirkjuteigur 21,Viðbygging,Frestað. Lagfæra skráningu,"Sótt er um leyfi til að byggja við og breyta núverandi atvinnu-  og íbúðarhúsi í fjölbýli með þremur íbúðum, sbr. fyrirspurn BN036913 dags. 2. október 2007, í húsi á lóð nr. 21 við Kirkjuteig. Útskrift úr gerðabók embættisafgreiðslufundar skipulagsfulltrúa frá 5. september 2014 fylgir erindinu og útskrift úr gerðabók embættisafgreiðslufundar skipulagsfulltrúa frá 26. september 2014 ásamt umsögn skipulagsfulltrúa dags. 26. september 2014. Stærðir stækkun: 201 ferm., 582,9 rúmm. Samtals eftir stækkun: 704,1 ferm., 1.71,5 rúmm. Gjald kr. 9.500"
48637 (01.17.110.8),http://gamli.rvk.is/vefur/owa/edutils.parse_page?nafn=BN048637,Klapparstígur 30,Fjölbýlishús,Frestað. Vísað til athugasemda á umsóknarblaði.,"Sótt er um leyfi til að fjarlægja hús sem fyrir er og byggja steinsteypt hús, fjórar hæðir og kjallara með verslun á jarðhæð og í kjallara og sex íbúðum á 2. til 4. hæð á lóð nr. 30 við Klapparstíg. Erindi fylgir greinargerð hönnunarstjóra, yfirlýsing um hönnun raflagna, yfirlýsing um hönnun lagna og burðarvirkis,  útreikningur á varmatapi dags. 5. janúar 2015 og umsögn Minjastofnunar Íslands dags. 24. febrúar 2015. Útskrift úr gerðabók embættisafgreiðslufundar skipulagsfulltrúa frá 16. janúar 2015 fylgir erindinu ásamt umsögn skipulagsfulltrúa dags. 16. janúar 2015. Niðurrif:  166 ferm., 341,8 rúmm. Nýbygging:  Kjallari 272,8 ferm., 1. hæð 214,7 ferm., 2. hæð 183,8 ferm., 3. og 4. hæð 176,6 ferm. Samtals:  861,9 ferm., 3.076,1 rúmm. Gjald kr. 9.500"
48924 (04.32.420.2),http://gamli.rvk.is/vefur/owa/edutils.parse_page?nafn=BN048924,Krókháls 10,Endurútgefið byggingarleyfi,Frestað. Gera þarf  betur grein fyrir erindinu.,Sótt er um leyfi til að endurnýja byggingarleyfi BN0???? þar sem sótt var um ??? í húsinu á lóð nr. 10 við Krókháls. Gjald kr. 9.823
45273 (01.17.150.1),http://gamli.rvk.is/vefur/owa/edutils.parse_page?nafn=BN045273,Laugavegur 18,Breyta úr flokki I í flokk II,Frestað. Vísað til athugasemda á umsóknarblaði.,Sótt er um leyfi til að breyta notkun rýmis á annarri hæð úr veitingastað í flokki I í flokk II í húsinu á lóðinni nr. 18 við Laugaveg. Útskrift úr gerðabók embættis afgreiðslufundar skipulagsfulltrúa  frá 13. desember 2013 fylgir erindinu ásamt umsögn skipulagsfulltrúa dags. 12. desember 2013.Bréf hönnuðar dags. 26. nóv. 2013 og 24. feb. 2015 fylgir. Gjald kr. 8.500 + 9.823
48856 (01.17.111.0),http://gamli.rvk.is/vefur/owa/edutils.parse_page?nafn=BN048856,Laugavegur 19-19B,Breyta gluggum - hækka þakkóta,"Samþykkt.  Samræmist ákvæðum laga nr. 160 / 2010. Með vísan til samþykktar borgarráðs frá 1. september 1998 skal utanhúss- og lóðarfrágangi vera lokið eigi síðar en innan tveggja ára frá útgáfu byggingarleyfis að viðlögðum dagsektum sbr. greinar nr. 2.4.7 og 2.9.2 í byggingarreglugerð nr. 112/2012. Skilyrt er að ný eignaskiptayfirlýsing sé samþykkt fyrir útgáfu byggingarleyfis, henni verður þinglýst eigi síðar en við fokheldi. Áskilin lokaúttekt byggingarfulltrúa.","Sótt er um leyfi til að breyta erindi BN047130, lagfæra stærðir glugga á suður og austurhlið og hækka þak um 50cm á húsi á lóð nr. 19-19B við Laugaveg. Útskrift úr gerðabók embættisafgreiðslufundar skipulagsfulltrúa frá 20. febrúar 2015 fylgir erindinu ásamt umsögn skipulagsfulltrúa 19. febrúar 2015 og umsögn Minjastofnunar Íslands dags. 24. febrúar 2015. Stækkun:  0,2 ferm., 38,5 rúmm. Gjald kr. 9.823"
48944 (01.17.220.3),http://gamli.rvk.is/vefur/owa/edutils.parse_page?nafn=BN048944,Laugavegur 24,Veitingahús - fl.3,Frestað. Málinu vísað til umsagnar skipulagsfulltrúa.,Sótt er um leyfi til að innrétta veitingastað fyrir 55 gesti  í flokki III  í rými 0102 í húsinu á lóð nr. 24 við Laugaveg. Gjald kr. 9.823
48783 (01.17.221.6),http://gamli.rvk.is/vefur/owa/edutils.parse_page?nafn=BN048783,""">Laugavegur 34A",Endurinnrétta framhús o.fl.,Frestað. Vísað til athugasemda á umsóknarblaði.,"Sótt er um leyfi til að endurinnrétta framhús við Laugaveg, til að rífa einnar hæðar áfasta bakbyggingu og byggja fimm hæða steinsteypta byggingu með tengingu á efri hæðum yfir í bakhús á lóð nr. 36 innrétta sem hluta hótels á lóð nr. 34A við Laugaveg. Erindi fylgir greinargerð hönnunarstjóra um ábyrgðarsvið hönnuða ódagsett og óundirrituð og varmatapsútreikningur dags. 9. febrúar 2015. Útskrift úr gerðabók embættisafgreiðslufundar skipulagsfulltrúa frá 6. febrúar 2015 fylgir erindinu. Leita þarf umsagnar Minjastofnunar áður en byggingarleyfi er gefið út. Jafnframt er erindi BN047744 dregið til baka. Stækkun:  726,4 ferm., 2.312,9 rúmm. Gjald kr. 9.823"
48782 (01.17.221.8),http://gamli.rvk.is/vefur/owa/edutils.parse_page?nafn=BN048782,Laugavegur 36,Endurbyggja framhús o.fl.,Frestað. Vísað til athugasemda á umsóknarblaði.,"Sótt er um leyfi til að endurinnrétta húsið á Laugavegi 36 og byggja 3-4 hæða steinsteypta bakbyggingu og innrétta hótel sem tengist bakhúsi á lóð nr. 34A á efri hæðum og innrétta hótel á lóð nr. 36 við Laugaveg. Útskrift úr gerðabók embættisafgreiðslufundar skipulagsfulltrúa frá 6. febrúar 2015 fylgir erindinu. Leita þarf umsagnar Minjastofnunar áður en byggingarleyfi er gefið út. Stækkun:  880,9 ferm., 2.648,4 rúmm. Gjald kr. 9.823"
48949 (01.17.311.2),http://gamli.rvk.is/vefur/owa/edutils.parse_page?nafn=BN048949,Laugavegur 56,Ofanábygging - fjölbýlishús baklóð,Frestað. Vísað til athugasemda á umsóknarblaði.,"Sótt er um leyfi til að byggja hæð og ris ofan á framhús við Laugaveg, innrétta þar fjórar íbúðir og til að byggja fjölbýlishús úr steyptum samlokueiningum með átta íbúðum, þrjár hæðir og kjallara á baklóð nr. 56 við Laugaveg. Jafnframt er erindi BN048851 dregið til baka. Stækkun:  611,3 ferm., 1.738,3 rúmm. Gjald kr. 9.823"
48939 (01.15.220.3),http://gamli.rvk.is/vefur/owa/edutils.parse_page?nafn=BN048939,Lin29-33Vat13-21Skú12,Vatnsstígur 21 - loka svölum 1002,Samþykkt.  Samræmist ákvæðum laga nr. 160 / 2010. Með vísan til samþykktar borgarráðs frá 1. september 1998 skal utanhúss- og lóðarfrágangi vera lokið eigi síðar en innan tveggja ára frá útgáfu byggingarleyfis að viðlögðum dagsektum sbr. greinar nr. 2.4.7 og 2.9.2 í byggingarreglugerð nr. 112/2012. Áskilin lokaúttekt byggingarfulltrúa.,"Sótt er um leyfi til að loka svölum íbúðar 1002 með póstalausu glerjunarkerfi í lit Ral. 7021 á 10. hæð í mhl. 07 í fjölbýlishúsi nr. 21 við Vatnsstíg á lóð nr. 14-16 við Skúlagötu. Meðfylgjandi er kaupsamningur og útskrift úr lögum húsfélagsins, ódagsett. Stærðir 13,3 ferm., 39,4 rúmm. Gjald kr. 9.823"
48938 (01.15.220.3),http://gamli.rvk.is/vefur/owa/edutils.parse_page?nafn=BN048938,Lin29-33Vat13-21Skú12,Vatnsstígur 21 - Loka svölum 1401,Samþykkt.  Samræmist ákvæðum laga nr. 160 / 2010. Með vísan til samþykktar borgarráðs frá 1. september 1998 skal utanhúss- og lóðarfrágangi vera lokið eigi síðar en innan tveggja ára frá útgáfu byggingarleyfis að viðlögðum dagsektum sbr. greinar nr. 2.4.7 og 2.9.2 í byggingarreglugerð nr. 112/2012. Áskilin lokaúttekt byggingarfulltrúa.,"Sótt er um leyfi til að loka svölum íbúðar 1401 með póstalausu glerjunarkerfi í lit Ral. 7021 á 14. hæð í mhl. 07 í fjölbýlishúsi nr. 21 við Vatnsstíg á lóð nr. 14-16 við Skúlagötu. Meðfylgjandi er kaupsamningur og útskrift úr lögum húsfélagsins, ódagsett. Stærðir - 16,4 ferm., 62,5 rúmm. Gjald kr. 9.823"
48843 (01.15.241.0),http://gamli.rvk.is/vefur/owa/edutils.parse_page?nafn=BN048843,Lindargata 28,"28-32 - Breytingar - veggir, gluggar, handrið","Samþykkt.  Samræmist ákvæðum laga nr. 160 / 2010. Með vísan til samþykktar borgarráðs frá 1. september 1998 skal utanhúss- og lóðarfrágangi vera lokið eigi síðar en innan tveggja ára frá útgáfu byggingarleyfis að viðlögðum dagsektum sbr. greinar nr. 2.4.7 og 2.9.2 í byggingarreglugerð nr. 112/2012. Frágangur á lóðamörkum verði gerður í samráði við lóðarhafa aðliggjandi lóða. Með vísan til samþykktar umhverfis- og skipulagsráðs, dags. 22. maí 2013, skal lóðarhafi, í samráði við byggingarfulltrúa, setja upp skilti til kynningar á fyrirhuguðum framkvæmdum á byggingarstað. Í samræmi við samþykkt umhverfis- og skipulagsráðs dags. 9. október 2013 skal vélknúinn þvottabúnaður vera til staðar á byggingarlóð sem tryggi að vörubílar og aðrar þungavinnuvélar verði þrifnar áður en þær yfirgefa byggingarstað. Samráð skal haft við byggingarfulltrúa um staðsetningu búnaðarins. Sérstakt samráð skal haft við yfirverkfræðing byggingarfulltrúa vegna jarðvinnu. Áskilin lokaúttekt byggingarfulltrúa.","Sótt er um leyfi til breytinga á nýsamþykktu erindi, BN047355, sem felast í að framveggur bakhúss, mhl. 02 er steyptur, einangraður að utan og klæddur með timbri, óbreytt útlit, gluggastærðir breytast á norður og vesturvegg, mhl. 01, eldvarnarkröfum á svalagluggum breytt og svalahandriðum á 4. hæð breytt á fjölbýlishúsi á lóð nr. 28-32 við Lindargötu. Gjald kr. 9.823"
48936 (01.18.121.2),http://gamli.rvk.is/vefur/owa/edutils.parse_page?nafn=BN048936,Lokastígur 11,Breyting 1. og 2.hæð,Frestað. Vísað til athugasemda á umsóknarblaði.,Sótt er um leyfi til að loka stofu á neðri hæð og útbúa  2 svefnherbergi og setja 2 baðherbergi á 2. hæð og breyta á 3. hæð  bókaherbergi og  vinnuherbergi í herbergi í húsinu á lóð nr. 11 við Lokastíg.  Gjald kr. 9.823
48906 (01.18.320.3),http://gamli.rvk.is/vefur/owa/edutils.parse_page?nafn=BN048906,Miðstræti 5,Endurbætur og viðhald,Frestað. Vísað til athugasemda á umsóknarblaði.,Sótt er um leyfi til að steypa nýtt gólf í rými 0001 sem er iðnaðarhúsnæði í kjallara húss á lóð nr. 5 við Miðstræti. Meðfylgjandi er bréf hönnunarstjóra dags. 25. febrúar 2015 og greinargerð lögfræðistofunnar Lögmenn Bárugötu 4 dags. 2. mars 2015. Stækkun:  xx rúmm. Gjald kr. 9.823
47516 (01.19.110.5),http://gamli.rvk.is/vefur/owa/edutils.parse_page?nafn=BN047516,Njálsgata 78,Hæð og ris,Frestað. Vísað til athugasemda á umsóknarblaði.,"Sótt er um leyfi til að byggja steinsteypta hæð og ris með kvistum á götuhlið, byggja svalir á garðhlið og innrétta tvær nýjar íbúðir í fjölbýlishúsi á lóð nr. 78 við Njálsgötu. Lögð fram umsögn skipulagsfulltrúa dags. 15. maí 2014. Meðfylgjandi er umboð eiganda. Stækkun:  97,7 ferm., 238,7 rúmm. Gjald kr. 9.500 + 9.500 + 9.823"
48449 (01.13.601.8),http://gamli.rvk.is/vefur/owa/edutils.parse_page?nafn=BN048449,Ránargata 8A,Breyting,Frestað. Málinu vísað til skipulagsfulltrúa.til ákvörðunar um grenndarkynningu. Vísað er til  uppdráttar nr. 1 síðast breytt 12. september 2014.,"Sótt er um leyfi til að byggja létt opið skýli með glerþaki yfir inngangi 1. hæðar í húsi á lóð nr. 8A við Ránargötu. Stækkun:11,9 ferm. B-rými, xx rúmm. Gjald kr. 9.500"
47110 (01.18.224.3),http://gamli.rvk.is/vefur/owa/edutils.parse_page?nafn=BN047110,Skólavörðustígur 23,Veitingast.fl.2,Samþykkt.  Samræmist ákvæðum laga nr. 160 / 2010. Áskilin lokaúttekt byggingarfulltrúa. Áskilið samþykki heilbrigðiseftirlits.,"Sótt er um leyfi til þess að innrétta veitingastað í flokki II fyrir 25 gesti í rými sem skráð er verslunarrými á fyrstu hæð hússins á lóðinni nr. 23 við Skólavörðustíg. Útskrift úr gerðabók embættisafgreiðslufundar skipulagsfulltrúa frá 11. apríl 2014 ásamt umsögn skipulagsfulltrúa dags. 11. apríl 2014. Einnig fylgir afrit af fundargerð húsfélags dags. 26. nóvember 2014, samþykki meðeigenda fyrir takmörkuðum opnunartíma til kl. 21.00, utan samþykkis eignarhluta 0401, dags. 1. nóvember 2014, samþykki meðeigenda utan samþykkis eignarhluta 0401 dags. 30. janúar 2015 til að koma fyrir loftstokk á bakhlið húss og umsögn skrifstofu sviðsstjóra dags. 12. janúar 2015. Gjald kr. 9.500"
48923 (01.24.700.8),http://gamli.rvk.is/vefur/owa/edutils.parse_page?nafn=BN048923,Snorrabraut 61,Endurnýjun á BN039624,Frestað. Vísað til athugasemda á umsóknarblaði.,"Sótt er um samþykki á þegar gerðum breytingum sbr. erindi BN039624 samþ. 10 mars 2009, sem felast fyrst og fremst í eldvarnarmálum vegna lokaúttektar á gistiheimili í húsi á lóð nr. 61 við Snorrabraut. Meðfylgjandi er bréf eldvarnahönnuðar dags. 19. febrúar 2015 og brunahönnunarskýrsla dags. 23. mars 2015. Gjald kr. 9.823"
48947 (01.43.350.2),http://gamli.rvk.is/vefur/owa/edutils.parse_page?nafn=BN048947,Sólheimar 27,Sorpskýli,Frestað. Málinu vísað til umsagnar skipulagsfulltrúa.,"Sótt er um leyfi til að byggja sorpskýli, mhl. 02, úr heitsinkuðu stáli á steyptum undirstöðum, klætt með timbri og pappa á þaki við fjölbýlishús á lóð nr. 27 við Sólheima. Meðfylgjandi er greinargerð hönnunarstjóra um ábyrgðarsvið hönnuða dags. 23. febrúar 2015. Stærð, B-rými:  22,2 ferm., 55,5 rúmm. Gjald kr. 9.823"
48946 (04.92.420.3),http://gamli.rvk.is/vefur/owa/edutils.parse_page?nafn=BN048946,Stafnasel 3,Sameina geymslu og herbergi,Frestað. Vísað til athugasemda á umsóknarblaði.,Sótt er um leyfi til að sameina geymslu og herbergi í eitt herbergi og útbúa nýja geymslu í bílageymslunni í hús á lóð nr. 3 við Stafnasel. Gjald kr. 9.823
48135 (01.78.810.1),http://gamli.rvk.is/vefur/owa/edutils.parse_page?nafn=BN048135,Suðurhlíð 35,Reyndarteikningar,Frestað. Vísað til athugasemda á umsóknarblaði.,"Sótt er um leyfi fyrir áður gerðum breytingum sem eru ??? á mhl. 04 í húsinu á lóð nr. 35 við Suðurhlíð. Stækkun: XX ferm., XX rúmm.  Gjald kr. 9.500"
48913 (01.26.110.1),http://gamli.rvk.is/vefur/owa/edutils.parse_page?nafn=BN048913,Suðurlandsbraut 2,Ísbar 1.hæð - breyting o.fl.,Samþykkt.  Samræmist ákvæðum laga nr. 160 / 2010. Áskilin lokaúttekt byggingarfulltrúa. Áskilið samþykki heilbrigðiseftirlits.,"Sótt er um leyfi til að breyta innra skipulagi á áður samþykktum ísbar, BN047599, þar sem innrétta skal vínbar og lítil fundaherbergi austast á 1. hæð, einnig er sótt um að loka tveimur gluggum og hurð á suðurhlið, setja tvo nýja glugga og hurð á sömu hlið ásamt því að fjarlægja hurð og bæta annarri við á norðurhlið hótels í húsi á lóð nr. 2 við Suðurlandsbraut. Meðfylgjandi er umsögn burðarvirkishönnuðar dags. 25.2. 2015. Gjald kr. 9.823"
48859 (01.13.210.4),http://gamli.rvk.is/vefur/owa/edutils.parse_page?nafn=BN048859,Tryggvagata 16,Biðskýli - flutningur,Samþykkt.  Samræmist ákvæðum laga nr. 160 / 2010. Með vísan til samþykktar borgarráðs frá 1. september 1998 skal utanhúss- og lóðarfrágangi vera lokið eigi síðar en innan tveggja ára frá útgáfu byggingarleyfis að viðlögðum dagsektum sbr. greinar nr. 2.4.7 og 2.9.2 í byggingarreglugerð nr. 112/2012. Áskilin lokaúttekt byggingarfulltrúa.,Sótt er um leyfi til að flytja strætisvagnabiðskýli sem stendur við Nóatún að Kirkjusandi/Sæbraut í stað annars sem stendur þar núna. Meðfylgjandi er umsögn Samgöngudeildar dags. 13. febrúar 2015 og umsögn SRU dags. 19. febrúar 2015. Skýlið hefur verið flutt til suðurs og er því í lagi. Gjald kr. 9.823
48929 (01.33.780.4),http://gamli.rvk.is/vefur/owa/edutils.parse_page?nafn=BN048929,Vatnagarðar 14,Sameina 0101 og 0104,Frestað. Vísað til athugasemda á umsóknarblaði.,"Sótt er um leyfi til að sameina 0101 og 0104 í 0101 og opna milli með eldvararhurð, breyta innréttingum og stækka milliloft í rými 0101 og breyta stiga er liggur að millilofti í húsinu á lóð nr. 14 við Vatnagarða.  Umsögn burðarvirksihönnuðar dags. 25. febrúar 2015 Stækkun milliloft: 24,0 ferm. Gjald kr. 9.823"
48879 (01.52.410.6),http://gamli.rvk.is/vefur/owa/edutils.parse_page?nafn=BN048879,Víðimelur 63,Hækka þak - kvistir svalir,Frestað. Vísað til athugasemda á umsóknarblaði.,"Sótt er um leyfi til að hækka ris, byggja kvisti, koma fyrir nýjum stiga milli hæða, stækka svalir og breikka inngangströppur og útbúa nýjan inngang fyrir íbúðir 0101 og 0201 í fjölbýlishúsi á lóð nr. 63 við Víðmel. Jákvæðar fyrirspurnir BN048310 dags. 14. október 2014 og BN048437 28. október 2014 fylgja erindinu. Stækkun:  97,0 ferm., 276,0 rúmm. Gjald kr. 9.823"
48914 (01.55.312.6),http://gamli.rvk.is/vefur/owa/edutils.parse_page?nafn=BN048914,Þrastargata 1,Fluttningshús - Barónsstígur 28,Frestað. Vísað til athugasemda á umsóknarblaði.,"Sótt er um leyfi til að flytja friðað einbýlishús úr timbri af lóð nr. 28 við Barónsstíg,  koma því fyrir á á steyptum kjallara og byggja steinsteypta viðbyggingu á vesturgafl á lóð nr. 1 við Þrastargötu. Erindi fylgir umsögn skipulagsfulltrúa dags. 30. október 2014 og Minjastofnunar Íslands dags. 4. febrúar 2015. Stærð:  116,1 ferm., 330,1 rúmm. Gjald kr. 9.823"
48935 (01.24.400.4),http://gamli.rvk.is/vefur/owa/edutils.parse_page?nafn=BN048935,Þverholt 14,Svalir - flóttaleið 3.hæð,Frestað. Vísað til athugasemda á umsóknarblaði.,Sótt er um leyfi til að koma fyrir nýjum svölum á vesturhlið vegna flóttaleiðar úr rými 0301 í húsinu á lóð nr. 14 við Þverholt. Gjald kr. 9.823
48850 (01.53.200.4),http://gamli.rvk.is/vefur/owa/edutils.parse_page?nafn=BN048850,Ægisíða 123,Skipta upp atvinnuhúsnæði í tvo hluta,Frestað. Vísað til athugasemda á umsóknarblaði.,"Sótt er um leyfi til að skipta upp óráðstöfuðu atvinnurými, sbr. erindi BN048100 dags. 16. september 2014, í tvo hluta, sömuleiðis eru smávægilegar breytingar á útliti húss á lóð nr. 123 við Ægisíðu. Gjald kr. 9.823"
48921 (01.18.621.2),http://gamli.rvk.is/vefur/owa/edutils.parse_page?nafn=BN048921,Baldursgata 30,(fsp) - Lengja svalir - síkka glugga,Frestað. Málinu vísað til umsagnar skipulagsfulltrúa.,Spurt er hvort lengja megi svalir fram yfir stóran stofuglugga og síkka hann niður að svalagólfi í íbúð á 3. hæð í húsi á lóð nr. 30 við Baldursgötu.
48925 (01.19.710.7),http://gamli.rvk.is/vefur/owa/edutils.parse_page?nafn=BN048925,Bergstaðastræti 86,"(fsp) - Breyta bílskúrshurð, síkka glugga o.fl.",Frestað. Málinu vísað til umsagnar skipulagsfulltrúa.,"Spurt er hvort leyft yrði að byggja við á bakhlið, síkka glugga og grafa frá kjallara og útbúa bílastæði við Barónsstíg við einbýlishús á lóð nr. 86 við Bergstaðastræti."
48909 (01.78.010.3),http://gamli.rvk.is/vefur/owa/edutils.parse_page?nafn=BN048909,Beykihlíð 8,(fsp) - Breyta í 2 íbúðir,Nei. Með vísan til umsagnar skipulagsfulltrúa dags. 27. febrúar 2015.,Spurt er hvort leyfi fengist til að útbúa tvær íbúðir í einbýlishúsi á lóð nr. 8 við Beykihlíð. Útskrift úr gerðabók embættisafgreiðslufundar skipulagsfulltrúa frá 27. febrúar 2015 fylgir erindinu ásamt umsögn skipulagsfulltrúa dags. 27. febrúar 2015.
48926 (01.25.120.2),http://gamli.rvk.is/vefur/owa/edutils.parse_page?nafn=BN048926,Bolholt 4,(fsp) - Yogastudio,Frestað. Vísað til athugasemda á fyrirspurnarblaði.,Spurt er hvort reka megi Pooja yogastudio og verslun á 2. hæð í húsi á lóð nr. 4 við Bolholt.
48952 (01.18.632.0),http://gamli.rvk.is/vefur/owa/edutils.parse_page?nafn=BN048952,Freyjugata 15,(fsp) - Breyta undirgöngum,Frestað. Málinu vísað til umsagnar skipulagsfulltrúa.,Spurt er hvort leyfi fengist til að loka undirgöng sem tilheyra húsinu og bæta við íbúð 0103 í húsinu á lóð nr. 15 við Freyjugötu.
48884 (01.62.980.3),http://gamli.rvk.is/vefur/owa/edutils.parse_page?nafn=BN048884,Hlíðarendi 4,(fsp) - Atvinnuhúsnæði og íbúðir,Jákvætt. Að uppfylltum skilyrðum enda verði sótt um byggingarleyfi samanber útskrift úr gerðabók embættisafgreiðslufundar skipulagsfulltrúa frá 27. febrúar 2015.,Spurt er hvort leyft yrði að byggja eins og sýnt er á meðfylgjandi teikningum af fjögurra hæða húsi með atvinnuhúsnæði á 1. hæð og þremur íbúðarhæðum á lóð nr. 4 við Hlíðarenda. Útskrift úr gerðabók embættisafgreiðslufundar skipulagsfulltrúa frá 27. febrúar 2015 fylgir erindinu.
48928 (04.33.330.1),http://gamli.rvk.is/vefur/owa/edutils.parse_page?nafn=BN048928,Hraunbær 113,(fsp) - Lokun á einkalóð,Ekki gerð athugasemd við erindið.,"Spurt er hvort leyfi fengist til að staðsetja innan lóðar hlið til að loka fyrir óviðkomandi umferð á lóð nr. 113 við Hraunbæ. Bréf frá umsækjanda dags. 22. febrúar 2015, ljósmynd, lögregluskýrslur um eignaspjöll á húsnæðinu dags. 4. júní 2014,  30. júlí 2014 og 13. ágúst 2014 fylgja erindinu"
48830 (01.15.251.5),http://gamli.rvk.is/vefur/owa/edutils.parse_page?nafn=BN048830,Hverfisgata 61,(fsp) - Breyta kjallara - hækka lyftustokk,Nei. Með vísan til umsagnar skipulagsfulltrúa dags. 27. febrúar 2015 og til athugasemda á fyrirspurnarblaði.,Spurt er hvort leyft yrði að innrétta vinnustofur í kjallara og hvort leyft yrði að hækka lyftuhús og stigahús innan marka deiliskipulags í fjölbýlishúsi á lóð nr. 61 við Hverfisgötu. Útskrift úr gerðabók embættisafgreiðslufundar skipulagsfulltrúa frá 27. febrúar 2015 fylgir erindinu ásamt umsögn skipulagsfulltrúa dags. 27. febrúar 2015.
48950 (01.41.150.1),http://gamli.rvk.is/vefur/owa/edutils.parse_page?nafn=BN048950,Njörvasund 10,(fsp) - Stækka bílskúr,Frestað. Málinu vísað til umsagnar skipulagsfulltrúa.,Spurt er hvort leyft yrði að stækka og hækka þak á bílskúr á lóð nr. 10  við Njörvasund.
48954 (01.82.130.1),http://gamli.rvk.is/vefur/owa/edutils.parse_page?nafn=BN048954,Rauðagerði 29,(fsp) - íbúð jarðhæð,Frestað. Málinu vísað til umsagnar skipulagsfulltrúa.,Spurt er hvort leyft yrði að skipta í tvær eignir einbýlishúsi á lóð nr. 29 við Rauðagerði.
48919 (01.44.101.6),http://gamli.rvk.is/vefur/owa/edutils.parse_page?nafn=BN048919,Skeiðarvogur 20,(fsp) - Svalir 1.hæð,Jákvætt. Að uppfylltum skilyrðum enda verði sótt um byggingarleyfi.,Spurt er hvort leyft yrði að koma fyrir svölum með stiga niður í garð frá 1. hæð hússins á lóð nr. 20 við Skeiðarvog. Útskrift úr gerðabók embættisafgreiðslufundar skipulagsfulltrúa frá 27. febrúar 2015 fylgir erindinu
48920 (04.08.180.1),http://gamli.rvk.is/vefur/owa/edutils.parse_page?nafn=BN048920,Stórhöfði 17,(fsp) - Hótel/gistiheimili,Frestað. Málinu vísað til umsagnar skipulagsfulltrúa.,"Spurt er hvort leyft yrði að breyta annarri hæð úr veitingahúsi í gististað, gistiheimili/hótel, í húsi á lóð nr. 17 við Stórhöfða."
48933 (04.93.000.5),http://gamli.rvk.is/vefur/owa/edutils.parse_page?nafn=BN048933,Ystasel 19,(fsp) - Reykrör - ruslageymsla - bílskúrshurð,Jákvætt. Að uppfylltum skilyrðum enda verði sótt um byggingarleyfi.,"Spurt er hvort leyft yrði að koma fyrir reykröri frá kamínu, sorpgeymslu fyrir 3 tunnur og breyta tveimur bílskúrshurðum í eina á einbýlishúsi á lóð nr. 19 við Ystasel."
