nr,url,heimilisfang,tegund,nidurstada,spurning
49325 (01.15.441.2),http://gamli.rvk.is/vefur/owa/edutils.parse_page?nafn=BN049325,Barónsstígur 5,Breytingar - svalir og starfsmannaaðstaða,Frestað. Vísað til athugasemda eldvarnaeftirlits á umsóknarblaði.,"Sótt er um samþykki á breytingum á erindi BN048876, samþykktu 7.2. 2015, sem felast í að svalir á 2. hæð eru færðar tvo metra til suðurs, og starfsmannaaðstaða og vaskur þar við hliðina breyta um staðsetningu á 2. hæð í húsi á lóð nr. 5 við Barónsstíg. Gjald kr. 9.823"
49196 (01.13.521.3),http://gamli.rvk.is/vefur/owa/edutils.parse_page?nafn=BN049196,Bárugata 34,Bæta við svölum - 2.hæð,Frestað. Vísað til umsagnar skipulagsfulltrúa dags. 17. apríl 2015.,"Sótt er um leyfi til að byggja svalir úr stáli timburklætt gólf, handrið verður stálgrind með lóðréttum pílórum á austurgafl 3. hæðar hússins á lóð nr. 34 við Bárugötu. Útskrift úr gerðabók embættisafgreiðslufundar skipulagsfulltrúa frá 17. apríl 2015 fylgir erindinu ásamt umsögn skipulagsfulltrúa dags. 17. apríl 2015 og útskrift úr gerðabók embættisafgreiðslufundar skipulagsfulltrúa frá 29. apríl 2015 ásamt umsögn skipulagsfulltrúa dags. 17. apríl 2015. Samþykki meðeigenda  dags. 1. apríl 2015 og  jákvæð fyrirspurn BN047536 fylgir erindinu.  Gjald kr. 9.823"
49126 (04.06.200.1),http://gamli.rvk.is/vefur/owa/edutils.parse_page?nafn=BN049126,Bíldshöfði 9,Reyndarteikningar,Frestað. Vísað til athugasemda á umsóknarblaði.,"Sótt er um leyfi fyrir áður gerðum breytingum á 1. og 2. hæð þar sem fjarlægð hafa verið milliloft og veggir í mhl. 01 í húsinu á lóð nr. 9 við Bíldshöfða. Bréf frá hönnuði dags. 6. apríl. og 24. apríl 2015 og umboð vegna byggingarleyfisumsóknar dags. 27 mars. 2015 fylgir.  Minnkun millilofta: 168,0 ferm. og fjölgun á brúttórúmm. 536,2 rúmm.  Gjald kr. 9.823"
49286 (01.21.779.9),http://gamli.rvk.is/vefur/owa/edutils.parse_page?nafn=BN049286,Borgartún 18,Reyndarteikningar - 2.hæð,Frestað. Samkvæmt gögnum embættisins er lágmarksgjald ógreitt.,"Sótt er um samþykki á þegar gerðum breytingum, sbr. erindi BN046872, sem felast í að innveggjum hefur verið breytt, fundarherbergi fært til, settur hefur verið upp kaffikrókur ásamt nýrri uppröðun vinnustöðva sem fjölgar um 6 á 2. hæð í Aríon banka á lóð nr. 18 við Borgartún. Gjald kr. 9.823"
49235 (01.16.233.8),http://gamli.rvk.is/vefur/owa/edutils.parse_page?nafn=BN049235,Brávallagata 26,Svalir - 2.hæð,"Frestað. Málinu vísað til  skipulagsfulltrúa til ákvörðunar um grenndarkynningu. Vísað er til uppdrátta nr. 101 og  102 dags. 14, apríl 2015.",Sótt er um leyfi til að byggja svalir á 2. hæð fjölbýlishúss á lóð nr. 26 við Brávallagötu. Erindi fylgir jákvæð fsp. BN049007 dags. 17. mars 2015 og samþykki meðeigenda dags. 14. apríl 2015. Gjald kr. 9.823
49338 (01.81.830.9),http://gamli.rvk.is/vefur/owa/edutils.parse_page?nafn=BN049338,Bústaðavegur 69,Útlitsbreyting - sólpallur - hurð út á pall,Frestað. Vísað til athugasemda á umsóknarblaði.,"Sótt er um leyfi til að breyta glugga á suðurhlið í garðhurð á íbúð 0101 mhl. 01, koma fyrir palli og skilvegg á lóðamörkum á lóð nr. 69 við Bústaðaveg. Samþykki meðeigenda á teikningu fylgir erindi.  Gjald kr. 9.823"
49277 (01.81.831.0),http://gamli.rvk.is/vefur/owa/edutils.parse_page?nafn=BN049277,Bústaðavegur 71,Útlitsbreyting - sólpallur - hurð út á pall,Frestað. Vísað til athugasemda á umsóknarblaði.,"Sótt er um leyfi til að breyta glugga á suðurhlið í garðhurð á íbúð 0101 mhl. 01, koma fyrir palli og skilvegg á lóðamörkum á lóð nr. 71 við Bústaðaveg. Samþykki meðeigenda á teikningu fylgir erindi.  Gjald kr. 9.823"
48916 (04.68.300.9),http://gamli.rvk.is/vefur/owa/edutils.parse_page?nafn=BN048916,Eddufell 2-8,"8 - Breyting, fjölgun íbúða o. fl. BN047326",Frestað. Vísað til athugasemda á umsóknarblaði.,"Sótt er um leyfi til að breyta erindi BN047326, íbúðum fjölgar úr 19 í 24, hætt er við bílgeymslu, stigahús er fært og hönnun breytt á lóð nr. 2-8 við Eddufell. Stækkun frá áður samþykktu erindi:  23,2 ferm., 58,5 rúmm. Gjald kr. 9.823"
48804 (01.46.340.2),http://gamli.rvk.is/vefur/owa/edutils.parse_page?nafn=BN048804,Fákafen 11,Gististaður - 0201,Samþykkt.  Samræmist ákvæðum laga nr. 160 / 2010. Áskilin lokaúttekt byggingarfulltrúa. Áskilið samþykki heilbrigðiseftirlits.,"Sótt er um leyfi fyrir gististað í flokki II, tegund c - gistiskáli - tímabundið á sumrin þar sem tónlistarskóli og salur er á veturna í rými 0201 sbr. fyrirspurn BN048227 sem fékk jákvæða umsögn skipulagsfulltrúa 30. september 2014 í húsi á lóð nr. 11 við Fákafen. Meðfylgjandi eru bréf hönnuðar dags. 27. janúar 2015, 26.2. 2015, 24.3. 2015 og 24.4. 2015. Gjald kr. 9.823"
48803 (01.46.340.2),http://gamli.rvk.is/vefur/owa/edutils.parse_page?nafn=BN048803,Fákafen 11,Fjölgun eigna og áður gert,Frestað. Vísað til athugasemda heilbrigðiseftirlits á umsóknarblaði.,"Sótt er um samþykki á áður gerðum breytingum og fjölgun eigna í húsi á lóð nr. 11 við Fákafen. Meðfylgjandi er tölvupóstur dags. 12. október 2012, bréf hönnuðar dags. 27. janúar 2015, og annað dags. 13. febrúar 2015 og enn annað dags. 26.2. 2015 og bréf hönnuðar dags.24. mars 2015 Gjald kr. 9.823"
48645 (01.66.--9.9),http://gamli.rvk.is/vefur/owa/edutils.parse_page?nafn=BN048645,Flugvöllur 106748,Nauthólsvegur 58 - Nýtt anddyri,Samþykkt.  Samræmist ákvæðum laga nr. 160 / 2010. Með vísan til samþykktar borgarráðs frá 1. september 1998 skal utanhúss- og lóðarfrágangi vera lokið eigi síðar en innan tveggja ára frá útgáfu byggingarleyfis að viðlögðum dagsektum sbr. greinar nr. 2.4.7 og 2.9.2 í byggingarreglugerð nr. 112/2012. Áskilin lokaúttekt byggingarfulltrúa. Áskilið samþykki heilbrigðiseftirlits.,"Sótt  er um leyfi til að byggja anddyri úr timbri á milli nr.58B og 58C á flugskýli nr. 1, hús nr. 58 á lóð með landnr. 106748  við Nauthólsveg. Samþykki eigenda mhl. 10 og 11 fylgir erindinu á teikningu. Stækkun  mhl. 13:  Anddyri 16,7 ferm. og 67,8 rúmm. Stækkun millipalls:  132,4 ferm.  Gjald kr. 9.500"
49287 (05.05.350.2),http://gamli.rvk.is/vefur/owa/edutils.parse_page?nafn=BN049287,Friggjarbrunnur 18,Hækka gólfkóta,Frestað. Vísað til athugasemda eldvarnaeftirlits á umsóknarblaði.,"Sótt er um leyfi til að hækka gólfkóta 1. 2. og 3. hæðar um 175 mm., breyta byggingarlýsingu fyrir stigahús og breyta innra skipulagi efstu hæðar, sjá erindi BN048703, í fjölbýlishúsi á lóð nr. 18 við Friggjarbrunn. Stækkun:  1,2 ferm., 84,6 rúmm. Gjald kr. 9.823"
49156 (02.69.310.1),http://gamli.rvk.is/vefur/owa/edutils.parse_page?nafn=BN049156,Friggjarbrunnur 51,Fjölbýlishús,Frestað. Vísað til athugasemda á umsóknarblaði.,"Sótt er um leyfi til að byggja steinsteypt fjögurra hæða fjölbýlishús með 10 íbúðum og bílgeymslu fyrir 10 bíla í kjallara á lóð nr. 51 við Friggjarbrunn. Erindi fylgir útreikningur á varmatapi dags. 23. mars 2015. Stærð A-rýma:  Kjallari 95,7 ferm., 1. hæð 256,7 ferm., 2. og 3. hæð 259,5 ferm., 4. hæð 188,3 ferm. A-rými samtals:  1.059,7 ferm., 3.312,4 rúmm. B-rými samtals:  449,5 ferm., 995,4 rúmm. C-rými samtals:  115,2 ferm. Gjald kr. 9.823"
49266 (02.69.310.5),http://gamli.rvk.is/vefur/owa/edutils.parse_page?nafn=BN049266,Friggjarbrunnur 55-57,55 - Skjólveggur,"Samþykkt.  Samræmist ákvæðum laga nr. 160 / 2010. Með vísan til samþykktar umhverfis- og skipulagsráðs, dags. 22. maí 2013, skal lóðarhafi, í samráði við byggingarfulltrúa, setja upp skilti til kynningar á fyrirhuguðum framkvæmdum á byggingarstað. Í samræmi við samþykkt umhverfis- og skipulagsráðs dags. 9. október 2013 skal vélknúinn þvottabúnaður vera til staðar á byggingarlóð sem tryggi að vörubílar og aðrar þungavinnuvélar verði þrifnar áður en þær yfirgefa byggingarstað. Samráð skal haft við byggingarfulltrúa um staðsetningu búnaðarins. Sérstakt samráð skal haft við yfirverkfræðing byggingarfulltrúa vegna jarðvinnu. Frágangur á lóðamörkum verði gerður í samráði við lóðarhafa aðliggjandi lóða. Áskilin lokaúttekt byggingarfulltrúa.","Sótt er um leyfi til að breyta erindi BN047030 og BN048412, að koma fyrir skjóllokun úr öryggisgleri á svalagang sem snýr í austur og breyta brunamerkingum í fjölbýlishúsi á lóð nr, 55-57 við Friggjarbrunn. Gjald kr. 9.823"
48976 (01.24.770.4),http://gamli.rvk.is/vefur/owa/edutils.parse_page?nafn=BN048976,Guðrúnargata 8,"Pallur/svalir 1.hæð, svalir 2.hæð o.fl.",Frestað. Vísað til umsagnar skipulagsfulltrúa dags. 29. apríl 2015.,"Sótt er um leyfi til að setja byggja svalir á íbúð 0201 á austurgafli, stækka svalir íbúð 0101, fyrir áður gerðri tvöfaldri hurð á suðurgafli og til að loka hurðagati á vesturhlið bílskúrs mhl. 02, á lóð nr. 8 við Guðrúnargötu. Samþykki  meðlóðarhafa dags. 3. mars. 2015 fylgir erindi ásamt útskrift úr gerðabók embættisafgreiðslufundar skipulagsfulltrúa frá 20. mars 2015 og umsögn skipulagsfulltrúa dags. 19. mars 2015. Einnig fylgir bréf frá hönnuði dags. 15. apríl 2015. Útskrift úr gerðabók embættisafgreiðslufundar skipulagsfulltrúa frá 29. apríl 2015 fylgir erindinu ásamt umsögn skipulagsfulltrúa frá dags. 29. apríl 2015. Gjald kr. 9.823"
49206,http://gamli.rvk.is/vefur/owa/edutils.parse_page?nafn=BN049206,Gufunes - Skemmtigarður,Flutningur á sumarhúsi - stöðuleyfi/veitingaleyfi,Samþykkt.  Samræmist ákvæðum laga nr. 160 / 2010. Áskilin lokaúttekt byggingarfulltrúa. Áskilið samþykki heilbrigðiseftirlits.,"Sótt er um leyfi til að flytja sumarhús með salernis- og aðkomuaðstöðu fyrir gesti og vínveitingar í flokki II, veitingastaður C. Húsið sem var áður staðsett við skólagarðana í Gorvík, verður sett niður á bráðabirgðabyggingarreit á lóð Skemmtigarðsins í Grafarvogi /Fjöreflis ehf í Gufunesi . Bréf frá umsækjanda dags. 7. apríl 2015 fylgir. Útskrift úr gerðabók embættisafgreiðslufundar skipulagsfulltrúa frá 17. apríl 2015 fylgir erindinu. Stærð hús:  46,9 ferm., 152,4 rúmm. Gjald kr. 9.823"
48060 (01.11.850.2),http://gamli.rvk.is/vefur/owa/edutils.parse_page?nafn=BN048060,Hafnarstræti 17,Hótel - veitingarekstur,"Samþykkt.  Samræmist ákvæðum laga nr. 160 / 2010. Með vísan til samþykktar borgarráðs frá 1. september 1998 skal utanhúss- og lóðarfrágangi vera lokið eigi síðar en innan tveggja ára frá útgáfu byggingarleyfis að viðlögðum dagsektum sbr. greinar nr. 2.4.7 og 2.9.2 í byggingarreglugerð nr. 112/2012. Frágangur á lóðamörkum verði gerður í samráði við lóðarhafa aðliggjandi lóða. Með vísan til samþykktar umhverfis- og skipulagsráðs, dags. 22. maí 2013, skal lóðarhafi, í samráði við byggingarfulltrúa, setja upp skilti til kynningar á fyrirhuguðum framkvæmdum á byggingarstað. Í samræmi við samþykkt umhverfis- og skipulagsráðs dags. 9. október 2013 skal vélknúinn þvottabúnaður vera til staðar á byggingarlóð sem tryggi að vörubílar og aðrar þungavinnuvélar verði þrifnar áður en þær yfirgefa byggingarstað. Samráð skal haft við byggingarfulltrúa um staðsetningu búnaðarins. Sérstakt samráð skal haft við yfirverkfræðing byggingarfulltrúa vegna jarðvinnu. Áskilin lokaúttekt byggingarfulltrúa. Áskilið samþykki heilbrigðiseftirlits. Áskilið samþykki Vinnueftirlits ríkisins. Skilyrt er að fyrir útgáfu byggingarleyfis verði búið að sækja um og samþykkja byggingaráform á lóðinni nr. 19 við Hafnarstræti. Vegna sameignlegra aðkomu- og flóttaleiða, annarra öryggisatriða og aðgengis að tækni- og lagnarýmum skal fyrir útgáfu byggingarleyfis þinglýst yfirlýsingu þess efnis að eignarhald á lóðunum nr. 17 við Hafnarstræti og á lóðinni nr. 19 við Hafnarstræti verði ávallt allt á einni hendi. Skal yfirlýsingunni þinglýst á báðar framangreindar lóðir.","Sótt er um leyfi til að byggja hótel í flokki V með 50 herbergjum úr steinsteypu með mansardþaki sem verður tengt við nýbyggingu á lóðinni Hafnarstræti 19, norðan og vestan við verndað timburhús sem fyrir er á lóð og verður endurbyggt í upprunalegri mynd með hótelherbergum á efri hæðum og morgunverðasal i hlöðnum steinkjallara, á lóð nr. 17 við Hafnarstræti. Útskrift úr gerðabók embættisafgreiðslufundar skipulagsfulltrúa frá 24. október 2014 fylgir erindinu ásamt umsögn skipulagsfulltrúa dags. 16. október 2014. Einnig fylgir greinargerð vegna hljóðvistar dags. í nóvember 2014, brunahönnun frá Mannvit dags. 2. febrúar 2015, útreikningur á varmatapi dags. 3. febrúar 2015, skýrsla um ástandsskoðun og prófanir frá Mannvit dags. 22. janúar 2015, minnisblöð frá verkfræðistofunni Hnit dags. 8. apríl, 18. júlí, 18. nóvember og 21. og 27. nóvember 2014 og 20. janúar 2015, umsagnir Minjastofnunar Íslands dags. 9. september og 4. desember 2014 og 12. janúar og 9. febrúar 2015 og 23. febrúar 2015, bréf frá skrifstofu eigna og atvinnuþróunar dags. 3. febrúar 2015 og bréf frá verkfræðistofunni Hnit dags. 9. febrúar 2015, bréf frá hönnuði dags. 19. febrúar 2015 og umsögn fagrýnihóps byggingarfulltrúa dags. 20. mars 2015. Áður samþykkt niðurrif:  225,2 ferm., 686,9 rúmm. Stækkun:  1.439,9 ferm., 4.990,4rúmm.  Gjald kr. 9.500 + 9.823 + 9.823"
49358 (01.11.850.2),http://gamli.rvk.is/vefur/owa/edutils.parse_page?nafn=BN049358,Hafnarstræti 17,takmarkað byggingarleyfi,"Samþykkt.  Samræmist ákvæðum laga nr. 160 / 2010. Með vísan til samþykktar borgarráðs frá 1. september 1998 skal utanhúss- og lóðarfrágangi vera lokið eigi síðar en innan tveggja ára frá útgáfu byggingarleyfis að viðlögðum dagsektum sbr. greinar nr. 2.4.7 og 2.9.2 í byggingarreglugerð nr. 112/2012. Frágangur á lóðamörkum verði gerður í samráði við lóðarhafa aðliggjandi lóða. Með vísan til samþykktar umhverfis- og skipulagsráðs, dags. 22. maí 2013, skal lóðarhafi, í samráði við byggingarfulltrúa, setja upp skilti til kynningar á fyrirhuguðum framkvæmdum á byggingarstað. Í samræmi við samþykkt umhverfis- og skipulagsráðs dags. 9. október 2013 skal vélknúinn þvottabúnaður vera til staðar á byggingarlóð sem tryggi að vörubílar og aðrar þungavinnuvélar verði þrifnar áður en þær yfirgefa byggingarstað. Samráð skal haft við byggingarfulltrúa um staðsetningu búnaðarins. Sérstakt samráð skal haft við yfirverkfræðing byggingarfulltrúa vegna jarðvinnu. Samþykktin fellur úr gildi við útgáfu á endanlegu byggingarleyfi. Vegna útgáfu á takmörkuðu byggingarleyfi skal umsækjandi hafa samband við yfirverkfræðing embættis byggingarfulltrúa. Áskilin lokaúttekt byggingarfulltrúa. Áskilið samþykki heilbrigðiseftirlits. Áskilið samþykki Vinnueftirlits ríkisins.","Sótt er um takmarkað byggingarleyfi að Hafnarstræti 17, sbr. erindi BN048060 og nær til hluta endurbyggingar á gamla húsinu í samræmi við tillögur Minjastofnunar, þ.e. styrkingu sökkla á þremur hliðum, endurnýjun útveggjaklæðningar og glugga."
49242 (01.55.2-9.9),http://gamli.rvk.is/vefur/owa/edutils.parse_page?nafn=BN049242,Háskólalóð,Hagatorg 3 - breytingar/forsal - matsal,Frestað. Vísað til athugasemda á umsóknarblaði.,"Sótt er um samþykki á þegar gerðum breytingum í forsal á 1. hæð og í matstofu nemenda í kjallara Háskólabíós, mhl. 10, á lóð nr. 3 við Hagatorg. Meðfylgjandi er brunahönnun dags. 14. apríl 2015. Gjald kr. 9.823"
49289 (01.40.940.1),http://gamli.rvk.is/vefur/owa/edutils.parse_page?nafn=BN049289,Holtavegur 6,"Hleðslupallur - olíuskilja, gámur o.fl.",Frestað. Vísað til athugasemda á umsóknarblaði. Málinu vísað til umsagnar skipulagsfulltrúa.,"Sótt er um leyfi til að koma fyrir kæliklefa og til að byggja hleðslupall með tveimur römpum inn í hús nr. 8 við Holtaveg, byggja dælubrunn, fituskilju og fastefnaskilju og koma fyrir gámi fyrir kælivél á lóð nr. 6 við Holtaveg . Gjald kr. 9.823"
48934 (01.40.810.1),http://gamli.rvk.is/vefur/owa/edutils.parse_page?nafn=BN048934,Holtavegur 8-10,1.hæð - breyting,Frestað. Vísað til athugasemda á umsóknarblaði. Málinu vísað til umsagnar skipulagsfulltrúa.,"Sótt er um leyfi til að innrétta umstöflunarrými, kæliklefa og til að byggja hleðslupall með tveimur römpum, byggja dælubrunn, fituskilju og fastefnaskilju og koma fyrir gámi fyrir kælivél á lóð nr. 8 við Holtaveg. Gjald kr. 9.823"
49198 (01.52.030.1),http://gamli.rvk.is/vefur/owa/edutils.parse_page?nafn=BN049198,Hringbraut 119,Breyting inni,Samþykkt.  Samræmist ákvæðum laga nr. 160 / 2010. Áskilin lokaúttekt byggingarfulltrúa. Áskilið samþykki heilbrigðiseftirlits. Áskilið samþykki Vinnueftirlits ríkisins.,"Sótt er um leyfi til að breyta innra fyrirkomulagi veitingastaðar sem er í flokki II  þannig að komið er fyrir tveimur salernum, annað er með aðgengi fyrir fatlaða í rými 0101 í húsinu á lóð nr. 119 við Hringbraut.  Gjald kr. 9.823"
49183 (01.52.020.2),http://gamli.rvk.is/vefur/owa/edutils.parse_page?nafn=BN049183,Hringbraut 121,Breyting á jarðhæð í veitingastað í fl. III og viðbygging,Frestað. Vísað til athugasemda á umsóknarblaði. Málinu vísað til umsagnar skipulagsfulltrúa.,"Sótt er um leyfi til að innrétta veitingastað í flokki III á 1. hæð, byggja viðbyggingu við suðurhlið fyrir stýribúnað vatnsúðakerfis og sorpgeymslu, stækka sorpgeymslu á vesturhlið og koma fyrir palli fyrir útiveitingar sunnan húss á lóð nr. 121 við Hringbraut.  Stækkun:  xx ferm., xx rúmm. Gjald kr. 9.823"
39839 (02.87.420.1),http://gamli.rvk.is/vefur/owa/edutils.parse_page?nafn=BN039839,Hverafold  1-5,1-3 breytt notkun rými 0307,Frestað. Vísað til athugasemda á umsóknarblaði.,Sótt er um leyfi til að breyta rými 0307 úr heilsugæslu í snyrtistofu í Hverfismiðstöð við Grafarvog í húsi á lóð nr. 1-3 við Hverafold. Meðfylgjandi er ódags. bréf frá eiganda snyrtistofu Grafarvogs. Gjald kr. 7.700
49058 (01.17.030.5 05),http://gamli.rvk.is/vefur/owa/edutils.parse_page?nafn=BN049058,Ingólfsstræti 2,Reyndarteikning v/eignaskiptayfirlýsingar,Samþykkt.  Samræmist ákvæðum laga nr. 160 / 2010. Skilyrt er að eignaskiptayfirlýsingu vegna breytinga í húsinu sé þinglýst til þess að samþykktin öðlist gildi.     Áskilin lokaúttekt byggingarfulltrúa.,"Sótt er um samþykki á uppmældri reyndarteikningu vegna skráningar og eignaskiptayfirlýsingar af húsinu Ingólfsstræti 2, mhl. 05, á lóð nr, 1 við Þingholtsstræti. Meðfylgjandi eru samþykki meðeigenda sem komu í tölvupósti dags. 21.4. 2015 Gjald kr. 9.823"
49291 (01.17.030.8),http://gamli.rvk.is/vefur/owa/edutils.parse_page?nafn=BN049291,Ingólfsstræti 8,Breyting - 1.hæð,Samþykkt.  Samræmist ákvæðum laga nr. 160 / 2010. Áskilin lokaúttekt byggingarfulltrúa. Áskilið samþykki heilbrigðiseftirlits.,Sótt er um leyfi til að breyta íbúð í hárgreiðslustofu á 1. hæð í húsi á lóð nr. 8 við Ingólfsstræti. Gjald kr. 9.823
49344 (04.11.330.6),http://gamli.rvk.is/vefur/owa/edutils.parse_page?nafn=BN049344,Jónsgeisli 91,Gámur - stöðuleyfi,Frestað. Vísað til athugasemda á umsóknarblaði.,Sótt er um stöðuleyfi fyrir 40 feta gám á meðan framkvæmdir standa yfir við hús á lóð nr. 91 við Jónsgeisla. Gjald kr. 9.823
49280 (01.42.440.1),http://gamli.rvk.is/vefur/owa/edutils.parse_page?nafn=BN049280,Kjalarvogur 5,Neyðarsturta færð - 0104,Samþykkt.  Samræmist ákvæðum laga nr. 160 / 2010. Áskilin lokaúttekt byggingarfulltrúa. Áskilið samþykki heilbrigðiseftirlits.,"Sótt er um leyfi til að færa neyðarsturtu í rými 0104, sjá erindi BN049070, í atvinnuhúsi á lóð nr. 5 við Kjalarvog. Gjald kr. 9.823"
49292 (01.72.100.1),http://gamli.rvk.is/vefur/owa/edutils.parse_page?nafn=BN049292,Kringlan  4-12,S361 - Dominos - stækkun,Frestað. Vísað til athugasemda á umsóknarblaði.,"Sótt er um leyfi til að stækka einingu S-339, Te og kaffi, yfir í einingu S-361, Diminos, nýja einingin fær rýmisnúmer S-361 og eru veitingastaðirnir í flokki 1, tegund C fyrir 47 gesti í sæti. Meðfylgjandi er eldvarnaúttekt Verkís dags. 21.4. 2015. Gjald kr. 9.723"
49284 (00.00.000.0),http://gamli.rvk.is/vefur/owa/edutils.parse_page?nafn=BN049284,Kristnibraut 49-53,53 - Breyting inni - 02-0102,Frestað. Vísað til athugasemda á umsóknarblaði.,Sótt er um leyfi til að breyta innra skipulagi íbúðar sem hönnuð var fyrir fatlaða 02 0102 þannig að geymslu og baði verður breytt í herbergi og herbergi sem er nú notað sem fataskápur verður að baðherbergi í húsinu nr. 53 á lóð nr.49-53 við Kristnibraut. Gjald kr. 9.823
49301 (01.83.220.2),http://gamli.rvk.is/vefur/owa/edutils.parse_page?nafn=BN049301,Langagerði 64,"Þak, kvistur, klæðning",Frestað. Vísað til athugasemda á umsóknarblaði.,"Sótt er um leyfi til að hækka þak og koma fyrir tveimur kvistum og svölum á norðurhlið, gera einn stóran kvist á austurhlið, koma fyrir anddyri á 1. hæð og klæða húsið með standandi bárujárnsklæðningu á lóð nr. 64 við Langagerði. Samþykki aðliggjandi lóð í Langagerði nr. 54, 56, 58, 60, 62,66, 76 og 78. Stækkun hús: XX ferm.,  XX rúmm.  Gjald kr. 9.823"
49244 (01.35.700.3),http://gamli.rvk.is/vefur/owa/edutils.parse_page?nafn=BN049244,Langholtsvegur 43,Lyftu- og stigahús - ofanábygging,Frestað. Lagfæra skráningu.,"Sótt er um leyfi til að byggja lyftu- og stigahús sunnan við hús sem tengist öllum hæðum, einnig er sótt um leyfi til að byggja þakhæð ofan á flatt þak og tengja hana núverandi rishæð, ýmsar breytingar innanhúss eru samfara þessum breytingum í endurhæfingarstöð krabbameinsgreindra á lóð nr. 43 við Langholtsveg. Stærðir stækkun: 119,4 ferm., 387,8 rúmm. Stærðir eftir stækkun: 626 ferm., 1.857,2 rúmm. Gjald kr. 9.823"
49322 (01.19.701.1),http://gamli.rvk.is/vefur/owa/edutils.parse_page?nafn=BN049322,Laufásvegur 63,"Kvistir, þakgluggar, endurnýja þak o.fl.",Frestað. Vísað til athugasemda á umsóknarblaði. Málinu vísað til umsagnar skipulagsfulltrúa.,"Sótt er um leyfi til að endurnýja og hækka þak, stækka kvist á norðausturhlið, byggja kvist á suðvesturhlið og innrétta herbergi og bað í risi einbýlishúss á lóð nr. 63 við Laufásveg. Stækkun xx rúmm. Gjald kr. 9.823"
49317 (01.34.700.6 03),http://gamli.rvk.is/vefur/owa/edutils.parse_page?nafn=BN049317,""">Laugalækur 6",Eldunaraðstaða,Frestað. Vísað til athugasemda á umsóknarblaði.,Sótt er um leyfi til að setja upp eldhúsaðstöðu í lokuðu rými ásamt minniháttar breytingum innanhúss í matvöruverslun og matarvinnslu í húsi nr. 6 á lóð nr. 2-8 við Laugalæk. Gjald kr. 9.823
48918 (01.17.101.6),http://gamli.rvk.is/vefur/owa/edutils.parse_page?nafn=BN048918,Laugavegur 1,Ofanábygging - bakhús mhl.04,Frestað. Vísað til athugasemda á umsóknarblaði.,"Sótt er um leyfi til að byggja hæð ofan á bakhús sem er mhl. 04,  og til að fjölga gistirýmum úr 4 í 8 í gististað í fl. IV, tegund b á lóð nr. 1 við Laugaveg. Útskrift úr gerðabók embættisafgreiðslufundar skipulagsfulltrúa frá 6. mars 2015 fylgir erindinu ásamt umsögn skipulagsfulltrúa dags. 4. mars 2015. Einnig fylgir umsögn burðarvirkishönnuðar. Stækkun 109,5 ferm., 262 rúmm. Samtals eftir stækkun 451,6 ferm., 1.382 rúmm. Gjald kr. 9.823"
49263 (01.24.010.3),http://gamli.rvk.is/vefur/owa/edutils.parse_page?nafn=BN049263,Laugavegur 118,116 - Skyndibitastaður,Frestað. Vísað til athugasemda á umsóknarblaði.,"Sótt er um leyfi til að innrétta hluta verslunar fyrir skyndibitastað, tegund xx og í flokki xx fyrir 19 gesti á 1. hæð í húsi á lóð nr. 116 við Laugaveg. Gjald kr. 9.823"
48149 (01.17.302.4),http://gamli.rvk.is/vefur/owa/edutils.parse_page?nafn=BN048149,Laugavegur 51,Breyta skrifstofuhúsnæði í íbúð,Frestað. Vísað til athugasemda á umsóknarblaði.,Sótt er um leyfi til að byggja svalir og geymslur á bakhlið og innrétta tvær íbúðir á 3. hæð húss á lóð nr. 51 við Laugaveg. Útskrift úr gerðabók embættisafgreiðslufundar skipulagsfulltrúa frá 26. september 2014 fylgir erindinu ásamt fyrri umsögn skipulagsfulltrúa dags. 31. janúar 2014. Einnig afrit af fundargerð húsfélags dags. 21. mars 2014. Gjald kr. 9.500
49089 (01.17.311.2),http://gamli.rvk.is/vefur/owa/edutils.parse_page?nafn=BN049089,Laugavegur 56,Verslunar- og veitingastaður,Samþykkt.  Samræmist ákvæðum laga nr. 160 / 2010. Áskilin lokaúttekt byggingarfulltrúa. Áskilið samþykki heilbrigðiseftirlits. Áskilið samþykki Vinnueftirlits ríkisins.,Sótt er um leyfi til að innrétta verslun og veitingahús fyrir 40 gesti í flokki II á 1. og 2. hæð húss á lóð nr. 56 við Laugaveg. Gjald kr. 9.823
48871 (01.17.311.4),http://gamli.rvk.is/vefur/owa/edutils.parse_page?nafn=BN048871,Laugavegur 58B,Gististaður í fl.II,Frestað. Vísað til athugasemda á umsóknarblaði.,"Sótt er um leyfi til að stækka bíslag til suðurs og einnar hæðar húshluta til austurs og innrétta gistiskála í flokki II fyrir 25 gesti í húsi á lóð nr. 58B við Laugaveg. Jafnframt er erindi BN048712 dregið til baka. Útskrift úr gerðabók embættisafgreiðslufundar skipulagsfulltrúa frá 10. apríl 2015 fylgir erindinu ásamt umsögn skipulagsfulltrúa dags. 10. apríl 2015. Einnig fylgir umsögn Minjastofnunar Íslands dags. 16. febrúar 2015. Stækkun:  18,9 ferm., 104,9 rúmm. Gjald kr. 9.823"
48844 (01.17.311.5),http://gamli.rvk.is/vefur/owa/edutils.parse_page?nafn=BN048844,Laugavegur 60,Breyta innra skipulagi,Samþykkt.  Samræmist ákvæðum laga nr. 160 / 2010. Áskilin lokaúttekt byggingarfulltrúa. Áskilið samþykki heilbrigðiseftirlits. Áskilið samþykki Vinnueftirlits ríkisins.,"Sótt er um leyfi til að breyta innra skipulagi, koma fyrir vörulyftu og auka gestafjölda úr 49 í 57, einnig er gerð grein fyrir áður gerðu vindfangi í veitingahúsi á lóð nr. 60 við Laugaveg. Gjald kr. 9.823"
48377 (01.81.560.2),http://gamli.rvk.is/vefur/owa/edutils.parse_page?nafn=BN048377,Melgerði 20,Viðbygging,Samþykkt.  Samræmist ákvæðum laga nr. 160 / 2010. Með vísan til samþykktar borgarráðs frá 1. september 1998 skal utanhúss- og lóðarfrágangi vera lokið eigi síðar en innan tveggja ára frá útgáfu byggingarleyfis að viðlögðum dagsektum sbr. greinar nr. 2.4.7 og 2.9.2 í byggingarreglugerð nr. 112/2012. Áskilin lokaúttekt byggingarfulltrúa.,"Sótt er um leyfi til að byggja úr timbri á einni hæð með standandi bárujárnsklæðningu og flötu þaki, sbr. fyrirspurn BN048138 sem fékk jákvæða umfjöllun, viðbyggingu við einbýlishúsið á lóð nr. 20 við Melgerði. Útskrift úr gerðabók embættisafgreiðslufundar skipulagsfulltrúa frá 12. desember 2014 fylgir erindinu. Erindi var grenndarkynnt frá 10. nóvember til og með 8. desember 2014. Engar athugasemdir bárust. Stækkun: 28,4 ferm., 80,6 rúmm. Gjald kr. 9.500"
49167 (01.24.101.3),http://gamli.rvk.is/vefur/owa/edutils.parse_page?nafn=BN049167,Mjölnisholt 6,Svalir,Samþykkt.  Samræmist ákvæðum laga nr. 160 / 2010. Með vísan til samþykktar borgarráðs frá 1. september 1998 skal utanhúss- og lóðarfrágangi vera lokið eigi síðar en innan tveggja ára frá útgáfu byggingarleyfis að viðlögðum dagsektum sbr. greinar nr. 2.4.7 og 2.9.2 í byggingarreglugerð nr. 112/2012. Áskilin lokaúttekt byggingarfulltrúa.,Sótt er um leyfi til að koma fyrir nýjum svölum frá svefnherbergi á  2. hæð á vesturhlið hússins á lóð nr. 6 við Mjölnisholt.  Bréf frá hönnuði dags. 5. febrúar 2015 fylgir. Gjald kr. 9.823
49297 (01.61.960.1),http://gamli.rvk.is/vefur/owa/edutils.parse_page?nafn=BN049297,Nauthólsvegur 50,Hjóla- og sorpgeymsla,Frestað. Vísað til athugasemda á umsóknarblaði.,"Sótt er um leyfi til að byggja hálfniðurgrafna, sambyggða hjóla- og sorpgeymslu, breyta akstursrampi, byggja skyggni yfir sorpgáma og gasgeymslu, norðanmegin við hús á lóð nr. 50 við Nauthólsveg. Gjald kr. 9.823"
45560 (01.18.650.6),http://gamli.rvk.is/vefur/owa/edutils.parse_page?nafn=BN045560,Njarðargata 25,Ofanábygging,Samþykkt.  Samræmist ákvæðum laga nr. 160 / 2010. Með vísan til samþykktar borgarráðs frá 1. september 1998 skal utanhúss- og lóðarfrágangi vera lokið eigi síðar en innan tveggja ára frá útgáfu byggingarleyfis að viðlögðum dagsektum sbr. greinar nr. 2.4.7 og 2.9.2 í byggingarreglugerð nr. 112/2012. Áskilin lokaúttekt byggingarfulltrúa.,"Sótt er um leyfi til að byggja hæð úr timbri ofan á og klæða að utan með bárujárni einbýlishús á lóð nr. 25 við Njarðargötu. Útskrift úr gerðabók embættisafgreiðslufundar skipulagsfulltrúa frá 8. mars 2013 fylgir erindinu ásamt umsögn skipulagsfulltrúa dags. 7. mars 2013, útskrift úr gerðabók embættisafgreiðslufundar skipulagsfulltrúa frá 27. september, umsögn skipulagsfulltrúa dags. 26. september 2013 og bréf Guðmundar Þórðarsonar hdl. dags. 3. janúar 2014. Stækkun:  34,8 ferm., 242,3 rúmm. Gjald kr. 9.000 + 21.807"
49321 (01.41.510.4),http://gamli.rvk.is/vefur/owa/edutils.parse_page?nafn=BN049321,Njörvasund 31,Gluggar 1.hæð,Frestað. Vísað til athugasemda á umsóknarblaði.,Sótt er um leyfi til að skipta um glugga með óverulegum útlitsbreytingum á 1. hæð í tvíbýlishúsi á lóð nr. 31 við Njörvasund. Meðfylgjandi er samþykki meðeiganda dags. 28. apríl 2015. Gjald kr. 9.823
49295 (01.23.520.1),http://gamli.rvk.is/vefur/owa/edutils.parse_page?nafn=BN049295,Nóatún 17,Breytingar - BN048902,Samþykkt.  Samræmist ákvæðum laga nr. 160 / 2010. Áskilin lokaúttekt byggingarfulltrúa.,"Sótt er um leyfi til að breyta brunamerkingu í nýsamþykktu erindi, BN048902, í verslun á lóð nr. 17 við Nóatún. Gjald kr. 9.823"
49353 (01.44.100.9),http://gamli.rvk.is/vefur/owa/edutils.parse_page?nafn=BN049353,Nökkvavogur 18,Bílskúr - breyting,Frestað. Vísað til athugasemda á umsóknarblaði.,"Sótt er um leyfi til að endurnýja og breyta þaki á bílskúr við parhús á lóð nr. 18 við Nökkvavog. Erindi fylgir fsp. BN048362 dags. 21. október 2014, sem fékk jákvætt svar og umsögn burðarvirkishönnuðar dags. 10. apríl 2015. Stækkun:   xx rúmm. Gjald kr. 9.823"
49348 (01.82.321.0),http://gamli.rvk.is/vefur/owa/edutils.parse_page?nafn=BN049348,Rauðagerði 74,Breyting - BN047376,Frestað. Vísað til athugasemda á umsóknarblaði.,"Sótt er um leyfi til að breyta erindi BN047376, hætt er við kjallara undir viðbyggingu til norðurs og viðbyggingu til suðurs er sleppt í einbýlishúsi á lóð nr. 74 við Rauðagerði. Erindi fylgir yfirlit yfir brunaþol byggingarhluta frá verkfræðistofunni Möndli. Breytt stækkun frá fyrra erindi: Stækkun 20,5 ferm., 57,9 rúmm. Gjald kr. 9.823"
49265 (01.46.210.1),http://gamli.rvk.is/vefur/owa/edutils.parse_page?nafn=BN049265,Skeifan 11,11D - Bráðabirgðastyrking við hlaðinn vegg,Frestað. Samkvæmt gögnum embættisins er lágmarksgjald ógreitt.,"Sótt er um leyfi til að steypa bráðabirgðastyrkingu við hlaðinn millivegg milli matshluta 03 og 04 af öryggisástæðum vegna bruna í húsi á lóð nr. 11D við Skeifuna. Meðfylgjandi er bréf verkfræðings dags. 16. apríl 2015, samkomulag eigenda dags. 9. apríl 2015, annað bréf frá verkfræðingi dags. 26. september 2014. Gjald kr. 9.823"
49296 (01.70.320.1),http://gamli.rvk.is/vefur/owa/edutils.parse_page?nafn=BN049296,Skógarhlíð 8,Breyting - BN046500,Samþykkt.  Samræmist ákvæðum laga nr. 160 / 2010. Með vísan til samþykktar borgarráðs frá 1. september 1998 skal utanhúss- og lóðarfrágangi vera lokið eigi síðar en innan tveggja ára frá útgáfu byggingarleyfis að viðlögðum dagsektum sbr. greinar nr. 2.4.7 og 2.9.2 í byggingarreglugerð nr. 112/2012. Áskilin lokaúttekt byggingarfulltrúa.,"Sótt er um leyfi til að breyta áður samþykktu erindi BN046500, gerð er grein fyrir áður gerðum breytingum sem eru að í stað stálröra handriðs á 4. hæð  verður komið fyrir samlímdu, hertu gleri og handriðið hækkað upp í 1200 mm í húsinu á lóð nr. 8 við Skógarhlíð. Umsögn burðarvirkishönnuðar fyrir burðarþoli á glerhandriði og festingum dags. 16. des. 2014 fylgir. Gjald kr. 9.823"
49281 (01.79.410.1),http://gamli.rvk.is/vefur/owa/edutils.parse_page?nafn=BN049281,Skógarvegur 12-14,Svalir - stækkun - gaflar,Frestað. Samkvæmt gögnum embættisins er lágmarksgjald ógreitt.,"Sótt er um leyfi til að breyta erindi BN048405, að stækka svalir og breyta gluggasetningu á göflum fjölbýlishúss á lóð nr. 12-14 við Skógarveg. Samtals A-rými:  5.164,5 ferm., 16.012,1 rúmm. Samtals með B-rýmum:  5.485,9 ferm. Gjald kr. 9.823"
49314 (01.17.120.6),http://gamli.rvk.is/vefur/owa/edutils.parse_page?nafn=BN049314,Skólavörðustígur 8,Breyting - 0206 og 0207,Frestað. Vísað til athugasemda á umsóknarblaði.,Sótt er um leyfi til að breyta innréttingum í rýmum 0206 og 0207 fyrir skyndibitastað í flokki xx og tegund xx fyrir 21 gest á 2. hæð í húsi á lóð nr. 8 við Skólavörðustíg. Gjald kr. 9.823
47868 (01.24.750.5),http://gamli.rvk.is/vefur/owa/edutils.parse_page?nafn=BN047868,Snorrabraut 83,Breyting inni,Frestað. Vísað til athugasemda á umsóknarblaði.,Sótt er um leyfi til ýmiss konar breytinga innanhúss á húsi á lóð nr. 83 við Snorrabraut. Útskrift úr gerðabók embættisafgreiðslufundar skipulagsfulltrúa frá 8. ágúst 2014 fylgir erindinu ásamt umsögn skipulagsfulltrúa dags. 5. ágúst 2014. Gjald kr. 9.500
48981 (01.43.350.1),http://gamli.rvk.is/vefur/owa/edutils.parse_page?nafn=BN048981,Sólheimar 25,Breyta 0104 í íbúð,"Samþykkt.  Samræmist ákvæðum laga nr. 160 / 2010. Skilyrt er að ný eignaskiptayfirlýsing sé samþykkt fyrir útgáfu byggingarleyfis, henni verður þinglýst eigi síðar en við lokaúttekt. Áskilin lokaúttekt byggingarfulltrúa.",Sótt er um leyfi til að breyta tannlæknastofu í rými 0104 í íbúð í fjölbýlishúsinu á lóð nr. 25 við Sólheima. Jákvæð fyrirspurn BN046561 dags. 8. október 2013 og yfirlýsing dags. 8. apríl 2015 frá húsfélagi Sólheima 25 um samþykki þess fylgir erindi. Gjald kr. 9.823
49331 (01.23.000.3),http://gamli.rvk.is/vefur/owa/edutils.parse_page?nafn=BN049331,Sóltún 1,Breytingar - BN048881,"Samþykkt.  Samræmist ákvæðum laga nr. 160 / 2010. Með vísan til samþykktar borgarráðs frá 1. september 1998 skal utanhúss- og lóðarfrágangi vera lokið eigi síðar en innan tveggja ára frá útgáfu byggingarleyfis að viðlögðum dagsektum sbr. greinar nr. 2.4.7 og 2.9.2 í byggingarreglugerð nr. 112/2012. Með vísan til samþykktar umhverfis- og skipulagsráðs, dags. 22. maí 2013, skal lóðarhafi, í samráði við byggingarfulltrúa, setja upp skilti til kynningar á fyrirhuguðum framkvæmdum á byggingarstað. Í samræmi við samþykkt umhverfis- og skipulagsráðs dags. 9. október 2013 skal vélknúinn þvottabúnaður vera til staðar á byggingarlóð sem tryggi að vörubílar og aðrar þungavinnuvélar verði þrifnar áður en þær yfirgefa byggingarstað. Samráð skal haft við byggingarfulltrúa um staðsetningu búnaðarins. Sérstakt samráð skal haft við yfirverkfræðing byggingarfulltrúa vegna jarðvinnu. Áskilin lokaúttekt byggingarfulltrúa.","Sótt er um samþykki á breytingum á áður samþykktu erindi BN048881 í kjölfar nafnabreytingar sem samþykkt var 14. apríl 2015, mál nr. BN049178, ennfremur eru ýmsar aðrar breytingar sem auðkenndar eru í fylgiskjali auk þess er texta um brunavarnir í byggingarlýsingu breytt fyrir fjölbýlishúsið Mánatún 19-21 á lóð nr. Sóltún 1-3/Mánatún 1-17. Gjald kr. 9.823"
49294 (01.13.820.1),http://gamli.rvk.is/vefur/owa/edutils.parse_page?nafn=BN049294,Sólvallagata 67,Færanlegar kennslustofur,Samþykkt.  Samræmist ákvæðum laga nr. 160 / 2010. Með vísan til samþykktar borgarráðs frá 1. september 1998 skal utanhúss- og lóðarfrágangi vera lokið eigi síðar en innan tveggja ára frá útgáfu byggingarleyfis að viðlögðum dagsektum sbr. greinar nr. 2.4.7 og 2.9.2 í byggingarreglugerð nr. 112/2012. Áskilin lokaúttekt byggingarfulltrúa. Áskilið samþykki heilbrigðiseftirlits.,"Sótt er um leyfi til að færa þrjár færanlegar kennslustofur ásamt tengigangi  nr. K-56B, K-15,  K-51 og T-28 á byggingareit fyrir færanlegar kennslustofu innan lóðar Vesturbæjaskóla og tengigangur T 31 verður fjarlægður af lóð nr. 67 við Sólvallagötu.  Stærð kennslustofa með tengigangi samt. 199,6 ferm., 666,2 rúmm.  Tengigangur T31 er fjarlægður er 11,5 ferm. 33,5 rúmm. Gjald kr. 9.823"
49187 (01.71.210.1),http://gamli.rvk.is/vefur/owa/edutils.parse_page?nafn=BN049187,Stigahlíð 45-47,Apótek og áður gerðar breytingar,"Samþykkt.  Samræmist ákvæðum laga nr. 160 / 2010. Skilyrt er að ný eignaskiptayfirlýsing sé samþykkt fyrir útgáfu byggingarleyfis, henni verður þinglýst eigi síðar en við lokaúttekt. Áskilin lokaúttekt byggingarfulltrúa. Áskilið samþykki heilbrigðiseftirlits. Áskilið samþykki Vinnueftirlits ríkisins.","Sótt er um leyfi til að innrétta apótek í rými 0101 og innrétta starfsmannaaðstöðu og lyfjamóttöku í kjallaranum, einnig er sótt um áður gerðar framkvæmdir sem eru þær að gerður hefur verið stigi og stigaop frá 1. hæð niður í kjallara og sorpgeymsla minnkar í húsinu á lóð nr. 45-47 við Stigahlíð. Samþykki meðeigenda dags. 21. apríl 2014 og umsögn burðarvirkishönnuðar dags. 21. apríl 2014 fylgir Gjald kr. 9.823"
49155 (04.32.680.1),http://gamli.rvk.is/vefur/owa/edutils.parse_page?nafn=BN049155,Stuðlaháls 1,Hleðsluskýli - stækkun,Samþykkt.  Samræmist ákvæðum laga nr. 160 / 2010. Með vísan til samþykktar borgarráðs frá 1. september 1998 skal utanhúss- og lóðarfrágangi vera lokið eigi síðar en innan tveggja ára frá útgáfu byggingarleyfis að viðlögðum dagsektum sbr. greinar nr. 2.4.7 og 2.9.2 í byggingarreglugerð nr. 112/2012. Áskilin lokaúttekt byggingarfulltrúa. Áskilið samþykki heilbrigðiseftirlits.,"Sótt  er um leyfi til að stækka hleðsluskýli á norðurhlið með því að breyta B-rými í A-rými í húsinu á lóð nr. 1 við Stuðlaháls.  Stækkun:  94.5 ferm. , 687,9 rúmm. Gjald kr. 9.823"
49351 (01.37.-10.1),http://gamli.rvk.is/vefur/owa/edutils.parse_page?nafn=BN049351,Sundlaugavegur 30,Tímabundið leyfi - kaldur pottur,Samþykkt.  Samræmist ákvæðum laga nr. 160 / 2010. Áskilin lokaúttekt byggingarfulltrúa.,"Sótt er um leyfi, tímabundið til eins árs til prufu fyrir kaldan pott framan við kringlu á bakka sundlaugarinnar í Laugardal á lóð nr. 30 við Sundlaugarveg. Gjald kr. 9.823"
44862 (04.32.920.1),http://gamli.rvk.is/vefur/owa/edutils.parse_page?nafn=BN044862,Tunguháls 10,Skipta upp eign 0101 - áður gerðar útlitsbreytingar,Frestað. Lagfæra skráningu.,"Sótt er um leyfi til að skipta upp eign 0101 í eignir 0101 og 0110 og gera grein fyrir áður gerðum milliloftum og útlitsbreytingum á norðurhlið 1. hæðar á húsinu á lóð nr. 10 við Tunguháls. Fyrirspurn BN043973 fylgir erindi. Stækkun millilofta: 871,8 ferm., + 247,2 ferm.  Samtals : 1.119,0 ferm. Gjald kr. 8.500"
49282 (05.05.620.1),http://gamli.rvk.is/vefur/owa/edutils.parse_page?nafn=BN049282,Urðarbrunnur 2-8,Raðhús,Frestað. Vísað til athugasemda á umsóknarblaði.,"Sótt er um leyfi fyrir staðsteyptu raðhúsi á tveimur hæðum með steyptri þakplötu, aðkoma er að neðri hæð og bílgeymslur innbyggðar í raðhúsið á lóð nr. 2, 4, 6 og 8 við Urðarbrunn. Stærðir íbúða:  Mhl. 01 189,2 ferm. , 610,4 rúmm.  Bílgeymsla 22,8 ferm. , 63,8 rúmm. B-rými 16,4 ferm. Mhl. 02 189,4 ferm. , 611,1 rúmm.  Bílgeymsla 22,8 ferm. , 63,8 rúmm. B-rými 16,4 ferm. Mhl. 03 189,4 ferm. , 611,1 rúmm.  Bílgeymsla 22,8 ferm. , 63,8 rúmm. B-rými 16,4 ferm. Mhl. 04 189,2 ferm. , 610,4 rúmm.  Bílgeymsla 22,8 ferm. , 63,8 rúmm. B-rými 16,4 ferm. Samtals :  A rými  848,4 ferm., 2698,2 rúmm.  og B rými 65,6 ferm.  Gjald kr. 9.823"
49140 (04.61.330.7),http://gamli.rvk.is/vefur/owa/edutils.parse_page?nafn=BN049140,Urðarstekkur 1,Kjallari - íbúðarherbergi,Samþykkt.  Samræmist ákvæðum laga nr. 160 / 2010. Áskilin lokaúttekt byggingarfulltrúa.,"Sótt er um leyfi til að útbúa íbúðarherbergi með salerni og eldhúsaðstöðu í útgröfnu rými í kjallara einbýlishússins á lóð nr. 1 við Urðarstekk.  Jákvættt erindi BN048726, bréf frá hönnuði dags.20. apríl 2015 og umsögn burðarvirkishönnuðar dags. 20.04.2015 fylgir. Stækkun vegna útgrafins rýmis: 26,5 ferm., 148,5 rúmm.  Gjald kr. 9.823"
49145 (01.33.780.1),http://gamli.rvk.is/vefur/owa/edutils.parse_page?nafn=BN049145,Vatnagarðar 10,Reyndarteikningar v/lokaúttektar,Samþykkt.  Samræmist ákvæðum laga nr. 160 / 2010. Áskilin lokaúttekt byggingarfulltrúa.,Sótt er um samþykki á þegar gerðum breytingum vegna lokaúttektar sbr. erindi BN044321/BN043966 á verksmiðjuhúsi á lóð nr. 10 við Vatnagarða. Gjald kr. 9.823
49188 (01.17.423.4),http://gamli.rvk.is/vefur/owa/edutils.parse_page?nafn=BN049188,Vitastígur 11,Breyta í gistiheimili,Frestað. Er til umfjöllunar hjá skipulagsfulltrúa.,"Sótt er um leyfi til að innrétta gististað í flokki II, tegund gistiheimili, einnig er gerð grein fyrir ýmsum áður gerðum breytingum á húsi, s.s. að lækka gólf í kjallara í framhúsi og lækka land og byggja brú yfir gjána milli framhúss og bakhúss, á lóð nr. 11 við Vitastíg. Jafnframt er erindi BN047497 dregið til baka. Gjald kr. 9.823"
49201 (01.18.350.2),http://gamli.rvk.is/vefur/owa/edutils.parse_page?nafn=BN049201,Þingholtsstræti 30,Nýjar svalir,Frestað. Vísað til athugasemda á umsóknarblaði.,Sótt er um leyfi til fjarlægja eldri steinsteyptar svalir og byggja nýjar stærri úr stáli og gleri á fjölbýlishúsi á lóð nr. 30 við Þingholtsstræti. Gjald kr. 9.823
49085 (04.77.380.2),http://gamli.rvk.is/vefur/owa/edutils.parse_page?nafn=BN049085,Þingvað 19,Einbýlishús,Samþykkt.  Samræmist ákvæðum laga nr. 160 / 2010. Frágangur á lóðamörkum verði gerður í samráði við lóðarhafa aðliggjandi lóða. Áskilin lokaúttekt byggingarfulltrúa.,"Sótt er um leyfi til að breyta innra skipulagi og gera dyr úr þvottahúsi út í garð á nýsamþykktu erindi, sjá BN046719, á lóð nr. 19 við Þingvað. Gjald kr. 9.823"
49340 (01.11.980.1),http://gamli.rvk.is/vefur/owa/edutils.parse_page?nafn=BN049340,Austurbakki 2,Mæliblað,Samþykkt.  Samræmist ákvæðum laga nr. 160 / 2010.,"Óskað er eftir  samþykki byggingarfulltrúans á Lóðauppdrætti staðgreinir 1.119.8 vegna lóðarinnar Austurbakki 2 (staðgr. 1.119.801, landnr. 209357), eða eins og sýnt er á meðfylgandi uppdrætti Landupplýsingadeildar dagsettum 04.12. 2014. Lóðin sjálf er óbreytt að stærð og lögun frá fyrra blaði en byggingarreitir og fleira hafa breyst. Sjá deiliskipulagsbreytingu samþykkta í umhverfis- og skipulagsráði þann 04. 06. 2014, samþykkta í borgarráði þann 05. 06. 2014 og auglýsta í B-deild Stjórnartíðinda þann 25. 06. 2014."
49341 (01.17.420.4),http://gamli.rvk.is/vefur/owa/edutils.parse_page?nafn=BN049341,Laugavegur 70,Leiðrétt bókun,Samþykkt.  Samræmist ákvæðum laga nr. 160 / 2010.,"Á afgreiðslufundi byggingarfulltrúa þann 28. apríl sl. var samþykkt að: ""...endurbyggja og lyfta húsi, byggja nýja jarðhæð úr steinsteypu og byggja viðbyggingu á þremur hæðum sunnan og austan húss og til að innrétta verslun á jarðhæð og níu hótelherbergi og tvær íbúðir í húsi á lóð nr. 70 við Laugaveg. Stækkun:  296,5 ferm., xx rúmm."" Átti að vera: Sótt er um leyfi til að endurbyggja og lyfta húsi, byggja nýja jarðhæð úr steinsteypu og byggja viðbyggingu á þremur hæðum sunnan og austan húss og til að innrétta verslun á jarðhæð og níu hótelherbergi og tvær íbúðir í húsi á lóð nr. 70 við Laugaveg. Erindi fylgja umsögn Minjastofnunar Íslands dags. 25. febrúar 2015 og varmatapsútreikningur ódagsettur ásamt útskrift úr gerðabók embættisafgreiðslufundar skipulagsfulltrúa frá 10. apríl 2015 og umsögn skipulagsfulltrúa dags. 10. apríl 2015. Einnig umsögn Minjastofnunar Íslands um verkteikningar dags. 16. apríl 2015. Stækkun:  462,4 ferm., 1.693,7 rúmm. Greiða skal fyrir 9 bílastæði í flokki II. Þetta leiðréttist hér með."
49349 (01.60.520.1),http://gamli.rvk.is/vefur/owa/edutils.parse_page?nafn=BN049349,Sturlugata 5,Mæliblað,Samþykkt.  Samræmist ákvæðum laga nr. 160 / 2010.,"Óskað er eftir  samþykki byggingarfulltrúans á Lóðauppdrætti staðgreinir 1.605.2 vegna lóðarinnar Sturlugata 5 (staðgr. 1.605.201, landnr. 106637), eða eins og sýnt er á meðfylgandi uppdrætti Landupplýsingadeildar dagsettum 22.04. 2015. Ekki er til Mæliblað af lóðinni. Lóðin Sturlugata 5 er skráð 9800 m2  í skrám, lóðin verður 8774 m2, og kemur úr óútvísuðu landi borgarinnar ( landnr. 221448 ). Sjá deiliskipulag samþykkt í skipulagsráði þann 17. 08. 2011, samþykkt í borgarráði þann 25. 08. 2011 og auglýst í B-deild Stjórnartíðinda þann 05. 12. 2011 um gildistöku, sbr. og forsögn skipulagsfulltrúa um aðlögun að staðarháttum við SA-mörk lóðar, svo og mælingar Landupplýsingadeildar á staðnum."
49310 (01.16.210.8),http://gamli.rvk.is/vefur/owa/edutils.parse_page?nafn=BN049310,Ásvallagata 2,(fsp) - Gluggabreyting,Afgreitt Með vísan til leiðbeininga á fyrirspurnarblaði.,Spurt er hvort setja megi glugga á austurvegg í húsi á lóð nr. 2 við Ásvallagötu.
49225 (01.19.031.4),http://gamli.rvk.is/vefur/owa/edutils.parse_page?nafn=BN049225,Barónsstígur 28,(fsp) - Niðurrif á geymslu,Afgreitt,"Spurt er hvort rífa megi geymslubyggingu, mhl. 02 og 03, sem er áföst flutningshúsi, mhl. 01, á lóð nr. 28 við Barónsstíg sem fer á lóð nr. 1 við Þrastargötu."
49279 (01.19.022.1),http://gamli.rvk.is/vefur/owa/edutils.parse_page?nafn=BN049279,Bergþórugata 15,(fsp) - Bakhús,Frestað. Málinu vísað til umsagnar skipulagsfulltrúa.,Spurt er hvort leyfi fengist til að byggja stakstætt bakhús  35 ferm að grunnfleti  með rishæð eignarhaldi tengd við íbúð á jarðhæð og verður notað sem íbúðargistingar á lóð nr. 15 við Bergþórugötu.
49272 (01.88.510.3),http://gamli.rvk.is/vefur/owa/edutils.parse_page?nafn=BN049272,Blesugróf 25,(fsp) - Bílskúr,Frestað. Vísað til athugasemda á fyrirspurnarblaði.,Spurt er hvort réttur sé til að byggja bílskúr eða bílskýli og nýbyggingu á lóð nr. 25 við Blesugróf.
49337 (01.35.730.9),http://gamli.rvk.is/vefur/owa/edutils.parse_page?nafn=BN049337,Efstasund 47,(fsp) - Viðbygging,Afgreitt Með vísan til leiðbeininga á fyrirspurnarblaði.,Spurt er hvort leyft yrði að byggja 3 metra viðbyggingu við austurhlið með svölum á þaki einbýlishúss á lóð nr. 47 við Efstasund.
49293 (02.85.460.3 03),http://gamli.rvk.is/vefur/owa/edutils.parse_page?nafn=BN049293,Fannafold 148,(fsp) - Hurð út í garð,Jákvætt. Að uppfylltum skilyrðum enda verði sótt um byggingarleyfi.,Spurt er um álit byggingaryfirvalda á því að breyta stofuglugga og koma fyrir hurð og tryggja aðgengi að garði úr stofu í húsi á lóð nr. 148 við Fannafold.
49305 (01.71.120.5),http://gamli.rvk.is/vefur/owa/edutils.parse_page?nafn=BN049305,Grænahlíð 5,(fsp) - Stækka bílastæði,Frestað. Málinu vísað til umsagnar skipulagsfulltrúa.,Spurt er hvort leyfi fengist til að fjölga bílstæðum um tvö svo að á lóð verði fjögur bílastæði á lóð nr. 5 við Grænuhlíð.
49343 (01.24.510.6),http://gamli.rvk.is/vefur/owa/edutils.parse_page?nafn=BN049343,Háteigsvegur 9,(fsp) - Framkvæmdaleyfi,Nei. Ekki hefur verið samþykkt byggingarleyfi.,Spurt er hvort byggingarleyfi hafi verið gefið út fyrir niðurbroti á vegg og nýju bílastæði Einholtsmegin við hús á lóð nr. 9 við Háteigsveg.
49303 (01.24.020.1),http://gamli.rvk.is/vefur/owa/edutils.parse_page?nafn=BN049303,Laugavegur 120,(fsp) - Rífa lágbyggingu,Nei. Sækja þarf um byggingarleyfi samanber leiðbeiningar á fyrirspurnarblaði.,Spurt er hvort rífa megi lágbyggingu og hefja jarðvinnu fyrir hótel á lóð nr. 120 við Laugaveg.
49290 (01.17.221.3),http://gamli.rvk.is/vefur/owa/edutils.parse_page?nafn=BN049290,Laugavegur 32,(fsp) - Svalir,Afgreitt Með vísan til leiðbeininga á fyrirspurnarblaði.,Spurt er hvort leyfi fengist til að koma fyrir nýjum svölum á 2. hæð íbúð 0201 í mhl. 01 í húsinu á lóð nr. 32 við Laugaveg.
49304 (01.23.500.7),http://gamli.rvk.is/vefur/owa/edutils.parse_page?nafn=BN049304,Miðtún 50,(fsp) - Samþykkt íbúð - Útihurð,Afgreitt Með vísan til leiðbeininga á fyrirspurnarblaði.,Spurt er hvort kjallaraíbúð fáist samþykkt og hvað þurfi að gera til að svo verði í húsi á lóð nr. 50 við Miðtún.
49299 (01.13.910.4),http://gamli.rvk.is/vefur/owa/edutils.parse_page?nafn=BN049299,Sólvallagata 41,(fsp) - Stækka kvist - svalir,Frestað. Málinu vísað til umsagnar skipulagsfulltrúa.,Spurt er hvort stækka megi kvist sem snýr í norður og byggja þar litlar svalir á hús á lóð nr. 41 við Sólvallagötu.
49199 (01.46.310.1),http://gamli.rvk.is/vefur/owa/edutils.parse_page?nafn=BN049199,Suðurlandsbraut 46-54,(fsp) - 48 - Söluturnsleyfi,Afgreitt Með vísan til leiðbeininga á fyrirspurnarblaði.,"Spurt er um söluturnsleyfi fyrir sölu á veitingum, kaffi og gosi til neyslu í sérverslun með spil og skyldar vörur í húsi á lóð nr. 48 við Suðurlandsbraut."
49311 (02.69.850.5),http://gamli.rvk.is/vefur/owa/edutils.parse_page?nafn=BN049311,Úlfarsbraut 98,(fsp) - Svalalokun,Afgreitt Með vísan til leiðbeininga á fyrirspurnarblaði.,Spurt er hvort loka megi svölum með gleri á húsi nr. 98 við Úlfarsbraut.
48989 (01.13.121.5),http://gamli.rvk.is/vefur/owa/edutils.parse_page?nafn=BN048989,Vesturgata 30,"(fsp) - Endurbygging, hækkun, nýbygging",Afgreitt Með vísan til umsagnar skipulagsfulltrúa dags. 29. apríl 2015.,Spurt er hvort endurbyggja megi og hækka íbúðarhús og byggja auk þess nýtt hús á lóð nr. 30 við Vesturgötu. Meðfylgjandi er bréf fyrirspyrjanda dags. 5.3. 2015 Útskrift úr gerðabók embættisafgreiðslufundar skipulagsfulltrúa frá 29. apríl 2015 fylgir erindinu ásamt umsögn skipulagsfulltrúa dags. 29. apríl 2015 einnig umsögn Minjastofnunar Íslands dags. 15.4. 2015.
49300 (01.13.510.2),http://gamli.rvk.is/vefur/owa/edutils.parse_page?nafn=BN049300,Vesturgata 33,(fsp) - Svalir á risíbúð,Frestað. Gera betur grein fyrir erindi.,Spurt er hvort byggja megi svalir á austurgafl rishæðar húss á lóð nr. 33 við Vesturgötu.
