nr,url,heimilisfang,tegund,nidurstada,spurning
49447 (01.13.650.6),http://gamli.rvk.is/vefur/owa/edutils.parse_page?nafn=BN049447,Aðalstræti 16,Kennslurými kjallara - til bráðabirgða,Frestað. Vísað til athugasemda eldvarnareftirlits á umsóknarblaði.,Sótt er um leyfi til að hólfa af kennslurými fyrir nemendahópa í kjallara inn af sýningarskála tímabundið á meðan handritasýning er í fjölnotarými við inngang í safni á lóð nr. 16 við Aðalstræti. Gjald kr. 9.823
49402 (01.43.020.8),http://gamli.rvk.is/vefur/owa/edutils.parse_page?nafn=BN049402,Álfheimar  2-6,Breyting inni,Frestað. Vísað til athugasemda heilbrigðiseftirlits á umsóknarblaði.,Sótt er um leyfi til að breyta innra skipulagi í ísbúð á lóð nr. 2-6 við Álfheima. Gjald kr. 9.823
49332 (01.26.300.1),http://gamli.rvk.is/vefur/owa/edutils.parse_page?nafn=BN049332,Ármúli 9,Breyting - BN047780,Frestað. Vísað til athugasemda á umsóknarblaði og umsagnar skipulagsfulltrúa dags. 15. maí 2015.,"Sótt er um leyfi til að breyta áður samþykktu erindi, BN047780, þannig að breytt er fyrirkomulagi skurðstofa, lyftuhús verður stækkað og komið fyrir lyfturými ofan á þaki, komið fyrir súrefnisgeymslu undir stigapalli á norðurhlið og sorpi komið fyrir við lóðarmörk að Suðurlandsbraut 12 á lóð nr. 9 við Ármúla . Brunahönnunarskýrsla  dags. í júní 2014 fylgir erindi. Útskrift úr gerðabók embættisafgreiðslufundar skipulagsfulltrúa frá 15. maí 2015 fylgir erindinu ásamt umsögn skipulagsfulltrúa dags. 15. maí 2015. Stækkun: 32,5 ferm., 91,6 rúmm. Gjald kr. 9.823"
49477 (04.05.--9.9),http://gamli.rvk.is/vefur/owa/edutils.parse_page?nafn=BN049477,Ártúnsh.,Afskráning - Timburhús Olíusala,Samþykkt.  Samræmist ákvæðum laga nr. 160 / 2010. Áskilin lokaúttekt byggingarfulltrúa.,"Sótt er um afskráningu mannvirkis sem skráð er 29,3 ferm. og 79,0 rúmm. olíusala úr timbri með fastanúmer 204-2953, mannvirkið var flutt frá malbikunarstöðinni við Ártúnsholt árið 2000 að Hraunsási 4 í Borgarbyggð, þar sem það hefur staðið síðan með fastanúmer 226-1516, rangt skráð."
49354 (01.18.620.2),http://gamli.rvk.is/vefur/owa/edutils.parse_page?nafn=BN049354,Baldursgata 16,Íbúð - 3.hæð,Frestað. Vísað til athugasemda á umsóknarblaði.,"Sótt er um leyfi til að breyta innra fyrirkomulagi íbúðar 0301 og byggja svalir á suðurhlið (bakhlið) þakhæðar, sbr. erindi BN047413 frestað dags. 1.4. 2015, einnig er sótt um leyfi til að byggja svalir og stiga ofan í garð frá íbúð á 1. hæð fjölbýlishússins á lóðinni nr. 16 við Baldursgötu. Meðfylgjandi er yfirlýsing hönnunarstjóra dags. 15.4. 2015. Gjald kr 9.823"
49413 (01.19.300.4),http://gamli.rvk.is/vefur/owa/edutils.parse_page?nafn=BN049413,Barónsstígur 45A,Breytingar á BN048267,Samþykkt.  Samræmist ákvæðum laga nr. 160 / 2010. Með vísan til samþykktar borgarráðs frá 1. september 1998 skal utanhúss- og lóðarfrágangi vera lokið eigi síðar en innan tveggja ára frá útgáfu byggingarleyfis að viðlögðum dagsektum sbr. greinar nr. 2.4.7 og 2.9.2 í byggingarreglugerð nr. 112/2012. Áskilin lokaúttekt byggingarfulltrúa. Áskilið samþykki heilbrigðiseftirlits.,"Sótt er um samþykki á breytingum á stofnerindi BN048267, dags. 16.12.2014, sem felast í lagfæringum á hæðarkótum, lagfærðum málum potta og laugar, stækkun tæknikjallara ásamt lagnatengigangi við eldra hús, leiðréttri lagnaleið úr tæknikjallara í gegn um báðar hæðir og upp á þak, breytingum á aðgönguhlið fyrir framan karlaklefa á 1. hæð í núverandi húsi og fyrir framan nýjan kvennaklefa, þvottahús og ræstiherbergi eru sameinuð í eitt, afgreiðslu er breytt, loftræsisamstæðu er komið fyrir í kjallara, sorpgeymsla á lóð er færð til og aðeins stækkuð og stærðum lyftna er breytt í Sundhöll Reykjavíkur á lóð nr. 45A við Barónsstíg. Meðfylgjandi er bréf arkitekts dags. 12.5. 2015, breytt brunahönnun dags. des. 2014. Stærðir stækkun: 167,2 ferm., 509,6 rúmm. Gjald kr. 9.823"
49196 (01.13.521.3),http://gamli.rvk.is/vefur/owa/edutils.parse_page?nafn=BN049196,Bárugata 34,Bæta við svölum - 2.hæð,Frestað. Vísað til athugasemda á umsóknarblaði. Er til meðferðar hjá skipulagsfulltrúa.,"Sótt er um leyfi til að byggja svalir úr stáli timburklætt gólf, handrið verður stálgrind með lóðréttum pílórum á austurgafl 3. hæðar hússins á lóð nr. 34 við Bárugötu. Útskrift úr gerðabók embættisafgreiðslufundar skipulagsfulltrúa frá 17. apríl 2015 fylgir erindinu ásamt umsögn skipulagsfulltrúa dags. 17. apríl 2015 og útskrift úr gerðabók embættisafgreiðslufundar skipulagsfulltrúa frá 29. apríl 2015 ásamt umsögn skipulagsfulltrúa dags. 17. apríl 2015. Samþykki meðeigenda  dags. 1. apríl 2015 og  jákvæð fyrirspurn BN047536 fylgir erindinu.  Gjald kr. 9.823"
48609 (01.18.520.5),http://gamli.rvk.is/vefur/owa/edutils.parse_page?nafn=BN048609,""">Bergstaðastræti 46",Breytingar innanhúss,Samþykkt.  Samræmist ákvæðum laga nr. 160 / 2010. Með vísan til samþykktar borgarráðs frá 1. september 1998 skal utanhúss- og lóðarfrágangi vera lokið eigi síðar en innan tveggja ára frá útgáfu byggingarleyfis að viðlögðum dagsektum sbr. greinar nr. 2.4.7 og 2.9.2 í byggingarreglugerð nr. 112/2012. Áskilin lokaúttekt byggingarfulltrúa.,"Sótt er um leyfi til að gera svalir á rishæð, innrétta tvö svefnherbergi í risi, baðherbergi í kjallara og breyta innra skipulagi, m. a. innrétta þvottaherbergi og geymslu í bílgeymslu einbýlishúss á lóð nr. 46 við Bergstaðastræti. Erindi var grenndarkynnt frá 26. febrúar til og með 26. mars 2015. Eftirtaldir aðilar sendu athugasemdir: Úlfhildur Dagsdóttir f.h. húsfélagsins Bergstaðastræti 48 dags. 19. og 31. mars 2015. Einnig er lögð fram umsögn skipulagsfulltrúa dags. 8. apríl 2015.  Útskrift úr gerðabók embættisafgreiðslufundar skipulagsfulltrúa frá 16. janúar 2015 fylgir erindinu ásamt umsögn skipulagsfulltrúa dags. 16. janúar 2015. Gjald kr. 9.500"
48835 (01.16.020.8),http://gamli.rvk.is/vefur/owa/edutils.parse_page?nafn=BN048835,Blómvallagata 2,Vinnustofa,Samþykkt.  Samræmist ákvæðum laga nr. 160 / 2010. Með vísan til samþykktar borgarráðs frá 1. september 1998 skal utanhúss- og lóðarfrágangi vera lokið eigi síðar en innan tveggja ára frá útgáfu byggingarleyfis að viðlögðum dagsektum sbr. greinar nr. 2.4.7 og 2.9.2 í byggingarreglugerð nr. 112/2012. Frágangur á lóðamörkum verði gerður í samráði við lóðarhafa aðliggjandi lóða. Áskilin lokaúttekt byggingarfulltrúa.,"Sótt er um leyfi til að byggja staðsteypta vinnustofu með millilofti upp að útvegg Sólvallagötu 12 á norðurhlið á lóð nr. 2 við Blómvallagötu. Erindi var grenndarkynnt frá 20. febrúar til og með 20. mars 2015. Eftirtaldir aðilar sendu athugasemdir: Sigríður Magnúsdóttir dags. 20. mars 2015. Erindinu var vísað til umsagnar verkefnisstjóra á fundi skipulagsfulltrúa 27. mars 2015 og er nú lagt fram að nýju ásamt umsögn skipulagsfulltrúa dags. 16. apríl 2015. Jákvæð fyrirspurn BN047927 dags. 15. júlí 2014 fylgir.  Meðfylgjandi er samþykki eiganda Sólvallagötu 12 dags. 20.5. 2015. Stærð mhl. 02 er:  40,6 ferm., 127,5 rúmm. Gjald kr. 9.823"
49128 (01.25.120.3),http://gamli.rvk.is/vefur/owa/edutils.parse_page?nafn=BN049128,Bolholt 6-8,Gistiheimili - 3. 4. og 5.hæð,Samþykkt.  Samræmist ákvæðum laga nr. 160 / 2010. Áskilin lokaúttekt byggingarfulltrúa. Áskilið samþykki heilbrigðiseftirlits.,Sótt er um leyfi til að innrétta gistiheimili á 3. og 5. hæð í Bolholti 6 og á 4. hæð í Bolholti 8 í húsi á lóð nr. 6-8 við Bolholt. Meðfylgjandi er samkomulag milli eigenda rýmis 0401 í Bolholti 8 og rýmis 0202 í Skipholti 37 dags. 23. mars 2015 um sameiginlega flóttaleið. Útskrift úr gerðabók embættisafgreiðslufundar skipulagsfulltrúa frá 17. apríl 2015 fylgir erindinu ásamt umsögn skipulagsfulltrúa dags. 30. janúar 2015. Gjald kr. 9.823
49347 (01.22.010.7),http://gamli.rvk.is/vefur/owa/edutils.parse_page?nafn=BN049347,""">Borgartún 8-16A",S2- Hótel - Reyndarteikningar,Frestað. Vísað til athugasemda heilbrigðiseftirlits á umsóknarblaði.,"Sótt er um samþykki á áður gerðum breytingum þar sem gerð er grein fyrir breytingum sem orðið hafa á byggingartíma, m. a. hefur lyftuhús hækkað um 140 cm., innréttingu heilsuræktar í kjallara er frestað og fyrirkomulagi 1. hæðar er breytt í hóteli, S2 á lóð nr. 8-16 við Borgartún. Erindi fylgir brunahönnun frá Verkís, 4. útgáfa, maí 2015. Gjald kr. 9.823"
49452 (04.79.180.2),http://gamli.rvk.is/vefur/owa/edutils.parse_page?nafn=BN049452,Búðavað 5-7,Reyndarteikningar v/lokaúttektar,Samþykkt.  Samræmist ákvæðum laga nr. 160 / 2010. Frágangur á lóðamörkum verði gerður í samráði við lóðarhafa aðliggjandi lóða. Áskilin lokaúttekt byggingarfulltrúa.,"Sótt er um samþykki fyrir áður gerðum breytingum, sjá erindi BN039777, breytt er innra skipulagi í parhúsi nr. 7 á lóð nr. 5-7 við Búðavað. Gjald kr. 9.823"
49453 (01.73.750.1),http://gamli.rvk.is/vefur/owa/edutils.parse_page?nafn=BN049453,Bústaðavegur 7,Kæliraftur og dísel varaflstöð,Frestað. Málinu vísað til umsagnar skipulagsfulltrúa.,"Sótt er um leyfi til að setja upp tæknibúnað, sem felst í kælirafti og dísel varaaflsstöð með tengingu inn í hús, ásamt hljóðvarnar- og skjólgirðingu kring um hann, sbr. samþykkt stöðuleyfi BN049376, austan við hús Veðurstofunnar á lóð nr. 7. við Bústaðaveg. Meðfylgjandi er bréf arkitekts dags. 19.maí 2015 Gjald kr. 9.823"
48916 (04.68.300.9),http://gamli.rvk.is/vefur/owa/edutils.parse_page?nafn=BN048916,Eddufell 2-8,"8 - Breyting, fjölgun íbúða o. fl. BN047326","Samþykkt.  Samræmist ákvæðum laga nr. 160 / 2010. Frágangur á lóðamörkum verði gerður í samráði við lóðarhafa aðliggjandi lóða.Með vísan til samþykktar borgarráðs frá 1. september 1998 skal utanhúss- og lóðarfrágangi vera lokið eigi síðar en innan tveggja ára frá útgáfu byggingarleyfis að viðlögðum dagsektum sbr. greinar nr. 2.4.7 og 2.9.2 í byggingarreglugerð nr. 112/2012. Skilyrt er að ný eignaskiptayfirlýsing sé samþykkt fyrir útgáfu byggingarleyfis, henni verður þinglýst eigi síðar en við lokaúttekt. Áskilin lokaúttekt byggingarfulltrúa.","Sótt er um leyfi til að breyta erindi BN047326, íbúðum fjölgar úr 19 í 24, hætt er við bílgeymslu, stigahús er fært og hönnun breytt á lóð nr. 2-8 við Eddufell. Stækkun frá áður samþykktu erindi:  23,2 ferm., 58,5 rúmm. Gjald kr. 9.823"
49416 (01.29.420.1),http://gamli.rvk.is/vefur/owa/edutils.parse_page?nafn=BN049416,Fellsmúli 13-19,19 - Breytingar jarðhæð - 04-0001,Frestað. Vísað til athugasemda eldvarnareftirlits á umsóknarblaði.,Sótt er um samþykki á þegar gerðum breytingum sem felast í að innréttuð er baðherbergi í íbúð 04-0001 í kjallara fjölbýlishúss nr. 19 á lóð nr. 13 - 19 við Fellsmúla. Gjald kr. 9.823
49361 (01.13.654.0),http://gamli.rvk.is/vefur/owa/edutils.parse_page?nafn=BN049361,Fischersund 3,Blómaskáli/viðbygging o.fl.,Frestað. Vísað til athugasemda á umsóknarblaði.,"Sótt er um leyfi til að byggja blómaskála/viðbyggingu og stækka hann frá áður samþykktum teikningum um 60 cm á hvora hlið og setja þar inn baðherbergi, sbr. BN044728, eldhús á 1. hæð er flutt til og bætt við herbergi með baði, á jarðhæð verður eldhús fjarlægt , svefnherbergin tvö stækkuð og gert nýtt baðherbergi í einbýlishúsi á lóð nr. 3 við Fischersund. Gjald kr. 9.823"
49288 (01.11.523.0),http://gamli.rvk.is/vefur/owa/edutils.parse_page?nafn=BN049288,Fiskislóð 10,Breyting - snyrting gesta og tekið  í notkun rými,Samþykkt.  Samræmist ákvæðum laga nr. 160 / 2010. Frágangur á lóðamörkum verði gerður í samráði við lóðarhafa aðliggjandi lóða. Með vísan til samþykktar borgarráðs frá 1. september 1998 skal utanhúss- og lóðarfrágangi vera lokið eigi síðar en innan tveggja ára frá útgáfu byggingarleyfis að viðlögðum dagsektum sbr. greinar nr. 2.4.7 og 2.9.2 í byggingarreglugerð nr. 112/2012. Áskilin lokaúttekt byggingarfulltrúa.,Sótt er um leyfi til að breyta áður samþykktu erindi BN048522 þannig að snyrting hreyfihamlaða er breytt á 1. hæð í húsinu á lóð nr. 10 við Fiskislóð. Gjald kr. 9.823
49431 (02.85.530.1),http://gamli.rvk.is/vefur/owa/edutils.parse_page?nafn=BN049431,Fjallkonuvegur 1,Flytja hús á Selfoss,Frestað. Vísað til athugasemda á umsóknarblaði.,"Sótt er um leyfi til að flytja hús af grunni sínum á lóð nr. 1 við Fjallkonuveg á lóð nr. 63 við Gagnheiði á Selfossi. Stærðir 80,7 ferm., 251 rúmm. Gjald kr. 9.823"
49205 (01.18.660.2),http://gamli.rvk.is/vefur/owa/edutils.parse_page?nafn=BN049205,Freyjugata 26,Svalir - 2.hæð,Frestað. Vísað til athugasemda á umsóknarblaði.,Sótt er um leyfi til að koma fyrir björgunarsvölum fyrir íbúð 0201 og 0202 á 2. hæð fjölbýlishúss á lóð nr. 26 við Freyjugötu. Erindi fylgir samþykki meðeigenda dags. 29. apríl 2015 og bréf frá eigendum Njarðargötu 49 þar sem umsóttum björgunarsvölum er mótmælt. Gjald kr. 9.823
49228 (01.11.730.9),http://gamli.rvk.is/vefur/owa/edutils.parse_page?nafn=BN049228,Geirsgata 9,Breyta í bar - pallur o.fl.,Frestað. Vísað til athugasemda á umsóknarblaði.,Sótt  er um leyfi til að stækka veitingastað í flokki II og að bæta rými 0102 sem áður var verslun við og innrétta þar bar og koma fyrir útipalli fyrir útiveitingar og betrumbæta ræstingu í kjallara í húsinu á lóð nr. 9 við Geirsgötu.   Útskrift úr gerðabók embættisafgreiðslufundar skipulagsfulltrúa frá 22. maí 2015 fylgir erindinu ásamt umsögn skipulagsfulltrúa dags. 18. maí 2015. Bréf frá hönnuði dags. 30. apríl 2015 og hljóðvistaskýrsla  dags. 30 apríl 2015 fylgir.  Gjald kr. 9.823
49421 (01.11.500.1),http://gamli.rvk.is/vefur/owa/edutils.parse_page?nafn=BN049421,Grandagarður 15-37,29 - Kjötverslun,Frestað. Vísað til athugasemda heilbrigðiseftirlits á umsóknarblaði.,Sótt er um að innrétta kjötverslun í verbúð á lóð nr. 29 við Grandagarð. Gjald kr. 9.823
49414 (01.11.530.1),http://gamli.rvk.is/vefur/owa/edutils.parse_page?nafn=BN049414,Grandagarður 2,Jarðhæð - uppfærðir uppdrættir,Frestað. Vísað til athugasemda eldvarnareftirlits á umsóknarblaði.,Sótt er um samþykki á uppfærðri grunnmynd sbr. erindi BN048750 fyrir Alliance húsið á lóð nr. 2 við Grandagarð. Gjald kr. 9.823
49368 (01.46.500.1),http://gamli.rvk.is/vefur/owa/edutils.parse_page?nafn=BN049368,Grensásvegur 13,Lækna- og tannlæknastofur - 03-01,Frestað. Vísað til athugasemda á umsóknarblaði.,Sótt er um leyfi til að breyta eignarhluta 0301 úr skrifstofum í lækna- og tannlæknastofur í húsinu á lóð nr. 13 við Grensásveg.  Gjald kr. 9.823
49405 (01.18.211.0),http://gamli.rvk.is/vefur/owa/edutils.parse_page?nafn=BN049405,Grettisgata 16,Breyting á kvistum,"Samþykkt.  Samræmist ákvæðum laga nr. 160 / 2010. Með vísan til samþykktar borgarráðs frá 1. september 1998 skal utanhúss- og lóðarfrágangi vera lokið eigi síðar en innan tveggja ára frá útgáfu byggingarleyfis að viðlögðum dagsektum sbr. greinar nr. 2.4.7 og 2.9.2 í byggingarreglugerð nr. 112/2012. Skilyrt er að ný eignaskiptayfirlýsing sé samþykkt fyrir útgáfu byggingarleyfis, henni verður þinglýst eigi síðar en við fokheldi. Áskilin lokaúttekt byggingarfulltrúa.",Sótt er um leyfi til að breyta kvistum og fækka úr þremur í tvo á húsi á lóð nr. 16 við Grettisgötu. Gjald kr. 9.823
49327 (01.17.312.4),http://gamli.rvk.is/vefur/owa/edutils.parse_page?nafn=BN049327,Grettisgata 41,"Hækka hús, viðbygging o.fl.",Frestað. Vísað til athugasemda á umsóknarblaði og umsagnar Minjastofnunar dags. 20. maí 2015.,"Sótt er um leyfi til að hækka hús um 150cm og byggja staðsteypta tveggja hæða viðbyggingu á bakhlið einbýlishúss á lóð nr. 41 við Grettisgötu. Erindi fylgir útreikningur á varmatapi dags. 28. apríl 2015 og umsögn Minjastofnunar Íslands dags. 20. maí 2015. Stækkun:  148 ferm., 381,6 rúmm. Gjald kr. 9.823"
49144 (01.17.150.6),http://gamli.rvk.is/vefur/owa/edutils.parse_page?nafn=BN049144,Grettisgata 5,Stækkun - 0202,Frestað. Vísað til athugasemda á umsóknarblaði.,"Sótt er um leyfi til að stækka íbúð 0202 með því að loka hluta af svölum í húsinu á lóð nr. 5 við Grettisgötu. Stækkun:  23,6 ferm., 72 rúmm. Gjald kr. 9.823"
49129 (01.21.610.1),http://gamli.rvk.is/vefur/owa/edutils.parse_page?nafn=BN049129,>Guðrúnartún 1,Reyndarteikningar,Frestað. Vísað til athugasemda heilbrigðiseftirlits á umsóknarblaði.,"Sótt er um samþykki fyrir áður gerðum breytingum á erindi BN046628, m. a. bætt við rými í kjallara fyrir útblástursstokka og breytt innra skipulagi og brunaskilgreiningum á öllum hæðum skrifstofuhúss á lóð nr. 1 við Guðrúnartún. Stækkun, B-rými:  14,3 ferm., 29,3 rúmm. Gjald kr. 9.823"
49417 (04.41.170.1),http://gamli.rvk.is/vefur/owa/edutils.parse_page?nafn=BN049417,Hádegismóar 1,Skrifstofu- og lagerhúsnæði,Frestað. Vísað til athugasemda á umsóknarblaði.,"Sótt er um leyfi til að byggja skrifstofu- og lagerhús, að hluta staðsteypt og að hluta stálgrindarhús klætt yleiningum, á lóð nr. 1 við Hádegismóa. Erindi fylgir brunahönnunarskýrslan frá Mannvit dags. 30. apríl 2015, útreikningur á varmatapi dags. 28. mars 2015 og greinargerð hönnunarstjóra. Stærð:  8.263,9 ferm., 95.854,5 rúmm. Gjald kr. 9.823"
49380 (04.32.180.1),http://gamli.rvk.is/vefur/owa/edutils.parse_page?nafn=BN049380,Hestháls 14,Breyting - BN047213,Samþykkt.  Samræmist ákvæðum laga nr. 160 / 2010. Áskilin lokaúttekt byggingarfulltrúa.,"Sótt er um leyfi fyrir eldvarnarmerkingu á hurð inn í slípun/varahlutir/geymsla úr verkstæðisrými, sbr. erindi BN047213, í Strætóbyggingu á lóð nr. 14 við Hestháls. Gjald kr. 9.823"
49373 (04.74.130.2),http://gamli.rvk.is/vefur/owa/edutils.parse_page?nafn=BN049373,Hólavað 29-43,Raðhús,Frestað. Vísað til athugasemda á umsóknarblaði.,"Sótt er um leyfi til að byggja tveggja hæða raðhús  með innbyggðum bílgeymslum, átta matshluta úr forsteyptum einingum með staðsteyptum hæðarskilum á lóð nr. 29-43 við Hólavað. Jafnframt er áður samþykkt erindi, BN046802 fellt úr gildi. Stærð allra matshluta er:  147,7 ferm., 523,1 rúmm. Samtals:  1.181,6 ferm., 4.184,8 rúmm. Gjald kr. 9.823"
49382 (04.67.400.2),http://gamli.rvk.is/vefur/owa/edutils.parse_page?nafn=BN049382,Hraunberg 4,Apótek - breyting innréttinga,Samþykkt.  Samræmist ákvæðum laga nr. 160 / 2010. Áskilin lokaúttekt byggingarfulltrúa. Áskilið samþykki heilbrigðiseftirlits. Áskilið samþykki Vinnueftirlits ríkisins.,Sótt er um samþykki á endurnýjuðum innréttingum vegna enduropnunar apóteks á 1. hæð í húsi á lóð nr. 4 við Hraunberg. Meðfylgjandi er bréf umsækjanda dags. 6.5. 2015. Gjald kr. 9.823
49183 (01.52.020.2),http://gamli.rvk.is/vefur/owa/edutils.parse_page?nafn=BN049183,"3"">Hringbraut 121",Breyting á jarðhæð í veitingastað í fl. III og viðbygging,Frestað. Vísað til athugasemda á umsóknarblaði og umsagnar skipulagsfulltrúa dags. 21. maí 2015.,"Sótt er um leyfi til að innrétta veitingastað í flokki III á 1. hæð, byggja viðbyggingu við suðurhlið fyrir stýribúnað vatnsúðakerfis og sorpgeymslu, stækka sorpgeymslu á vesturhlið og koma fyrir palli fyrir útiveitingar sunnan húss á lóð nr. 121 við Hringbraut.  Útskrift úr gerðabók embættisafgreiðslufundar skipulagsfulltrúa frá 22. maí 2015 fylgir erindinu ásamt umsögn skipulagsfulltrúa dags. 21. maí 2015. Stækkun:  70,5 ferm., 222,8 rúmm. Gjald kr. 9.823"
49389 (01.81.910.3),http://gamli.rvk.is/vefur/owa/edutils.parse_page?nafn=BN049389,Hæðargarður 46,Hækka þak,"Samþykkt.  Samræmist ákvæðum laga nr. 160 / 2010. Með vísan til samþykktar borgarráðs frá 1. september 1998 skal utanhúss- og lóðarfrágangi vera lokið eigi síðar en innan tveggja ára frá útgáfu byggingarleyfis að viðlögðum dagsektum sbr. greinar nr. 2.4.7 og 2.9.2 í byggingarreglugerð nr. 112/2012. Skilyrt er að ný eignaskiptayfirlýsing sé samþykkt fyrir útgáfu byggingarleyfis, henni verður þinglýst eigi síðar en við fokheldi. Áskilin lokaúttekt byggingarfulltrúa.","Sótt er um leyfi til að byggja nýtt valmaþak og hækka, úr timbri klæddu með bárumálmi, með tveim kvistum og svölum og íveruherbergjum sem eru hluti íbúðar 0201, sbr. fyrirspurn BN049253 dags. 21.4. 2015,  í húsi á lóð nr. 46 við Hæðargarð. Meðfylgjandi er samþykki meðeigenda dags. 6.5. 2015 og umboð dags. 7.5. 2015. Stærðir stækkun: 71,8 ferm., 66,7 rúmm. Gjald kr. 9.823"
49387 (01.81.910.4),http://gamli.rvk.is/vefur/owa/edutils.parse_page?nafn=BN049387,Hæðargarður 48,Hækka þak,"Samþykkt.  Samræmist ákvæðum laga nr. 160 / 2010. Með vísan til samþykktar borgarráðs frá 1. september 1998 skal utanhúss- og lóðarfrágangi vera lokið eigi síðar en innan tveggja ára frá útgáfu byggingarleyfis að viðlögðum dagsektum sbr. greinar nr. 2.4.7 og 2.9.2 í byggingarreglugerð nr. 112/2012. Skilyrt er að ný eignaskiptayfirlýsing sé samþykkt fyrir útgáfu byggingarleyfis, henni verður þinglýst eigi síðar en við fokheldi. Áskilin lokaúttekt byggingarfulltrúa.","Sótt er um leyfi til að byggja nýtt valmaþak og hækka, úr timbri klæddu með bárumálmi, með tveim kvistum og svölum og íveruherbergjum sem eru hluti íbúðar 0201, sbr. fyrirspurn BN049253 dags. 21.4. 2015,  í húsi á lóð nr. 48 við Hæðargarð. Meðfylgjandi er samþykki meðeigenda dags. 6.5. 2015 og umboð dags. 7.5. 2015. Stærðir stækkun: 71,8 ferm., 66,7 rúmm. Gjald kr. 9.823"
49381 (04.11.330.7),http://gamli.rvk.is/vefur/owa/edutils.parse_page?nafn=BN049381,Jónsgeisli 93,Gistiheimili - 0101,Frestað. Vísað til athugasemda á umsóknarblaði.,Sótt er um leyfi til að innrétta gistiheimili í fl. ?? í skrifstofurými í húsi á lóð nr. 93 við Jónsgeisla. Gjald kr. 9.823
49475 (01.17.110.8),http://gamli.rvk.is/vefur/owa/edutils.parse_page?nafn=BN049475,Klapparstígur 30,takmarkað byggingarleyfi,"Samþykkt.  Samræmist ákvæðum laga nr. 160 / 2010. Með vísan til samþykktar borgarráðs frá 1. september 1998 skal utanhúss- og lóðarfrágangi vera lokið eigi síðar en innan tveggja ára frá útgáfu byggingarleyfis að viðlögðum dagsektum sbr. greinar nr. 2.4.7 og 2.9.2 í byggingarreglugerð nr. 112/2012. Með vísan til samþykktar umhverfis- og skipulagsráðs, dags. 22. maí 2013, skal lóðarhafi, í samráði við byggingarfulltrúa, setja upp skilti til kynningar á fyrirhuguðum framkvæmdum á byggingarstað. Í samræmi við samþykkt umhverfis- og skipulagsráðs dags. 9. október 2013 skal vélknúinn þvottabúnaður vera til staðar á byggingarlóð sem tryggi að vörubílar og aðrar þungavinnuvélar verði þrifnar áður en þær yfirgefa byggingarstað. Samráð skal haft við byggingarfulltrúa um staðsetningu búnaðarins. Sérstakt samráð skal haft við yfirverkfræðing byggingarfulltrúa vegna jarðvinnu. Samþykktin fellur úr gildi við útgáfu á endanlegu byggingarleyfi. Vegna útgáfu á takmörkuðu byggingarleyfi skal umsækjandi hafa samband við yfirverkfræðing embættis byggingarfulltrúa. Áskilin lokaúttekt byggingarfulltrúa.","Sótt er um takmarkað byggingarleyfi fyrir jarðvinnu fjölbýlishúss að Klapparstíg 30, sbr. BN048637 sem samþykkt var 14.04 2015."
49333 (04.34.670.1),http://gamli.rvk.is/vefur/owa/edutils.parse_page?nafn=BN049333,Klettháls 13,Breyting - BN048186,Samþykkt.  Samræmist ákvæðum laga nr. 160 / 2010. Áskilin lokaúttekt byggingarfulltrúa. Áskilið samþykki heilbrigðiseftirlits.,"Sótt er um leyfi til að breyta áður samþykktri breytingu, BN048186, sem felst í að stækka núverandi millipall, 0104, í norð-vestur enda byggingarinnar á lóð nr. 13 við Klettháls. Meðfylgjandi er breytt brunahönnun frá Mannviti. Bréf arkitekts dags. 19.5. 2015. Stækkun: 63,2 ferm. Gjald kr. 9.823"
49360 (02.68.070.1),http://gamli.rvk.is/vefur/owa/edutils.parse_page?nafn=BN049360,Lambhagavegur 29,Breytingar á erindi BN045705,Samþykkt.  Samræmist ákvæðum laga nr. 160 / 2010. Með vísan til samþykktar borgarráðs frá 1. september 1998 skal utanhúss- og lóðarfrágangi vera lokið eigi síðar en innan tveggja ára frá útgáfu byggingarleyfis að viðlögðum dagsektum sbr. greinar nr. 2.4.7 og 2.9.2 í byggingarreglugerð nr. 112/2012. Frágangur á lóðamörkum verði gerður í samráði við lóðarhafa aðliggjandi lóða.  Áskilin lokaúttekt byggingarfulltrúa. Áskilið samþykki heilbrigðiseftirlits.,"Sótt er um leyfi til að breyta áður samþykktu erindi BN045705 í mhl. 02, að koma fyrir nýjum útitröppum á norðurhlið, breyta útliti þakglugga, koma fyrir hurð á norðurhlið, koma fyrir milligólfi í kjallara, breyta rýmisnúmerum og breyta B- rými -109 í A rými  í húsi á lóð nr. 29 við Lambhagaveg. Stækkun mhl. 02: 101,3 ferm., minnkar um 536,3 rúmm. Heildarstærð mhl. 01 og 02 var:  2.516,2 ferm., 12.461,7 rúmm. Heildarstærð mhl. 01 og 02 verður:  2.620 ferm., 11.925,4 rúmm Gjald kr. 9.823"
49301 (01.83.220.2),http://gamli.rvk.is/vefur/owa/edutils.parse_page?nafn=BN049301,Langagerði 64,"Þak, kvistur, klæðning",Frestað. Vísað til athugasemda á umsóknarblaði.,"Sótt er um leyfi til að hækka þak og koma fyrir tveimur kvistum og svölum á norðurhlið, gera einn stóran kvist á austurhlið, koma fyrir anddyri á 1. hæð og klæða húsið með standandi bárujárnsklæðningu á lóð nr. 64 við Langagerði. Samþykki aðliggjandi lóð í Langagerði nr. 54, 56, 58, 60, 62,66, 76 og 78. Stækkun húss: XX ferm.,  XX rúmm.  Gjald kr. 9.823"
49317 (01.34.700.6 03),http://gamli.rvk.is/vefur/owa/edutils.parse_page?nafn=BN049317,Laugalækur 6,Eldunaraðstaða,Frestað. Vísað til athugasemda á umsóknarblaði.,Sótt er um leyfi til að setja upp eldhúsaðstöðu í lokuðu rými ásamt minniháttar breytingum innanhúss í matvöruverslun og matarvinnslu í húsi nr. 6 á lóð nr. 2-8 við Laugalæk. Gjald kr. 9.823
49175 (01.36.000.6),http://gamli.rvk.is/vefur/owa/edutils.parse_page?nafn=BN049175,Laugarnesvegur 47,Breytingar sbr. BN044459,Frestað. Lagfæra skráningu.,"Sótt er um leyfi til breytinga innanhúss og utan eins og sýnt er á meðfylgjandi yfirlitsblaði sbr. áður samþykkt erindi BN044459 vegna lokaúttektar á húsinu á lóð nr. 47 við Lauganesveg. Stækkun 2,9 ferm. Gjald kr. 9.823"
49440 (01.17.150.3),http://gamli.rvk.is/vefur/owa/edutils.parse_page?nafn=BN049440,Laugavegur 20-20A,20A - Sorpgeymsla,Frestað. Málinu vísað til umsagnar skipulagsfulltrúa.,"Sótt er um leyfi til að leysa sorplosunarvanda með tveim niðurgröfnum sorpgeymslum í gangstétt fyrir framan hús á lóðum nr. 20 og 20A við Laugaveg. Meðfylgjandi eru bréf Laugaverks dags. 17. maí, 5.12. 2015, 12.7. 2014, tölvupóstur byggingarfulltrúa dags. 16.3. 2015, bréf skipulagsfulltrúa dags. 18.5. 2015 og 18.1. 2012, tölvupóstar dags, 24.2. 2012, 29.6. 2011, 21.9. 2011, 19.5. 2015."
49423 (01.24.020.3),http://gamli.rvk.is/vefur/owa/edutils.parse_page?nafn=BN049423,Laugavegur 120,Breytingar á tæknirýmum,Samþykkt.  Samræmist ákvæðum laga nr. 160 / 2010. Áskilin lokaúttekt byggingarfulltrúa. Áskilið samþykki heilbrigðiseftirlits.,"Sótt er um leyfi til breytinga innanhúss á erindi BN048554 dags. 9.12. 2014 með breytingum sbr. BN049059 dags. 14.4. 2015, sem felast í að tækni- og inntaksrými í kjallara og geymsla til flokkunar á sorpi eru stækkuð og eldvarnahurð færð, einnig er brunakröfum breytt  á 2., 3., 4. og 5 hæð í hóteli á lóð nr. 120 við Laugaveg. Meðfylgjandi er bréf arkitekts þar sem breytingar eru tíundaðar dags. 12.5. 2015. Gjald kr. 9.823"
49478 (01.24.020.3),http://gamli.rvk.is/vefur/owa/edutils.parse_page?nafn=BN049478,Laugavegur 120,Niðurrif - Lágbygging,Samþykkt.  Samræmist ákvæðum laga nr. 160 / 2010. Með vísan til samþykktar borgarráðs frá 1. september 1998 skal utanhúss- og lóðarfrágangi vera lokið eigi síðar en innan tveggja ára frá útgáfu byggingarleyfis að viðlögðum dagsektum sbr. greinar nr. 2.4.7 og 2.9.2 í byggingarreglugerð nr. 112/2012. Áskilin lokaúttekt byggingarfulltrúa. Áskilið samþykki heilbrigðiseftirlits.,"Sótt er um leyfi til að rífa lágbyggingu á lóð og hluta af húsi 01 0101 (fastanúmer 201-0401), sbr. fyrirspurn BN049303, sem fékk umfjöllun 5.5. 2015. Meðfylgjandi er bréf arkitekts stílað á Harra Ormarsson dags. 14.5. 2015 og skipulagsuppdráttur ásamt tillögum að stækkun hótels. Niðurrif samtals 589,1 ferm. og 1949,0 rúmm. vegna rýma 0001, 0002, 0008, 0009, 0102, 0103, 0104, 0105 og 0106. Gjald kr. 9.823"
49457 (01.17.221.6),http://gamli.rvk.is/vefur/owa/edutils.parse_page?nafn=BN049457,Laugavegur 34A,Kvistir - breyting,"Samþykkt.  Samræmist ákvæðum laga nr. 160 / 2010. Með vísan til samþykktar borgarráðs frá 1. september 1998 skal utanhúss- og lóðarfrágangi vera lokið eigi síðar en innan tveggja ára frá útgáfu byggingarleyfis að viðlögðum dagsektum sbr. greinar nr. 2.4.7 og 2.9.2 í byggingarreglugerð nr. 112/2012. Skilyrt er að ný eignaskiptayfirlýsing sé samþykkt fyrir útgáfu byggingarleyfis, henni verður þinglýst eigi síðar en við fokheldi. Áskilin lokaúttekt byggingarfulltrúa.","Sótt er um leyfi til að breyta útliti á framhlið, sjá erindi BN048783, þannig að tveir breiðir kvistir verði í stað fjögurra minni í hóteli á lóð nr. 34A við Laugaveg. Gjald kr. 9.823"
49428 (01.17.221.6),http://gamli.rvk.is/vefur/owa/edutils.parse_page?nafn=BN049428,Laugavegur 34A,Opna á milli Laugavegs 34b og 34a o.fl.,Frestað. Vísað til athugasemda á umsóknarblaði.,"Sótt er um leyfi til að opna tímabundið yfir lóðamörk yfir í kjallara húss nr. 34B, sjá erindi BN049378, frá 1. hæð í hóteli á lóð nr. 34A við Laugaveg. Gjald kr. 9.823"
49378 (01.17.221.7),http://gamli.rvk.is/vefur/owa/edutils.parse_page?nafn=BN049378,Laugavegur 34B,Tenging milli húsa,Frestað. Vísað til athugasemda eldvarnareftirlits á umsóknarblaði.,"Sótt er um leyfi til að lækka gólf í kjallara, innrétta geymslu og opna tímabundið yfir lóðamörk yfir á 1. hæð í hóteli á nr. 34A í húsi á lóð nr. 34B við Laugaveg. Stækkun:  44,9 rúmm. Gjald kr. 9.823"
48149 (01.17.302.4),http://gamli.rvk.is/vefur/owa/edutils.parse_page?nafn=BN048149,Laugavegur 51,Breyta skrifstofuhúsnæði í íbúð,Frestað. Vísað til athugasemda eldvarnareftirlits á umsóknarblaði.,Sótt er um leyfi til að byggja svalir og geymslur á bakhlið og innrétta tvær íbúðir á 3. hæð húss á lóð nr. 51 við Laugaveg. Útskrift úr gerðabók embættisafgreiðslufundar skipulagsfulltrúa frá 26. september 2014 fylgir erindinu ásamt fyrri umsögn skipulagsfulltrúa dags. 31. janúar 2014. Einnig afrit af fundargerð húsfélags dags. 21. mars 2014. Gjald kr. 9.500
48898 (01.15.241.3),http://gamli.rvk.is/vefur/owa/edutils.parse_page?nafn=BN048898,Lindargata 34-36,Gististaður,Frestað. Vísað til athugasemda á umsóknarblaði.,"Sótt er um leyfi til að byggja steinsteypt fjögurra hæða gistiheimili í flokki ?? með 20 íbúðareiningum á lóð nr. 34-36 við Lindargötu. Útskrift úr gerðabók embættisafgreiðslufundar skipulagsfulltrúa frá 10. apríl 2015 fylgir erindinu ásamt umsögn skipulagsfulltrúa dags. 9. apríl 2015. og útskrift úr gerðabók embættisafgreiðslufundar skipulagsfulltrúa frá 22. maí 2015 fylgir erindinu ásamt umsögn skipulagsfulltrúa dags. 22. maí 2015. Stærð:  1. hæð 182,2 ferm., 2. og 3. hæð 200 ferm., 4. hæð 189,3 ferm. Samtals:  771,5 ferm., 2.225,9 rúmm. Gjald kr. 9.823"
49454 (04.32.910.1),http://gamli.rvk.is/vefur/owa/edutils.parse_page?nafn=BN049454,Lyngháls 12,Endurnýjun (BN043550),Frestað. Vísað til athugasemda á umsóknarblaði.,Sótt er um samþykki á breyttu fyrirkomulagi innanhúss í rýmum 0103 og 0203 fyrir starfsemi Lífdísels eins og samþykkt var í september 2011 sbr. erindi BN043550 í húsi á lóð nr. 12 við Lyngháls. Gjald kr. 9.823
49374 (01.11.640.3),http://gamli.rvk.is/vefur/owa/edutils.parse_page?nafn=BN049374,Mýrargata 12,"Reyndarteikningar - 1.hæð, kjallari",Frestað. Vísað til athugasemda eldvarnareftirlits á umsóknarblaði.,"Sótt er um samþykki á þegar breyttu fyrir komulagi í kjallara og á 1. hæð, sbr. erindi BN047562 í hóteli á lóð nr. 12 við Mýrargötu. Meðfylgjandi eru teikningar sem sýna breytingar á A4 blaði. Gjald kr. 9.823"
49418 (01.41.150.1),http://gamli.rvk.is/vefur/owa/edutils.parse_page?nafn=BN049418,Njörvasund 10,Mænisþak bílskúrs og sólpallur,"Frestað. Vísað til athugasemda á umsóknarblaði. Málinu vísað til skipulagsfulltrúa til ákvörðunar um grenndarkynningu. Vísað til uppdrátta nr. 01, 02, dags. 12. maí 2015.","Sótt er um leyfi til að hækka og byggja mænisþak á bílskúr sbr. fyrirspurn. BN048950 dags. 17.3. 2015 og samanber leiðbeiningar í jákvæðri umsögn skipulagsfulltrúa dags. 4.3. 2015, sömuleiðis til að byggja verönd með skjólveggjum og heitum potti með öryggisloki á lóð nr. 10 við Njörvasund. Meðfylgjandi er samþykki meðeiganda dags. 12.5. 2015 og umsögn skipulagsfulltrúa dags. 4.3. 2015. Stækkun 22,5 rúmm., flatarmál óbreytt. Gjald kr. 9.823"
48580 (01.13.201.4),http://gamli.rvk.is/vefur/owa/edutils.parse_page?nafn=BN048580,Norðurstígur 5,Fjölbýlishús,Frestað. Vísað til athugasemda á umsóknarblaði.,"Sótt er um leyfi til að byggja þriggja íbúða steinsteypt fjölbýlishús á fjórum hæðum með innbyggðum tveggja stæða bílskúr á lóð nr. 5 við Norðurstíg. Útskrift úr gerðabók embættisafgreiðslufundar skipulagsfulltrúa frá 12. janúar 2015 fylgir erindinu ásamt umsögn skipulagsfulltrúa dags. 16. janúar 2015 og bréfs acta lögmannsstofu dags. 18. maí 2015. Stærð:  1. hæð 59 ferm., 2. hæð 99,1 ferm., 3. hæð 99,2 ferm., 4. hæð 71,7 ferm Samtals 329 ferm., 1.127,5 rúmm. B-rými  54,7 ferm. Gjald kr. 9.500"
48366 (01.13.501.1),http://gamli.rvk.is/vefur/owa/edutils.parse_page?nafn=BN048366,Ránargata 34,Ósamþykkt íbúð - kjallara,"Samþykkt.  Samræmist ákvæðum laga nr. 160 / 2010. Með vísan til samþykktar borgarráðs frá 1. september 1998 skal utanhúss- og lóðarfrágangi vera lokið eigi síðar en innan tveggja ára frá útgáfu byggingarleyfis að viðlögðum dagsektum sbr. greinar nr. 2.4.7 og 2.9.2 í byggingarreglugerð nr. 112/2012. Skilyrt er að ný eignaskiptayfirlýsing sé samþykkt fyrir útgáfu byggingarleyfis, henni verður þinglýst eigi síðar en við lokaúttekt. Áskilin lokaúttekt byggingarfulltrúa.","Sótt er um leyfi til að samþykkja ósamþykkta íbúð í kjallara, setja nýja glugga á vesturhlið, stækka núverandi glugga á suður- og vesturhlið og tengja geymsluskúr á lóð við rafmagn, sjá fyrirspurn BN048207, sem fékk jákvæða umfjöllun 23. september 2014, við hús á lóð nr. 34 við Ránargötu. Útskrift úr gerðabók embættisafgreiðslufundar skipulagsfulltrúa frá 22. maí 2015 fylgir erindinu. Erindi var grenndarkynnt frá 2. apríl til og með 30. apríl. Engar athugasemdir bárust. Meðfylgjandi er bréf arkitekts dags. 7. október 2014, samþykki eigenda á nr. 36 og samþykki eigenda á nr. 34 fór með fyrirspurn. Meðfylgjandi einnig umsögn burðarvirkishönnuðar dags. 27.1. 2015, bréf arkitekts dags. 17.3. 2015 Gjald kr. 9.500"
49443 (01.83.230.1),http://gamli.rvk.is/vefur/owa/edutils.parse_page?nafn=BN049443,Réttarholtsvegur21-25,Salerni fyrir hreyfihamlaða,Frestað. Vísað til athugasemda á umsóknarblaði.,Sótt er um leyfi til að endurnýja og fjölga snyrtingum á 1. hæð í Réttarholtsskóla á lóð nr. 21-25 við Réttarholtsveg. Gjald kr. 9.823
49436 (01.36.521.3),http://gamli.rvk.is/vefur/owa/edutils.parse_page?nafn=BN049436,Sigtún 55,Fjarlægja burðarvegg,Frestað. Vísað til athugasemda á umsóknarblaði.,Sótt er um leyfi til að fjarlægja megi steyptan burðarvegg milli eldhúss og borðstofu og setja upp styrktarramma úr stáli á 1. hæð í húsi á lóð nr. 55 við Sigtún. Meðfylgjandi eru útreikningar burðarvirkishönnuðar. Gjald kr. 9.823
49404 (04.21.270.4),http://gamli.rvk.is/vefur/owa/edutils.parse_page?nafn=BN049404,Silungakvísl 19,Reyndarteikningar - heitur pottur,Frestað. Vísað til athugasemda á umsóknarblaði.,"Sótt er um samþykki á þegar framkvæmdum breytingum sem felast í að teknar  eru í notkun geymslur í kjallara og undir bílgeymslu, gluggar hafa verið settir á geymslur í kjallara, verönd og skjólveggir eru á baklóð og þar er sótt um leyfi fyrir heitum potti við íbúðarhús á lóð nr. 19 við Silungakvísl. Stærðir stækkunar: XXXX Gjald kr. 9.823"
49359 (01.27.301.4),http://gamli.rvk.is/vefur/owa/edutils.parse_page?nafn=BN049359,Skaftahlíð 13,"Stækka íbúð 0001, endurn. BN043570","Samþykkt.  Samræmist ákvæðum laga nr. 160 / 2010. Skilyrt er að ný eignaskiptayfirlýsing sé samþykkt fyrir útgáfu byggingarleyfis, henni verður þinglýst eigi síðar en við lokaúttekt. Áskilin lokaúttekt byggingarfulltrúa.","Sótt er um leyfi til að endurnýja erindi BN043570 , þar sem samþykkt var að  stækka íbúð 0001 í kjallara og minnka þess í stað sameignarrými, inntök vatn og rafmang verður fært í sameiginlegt rými undir tröppum, anddyri í kjallara og þvottahús verður sameign 0001 pg 0201, geymsla íbúðar 0201 verður í risi íbúðarhúss á lóð nr. 13 við Skaftahlíð . Meðfylgjandi er samþykki meðeiganda ódags. Gjald kr. 9.823"
49364 (01.79.020.1),http://gamli.rvk.is/vefur/owa/edutils.parse_page?nafn=BN049364,Sléttuvegur  5-9,7 - Sorpskýli,Frestað. Vísað til athugasemda á umsóknarblaði.,"Sótt er um leyfi til að byggja sorpskýli úr timbri, klætt með harðplasti og bárumálmi, við hús nr. 7 á lóð nr. 5-9 við Sléttuveg. Stærðir: 18 ferm., 74,5 rúmm. Gjald kr. 9.823"
49365 (01.79.020.1),http://gamli.rvk.is/vefur/owa/edutils.parse_page?nafn=BN049365,Sléttuvegur  5-9,9 - Sorpskýli,Frestað. Vísað til athugasemda á umsóknarblaði. Lagfæra skráningu.,"Sótt er um leyfi til að byggja sorpskýli úr timbri, klætt með harðplasti og bárumálmi, við hús nr. 9 á lóð nr. 5-9 við Sléttuveg. Stærðir: 18 ferm., 74,5 rúmm. Gjald kr. 9.823"
49233 (01.16.021.3),http://gamli.rvk.is/vefur/owa/edutils.parse_page?nafn=BN049233,Sólvallagata 20,"Breyting, fjölga baðherb.",Samþykkt.  Samræmist ákvæðum laga nr. 160 / 2010. Áskilin lokaúttekt byggingarfulltrúa.,"Sótt er um leyfi til að fjölga salernum, handlaugum og sturtum í kjallara í einbýlishúsi á lóð nr. 20 við Sólvallagötu. Gjald kr. 9.823"
49377 (02.37.520.1),http://gamli.rvk.is/vefur/owa/edutils.parse_page?nafn=BN049377,Spöngin 29-31,ÁTVR - rými í Hagkaupum,Frestað. Vísað til athugasemda eldvarnareftirlits á umsóknarblaði.,"Sótt er um leyfi til að innrétta hluta af verslun Hagkaupa, mállínu F-G, sem vínbúð ÁTVR og til að koma fyrir gasgeymslu í stálskáp norðan megin útveggjar, aftan við kjúklingaafgreiðslu, í húsi nr. 29-31 á lóð nr. 25-31 við Spöngina."
49320 (04.07.310.1),http://gamli.rvk.is/vefur/owa/edutils.parse_page?nafn=BN049320,Stórhöfði 34-40,Veðurskýli,Frestað. Vísað til athugasemda á umsóknarblaði. Málinu vísað til umsagnar skipulagsfulltrúa.,"Sótt er um leyfi til að byggja kalt opið lagerskýli á lóð nr. 34 - 40 við Stórhöfða. Stærð B-rými:  560,0 ferm., 3.080 rúmm.  Gjald kr. 9.823"
49010 (04.07.730.1),http://gamli.rvk.is/vefur/owa/edutils.parse_page?nafn=BN049010,Stórhöfði 42,"Flóttastigi, loka skýli og bráðabirgðatjöld",Frestað. Vísað til athugasemda á umsóknarblaði.,"Sótt er um leyfi til að setja flóttastiga við norðaustur hlið frá efri hæð, loka skýli við norðvestur horn neðri hæðar og setja upp til bráðabirgða fjögur vörutjöld á milli 40 ft. gáma á lóð nr. 42 við Stórhöfða. Útskrift úr gerðabók embættisafgreiðslufundar skipulagsfulltrúa frá 10. apríl 2015 fylgir erindinu ásamt umsögn skipulagsfulltrúa dags. 8. apríl 2015. Skýrsla brunahönnuðar dags. 18. mars. 2015 fylgir. Gjald kr. 9.823"
49367 (04.93.410.3),http://gamli.rvk.is/vefur/owa/edutils.parse_page?nafn=BN049367,Tindasel 3,0101 - Skipta eignarhluta,"Samþykkt.  Samræmist ákvæðum laga nr. 160 / 2010. Skilyrt er að ný eignaskiptayfirlýsing sé samþykkt fyrir útgáfu byggingarleyfis, henni verður þinglýst eigi síðar en við lokaúttekt. Áskilin lokaúttekt byggingarfulltrúa.",Sótt er um leyfi til að skipta eignahlutanum 0101 í þrjá eignahluta með viðeigandi breytingum á innra skipulagi í húsi á lóð nr. 3 við Tindasel. Gjald kr. 9.823
49407 (01.55.410.3),http://gamli.rvk.is/vefur/owa/edutils.parse_page?nafn=BN049407,Tómasarhagi 19,2.hæð - Stækka svalir,Frestað. Vísað til athugasemda á umsóknarblaði.,"Sótt er um leyfi til að stækka svalir á 2. hæð til suðurs, á fjölbýlishúsi á lóð nr. 19 við Tómasarhaga. Erindi fylgir samþykki meðeigenda dags. 28. apríl 2015. Gjald kr. 9.823"
44862 (04.32.920.1),http://gamli.rvk.is/vefur/owa/edutils.parse_page?nafn=BN044862,Tunguháls 10,Skipta upp eign 0101 - áður gerðar útlitsbreytingar,"Samþykkt.  Samræmist ákvæðum laga nr. 160 / 2010. Skilyrt er að ný eignaskiptayfirlýsing sé samþykkt fyrir útgáfu byggingarleyfis, henni verður þinglýst eigi síðar en við lokaúttekt. Áskilin lokaúttekt byggingarfulltrúa.","Sótt er um leyfi til að skipta upp eign 0101 í eignir 0101 og 0110 og gera grein fyrir áður gerðum milliloftum og útlitsbreytingum á norðurhlið 1. hæðar á húsinu á lóð nr. 10 við Tunguháls. Fyrirspurn BN043973 fylgir erindi. Stækkun millilofta: 871,8 ferm., + 247,2 ferm.  Samtals : 1.119,0 ferm. Gjald kr. 8.500"
49309 (04.92.110.4),http://gamli.rvk.is/vefur/owa/edutils.parse_page?nafn=BN049309,Þverársel 8,Reyndarteikningar,Synjað. Með vísan til umsagnar skipulagsfulltrúa dags. 21. maí 2015.,"Sótt er um leyfi fyrir áður gerðum breytingum og stækkun, m. a. er gerð grein fyrir notkun á uppfylltum rýmum og innréttingu á þremur litlum íbúðareiningum í kjallara einbýlishúss á lóð nr. 8 við Þverársel. Útskrift úr gerðabók embættisafgreiðslufundar skipulagsfulltrúa frá 22. maí 2015 fylgir erindinu ásamt umsögn skipulagsfulltrúa dags. 21. maí 2015. Stækkun:  84,20 ferm., 72,7 rúmm. Gjald kr. 9.823"
49470 (01.19.641.0),http://gamli.rvk.is/vefur/owa/edutils.parse_page?nafn=BN049470,Bergstaðastræti 75,mæliblað,Samþykkt.  Samræmist ákvæðum laga nr. 160 / 2010.,"Óskað er eftir  samþykki byggingarfulltrúans,  í fyrsta lagi til að breyta mörkum tveggja lóða, þ. e. lóðanna Fjölnisvegur 20 og Bergstaðastræti 83, og í öðru lagi er óskað eftir samþykki byggingarfulltrúa til að skrá lóðarstærðir í samræmi við niðurstöður úr rannsóknavinnu Landupplýsingadeildar á áðurnefndum tveim lóðum auk lóðanna  Fjölnisvegur 12,  Fjölnisvegur 14, Fjölnisvegur 16,  Fjölnisvegur 18,  Bergstaðastræti 75, Bergstaðastræti 77, Bergstaðastræti 79 og Bergstaðastræti 81, eða eins og sýnt er á meðsendum uppdráttum Landupplýsingadeildar, umhverfis- og skipulagssviðs,  dags. 05. 05. 2015. Lóðin Fjölnisvegur 20 (staðgr. 1.196.405, landnr. 102683) er talin 559,3m², lóðin reynist  558 m², teknir eru 3 m² af lóðinni og bætt við óútvísað land (landnr. 218177), lóðin verður  555 m². Lóðin Bergstaðastræti 83 (staðgr. 1.196.406, landnr. 102684) er talin 798,8 m², lóðin reynist  797 m², teknir eru 2 m² af lóðinni og bætt við óútvísað land (landnr. 218177), lóðin verður 795 m². Lóðin Fjölnisvegur 12 (staðgr. 1.196.401, landnr. 102679)  er talin 630,5 m², lóðin reynist  629 m². Lóðin Fjölnisvegur 14 (staðgr. 1.196.402, landnr. 102680) er talin 595,9 m², lóðin reynist  592 m². Lóðin Fjölnisvegur 16 (staðgr. 1.196.403, landnr. 102681) er talin 675,4 m², lóðin reynist  664 m². Lóðin Fjölnisvegur 18 (staðgr. 1.196.404, landnr. 102682)  er talin 686,8 m², lóðin reynist  679 m². Lóðin Bergstaðastræti 75 (staðgr. 1.196.410, landnr. 102688) er talin 686,8 m², lóðin reynist   679 m². Lóðin Bergstaðastræti 77 (staðgr. 1.196.409, landnr. 102687) er talin 826,0 m², lóðin reynist   825 m². Lóðin Bergstaðastræti 79 (staðgr. 1.196.408, landnr. 102686) er talin 798,0 m², lóðin reynist   797 m². Lóðin Bergstaðastræti 81 (staðgr. 1.196.407, landnr. 102685) er talin 798,0 m², lóðin reynist   791 m². Samanber uppdrætti í safni Mælingadeildar og Lóðaskráritara. Samanber rannsóknarvinnu Landupplýsingadeildar. Samanber forsögn skipulagsfulltrúa vegna aðstæðna á staðnum."
49471 (01.19.640.9),http://gamli.rvk.is/vefur/owa/edutils.parse_page?nafn=BN049471,Bergstaðastræti 77,mæliblað,Samþykkt.  Samræmist ákvæðum laga nr. 160 / 2010.,"Óskað er eftir  samþykki byggingarfulltrúans,  í fyrsta lagi til að breyta mörkum tveggja lóða, þ. e. lóðanna Fjölnisvegur 20 og Bergstaðastræti 83, og í öðru lagi er óskað eftir samþykki byggingarfulltrúa til að skrá lóðarstærðir í samræmi við niðurstöður úr rannsóknavinnu Landupplýsingadeildar á áðurnefndum tveim lóðum auk lóðanna  Fjölnisvegur 12,  Fjölnisvegur 14, Fjölnisvegur 16,  Fjölnisvegur 18,  Bergstaðastræti 75, Bergstaðastræti 77, Bergstaðastræti 79 og Bergstaðastræti 81, eða eins og sýnt er á meðsendum uppdráttum Landupplýsingadeildar, umhverfis- og skipulagssviðs,  dags. 05. 05. 2015. Lóðin Fjölnisvegur 20 (staðgr. 1.196.405, landnr. 102683) er talin 559,3m², lóðin reynist  558 m², teknir eru 3 m² af lóðinni og bætt við óútvísað land (landnr. 218177), lóðin verður  555 m². Lóðin Bergstaðastræti 83 (staðgr. 1.196.406, landnr. 102684) er talin 798,8 m², lóðin reynist  797 m², teknir eru 2 m² af lóðinni og bætt við óútvísað land (landnr. 218177), lóðin verður 795 m². Lóðin Fjölnisvegur 12 (staðgr. 1.196.401, landnr. 102679)  er talin 630,5 m², lóðin reynist  629 m². Lóðin Fjölnisvegur 14 (staðgr. 1.196.402, landnr. 102680) er talin 595,9 m², lóðin reynist  592 m². Lóðin Fjölnisvegur 16 (staðgr. 1.196.403, landnr. 102681) er talin 675,4 m², lóðin reynist  664 m². Lóðin Fjölnisvegur 18 (staðgr. 1.196.404, landnr. 102682)  er talin 686,8 m², lóðin reynist  679 m². Lóðin Bergstaðastræti 75 (staðgr. 1.196.410, landnr. 102688) er talin 686,8 m², lóðin reynist   679 m². Lóðin Bergstaðastræti 77 (staðgr. 1.196.409, landnr. 102687) er talin 826,0 m², lóðin reynist   825 m². Lóðin Bergstaðastræti 79 (staðgr. 1.196.408, landnr. 102686) er talin 798,0 m², lóðin reynist   797 m². Lóðin Bergstaðastræti 81 (staðgr. 1.196.407, landnr. 102685) er talin 798,0 m², lóðin reynist   791 m². Samanber uppdrætti í safni Mælingadeildar og Lóðaskráritara. Samanber rannsóknarvinnu Landupplýsingadeildar. Samanber forsögn skipulagsfulltrúa vegna aðstæðna á staðnum."
49472 (01.19.640.8),http://gamli.rvk.is/vefur/owa/edutils.parse_page?nafn=BN049472,Bergstaðastræti 79,mæliblað,Samþykkt.  Samræmist ákvæðum laga nr. 160 / 2010.,"Óskað er eftir  samþykki byggingarfulltrúans,  í fyrsta lagi til að breyta mörkum tveggja lóða, þ. e. lóðanna Fjölnisvegur 20 og Bergstaðastræti 83, og í öðru lagi er óskað eftir samþykki byggingarfulltrúa til að skrá lóðarstærðir í samræmi við niðurstöður úr rannsóknavinnu Landupplýsingadeildar á áðurnefndum tveim lóðum auk lóðanna  Fjölnisvegur 12,  Fjölnisvegur 14, Fjölnisvegur 16,  Fjölnisvegur 18,  Bergstaðastræti 75, Bergstaðastræti 77, Bergstaðastræti 79 og Bergstaðastræti 81, eða eins og sýnt er á meðsendum uppdráttum Landupplýsingadeildar, umhverfis- og skipulagssviðs,  dags. 05. 05. 2015. Lóðin Fjölnisvegur 20 (staðgr. 1.196.405, landnr. 102683) er talin 559,3m², lóðin reynist  558 m², teknir eru 3 m² af lóðinni og bætt við óútvísað land (landnr. 218177), lóðin verður  555 m². Lóðin Bergstaðastræti 83 (staðgr. 1.196.406, landnr. 102684) er talin 798,8 m², lóðin reynist  797 m², teknir eru 2 m² af lóðinni og bætt við óútvísað land (landnr. 218177), lóðin verður 795 m². Lóðin Fjölnisvegur 12 (staðgr. 1.196.401, landnr. 102679)  er talin 630,5 m², lóðin reynist  629 m². Lóðin Fjölnisvegur 14 (staðgr. 1.196.402, landnr. 102680) er talin 595,9 m², lóðin reynist  592 m². Lóðin Fjölnisvegur 16 (staðgr. 1.196.403, landnr. 102681) er talin 675,4 m², lóðin reynist  664 m². Lóðin Fjölnisvegur 18 (staðgr. 1.196.404, landnr. 102682)  er talin 686,8 m², lóðin reynist  679 m². Lóðin Bergstaðastræti 75 (staðgr. 1.196.410, landnr. 102688) er talin 686,8 m², lóðin reynist   679 m². Lóðin Bergstaðastræti 77 (staðgr. 1.196.409, landnr. 102687) er talin 826,0 m², lóðin reynist   825 m². Lóðin Bergstaðastræti 79 (staðgr. 1.196.408, landnr. 102686) er talin 798,0 m², lóðin reynist   797 m². Lóðin Bergstaðastræti 81 (staðgr. 1.196.407, landnr. 102685) er talin 798,0 m², lóðin reynist   791 m². Samanber uppdrætti í safni Mælingadeildar og Lóðaskráritara. Samanber rannsóknarvinnu Landupplýsingadeildar. Samanber forsögn skipulagsfulltrúa vegna aðstæðna á staðnum."
49473 (01.19.640.7),http://gamli.rvk.is/vefur/owa/edutils.parse_page?nafn=BN049473,Bergstaðastræti 81,mæliblað,Samþykkt.  Samræmist ákvæðum laga nr. 160 / 2010.,"Óskað er eftir  samþykki byggingarfulltrúans,  í fyrsta lagi til að breyta mörkum tveggja lóða, þ. e. lóðanna Fjölnisvegur 20 og Bergstaðastræti 83, og í öðru lagi er óskað eftir samþykki byggingarfulltrúa til að skrá lóðarstærðir í samræmi við niðurstöður úr rannsóknavinnu Landupplýsingadeildar á áðurnefndum tveim lóðum auk lóðanna  Fjölnisvegur 12,  Fjölnisvegur 14, Fjölnisvegur 16,  Fjölnisvegur 18,  Bergstaðastræti 75, Bergstaðastræti 77, Bergstaðastræti 79 og Bergstaðastræti 81, eða eins og sýnt er á meðsendum uppdráttum Landupplýsingadeildar, umhverfis- og skipulagssviðs,  dags. 05. 05. 2015. Lóðin Fjölnisvegur 20 (staðgr. 1.196.405, landnr. 102683) er talin 559,3m², lóðin reynist  558 m², teknir eru 3 m² af lóðinni og bætt við óútvísað land (landnr. 218177), lóðin verður  555 m². Lóðin Bergstaðastræti 83 (staðgr. 1.196.406, landnr. 102684) er talin 798,8 m², lóðin reynist  797 m², teknir eru 2 m² af lóðinni og bætt við óútvísað land (landnr. 218177), lóðin verður 795 m². Lóðin Fjölnisvegur 12 (staðgr. 1.196.401, landnr. 102679)  er talin 630,5 m², lóðin reynist  629 m². Lóðin Fjölnisvegur 14 (staðgr. 1.196.402, landnr. 102680) er talin 595,9 m², lóðin reynist  592 m². Lóðin Fjölnisvegur 16 (staðgr. 1.196.403, landnr. 102681) er talin 675,4 m², lóðin reynist  664 m². Lóðin Fjölnisvegur 18 (staðgr. 1.196.404, landnr. 102682)  er talin 686,8 m², lóðin reynist  679 m². Lóðin Bergstaðastræti 75 (staðgr. 1.196.410, landnr. 102688) er talin 686,8 m², lóðin reynist   679 m². Lóðin Bergstaðastræti 77 (staðgr. 1.196.409, landnr. 102687) er talin 826,0 m², lóðin reynist   825 m². Lóðin Bergstaðastræti 79 (staðgr. 1.196.408, landnr. 102686) er talin 798,0 m², lóðin reynist   797 m². Lóðin Bergstaðastræti 81 (staðgr. 1.196.407, landnr. 102685) er talin 798,0 m², lóðin reynist   791 m². Samanber uppdrætti í safni Mælingadeildar og Lóðaskráritara. Samanber rannsóknarvinnu Landupplýsingadeildar. Samanber forsögn skipulagsfulltrúa vegna aðstæðna á staðnum."
49469 (01.19.640.6),http://gamli.rvk.is/vefur/owa/edutils.parse_page?nafn=BN049469,Bergstaðastræti 83,mæliblað,Samþykkt.  Samræmist ákvæðum laga nr. 160 / 2010.,"Óskað er eftir  samþykki byggingarfulltrúans,  í fyrsta lagi til að breyta mörkum tveggja lóða, þ. e. lóðanna Fjölnisvegur 20 og Bergstaðastræti 83, og í öðru lagi er óskað eftir samþykki byggingarfulltrúa til að skrá lóðarstærðir í samræmi við niðurstöður úr rannsóknavinnu Landupplýsingadeildar á áðurnefndum tveim lóðum auk lóðanna  Fjölnisvegur 12,  Fjölnisvegur 14, Fjölnisvegur 16,  Fjölnisvegur 18,  Bergstaðastræti 75, Bergstaðastræti 77, Bergstaðastræti 79 og Bergstaðastræti 81, eða eins og sýnt er á meðsendum uppdráttum Landupplýsingadeildar, umhverfis- og skipulagssviðs,  dags. 05. 05. 2015. Lóðin Fjölnisvegur 20 (staðgr. 1.196.405, landnr. 102683) er talin 559,3m², lóðin reynist  558 m², teknir eru 3 m² af lóðinni og bætt við óútvísað land (landnr. 218177), lóðin verður  555 m². Lóðin Bergstaðastræti 83 (staðgr. 1.196.406, landnr. 102684) er talin 798,8 m², lóðin reynist  797 m², teknir eru 2 m² af lóðinni og bætt við óútvísað land (landnr. 218177), lóðin verður 795 m². Lóðin Fjölnisvegur 12 (staðgr. 1.196.401, landnr. 102679)  er talin 630,5 m², lóðin reynist  629 m². Lóðin Fjölnisvegur 14 (staðgr. 1.196.402, landnr. 102680) er talin 595,9 m², lóðin reynist  592 m². Lóðin Fjölnisvegur 16 (staðgr. 1.196.403, landnr. 102681) er talin 675,4 m², lóðin reynist  664 m². Lóðin Fjölnisvegur 18 (staðgr. 1.196.404, landnr. 102682)  er talin 686,8 m², lóðin reynist  679 m². Lóðin Bergstaðastræti 75 (staðgr. 1.196.410, landnr. 102688) er talin 686,8 m², lóðin reynist   679 m². Lóðin Bergstaðastræti 77 (staðgr. 1.196.409, landnr. 102687) er talin 826,0 m², lóðin reynist   825 m². Lóðin Bergstaðastræti 79 (staðgr. 1.196.408, landnr. 102686) er talin 798,0 m², lóðin reynist   797 m². Lóðin Bergstaðastræti 81 (staðgr. 1.196.407, landnr. 102685) er talin 798,0 m², lóðin reynist   791 m². Samanber uppdrætti í safni Mælingadeildar og Lóðaskráritara. Samanber rannsóknarvinnu Landupplýsingadeildar. Samanber forsögn skipulagsfulltrúa vegna aðstæðna á staðnum."
49461 (04.68.300.9),http://gamli.rvk.is/vefur/owa/edutils.parse_page?nafn=BN049461,Eddufell 2-8,mæliblað,Samþykkt.  Samræmist ákvæðum laga nr. 160 / 2010.,"Óskað er eftir  samþykki byggingarfulltrúans til að breyta mörkum lóðarinnar Eddufell 2-8 eða eins og sýnt er meðfylgjandi uppdráttum Landupplýsingadeildar dags. 19. 05. 2015. Lóðin Eddufell 2-8 (staðgr. 4.683.009, landnr. 112308) er talin 2611 m², lóðin reynist  2560 m², bætt er 30 m² við lóðina úr óútvísuðu landi (landnr. 221449), lóðin verður 2590 m². Sjá deiliskipulagsbreytingu samþykkta í borgarráði þann 18. 12. 2014, samþykkta á embættisafgreiðslufundi skipulagsfulltrúa þann 20. 02. 2015 og auglýsta í B-deild Stjórnartíðinda þann 30. 03. 2015."
49465 (01.19.640.1),http://gamli.rvk.is/vefur/owa/edutils.parse_page?nafn=BN049465,Fjölnisvegur 12,mæliblað,Samþykkt.  Samræmist ákvæðum laga nr. 160 / 2010.,"Óskað er eftir  samþykki byggingarfulltrúans,  í fyrsta lagi til að breyta mörkum tveggja lóða, þ. e. lóðanna Fjölnisvegur 20 og Bergstaðastræti 83, og í öðru lagi er óskað eftir samþykki byggingarfulltrúa til að skrá lóðarstærðir í samræmi við niðurstöður úr rannsóknavinnu Landupplýsingadeildar á áðurnefndum tveim lóðum auk lóðanna  Fjölnisvegur 12,  Fjölnisvegur 14, Fjölnisvegur 16,  Fjölnisvegur 18,  Bergstaðastræti 75, Bergstaðastræti 77, Bergstaðastræti 79 og Bergstaðastræti 81, eða eins og sýnt er á meðsendum uppdráttum Landupplýsingadeildar, umhverfis- og skipulagssviðs,  dags. 05. 05. 2015. Lóðin Fjölnisvegur 20 (staðgr. 1.196.405, landnr. 102683) er talin 559,3m², lóðin reynist  558 m², teknir eru 3 m² af lóðinni og bætt við óútvísað land (landnr. 218177), lóðin verður  555 m². Lóðin Bergstaðastræti 83 (staðgr. 1.196.406, landnr. 102684) er talin 798,8 m², lóðin reynist  797 m², teknir eru 2 m² af lóðinni og bætt við óútvísað land (landnr. 218177), lóðin verður 795 m². Lóðin Fjölnisvegur 12 (staðgr. 1.196.401, landnr. 102679)  er talin 630,5 m², lóðin reynist  629 m². Lóðin Fjölnisvegur 14 (staðgr. 1.196.402, landnr. 102680) er talin 595,9 m², lóðin reynist  592 m². Lóðin Fjölnisvegur 16 (staðgr. 1.196.403, landnr. 102681) er talin 675,4 m², lóðin reynist  664 m². Lóðin Fjölnisvegur 18 (staðgr. 1.196.404, landnr. 102682)  er talin 686,8 m², lóðin reynist  679 m². Lóðin Bergstaðastræti 75 (staðgr. 1.196.410, landnr. 102688) er talin 686,8 m², lóðin reynist   679 m². Lóðin Bergstaðastræti 77 (staðgr. 1.196.409, landnr. 102687) er talin 826,0 m², lóðin reynist   825 m². Lóðin Bergstaðastræti 79 (staðgr. 1.196.408, landnr. 102686) er talin 798,0 m², lóðin reynist   797 m². Lóðin Bergstaðastræti 81 (staðgr. 1.196.407, landnr. 102685) er talin 798,0 m², lóðin reynist   791 m². Samanber uppdrætti í safni Mælingadeildar og Lóðaskráritara. Samanber rannsóknarvinnu Landupplýsingadeildar. Samanber forsögn skipulagsfulltrúa vegna aðstæðna á staðnum."
49466 (01.19.640.2),http://gamli.rvk.is/vefur/owa/edutils.parse_page?nafn=BN049466,Fjölnisvegur 14,mæliblað,Samþykkt.  Samræmist ákvæðum laga nr. 160 / 2010.,"Óskað er eftir  samþykki byggingarfulltrúans,  í fyrsta lagi til að breyta mörkum tveggja lóða, þ. e. lóðanna Fjölnisvegur 20 og Bergstaðastræti 83, og í öðru lagi er óskað eftir samþykki byggingarfulltrúa til að skrá lóðarstærðir í samræmi við niðurstöður úr rannsóknavinnu Landupplýsingadeildar á áðurnefndum tveim lóðum auk lóðanna  Fjölnisvegur 12,  Fjölnisvegur 14, Fjölnisvegur 16,  Fjölnisvegur 18,  Bergstaðastræti 75, Bergstaðastræti 77, Bergstaðastræti 79 og Bergstaðastræti 81, eða eins og sýnt er á meðsendum uppdráttum Landupplýsingadeildar, umhverfis- og skipulagssviðs,  dags. 05. 05. 2015. Lóðin Fjölnisvegur 20 (staðgr. 1.196.405, landnr. 102683) er talin 559,3m², lóðin reynist  558 m², teknir eru 3 m² af lóðinni og bætt við óútvísað land (landnr. 218177), lóðin verður  555 m². Lóðin Bergstaðastræti 83 (staðgr. 1.196.406, landnr. 102684) er talin 798,8 m², lóðin reynist  797 m², teknir eru 2 m² af lóðinni og bætt við óútvísað land (landnr. 218177), lóðin verður 795 m². Lóðin Fjölnisvegur 12 (staðgr. 1.196.401, landnr. 102679)  er talin 630,5 m², lóðin reynist  629 m². Lóðin Fjölnisvegur 14 (staðgr. 1.196.402, landnr. 102680) er talin 595,9 m², lóðin reynist  592 m². Lóðin Fjölnisvegur 16 (staðgr. 1.196.403, landnr. 102681) er talin 675,4 m², lóðin reynist  664 m². Lóðin Fjölnisvegur 18 (staðgr. 1.196.404, landnr. 102682)  er talin 686,8 m², lóðin reynist  679 m². Lóðin Bergstaðastræti 75 (staðgr. 1.196.410, landnr. 102688) er talin 686,8 m², lóðin reynist   679 m². Lóðin Bergstaðastræti 77 (staðgr. 1.196.409, landnr. 102687) er talin 826,0 m², lóðin reynist   825 m². Lóðin Bergstaðastræti 79 (staðgr. 1.196.408, landnr. 102686) er talin 798,0 m², lóðin reynist   797 m². Lóðin Bergstaðastræti 81 (staðgr. 1.196.407, landnr. 102685) er talin 798,0 m², lóðin reynist   791 m². Samanber uppdrætti í safni Mælingadeildar og Lóðaskráritara. Samanber rannsóknarvinnu Landupplýsingadeildar. Samanber forsögn skipulagsfulltrúa vegna aðstæðna á staðnum."
49467 (01.19.640.3),http://gamli.rvk.is/vefur/owa/edutils.parse_page?nafn=BN049467,Fjölnisvegur 16,mæliblað,Samþykkt.  Samræmist ákvæðum laga nr. 160 / 2010.,"Óskað er eftir  samþykki byggingarfulltrúans,  í fyrsta lagi til að breyta mörkum tveggja lóða, þ. e. lóðanna Fjölnisvegur 20 og Bergstaðastræti 83, og í öðru lagi er óskað eftir samþykki byggingarfulltrúa til að skrá lóðarstærðir í samræmi við niðurstöður úr rannsóknavinnu Landupplýsingadeildar á áðurnefndum tveim lóðum auk lóðanna  Fjölnisvegur 12,  Fjölnisvegur 14, Fjölnisvegur 16,  Fjölnisvegur 18,  Bergstaðastræti75, Bergstaðastræti 77, Bergstaðastræti 79 og Bergstaðastræti 81, eða eins og sýnt er á meðsendum uppdráttum Landupplýsingadeildar, umhverfis- og skipulagssviðs,  dags. 05. 05. 2015. Lóðin Fjölnisvegur 20 (staðgr. 1.196.405, landnr. 102683) er talin 559,3m², lóðin reynist  558 m², teknir eru 3 m² af lóðinni og bætt við óútvísað land (landnr. 218177), lóðin verður  555 m². Lóðin Bergstaðastræti 83 (staðgr. 1.196.406, landnr. 102684) er talin 798,8 m², lóðin reynist  797 m², teknir eru 2 m² af lóðinni og bætt við óútvísað land (landnr. 218177), lóðin verður 795 m². Lóðin Fjölnisvegur 12 (staðgr. 1.196.401, landnr. 102679)  er talin 630,5 m², lóðin reynist  629 m². Lóðin Fjölnisvegur 14 (staðgr. 1.196.402, landnr. 102680) er talin 595,9 m², lóðin reynist  592 m². Lóðin Fjölnisvegur 16 (staðgr. 1.196.403, landnr. 102681) er talin 675,4 m², lóðin reynist  664 m². Lóðin Fjölnisvegur 18 (staðgr. 1.196.404, landnr. 102682)  er talin 686,8 m², lóðin reynist  679 m². Lóðin Bergstaðastræti 75 (staðgr. 1.196.410, landnr. 102688) er talin 686,8 m², lóðin reynist   679 m². Lóðin Bergstaðastræti 77 (staðgr. 1.196.409, landnr. 102687) er talin 826,0 m², lóðin reynist   825 m². Lóðin Bergstaðastræti 79 (staðgr. 1.196.408, landnr. 102686) er talin 798,0 m², lóðin reynist   797 m². Lóðin Bergstaðastræti 81 (staðgr. 1.196.407, landnr. 102685) er talin 798,0 m², lóðin reynist   791 m². Samanber uppdrætti í safni Mælingadeildar og Lóðaskráritara. Samanber rannsóknarvinnu Landupplýsingadeildar. Samanber forsögn skipulagsfulltrúa vegna aðstæðna á staðnum."
49468 (01.19.640.4),http://gamli.rvk.is/vefur/owa/edutils.parse_page?nafn=BN049468,Fjölnisvegur 18,mæliblað,Samþykkt.  Samræmist ákvæðum laga nr. 160 / 2010.,"Óskað er eftir  samþykki byggingarfulltrúans,  í fyrsta lagi til að breyta mörkum tveggja lóða, þ. e. lóðanna Fjölnisvegur 20 og Bergstaðastræti 83, og í öðru lagi er óskað eftir samþykki byggingarfulltrúa til að skrá lóðarstærðir í samræmi við niðurstöður úr rannsóknavinnu Landupplýsingadeildar á áðurnefndum tveim lóðum auk lóðanna  Fjölnisvegur 12,  Fjölnisvegur 14, Fjölnisvegur 16,  Fjölnisvegur 18,  Bergstaðastræti 75, Bergstaðastræti 77, Bergstaðastræti 79 og Bergstaðastræti 81, eða eins og sýnt er á meðsendum uppdráttum Landupplýsingadeildar, umhverfis- og skipulagssviðs,  dags. 05. 05. 2015. Lóðin Fjölnisvegur 20 (staðgr. 1.196.405, landnr. 102683) er talin 559,3m², lóðin reynist  558 m², teknir eru 3 m² af lóðinni og bætt við óútvísað land (landnr. 218177), lóðin verður  555 m². Lóðin Bergstaðastræti 83 (staðgr. 1.196.406, landnr. 102684) er talin 798,8 m², lóðin reynist  797 m², teknir eru 2 m² af lóðinni og bætt við óútvísað land (landnr. 218177), lóðin verður 795 m². Lóðin Fjölnisvegur 12 (staðgr. 1.196.401, landnr. 102679)  er talin 630,5 m², lóðin reynist  629 m². Lóðin Fjölnisvegur 14 (staðgr. 1.196.402, landnr. 102680) er talin 595,9 m², lóðin reynist  592 m². Lóðin Fjölnisvegur 16 (staðgr. 1.196.403, landnr. 102681) er talin 675,4 m², lóðin reynist  664 m². Lóðin Fjölnisvegur 18 (staðgr. 1.196.404, landnr. 102682)  er talin 686,8 m², lóðin reynist  679 m². Lóðin Bergstaðastræti 75 (staðgr. 1.196.410, landnr. 102688) er talin 686,8 m², lóðin reynist   679 m². Lóðin Bergstaðastræti 77 (staðgr. 1.196.409, landnr. 102687) er talin 826,0 m², lóðin reynist   825 m². Lóðin Bergstaðastræti 79 (staðgr. 1.196.408, landnr. 102686) er talin 798,0 m², lóðin reynist   797 m². Lóðin Bergstaðastræti 81 (staðgr. 1.196.407, landnr. 102685) er talin 798,0 m², lóðin reynist   791 m². Samanber uppdrætti í safni Mælingadeildar og Lóðaskráritara. Samanber rannsóknarvinnu Landupplýsingadeildar. Samanber forsögn skipulagsfulltrúa vegna aðstæðna á staðnum."
49464 (01.19.640.5),http://gamli.rvk.is/vefur/owa/edutils.parse_page?nafn=BN049464,Fjölnisvegur 20,mæliblað,Samþykkt.  Samræmist ákvæðum laga nr. 160 / 2010.,"Óskað er eftir  samþykki byggingarfulltrúans,  í fyrsta lagi til að breyta mörkum tveggja lóða, þ. e. lóðanna Fjölnisvegur 20 og Bergstaðastræti 83, og í öðru lagi er óskað eftir samþykki byggingarfulltrúa til að skrá lóðarstærðir í samræmi við niðurstöður úr rannsóknavinnu Landupplýsingadeildar á áðurnefndum tveim lóðum auk lóðanna  Fjölnisvegur 12,  Fjölnisvegur 14, Fjölnisvegur 16,  Fjölnisvegur 18,  Bergstaðastræti 75, Bergstaðastræti 77, Bergstaðastræti 79 og Bergstaðastræti 81, eða eins og sýnt er á meðsendum uppdráttum Landupplýsingadeildar, umhverfis- og skipulagssviðs,  dags. 05. 05. 2015. Lóðin Fjölnisvegur 20 (staðgr. 1.196.405, landnr. 102683) er talin 559,3m², lóðin reynist  558 m², teknir eru 3 m² af lóðinni og bætt við óútvísað land (landnr. 218177), lóðin verður  555 m². Lóðin Bergstaðastræti 83 (staðgr. 1.196.406, landnr. 102684) er talin 798,8 m², lóðin reynist  797 m², teknir eru 2 m² af lóðinni og bætt við óútvísað land (landnr. 218177), lóðin verður 795 m². Lóðin Fjölnisvegur 12 (staðgr. 1.196.401, landnr. 102679)  er talin 630,5 m², lóðin reynist  629 m². Lóðin Fjölnisvegur 14 (staðgr. 1.196.402, landnr. 102680) er talin 595,9 m², lóðin reynist  592 m². Lóðin Fjölnisvegur 16 (staðgr. 1.196.403, landnr. 102681) er talin 675,4 m², lóðin reynist  664 m². Lóðin Fjölnisvegur 18 (staðgr. 1.196.404, landnr. 102682)  er talin 686,8 m², lóðin reynist  679 m². Lóðin Bergstaðastræti 75 (staðgr. 1.196.410, landnr. 102688) er talin 686,8 m², lóðin reynist   679 m². Lóðin Bergstaðastræti 77 (staðgr. 1.196.409, landnr. 102687) er talin 826,0 m², lóðin reynist   825 m². Lóðin Bergstaðastræti 79 (staðgr. 1.196.408, landnr. 102686) er talin 798,0 m², lóðin reynist   797 m². Lóðin Bergstaðastræti 81 (staðgr. 1.196.407, landnr. 102685) er talin 798,0 m², lóðin reynist   791 m². Samanber uppdrætti í safni Mælingadeildar og Lóðaskráritara. Samanber rannsóknarvinnu Landupplýsingadeildar. Samanber forsögn skipulagsfulltrúa vegna aðstæðna á staðnum."
49499 (01.29.140.1 04),http://gamli.rvk.is/vefur/owa/edutils.parse_page?nafn=BN049499,Háaleitisbraut 103,samþykkt ógild,Afgreitt.,"Á afgreiðslufundi byggingarfulltrúa 19. maí sl. var samþykkt að endurnýja erindi BN003290 þar sem leyft var að byggja yfir svalir úr gleri á norðurenda fjölbýlishúss á lóð nr. 103 við Háaleitisbraut.  Stækkun: 1. hæð 6,8 ferm., 2. hæð 6,8 ferm., 3. hæð 6,8 ferm., 4. hæð 6,8 ferm. Samtals 27,2 ferm., 73 rúmm. Þessi samþykkt ógildist hér með samkvæmt beiðni hönnuðar."
49385 (04.33.200.1),http://gamli.rvk.is/vefur/owa/edutils.parse_page?nafn=BN049385,Hraunbær 107,Aflétting kvaðar,Afgreitt Vísað til afgreiðslu skrifstofu borgarstjóra.,"Vísað er til yfirlýsingar embættis byggingarfulltrúans í Reykjavík frá 7. september 1998, um að þinglýst skuli þeirri kvöð á lóðina Hraunbæ 107, matshluta 01, að lóðinni sé úthlutað til byggingar íbúðarhúsa fyrir aldraða og að íbúðir í húsi nr. 107 við Hraunbæ, matshl. 01, skuli allar vera í eigu eins aðila. Yfirlýsingunni var þinglýst sem kvöð á lóðina 14. september 1998, sbr. skjalanúmer 411-B-015936/1998. Íbúðir í húsinu nr. 107 við Hraunbæ, fastanr. 223-9155 til 223-9183, 223-9185, 223-9187 til 223-9188 og 225-8077 til 225-8081, hafa frá byggingu aldrei verið notaðar sem íbúðir fyrir aldraða. Fyrir hönd eiganda fasteignarinnar, Leiguafls slhf., kt. 480514-0680 er hér með farið á leit að embættið aflétti kvöð samkvæmt framangreindri yfirlýsingu af fasteigninni. Umsögn skrifstofu sviðsstýru dags. 20. maí 2015 fylgir erindinu."
49449 (01.19.521.4),http://gamli.rvk.is/vefur/owa/edutils.parse_page?nafn=BN049449,Eiríksgata 17,(fsp) - Svalir,Frestað. Málinu vísað til umsagnar skipulagsfulltrúa.,"Spurt er hvort byggja megi svalir á 1., 2. og 3. hæð fjölbýlishúss á lóð nr. 17 við Eiríksgötu."
49425 (01.35.500.8),http://gamli.rvk.is/vefur/owa/edutils.parse_page?nafn=BN049425,Kleppsvegur 104,(fsp) - Viðbygging,Frestað. Málinu vísað til umsagnar skipulagsfulltrúa.,Spurt er hvort byggja megi við og hækka ris á húsi á lóð nr. 104 við Kleppsveg.
49430 (01.38.411.3),http://gamli.rvk.is/vefur/owa/edutils.parse_page?nafn=BN049430,Langholtsvegur 54,"(fsp) - Svalahurð, pallur og tröppur",Afgreitt Með vísan til leiðbeininga á fyrirspurnarblaði.,Spurt er hvort koma megi fyrir hurð ásamt palli og stiga af 1. hæð niður í garð á húsi á lóð nr. 54 við Langholtsveg.
49420 (01.38.040.7),http://gamli.rvk.is/vefur/owa/edutils.parse_page?nafn=BN049420,Laugarásvegur 21,(fsp) - Bílskýli - útigeymsla,Jákvætt. Með vísan til umsagnar skipulagsfulltrúa frá 22. maí 2015. Byggingarleyfisumsókn verði grenndarkynnt berist hún.,"Spurt er hvort leyft yrði að byggja bílskýli, útigeymslu, stoðveggi og koma fyrir heitri laug eins og sýnt er á meðfylgjandi teikningum af einbýlishúsi á lóð nr. 21 við Laugarásveg. Útskrift úr gerðabók embættisafgreiðslufundar skipulagsfulltrúa frá 22. maí 2015 fylgir erindinu."
