nr,url,heimilisfang,tegund,nidurstada,spurning
49328 (01.14.041.4),http://gamli.rvk.is/vefur/owa/edutils.parse_page?nafn=BN049328,Aðalstræti 9,Rennihurð - útiveitingar,Var samþykkt 24. júní 2015. Samþykkt.  Samræmist ákvæðum laga nr. 160 / 2010. Með vísan til samþykktar borgarráðs frá 1. september 1998 skal utanhúss- og lóðarfrágangi vera lokið eigi síðar en innan tveggja ára frá útgáfu byggingarleyfis að viðlögðum dagsektum sbr. greinar nr. 2.4.7 og 2.9.2 í byggingarreglugerð nr. 112/2012. Allur frágangur á svæði útiveitinga er á ábyrgð umsækjanda og ber honum að sjá til þess að allt rusl sé þrifið jafnóðum og fjarlægt. Áskilin lokaúttekt byggingarfulltrúa. Áskilið samþykki heilbrigðiseftirlits.,Sótt er um leyfi til að koma fyrir rennihurð á suðurhlið og rými fyrir útiveitingar fyrir framan hús á lóð nr. 9 við Aðalstræti. Meðfylgjandi er yfirlýsing fyrir hönd meðlóðarhafa dags. 8.4. 2015 ásamt umsögn skrifstofu reksturs- og umhirðu dags. 19. maí 2015. Gjald kr. 9.823
49606 (04.66.710.1),http://gamli.rvk.is/vefur/owa/edutils.parse_page?nafn=BN049606,Austurberg 3,Heilsuræktarstöð - viðbygging,Frestað. Vísað til athugasemda á umsóknarblaði.,"Sótt er um leyfi til að byggja viðbyggingu fyrir heilsurækt sunnan við íþróttahús og sundlaug á lóð nr. 3 við Austurberg. Stærð:  1.697,5 ferm., 2.836,8 rúmm. Gjald kr. 9.823"
49495 (01.14.041.8),http://gamli.rvk.is/vefur/owa/edutils.parse_page?nafn=BN049495,Austurv Thorvaldsenss,Thorvaldsenstræti 2 - Veitingastaður o.fl.,Frestað. Vísað til athugasemda á umsóknarblaði.,Sótt er um leyfi til breytinga á innra skipulagi í veitingasal á efri hæð og í tónlistar/dansstað sem verða í flokki III fyrir samtals 400 gesti í húsi á lóð nr. 2 við Thorvaldsenstræti. Meðfylgjandi er brunahönnun Eflu dags. 18. júní 2015. Gjald kr. 9.823
49633 (01.17.130.7),http://gamli.rvk.is/vefur/owa/edutils.parse_page?nafn=BN049633,Bergstaðastræti 4,Breyting - 1.hæð og kjallara,Frestað. Vísað til athugasemda á umsóknarblaði.,"Sótt er um leyfi til að breyta mhl. 01 þannig að loka á stigagangi 0006 inn í rými 0001, flytja geymslur, koma fyrir hurð frá rými 0104 inn í rými 0103 í húsinu á lóð nr. 4 við Bergstaðastræti. Gjald kr. 9.823"
49524 (01.55.010.2),http://gamli.rvk.is/vefur/owa/edutils.parse_page?nafn=BN049524,Birkimelur 3,"Breyting á útliti, sorpgeymsla færð o.fl.",Frestað. Vísað til athugasemda eldvarnaeftirlits á umsóknarblaði.,"Sótt er um leyfi til að breyta nýsamþykktu erindi BN049055 frá 24.3.2015 sem felst í að færa sorpgeymslu, síkka glugga við inngang niður í gólf og fækka opnanlegum gluggarömmum í blómabúð á lóð nr. 3 við Birkimel. Gjald kr. 9.823"
49302 (01.25.010.1),http://gamli.rvk.is/vefur/owa/edutils.parse_page?nafn=BN049302,Brautarholt 22,Reyndarteikningar,Frestað. Vísað til athugasemda á umsóknarblaði.,"Sótt er um samþykki á þegar gerðum breytingum sbr. erindi BN020225 dags. 24.2. 2000, breytingarnar felast aðallega í að anddyri hefur verið breytt og þar bætt við skrifstofu í hóteli á lóð nr. 22 við Brautarholt. Meðfylgjandi er minnisblað dags. 20.3. 2015. Gjald kr. 9.823"
49621 (04.79.180.5),http://gamli.rvk.is/vefur/owa/edutils.parse_page?nafn=BN049621,Búðavað 17-19,Reyndarteikningar,Frestað. Vísað til athugasemda á umsóknarblaði. Gera þarf betur grein fyrir erindi.,Sótt er um leyfi fyrir áður gerðum breytingum vegna lokaúttektar á erindi BN036876 þar sem kemur fram ??? á parhúsinu á lóð nr. 17 til 19 við Búðavað.  Gjald kr. 9.823
48329 (02.34.480.2),http://gamli.rvk.is/vefur/owa/edutils.parse_page?nafn=BN048329,Dofraborgir 3,Bílgeymsla - breytingar,Samþykkt.  Samræmist ákvæðum laga nr. 160 / 2010. Með vísan til samþykktar borgarráðs frá 1. september 1998 skal utanhúss- og lóðarfrágangi vera lokið eigi síðar en innan tveggja ára frá útgáfu byggingarleyfis að viðlögðum dagsektum sbr. greinar nr. 2.4.7 og 2.9.2 í byggingarreglugerð nr. 112/2012. Frágangur á lóðamörkum verði gerður í samráði við lóðarhafa aðliggjandi lóða. Áskilin lokaúttekt byggingarfulltrúa.,"Sótt er um leyfi til að breikka nýsamþykkta bílgeymslu, sjá erindi BN047726, við einbýlishús á lóð nr. 3 við Dofraborgir. Stækkar um:  1,2 ferm. og minnkar um 2,9 rúmm. Gjald kr. 9.500"
49488 (01.45.400.2 02),http://gamli.rvk.is/vefur/owa/edutils.parse_page?nafn=BN049488,Dugguvogur 10,Reyndarteikningar,Frestað. Vísað til athugasemda eldvarnaeftirlits á umsóknarblaði.,Sótt er um samþykki á áður gerðum breytingum og lagfæringum á innra skipulagi vegna brunavarna í húsi á lóð nr. 10 við Dugguvog. Samþykki meðeigenda ódagsett og bréf frá hönnuði dags. 8. júní 2015 fylgja erindi. Gjald kr. 9.823
49610 (01.67.301.5),http://gamli.rvk.is/vefur/owa/edutils.parse_page?nafn=BN049610,Einarsnes 62,Flutningshús frá Hverfisgötu 58A,Frestað. Vísað til athugasemda á umsóknarblaði.,"Sótt er um leyfi til að steypa kjallara og koma þar fyrir tveggja hæða timburhúsi, áður Hverfisgata 58A , endurbyggja það og innrétta íbúð og til að byggja steinsteyptan bílskúr á lóð nr. 62 við Einarsnes. Erindi fylgir umsögn Minjastofnunar Íslands dags. 11. júní 2015. Stærð mhl. 01:  193,4 ferm., 552,4 rúmm. Stærð mhl. 02:  28 ferm., 79,8 rúmm. Samtals 221,4 ferm., 637,8 rúmm. Gjald kr. 9.823"
49131 (04.77.210.1),http://gamli.rvk.is/vefur/owa/edutils.parse_page?nafn=BN049131,Elliðabraut 2,Eldsneytis- og afgreiðslustöð - 1.áfangi,"Samþykkt.  Samræmist ákvæðum laga nr. 160 / 2010. Frágangur á lóðamörkum verði gerður í samráði við lóðarhafa aðliggjandi lóða. Með vísan til samþykktar borgarráðs frá 1. september 1998 skal utanhúss- og lóðarfrágangi vera lokið eigi síðar en innan tveggja ára frá útgáfu byggingarleyfis að viðlögðum dagsektum sbr. greinar nr. 2.4.7 og 2.9.2 í byggingarreglugerð nr. 112/2012. Með vísan til samþykktar umhverfis- og skipulagsráðs, dags. 22. maí 2013, skal lóðarhafi, í samráði við byggingarfulltrúa, setja upp skilti til kynningar á fyrirhuguðum framkvæmdum á byggingarstað. Í samræmi við samþykkt umhverfis- og skipulagsráðs dags. 9. október 2013 skal vélknúinn þvottabúnaður vera til staðar á byggingarlóð sem tryggi að vörubílar og aðrar þungavinnuvélar verði þrifnar áður en þær yfirgefa byggingarstað. Samráð skal haft við byggingarfulltrúa um staðsetningu búnaðarins. Sérstakt samráð skal haft við yfirverkfræðing byggingarfulltrúa vegna jarðvinnu. Áskilin lokaúttekt byggingarfulltrúa.","Sótt er um leyfi fyrir fyrsta áfanga sem er að koma upp eldsneytis/sjálfsafgreiðslustöð, með 3 dælum og tilheyrandi eldsneytisgeymum, steyptum dæluplötum og steyptu áfyllingarplani, tæknirými, þvottaplani, sorpgeymslu, sandskilju og olíuskilju á lóð nr. 2 við Elliðabraut 2.  Útskrift úr gerðabók embættisafgreiðslufundar skipulagsfulltrúa frá 17. apríl 2015 fylgir erindinu ásamt umsögn skipulagsfulltrúa dags. 16. apríl 2015. Bréf frá hönnuði dags. 8. júní 2015 fylgir. Bréf frá hönnuði dags. 23. mars 2015 og frá 8. júlí 2015 fylgir erindi. Stærðir: Tæknirými mhl. 01:  9,8 ferm., 28,9 rúmm. Eldsneytisgeymar mhl. 02.  47,3 ferm., 107,3 rúmm. Olíuskilja mhl. 03.  5,5 ferm., 6,0 rúmm. Samtals : 62,6 ferm., 142,2 rúmm.  Gjald kr. 9.823 + 9.823"
49487 (01.46.330.1),http://gamli.rvk.is/vefur/owa/edutils.parse_page?nafn=BN049487,Faxafen 5,Reyndarteikningar,Frestað. Samkvæmt gögnum embættisins er lágmarksgjald ógreitt.,Sótt er um samþykki á ýmsum breytingum vegna lokaúttektar á húsi á lóð nr. 5 við Faxafen. Gjald kr. 9.823
49597 (01.67.510.8),http://gamli.rvk.is/vefur/owa/edutils.parse_page?nafn=BN049597,Fáfnisnes 14,Sólskáli,Frestað. Vísað til athugasemda á umsóknarblaði.,"Sótt er um leyfi til að byggja skála við suðurhlið og koma fyrir eldstæði með reykröri við einbýlishús á lóð nr. 14 við Fáfnisnes. Stækkun vegna skála verður 28,8 ferm., 78,0 rúmm.  Gjald kr. 9.823"
49416 (01.29.420.1),http://gamli.rvk.is/vefur/owa/edutils.parse_page?nafn=BN049416,Fellsmúli 13-19,19 - Breytingar jarðhæð - 04-0001,Frestað. Vísað til athugasemda á umsóknarblaði.,Sótt er um samþykki á þegar gerðum breytingum sem felast í að innréttuð er baðherbergi í íbúð 04-0001 í kjallara fjölbýlishúss nr. 19 á lóð nr. 13 - 19 við Fellsmúla. Samþykki meðeiganda fyrir salerni fylgir erindinu.  Gjald kr. 9.823
49645 (01.24.8-9.9),http://gamli.rvk.is/vefur/owa/edutils.parse_page?nafn=BN049645,Flókagata Miklatún,Segl við Klambratún,Frestað. Vísað til umsagnar skrifstofu reksturs- og umhirðu.,Sótt er um leyfi til að koma fyrir segli með auglýsingu fyrir sýningu í Listasafni Reykjavíkur á Kjarvalsstöðum á Klamratúni á lóðinni Flókagata Miklatún.
49639 (01.66.--9.9),http://gamli.rvk.is/vefur/owa/edutils.parse_page?nafn=BN049639,Flugvöllur 106748,Nauthólsvegur 66 - Stækkun reiðhjólaskýlis,Frestað. Málinu vísað til umsagnar skipulagsfulltrúa.,"Sótt er um leyfi til að stækka núverandi reiðhjólaskýli mhl. 37 sem er staðsett norðanmegin við húsið á nr. 66 við Nauthólsveg á lóð nr. 106748 við flugvöllinn. Reiðhjólageymsla A rými 43,2 ferm., 107,0 rúmm. Gjald kr. 9.823"
49602 (01.54.610.2),http://gamli.rvk.is/vefur/owa/edutils.parse_page?nafn=BN049602,Fornhagi 1,Mötuneyti - nýtt eldhús,Frestað. Vísað til athugasemda eldvarnaeftirlits á umsóknarblaði.,Sótt er um leyfi til að gera nýtt eldhús og saga burt hluta af skorsteini og gera hurðargat í vegg á 1. hæð fyrir mötuneyti Hagaskólans á lóð nr. 1 við Fornhaga.  Umsögn burðarvirkishönnuðar dags. 15. júlí 2015 fylgir. Gjald kr. 9.823
48776 (01.17.210.9),http://gamli.rvk.is/vefur/owa/edutils.parse_page?nafn=BN048776,Frakkastígur 8,3. áfangi,"Samþykkt.  Samræmist ákvæðum laga nr. 160 / 2010. Með vísan til samþykktar borgarráðs frá 1. september 1998 skal utanhúss- og lóðarfrágangi vera lokið eigi síðar en innan tveggja ára frá útgáfu byggingarleyfis að viðlögðum dagsektum sbr. greinar nr. 2.4.7 og 2.9.2 í byggingarreglugerð nr. 112/2012. Frágangur á lóðamörkum verði gerður í samráði við lóðarhafa aðliggjandi lóða. Með vísan til samþykktar umhverfis- og skipulagsráðs, dags. 22. maí 2013, skal lóðarhafi, í samráði við byggingarfulltrúa, setja upp skilti til kynningar á fyrirhuguðum framkvæmdum á byggingarstað. Í samræmi við samþykkt umhverfis- og skipulagsráðs dags. 9. október 2013 skal vélknúinn þvottabúnaður vera til staðar á byggingarlóð sem tryggi að vörubílar og aðrar þungavinnuvélar verði þrifnar áður en þær yfirgefa byggingarstað. Samráð skal haft við byggingarfulltrúa um staðsetningu búnaðarins. Sérstakt samráð skal haft við yfirverkfræðing byggingarfulltrúa vegna jarðvinnu. Áskilin lokaúttekt byggingarfulltrúa. Áskilið samþykki heilbrigðiseftirlits.","Sótt er um leyfi til að byggja 3. áfanga Frakkastígsreits, að byggja nýbyggingu á Laugavegi 41B sem í verður sameiginlegt stiga- og lyftuhús, rífa stigahús á bakhlið Laugavegs 43, stækka til norðurs og hækka þak á norðurhlið, setja kvisti á Laugaveg 45, tengja efri hæðir Laugavegs 43 og 45 við nýbyggingu og innrétta skrifstofur á efri hæðum og verslanir á jarðhæðum á lóð nr. 8 við Frakkastíg. Útskrift úr gerðabók embættisafgreiðslufundar skipulagsfulltrúa frá 6. mars 2015 fylgir erindinu ásamt umsögn skipulagsfulltrúa dags. 6. mars 2015 og umsögn Minjastofnunar Íslands dags. 5. mars 2015. Samtals 3. áfangi:   1.409,8 ferm., 4.339,0 rúmm. Gjald kr. 9.823"
48498 (05.05.320.1),http://gamli.rvk.is/vefur/owa/edutils.parse_page?nafn=BN048498,Friggjarbrunnur 42-44,Fjölbýlishús,Frestað. Vísað til athugasemda á umsóknarblaði.,"Sótt er um leyfi til að byggja steinsteypt fjölbýlishús, þrjár til fimm hæðir með 52 íbúðum á bílakjallara fyrir 53 bíla á lóð nr. 42-44 við Friggjarbrunn. Útskrift úr gerðabók embættisafgreiðslufundar skipulagsfulltrúa frá 13. febrúar 2015 fylgir erindinu ásamt umsögn skipulagsfulltrúa dags. 13. febrúar 2015. Stærð A-rými:  6.178,2 ferm., 18.365,5 rúmm. B-rými:  1.953,2 ferm., 4.346,1 rúmm., þ.a. bílgeymsla 1.472,5 ferm. C-rými:  286,6 ferm. Gjald kr. 9.500"
49604 (01.18.341.3),http://gamli.rvk.is/vefur/owa/edutils.parse_page?nafn=BN049604,Fríkirkjuvegur 11,"Breytingar úti og inni, breytt notkun",Frestað. Vísað til athugasemda á umsóknarblaði. Umsækjandi skal afla umsögn  Minjastofnunar Íslands.,"Sótt er um leyfi til að innrétta veitinga- og ráðstefnusal þar sem sótt verður um tækifærisleyfi fyrir hvern viðburð í kjallara og á 1. hæð, lækkuð verður gólfplata í hliðarsal, taka niður svið í sal í sömu hæð og gólfplatan, koma fyrir salernum, koma fyrir matarlyftu/þjónustulyftu við eldhús og fólkslyftu frá kjallara upp á 1. hæð ásamt öðrum breytingum sem nefndar eru í byggingalýsingu á teikningu, innréttuð verður íbúð á 2. hæð og í risi, fjarlægður verður stigi á milli 1. og 2 hæðar og hann geymdur, breyta núverandi útitröppum við suðurgafl, koma fyrir lyftu vegna aðkomu hreyfihamlaða og fjölga þakgluggum á austanverðu úr 2 í 6 stykki í húsinu á lóð nr. 11 við Fríkirkjuveg. Bréf frá hönnuði dags. 16. júní 2015, umsögn burðarvirkishönnuðar  dags. 9. júní 2015, bréf frá Forsætisráðuneytinu dags. 12 maí 2015 og Greinargerð hönnuðarstjóra dags. 16. júní 2015 fylgir erindinu. Gjald kr. 9.823"
49492 (02.85.750.5),http://gamli.rvk.is/vefur/owa/edutils.parse_page?nafn=BN049492,Frostafold 14,Stækka anddyri,Frestað. Vísað til athugasemda eldvarnaeftirlits á umsóknarblaði. Gera skal grein fyrir þeim atriðum sem fram koma í 6. tl. gr. 9.5.9 í byggingarreglugerð.,"Sótt er um leyfi til að stækka anddyri og koma fyrir rafdrifinni rennihurð í fjölbýlishúsi á lóð nr. 14 við Frostafold. Stækkun:  3,5 ferm. Gjald kr. 9.823"
49620 (02.69.520.1),http://gamli.rvk.is/vefur/owa/edutils.parse_page?nafn=BN049620,Gefjunarbrunnur 1-3,Parhús,Frestað. Vísað til athugasemda á umsóknarblaði.,"Sótt er um leyfi til að byggja steinsteypt tveggja hæða parhús með innbyggðri bílgeymslu á lóð nr. 1-3 við Gefjunarbrunn. Stærð mhl. 01, 230,7 ferm., mhl. 02, 230,7 ferm. Samtals:  461,4 ferm., 1.565,6 rúmm. Gjald kr. 9.823"
49192 (04.93.330.1),http://gamli.rvk.is/vefur/owa/edutils.parse_page?nafn=BN049192,Gljúfrasel 11,Byggja yfir svalir,"Samþykkt.  Samræmist ákvæðum laga nr. 160 / 2010. Með vísan til samþykktar borgarráðs frá 1. september 1998 skal utanhúss- og lóðarfrágangi vera lokið eigi síðar en innan tveggja ára frá útgáfu byggingarleyfis að viðlögðum dagsektum sbr. greinar nr. 2.4.7 og 2.9.2 í byggingarreglugerð nr. 112/2012. Skilyrt er að ný eignaskiptayfirlýsing sé samþykkt fyrir útgáfu byggingarleyfis, henni verður þinglýst eigi síðar en við fokheldi. Áskilin lokaúttekt byggingarfulltrúa.","Sótt er um leyfi til að byggja svalalokun á íbúð 01 0201 á suðvesturhlið hússins á lóð nr. 11 við Gljúfrasel.  Stækkun vegna svalalokunar er 7,8 ferm., 19,9 rúmm. Gjald kr. 9.823"
49627 (01.44.420.6),http://gamli.rvk.is/vefur/owa/edutils.parse_page?nafn=BN049627,Gnoðarvogur 66,Breytingar í kjallara,Frestað. Vísað til athugasemda á umsóknarblaði.,"Sótt er um leyfi til að breyta innra skipulagi í kjallara, íbúð stækkar á kostnað sameignar og inntaksrými er gert aðgengilegt utanfrá í fjölbýlishúsi á lóð nr. 66 við Gnoðarvog. Erindi fylgir umsögn burðarvirkishönnuðar dags. 22. júní 2015, kaupsamningur dags. 28. mars 2015 og samþykki meðeigenda dags. 17. júní 2015. Gjald kr. 9.823"
49446 (01.11.500.1),http://gamli.rvk.is/vefur/owa/edutils.parse_page?nafn=BN049446,Grandagarður 15-37,31 - Skartgripaverslun og verkstæði,Samþykkt.  Samræmist ákvæðum laga nr. 160 / 2010. Með vísan til samþykktar borgarráðs frá 1. september 1998 skal utanhúss- og lóðarfrágangi vera lokið eigi síðar en innan tveggja ára frá útgáfu byggingarleyfis að viðlögðum dagsektum sbr. greinar nr. 2.4.7 og 2.9.2 í byggingarreglugerð nr. 112/2012. Áskilin lokaúttekt byggingarfulltrúa.,"Sótt er um leyfi til að innrétta skartgripaverslun og verkstæði í einingu nr. 31, mhl. 9, í fyrrverandi verbúð á lóð nr. 15-37 við Grandagarð. Umsögn Minjastofnunar Íslands dags. 29. maí 2015 fylgir erindinu og önnur umsögn dags. 9. maí 2015. Gjald kr. 9.823"
49629 (01.18.210.4),http://gamli.rvk.is/vefur/owa/edutils.parse_page?nafn=BN049629,Grettisgata 4,Fjölbýlishús,Frestað. Vísað til athugasemda á umsóknarblaði. Málinu vísað til umsagnar skipulagsfulltrúa.,"Sótt er um leyfi til að byggja þriggja hæða fjölbýlishús með sjö íbúðum, steinsteypt, einangrað að utan og klætt múrkerfi og liggjandi bárujárni á lóð nr. 4 við Grettisgötu. Stærð A-rými:  607,1 ferm., 1.954,1 rúmm. B-rými:  48,2 ferm. C-rými:  19 ferm. Gjald kr. 9.823"
48976 (01.24.770.4),http://gamli.rvk.is/vefur/owa/edutils.parse_page?nafn=BN048976,Guðrúnargata 8,"Pallur/svalir 1.hæð, svalir 2.hæð o.fl.","Samþykkt.  Samræmist ákvæðum laga nr. 160 / 2010. Með vísan til samþykktar borgarráðs frá 1. september 1998 skal utanhúss- og lóðarfrágangi vera lokið eigi síðar en innan tveggja ára frá útgáfu byggingarleyfis að viðlögðum dagsektum sbr. greinar nr. 2.4.7 og 2.9.2 í byggingarreglugerð nr. 112/2012. Skilyrt er að ný eignaskiptayfirlýsing sé samþykkt fyrir útgáfu byggingarleyfis, henni verður þinglýst eigi síðar en við lokaúttekt. Áskilin lokaúttekt byggingarfulltrúa.","Sótt er um leyfi til að byggja svalir á íbúð 0201 á austurgafli, stækka svalir íbúð 0101, fyrir áður gerðri tvöfaldri hurð á suðurgafli og til að loka hurðagati á vesturhlið bílskúrs mhl. 02, á lóð nr. 8 við Guðrúnargötu. Samþykki  meðlóðarhafa dags. 3. mars. 2015 fylgir erindi ásamt útskrift úr gerðabók embættisafgreiðslufundar skipulagsfulltrúa frá 20. mars 2015 og umsögn skipulagsfulltrúa dags. 19. mars 2015. Einnig fylgir bréf frá hönnuði dags. 15. apríl 2015. Útskrift úr gerðabók embættisafgreiðslufundar skipulagsfulltrúa frá 29. apríl 2015 fylgir erindinu ásamt umsögn skipulagsfulltrúa frá dags. 29. apríl 2015 og útskrift úr gerðabók embættisafgreiðslufundar skipulagsfulltrúa frá 26. júní 2015. Erindið var grenndarkynnt frá 1. júní til og með 29. júní 2015 þar sem samþykki allra hagsmundaaðila sem grenndarkynnt var fyrir liggur fyrir er erindið nú lagt fram að nýju. Gjald kr. 9.823 + 9.823"
49129 (01.21.610.1),http://gamli.rvk.is/vefur/owa/edutils.parse_page?nafn=BN049129,Guðrúnartún 1,Reyndarteikningar,Samþykkt.  Samræmist ákvæðum laga nr. 160 / 2010. Áskilin lokaúttekt byggingarfulltrúa. Áskilið samþykki heilbrigðiseftirlits.,"Sótt er um samþykki fyrir áður gerðum breytingum á erindi BN046628, m. a. bætt við rými í kjallara fyrir útblástursstokka og breytt innra skipulagi og brunaskilgreiningum á öllum hæðum skrifstofuhúss á lóð nr. 1 við Guðrúnartún. Stækkun, B-rými:  14,3 ferm., 29,3 rúmm. Gjald kr. 9.823"
49632 (01.52.500.7),http://gamli.rvk.is/vefur/owa/edutils.parse_page?nafn=BN049632,Hagamelur 67,Kaffi- og veitingarekstur í fl. II,Frestað. Málinu vísað til umsagnar skipulagsfulltrúa.,Sótt er um leyfi til að innrétta kaffi/veitingastaða í flokki II í rými sem er með sölu á ritföngum og bókum í húsinu á lóð nr. 67 við Hagamel. Gjald kr. 9.823
49546 (05.11.350.5),http://gamli.rvk.is/vefur/owa/edutils.parse_page?nafn=BN049546,Haukdælabraut 110,Stækkun,Samþykkt.  Samræmist ákvæðum laga nr. 160 / 2010. Frágangur á lóðamörkum verði gerður í samráði við lóðarhafa aðliggjandi lóða. Áskilin lokaúttekt byggingarfulltrúa.,"Sótt er um samþykki á stækkun með lengingu húss, sbr. erindi BN047528 dags. 29.4. 2014, einbýlishússins á lóð nr. 110 við Haukdælabraut. Stækkun:  18,7 ferm.,  64,1 rúmm.  Gjald kr. 9.823"
49615 (01.28.440.1),http://gamli.rvk.is/vefur/owa/edutils.parse_page?nafn=BN049615,Háaleitisbraut 58-60,Snyrtistofa - 0202 og flóttasvalir,Frestað. Vísað til athugasemda á umsóknarblaði. Málinu vísað til umsagnar skipulagsfulltrúa.,"Sótt er um leyfi fyrir áður gerðri snyrtistofu í rými 0202, einnig er sótt um leyfi til að koma fyrir flóttasvölum  á bakhlið, breyta gluggum við innhorn milli vestur og norðurálmu og gera skyggni á götuhlið að flóttasvölum með því að koma fyrir handriði þar á verslunarhúsi á lóð nr. 58 - 60 við Háaleitisbraut. Samþykki frá húsfélagsfundi dags. 9. júlí 2012 fylgir erindi. Gjald kr. 9.823"
49417 (04.41.170.1),http://gamli.rvk.is/vefur/owa/edutils.parse_page?nafn=BN049417,Hádegismóar 1,Skrifstofu- og lagerhúsnæði,"Samþykkt.  Samræmist ákvæðum laga nr. 160 / 2010. Með vísan til samþykktar borgarráðs frá 1. september 1998 skal utanhúss- og lóðarfrágangi vera lokið eigi síðar en innan tveggja ára frá útgáfu byggingarleyfis að viðlögðum dagsektum sbr. greinar nr. 2.4.7 og 2.9.2 í byggingarreglugerð nr. 112/2012. Frágangur á lóðamörkum verði gerður í samráði við lóðarhafa aðliggjandi lóða. Með vísan til samþykktar umhverfis- og skipulagsráðs, dags. 22. maí 2013, skal lóðarhafi, í samráði við byggingarfulltrúa, setja upp skilti til kynningar á fyrirhuguðum framkvæmdum á byggingarstað. Í samræmi við samþykkt umhverfis- og skipulagsráðs dags. 9. október 2013 skal vélknúinn þvottabúnaður vera til staðar á byggingarlóð sem tryggi að vörubílar og aðrar þungavinnuvélar verði þrifnar áður en þær yfirgefa byggingarstað. Samráð skal haft við byggingarfulltrúa um staðsetningu búnaðarins. Sérstakt samráð skal haft við yfirverkfræðing byggingarfulltrúa vegna jarðvinnu. Áskilin lokaúttekt byggingarfulltrúa. Áskilið samþykki heilbrigðiseftirlits. Áskilið samþykki Vinnueftirlits ríkisins.","Sótt er um leyfi til að byggja skrifstofu- og lagerhús, að hluta staðsteypt og að hluta stálgrindarhús klætt yleiningum, á lóð nr. 1 við Hádegismóa. Erindi fylgir brunahönnunarskýrslan frá Mannvit dags. 30. apríl 2015, útreikningur á varmatapi dags. 28. mars 2015 og greinargerð hönnunarstjóra. Stærð:  8.263,9 ferm., 95.854,5 rúmm. Gjald kr. 9.823"
49605 (01.36.400.2),http://gamli.rvk.is/vefur/owa/edutils.parse_page?nafn=BN049605,Hofteigur 6,Hurð út í garð - kjallari,Samþykkt.  Samræmist ákvæðum laga nr. 160 / 2010. Með vísan til samþykktar borgarráðs frá 1. september 1998 skal utanhúss- og lóðarfrágangi vera lokið eigi síðar en innan tveggja ára frá útgáfu byggingarleyfis að viðlögðum dagsektum sbr. greinar nr. 2.4.7 og 2.9.2 í byggingarreglugerð nr. 112/2012. Áskilin lokaúttekt byggingarfulltrúa.,Sótt er um leyfi til að setja hurð út úr stofu í kjallara í samræmi við hurð út á svalir á 2. og 3. hæð og komið verður fyrir litlum palli á lóð við húsið nr. 6 við Hofteig. Samþykki meðlóðarhafa fylgir ódags.. Gjald kr. 9.823
49415 (01.13.340.4),http://gamli.rvk.is/vefur/owa/edutils.parse_page?nafn=BN049415,Holtsgata 41B,Lækka gólf,Samþykkt.  Samræmist ákvæðum laga nr. 160 / 2010. Með vísan til samþykktar borgarráðs frá 1. september 1998 skal utanhúss- og lóðarfrágangi vera lokið eigi síðar en innan tveggja ára frá útgáfu byggingarleyfis að viðlögðum dagsektum sbr. greinar nr. 2.4.7 og 2.9.2 í byggingarreglugerð nr. 112/2012. Áskilin lokaúttekt byggingarfulltrúa.,"Sótt er um leyfi til að lækka hluta stofunnar þar sem hlaðinn kjallari var áður, til að varðveita hann að hluta og auka á blæbrigði hússins Stóra-Sel á lóðinni nr. 41B við Holtsgötu. Stækkun: 6,2 rúmm. Gjald kr. 9.823"
49448 (01.17.300.9),http://gamli.rvk.is/vefur/owa/edutils.parse_page?nafn=BN049448,Hverfisgata 76,Veitingastaður 1.hæð,Samþykkt.  Samræmist ákvæðum laga nr. 160 / 2010. Áskilin lokaúttekt byggingarfulltrúa. Áskilið samþykki heilbrigðiseftirlits.,"Sótt er um leyfi til að innrétta veitingahús í flokki II, teg. E fyrir 50 gesti á 1. hæð húss á lóð nr. 76 við Hverfisgötu. Erindi fylgir samþykki meðeigenda áritað á uppdrátt og bréf með skýringum umsækjanda ódagsett. Gjald kr. 9.823"
49612 (05.11.310.4),http://gamli.rvk.is/vefur/owa/edutils.parse_page?nafn=BN049612,Ísleifsgata 20-26,Raðhús,Frestað. Vísað til athugasemda á umsóknarblaði.,"Sótt er um leyfi til að byggja tveggja hæða, fjögra íbúða úr staðsteyptri járnbentri steinsteypu á lóð nr. 20 - 26 við Ísleifsgötu. Varmatapsútreikningar dags. 16. júní 2015 fylgir. Stærð íbúða og Bílgeymslu: Mhl. 01 175,9 ferm. 558,5 rúmm. Mhl. 02 175,9 ferm. 558,5 rúmm. Mhl. 03 175,9 ferm. 558,5 rúmm. Mhl. 04 175,9 ferm. 558,5 rúmm. Samtals: 703,6 ferm. 2234,0 rúmm. Gjald kr. 9.823"
49598 (04.13.220.1),http://gamli.rvk.is/vefur/owa/edutils.parse_page?nafn=BN049598,Kirkjustétt 2-6,Breyting inni - fjölga eignum,Frestað. Vísað til athugasemda á umsóknarblaði.,"Sótt er um leyfi til að breyta innra skipulagi í mhl. 03, fjölga eignum með því að innrétta  fjórar sjálfstæðar vinnustofur, koma fyrir kaffi- og salernisaðstöðu í húsinu á lóð nr. 2-6 Kirkjustétt. Bréf frá hönnuði dags. 15.júní 2015 fylgir.  Gjald kr. 9.823"
49609 (01.36.300.1),http://gamli.rvk.is/vefur/owa/edutils.parse_page?nafn=BN049609,Kirkjuteigur 24,Færanleg kennslustofa,Samþykkt.  Samræmist ákvæðum laga nr. 160 / 2010. Með vísan til samþykktar borgarráðs frá 1. september 1998 skal utanhúss- og lóðarfrágangi vera lokið eigi síðar en innan tveggja ára frá útgáfu byggingarleyfis að viðlögðum dagsektum sbr. greinar nr. 2.4.7 og 2.9.2 í byggingarreglugerð nr. 112/2012. Áskilin lokaúttekt byggingarfulltrúa.,"Sótt er um leyfi til að koma fyrir kennslustofu, K113-F sem verður tengd við stofu K95-E við Laugarnesskóla á lóð nr. 24 við Kirkjuteig.. Stærð stofu K113-F:  80,2 ferm., 279,1 rúmm.  Gjald kr. 9.823"
49635 (01.32.230.1),http://gamli.rvk.is/vefur/owa/edutils.parse_page?nafn=BN049635,Klettagarðar 6,Geymslum breytt í vinnslurými fyrir matvælaiðnað,Frestað. Vísað til athugasemda á umsóknarblaði.,"Sótt er um leyfi til að breyta innra skipulagi í rými 0102, breyta rýmisnúmerum og innrétta fyrir matvælaframleiðslu í mhl. 03 í húsi á lóð nr. 6 við Klettagarða.  Gjald kr. 9.823"
49617 (01.35.700.3),http://gamli.rvk.is/vefur/owa/edutils.parse_page?nafn=BN049617,Langholtsvegur 43,Lyftu- og stigahús - ofanábygging o.fl.,Frestað. Vísað til athugasemda heilbrigðiseftirlits á umsóknarblaði.,"Sótt er um leyfi til að breyta nýsamþykktu erindi, sjá BN049244, breytt er innra skipulagi í kjallara og á 2. hæð, þakgluggi færður til og gluggi í viðtalsherbergi stækkaður í húsi Ljóssins á lóð nr. 43 við Langholtsveg. Gjald kr. 9.823"
49375 (01.36.510.7),http://gamli.rvk.is/vefur/owa/edutils.parse_page?nafn=BN049375,Laugateigur 36,Lyfta þaki - Svalir o.fl.,Frestað. Vísað til athugasemda á umsóknarblaði og umsagnar skipulagsfulltrúa dags. 13. maí 2015.,"Sótt er um leyfi til að setja svalir framan við kvist á suðurhlið og lyfta þaki sitt hvorum megin við hann ásamt breytingum á innra fyrirkomulagi í íbúðarhúsi á lóð nr. 36 við Laugateig. Meðfylgjandi er samþykki meðlóðarhafa.  Einnig útskrift úr gerðabók embættisafgreiðslufundar skipulagsfulltrúa frá 15. maí 2015 og umsögn skipulagsfulltrúa dags. 13. maí 2015. Stækkun: 4,1 rúmm., eftir stækkun 815,7 rúmm. Flatarmál stækkar ekki, er 284,7 ferm. Gjald kr. 9.823"
49611 (01.22.221.5),http://gamli.rvk.is/vefur/owa/edutils.parse_page?nafn=BN049611,Laugavegur 151-155,Gististaður fl.2,Frestað. Vísað til athugasemda á umsóknarblaði.,Sótt er um leyfi til að innrétta gististað í flokki II teg. E í átta íbúðum og koma fyrir læstu járnhliði á götuhlið við fjölbýlishús á lóð nr. 151-155 við Laugaveg. Gjald kr. 9.823
49616 (01.17.111.1),http://gamli.rvk.is/vefur/owa/edutils.parse_page?nafn=BN049616,Laugavegur 17,Tímabundin opnun - Svalir 4.hæð o.fl.,Frestað. Vísað til athugasemda á umsóknarblaði.,"Sótt er um leyfi til að breyta erindi BN047129, m. a. opna tímabundið yfir í kjallara Laugavegs 19 á 1. hæð og í kjallara, byggja yfir vestari svalir á 3. hæð, stækka svalir á 4. hæð og breyta gluggum á 1. hæð götuhliðar húss á lóð nr. 17 við Laugaveg. Erindi fylgir minnisblað um brunavarnir frá Eflu dags. 15. júní 2015. Gjald kr. 9.823"
45273 (01.17.150.1),http://gamli.rvk.is/vefur/owa/edutils.parse_page?nafn=BN045273,Laugavegur 18,Breyta úr flokki I í flokk II,Frestað. Vísað til athugasemda heilbrigðiseftirlits á umsóknarblaði.,Sótt er um leyfi til að breyta notkun rýmis á annarri hæð úr veitingastað í flokki I í flokk II í húsinu á lóðinni nr. 18 við Laugaveg. Útskrift úr gerðabók embættis afgreiðslufundar skipulagsfulltrúa  frá 13. desember 2013 fylgir erindinu ásamt umsögn skipulagsfulltrúa dags. 12. desember 2013.Bréf hönnuðar dags. 26. nóv. 2013 og 24. feb. 2015. Bréf um sorp losun dags. 11 febrúar 2014 og þinglýst yfirlýsing um afnot af sorptunnum dags. 15 júli 2013 fylgir. Gjald kr. 8.500 + 9.823
49618 (01.17.111.0 01),http://gamli.rvk.is/vefur/owa/edutils.parse_page?nafn=BN049618,Laugavegur 19,Tímabundin opnun - Svalir 4.hæð o.fl.,Frestað. Vísað til athugasemda á umsóknarblaði.,"Sótt er um leyfi til að breyta erindi BN047130, m.a. að opna tímabundið yfir í Laugaveg 17 í kjallara og á 1. hæð, breyta gluggum og hurðum á 1. hæð og bæta við kvisti og  svölum á bakhlið 4. hæðar húss á lóð nr. 19 við Laugaveg. Erindi fylgir minnisblað frá Eflu um brunavarnir dags. 15. júní 2015. Stækkun:  xx rúmm. Gjald kr. 9.823"
49440 (01.17.150.3),http://gamli.rvk.is/vefur/owa/edutils.parse_page?nafn=BN049440,Laugavegur 20-20A,20A - Sorpgeymsla,"Synjað. Með vísan til umsagnar umhverfis- og skipulagssvið dags. 18. júní 2015 , umsagnar Orkuveitu Reykjavíkur dags. 19. júní 2015 og umsagnar skipulagsfulltrúa dags. 23. júní 2015.","Sótt er um leyfi til að leysa sorplosunarvanda með tveim niðurgröfnum sorpgeymslum í gangstétt fyrir framan hús á lóðum nr. 20 og 20A við Laugaveg. Erindinu var vísað til umsagnar Orkuveitu Reykjavíkur og Samgöngustjóra og er nú lagt fram að nýju ásamt umsögn umhverfis- og skipulagssviðs, samgöngustjóra, dags. 18. júní 2015 og Orkuveitu Reykjavíkur dags. 19. júní 2015 ásamt útskrift úr gerðabók embættisafgreiðslufundar skipulagsfulltrúa og umsagnar skipulagsfulltrúa dags. 23. júní 2015. Meðfylgjandi eru bréf Laugaverks dags. 17. maí, 5.12. 2015, 12.7. 2014, tölvupóstur byggingarfulltrúa dags. 16.3. 2015, bréf skipulagsfulltrúa dags. 18.5. 2015 og 18.1. 2012, tölvupóstar dags, 24.2. 2012, 29.6. 2011, 21.9. 2011, 19.5. 2015."
49636 (01.17.101.4),http://gamli.rvk.is/vefur/owa/edutils.parse_page?nafn=BN049636,Laugavegur 3,Breytingar inni,Samþykkt.  Samræmist ákvæðum laga nr. 160 / 2010. Áskilin lokaúttekt byggingarfulltrúa. Áskilið samþykki heilbrigðiseftirlits.,Sótt er um leyfi til að breyta innra fyrirkomulagi í veitingastað fl. II þannig að breytt er fyrirkomulagi í eldhúsi og á afgreiðsluborði í húsinu á lóð nr. 3 við Laugaveg.  Gjald kr. 9.823
49631 (01.17.221.3),http://gamli.rvk.is/vefur/owa/edutils.parse_page?nafn=BN049631,""">Laugavegur 32",Svalir,Frestað. Vísað til athugasemda á umsóknarblaði.,Sótt er um leyfi til að setja upp svalir úr stáli og timbri og glugga við svalirnar á húsinu á lóð nr. 32 við Laugaveg . Samþykki meðlóðarhafa ódags. fylgir.  Jákvæð fyrirspurn dags. 5. maí 2015 fylgir.  Gjald kr. 9.823
49614 (01.17.430.1),http://gamli.rvk.is/vefur/owa/edutils.parse_page?nafn=BN049614,Laugavegur 82,"Svalir - 0402, reyndarteikning",Frestað. Vísað til athugasemda á umsóknarblaði,"Sótt er um leyfi til að byggja svalir á norðvesturhorni 4. hæðar á íbúð 0402, einnig er gerð grein fyrir áður gerðum breytingum 3. og 4. hæð í húsi á lóð nr. 82 við Laugaveg. Gjald kr. 9.823"
49624 (01.15.150.2),http://gamli.rvk.is/vefur/owa/edutils.parse_page?nafn=BN049624,Lindargata 12,Endurnýjun - BN044896,Frestað. Vísað til athugasemda á umsóknarblaði.,"Sótt er um leyfi til að endurnýja erindi BN044896, þar sem veitt var leyfi til að endurbyggja og stækka svalir á annarri og þriðju hæð og útbúa nýjar svalir á fjórðu hæð fjölbýlishúss á lóðinni nr. 12 við Lindargötu. Gjald kr. 9.823"
49530 (05.05.550.2),http://gamli.rvk.is/vefur/owa/edutils.parse_page?nafn=BN049530,Lofnarbrunnur 16,Fjölbýlishús,Frestað. Lagfæra skráningu.,"Sótt er um leyfi til að byggja staðsteypt fjölbýlishús með fjórum íbúðum á þremur hæðum og bílgeymslu í kjallara á lóð nr. 16 við Lofnarbrunn. Erindi fylgir útreikningur á varmatapi dags. 22. júní 2015 og umboð v/undirritunar aðaluppdrátta dags. 16. júní 2015. Stærð A-rými:  917,8 ferm., 2.932,6 rúmm. B-rými:  6,9 ferm. C-rými:  150,3 ferm.  Gjald kr. 9.823"
49494 (01.77.810.1),http://gamli.rvk.is/vefur/owa/edutils.parse_page?nafn=BN049494,Menntasveigur 15,Ásatrúarhof,"Samþykkt.  Samræmist ákvæðum laga nr. 160 / 2010. Með vísan til samþykktar borgarráðs frá 1. september 1998 skal utanhúss- og lóðarfrágangi vera lokið eigi síðar en innan tveggja ára frá útgáfu byggingarleyfis að viðlögðum dagsektum sbr. greinar nr. 2.4.7 og 2.9.2 í byggingarreglugerð nr. 112/2012. Frágangur á lóðamörkum verði gerður í samráði við lóðarhafa aðliggjandi lóða. Með vísan til samþykktar umhverfis- og skipulagsráðs, dags. 22. maí 2013, skal lóðarhafi, í samráði við byggingarfulltrúa, setja upp skilti til kynningar á fyrirhuguðum framkvæmdum á byggingarstað. Í samræmi við samþykkt umhverfis- og skipulagsráðs dags. 9. október 2013 skal vélknúinn þvottabúnaður vera til staðar á byggingarlóð sem tryggi að vörubílar og aðrar þungavinnuvélar verði þrifnar áður en þær yfirgefa byggingarstað. Samráð skal haft við byggingarfulltrúa um staðsetningu búnaðarins. Sérstakt samráð skal haft við yfirverkfræðing byggingarfulltrúa vegna jarðvinnu. Áskilin lokaúttekt byggingarfulltrúa. Áskilið samþykki heilbrigðiseftirlits.","Sótt er um leyfi til að byggja úr steinsteypu og timbri hofbyggingu Ásatrúarfélagsins, 1. áfanga, á lóð nr. 15 við Menntasveig. Meðfylgjandi er brunahönnunarskýrsla Verkís dags. 26. maí 2015 og bréf arkitekts dags. 9. júní 2015 ásamt útkrift úr gerðabók embættisafgreiðslufundar skipulagsfulltrúa frá 26. júní 2015 og umsögn skipulagsfulltrúa dags. 26. júní 2015. Stærðir 442,0 ferm., 1.973,6 rúmm. Gjald kr. 9.823+9.823"
48906 (01.18.320.3),http://gamli.rvk.is/vefur/owa/edutils.parse_page?nafn=BN048906,Miðstræti 5,Endurbætur og viðhald,Frestað. Vísað til athugasemda á umsóknarblaði.,Sótt er um leyfi til að steypa nýtt gólf í rými 0001 sem er iðnaðarhúsnæði í kjallara húss á lóð nr. 5 við Miðstræti. Meðfylgjandi er bréf hönnunarstjóra dags. 25. febrúar 2015 og greinargerð lögfræðistofunnar Lögmenn Bárugötu 4 dags. 2. mars 2015. Stækkun:  xx rúmm. Gjald kr. 9.823
48945 (01.18.222.6),http://gamli.rvk.is/vefur/owa/edutils.parse_page?nafn=BN048945,Njálsgata 18,"Færa hús, nýr byggingarhluti, hækkun o.fl.",Frestað. Vísað til athugasemda á umsóknarblaði og umsagnar skipulagsfulltrúa dags. 9. júní 2015.,"Sótt er um leyfi til að færa til vesturs um tvo metra, byggja viðbyggingu að Njálsgötu 20, hækka um eina hæð, byggja kvisti, endurbyggja og minnka bílskúr og innrétta tvær íbúðir í húsi á lóð nr. 18 við Njálsgötu. Erindi var grenndarkynnt frá 24. apríl til og með 22. maí 2015. Eftirtaldir aðilar sendu athugasemdir: Pétur Óli Gíslason dags. 5. maí 2015, Bryndís Emilsdóttir f.h. Heimsborga ehf. dags. 6. maí 2015 og Elísabet Árnadóttir dags. 19. maí 2015.  Einnig er lagður fram tölvupóstur Péturs Óla  Gíslasonar dags. 1. júní 2015 þar sem athugasemdir eru dregnar til baka og umsögn skipulagsfulltrúa dags. 9. júní 2015. Erindi fylgir umsögn Minjastofnunar Íslands dags. 18. nóvember 2014. Stærð verður:  237,1 ferm., 680,6 rúmm. Stækkun:  xx ferm., xx rúmm. Gjald kr. 9.823"
49596 (05.05.370.1),http://gamli.rvk.is/vefur/owa/edutils.parse_page?nafn=BN049596,Nönnubrunnur 1,Breytingar á erindi BN046659,Samþykkt.  Samræmist ákvæðum laga nr. 160 / 2010. Frágangur á lóðamörkum verði gerður í samráði við lóðarhafa aðliggjandi lóða. Áskilin lokaúttekt byggingarfulltrúa.,"Sótt er um leyfi til að breyta erindi BN046659 þannig að heitur pottur er fjarlægður af efstu svölum, fjarlægðar eru merkingar á björgunaropum og merkingar á flóttaleiðum um reyklosunarbrunn er fjarlægður í húsinu á lóð nr. 1 við Nönnubrunn. Gjald kr. 9.823"
48449 (01.13.601.8),http://gamli.rvk.is/vefur/owa/edutils.parse_page?nafn=BN048449,Ránargata 8A,Breyting,Frestað. Lagfæra þarf uppdrætti fasteignarinnar til  samræmis við  umsögn skipulagsfulltrúa dags. 5. júní 2015.,"Sótt er um leyfi til að byggja létt opið skýli með glerþaki yfir inngangi 1. hæðar í húsi á lóð nr. 8A við Ránargötu. Erindi var grenndarkynnt frá 19. mars til og með 16. apríl 2015. Eftirtaldir aðilar sendu inn athugasemdir: Kristján Már Kárason dags. 25. mars 2015.  Einnig er lögð fram umsögn skipulagsfulltrúa dags. 5. júní 2015.  Stækkun:11,9 ferm. B-rými, xx rúmm. Gjald kr. 9.500"
49249 (01.63.550.6),http://gamli.rvk.is/vefur/owa/edutils.parse_page?nafn=BN049249,Reykjavíkurvegur 35,Reyndarteikningar - bílskúr,Frestað. Vísað til athugasemda á umsóknarblaði.,"Sótt er um leyfi fyrir áður gerðum breytingum á erindi BN047765 þannig að bogaveggur frá bílskúr var framlengdur, komið fyrir útisturtu, útfærslu þaks breytt, steyptur veggur á lóðamörkum og heitum potti og palli komið fyrir sunnan einbýlishúss á lóð nr. 35 við Reykjavíkurveg.  Samþykki lóðarhafa nr. 33 og nr. 31 Reykjavíkurvegi og Hörpugötu 1 ódags. fylgir. Gjald kr. 9.823"
49250 (01.63.550.6),http://gamli.rvk.is/vefur/owa/edutils.parse_page?nafn=BN049250,Reykjavíkurvegur 35,Reyndarteikningar - kvistur,Samþykkt.  Samræmist ákvæðum laga nr. 160 / 2010. Áskilin lokaúttekt byggingarfulltrúa.,"Sótt er um leyfi fyrir áður gerðum breytingum, sbr. BN47552, kvistur lækkaði um 30 cm og skipt var út krossvið og soðnum pappa, fyrir borðklæðningu, pappa og bárujárn á húsinu á lóð nr. 35 við Reykjavíkurveg. Gjald kr. 9.823"
49404 (04.21.270.4),http://gamli.rvk.is/vefur/owa/edutils.parse_page?nafn=BN049404,Silungakvísl 19,Reyndarteikningar - heitur pottur,Frestað. Lagfæra skráningu.,"Sótt er um samþykki á þegar framkvæmdum breytingum sem felast í að teknar eru í notkun geymslur í kjallara og undir bílgeymslu, gluggar hafa verið settir á geymslur í kjallara, verönd og skjólveggir eru á baklóð og þar er sótt um leyfi fyrir heitum potti við íbúðarhús á lóð nr. 19 við Silungakvísl. Stærðir stækkunar: 10 ferm., 64 rúmm. Gjald kr. 9.823"
49174 (01.29.320.5),http://gamli.rvk.is/vefur/owa/edutils.parse_page?nafn=BN049174,Síðumúli 17,Veitingastaður - stækkun,Frestað. Vísað til athugasemda á umsóknarblaði.,"Sótt er um leyfi til að stækka veitingastað í flokki I  í rými 0101 með því að taka hluta af rými 0105, koma fyrir tveimur salernum annað með aðgengi fyrir alla og fjölga gestum um 12 þannig að gesta fjöldin verður 30 gestir í húsinu á lóð nr. 17 við Síðumúla. Gjald kr. 9.823"
49638 (01.27.420.1),http://gamli.rvk.is/vefur/owa/edutils.parse_page?nafn=BN049638,Skaftahlíð 24,Breyting - BN049024 - reyndarteikningar,Frestað. Vísað til athugasemda á umsóknarblaði.,Sótt er um leyfi fyrir áðurgerðum breytingum sbr. BN049024 vegna lokaúttektar og jafnframt er sótt um að fella niður erindi BN046505 og BN047314 á húsinu á lóð nr. 24 við Skaftahlíð.  Gjald kr. 9.823
49619 (01.15.430.4),http://gamli.rvk.is/vefur/owa/edutils.parse_page?nafn=BN049619,Skúlagata 28,Endurnýjun - BN044567,Frestað. Vísað til athugasemda á umsóknarblaði.,"Sótt er um leyfi til að breyta innra skipulagi 4. hæðar, innréttuð eru 10 gistiherbergi fyrir 122 gesti og brunavörnum breytt í gististað í flokki V sem hér með verður með 258 gistirými á lóð nr. 28 við Skúlagötu. Gjald kr. 9.823"
49016 (01.81.0-9.8),http://gamli.rvk.is/vefur/owa/edutils.parse_page?nafn=BN049016,Sogavegur 3,Viðbygging,Samþykkt.  Samræmist ákvæðum laga nr. 160 / 2010. Með vísan til samþykktar borgarráðs frá 1. september 1998 skal utanhúss- og lóðarfrágangi vera lokið eigi síðar en innan tveggja ára frá útgáfu byggingarleyfis að viðlögðum dagsektum sbr. greinar nr. 2.4.7 og 2.9.2 í byggingarreglugerð nr. 112/2012. Frágangur á lóðamörkum verði gerður í samráði við lóðarhafa aðliggjandi lóða. Áskilin lokaúttekt byggingarfulltrúa. Áskilið samþykki heilbrigðiseftirlits.,"Sótt er um leyfi til að byggja staðsteypta viðbyggingu á suðurhlið sem verður kæliklefi í atvinnuhúsi á lóð nr. 3 við Sogaveg.  Erindi var grenndarkynnt frá 26. mars til og með 23. apríl 2015. Eftirtaldir aðilar sendu athugasemdir: Rannveig Jónsdóttir dags. 19. apríl 2015  ásamt athugasemd við fyrri kynningu, Ingi Leifsson og Jónas Leifsson dags. 22. apríl 2015 og Baldur Ingvi Jóhannsson mótt. 22. apríl 2015.  Einnig er lögð fram umsögn skipulagsfulltrúa dags. 20. maí 2015. Stækkun: 26,1 ferm., 62,8 rúmm.  Gjald kr. 9.823"
49593 (01.13.820.1),http://gamli.rvk.is/vefur/owa/edutils.parse_page?nafn=BN049593,Sólvallagata 67,Viðbygging,"Samþykkt.  Samræmist ákvæðum laga nr. 160 / 2010. Frágangur á lóðamörkum verði gerður í samráði við lóðarhafa aðliggjandi lóða. Með vísan til samþykktar borgarráðs frá 1. september 1998 skal utanhúss- og lóðarfrágangi vera lokið eigi síðar en innan tveggja ára frá útgáfu byggingarleyfis að viðlögðum dagsektum sbr. greinar nr. 2.4.7 og 2.9.2 í byggingarreglugerð nr. 112/2012. Með vísan til samþykktar umhverfis- og skipulagsráðs, dags. 22. maí 2013, skal lóðarhafi, í samráði við byggingarfulltrúa, setja upp skilti til kynningar á fyrirhuguðum framkvæmdum á byggingarstað. Í samræmi við samþykkt umhverfis- og skipulagsráðs dags. 9. október 2013 skal vélknúinn þvottabúnaður vera til staðar á byggingarlóð sem tryggi að vörubílar og aðrar þungavinnuvélar verði þrifnar áður en þær yfirgefa byggingarstað. Samráð skal haft við byggingarfulltrúa um staðsetningu búnaðarins. Sérstakt samráð skal haft við yfirverkfræðing byggingarfulltrúa vegna jarðvinnu. Áskilin lokaúttekt byggingarfulltrúa. Áskilið samþykki heilbrigðiseftirlits.","Sótt er um leyfi til að byggja 3. hæða steinsteypta viðbyggingu, H-áfanga við Framnesveg vestanvert við Vesturbæjarskóla á lóð nr. 67 við Sólvallagötu. Útskrift úr gerðabók embættisafgreiðslufundar skipulagsfulltrúa frá 26. júní 2015 fylgir erindinu. Stækkun er: 1.341,4 ferm., 5.233,3 rúmm. Gjald kr. 9.823"
49224 (01.55.420.4),http://gamli.rvk.is/vefur/owa/edutils.parse_page?nafn=BN049224,Tómasarhagi 9,Færa eldhús,Samþykkt.  Samræmist ákvæðum laga nr. 160 / 2010. Áskilin lokaúttekt byggingarfulltrúa.,"Sótt er um leyfi til að breyta innra skipulagi á 1. hæð í húsinu á lóð nr. 9 við Tómasarhaga. Jákvæð fyrirspurn dags. 24. febrúar 2015 fylgir erindi, einnig samþykki meðlóðarhafa dags. 9 febrúar  2015.  Gjald kr. 9.823"
48537 (01.13.210.1),http://gamli.rvk.is/vefur/owa/edutils.parse_page?nafn=BN048537,Tryggvagata 10,Rífa hús - byggja nýtt,"Samþykkt.  Samræmist ákvæðum laga nr. 160 / 2010. Frágangur á lóðamörkum verði gerður í samráði við lóðarhafa aðliggjandi lóða. Með vísan til samþykktar borgarráðs frá 1. september 1998 skal utanhúss- og lóðarfrágangi vera lokið eigi síðar en innan tveggja ára frá útgáfu byggingarleyfis að viðlögðum dagsektum sbr. greinar nr. 2.4.7 og 2.9.2 í byggingarreglugerð nr. 112/2012. Með vísan til samþykktar umhverfis- og skipulagsráðs, dags. 22. maí 2013, skal lóðarhafi, í samráði við byggingarfulltrúa, setja upp skilti til kynningar á fyrirhuguðum framkvæmdum á byggingarstað. Í samræmi við samþykkt umhverfis- og skipulagsráðs dags. 9. október 2013 skal vélknúinn þvottabúnaður vera til staðar á byggingarlóð sem tryggi að vörubílar og aðrar þungavinnuvélar verði þrifnar áður en þær yfirgefa byggingarstað. Samráð skal haft við byggingarfulltrúa um staðsetningu búnaðarins. Sérstakt samráð skal haft við yfirverkfræðing byggingarfulltrúa vegna jarðvinnu. Áskilin lokaúttekt byggingarfulltrúa. Áskilið samþykki heilbrigðiseftirlits.","Sótt er um leyfi til að rífa núverandi hús og byggja nýtt tveggja hæða með kjallara og nýtanlegu risi úr steinsteypu með timburþaki í sem næst óbreyttri mynd með gluggum og turni í upprunalegum stíl sbr. ákvæði í gildandi deiliskipulagi. á lóðinni nr. 10 við Tryggvagötu. Erindi fylgir minnisblað um brunavarnir frá Verkís dags. 16. júní 2015. Stærð: Kjallari 70,5 ferm., 1. hæð 146,3 ferm., 2. hæð 143 ferm., 3. hæð 91,2 ferm. Samtals:  451,0 ferm., 1.748,5 rúmm. Niðurrif fastanr. 200-0547: mhl. 01, 346 ferm. merkt verslun, mhl. 02, 163 ferm. merkt iðnaður. Samtals niðurrif:  509 ferm. Gjald kr. 9.500"
49490 (01.11.740.7),http://gamli.rvk.is/vefur/owa/edutils.parse_page?nafn=BN049490,Tryggvagata 13,Breytingar kjallara,"Samþykkt.  Samræmist ákvæðum laga nr. 160 / 2010. Með vísan til samþykktar borgarráðs frá 1. september 1998 skal utanhúss- og lóðarfrágangi vera lokið eigi síðar en innan tveggja ára frá útgáfu byggingarleyfis að viðlögðum dagsektum sbr. greinar nr. 2.4.7 og 2.9.2 í byggingarreglugerð nr. 112/2012. Frágangur á lóðamörkum verði gerður í samráði við lóðarhafa aðliggjandi lóða. Með vísan til samþykktar umhverfis- og skipulagsráðs, dags. 22. maí 2013, skal lóðarhafi, í samráði við byggingarfulltrúa, setja upp skilti til kynningar á fyrirhuguðum framkvæmdum á byggingarstað. Í samræmi við samþykkt umhverfis- og skipulagsráðs dags. 9. október 2013 skal vélknúinn þvottabúnaður vera til staðar á byggingarlóð sem tryggi að vörubílar og aðrar þungavinnuvélar verði þrifnar áður en þær yfirgefa byggingarstað. Samráð skal haft við byggingarfulltrúa um staðsetningu búnaðarins. Sérstakt samráð skal haft við yfirverkfræðing byggingarfulltrúa vegna jarðvinnu. Áskilin lokaúttekt byggingarfulltrúa.","Sótt er um leyfi til breytinga, sbr. erindi BN048982 dags. 21. apríl 2015, breytt er stærð lagers og bílageymslu, veggur verður berandi milli geymslna og hjólageymslu, inntaksleiðir sýndar, lúga fyrir aðgengi að inntaki og reyklosun frá bílakjallara, útlit opnun og reyklosun, texti og skráningartafla leiðrétt í atvinnu- og fjölbýlishúsi á lóð nr. 13 við Tryggvagötu. Gjald kr. 9.823"
48747 (01.14.042.0),http://gamli.rvk.is/vefur/owa/edutils.parse_page?nafn=BN048747,Veltusund 3B,Breyting inni,Frestað. Vísað til athugasemda á umsóknarblaði.,"Sótt er um leyfi til að breyta innra skipulagi, innrétta fimm íbúðir á 2. og 3. hæð, innrétta aðstöðu fyrir veitingahús 1. hæðar á 2. hæð, til að dýpka kjallara um 30 cm í húsi á lóð nr. 3B við Veltusund. Erindi fylgir umsögn Minjastofnunar Íslands dags. 2. febrúar 2015, þinglýst afsal dags. 10. október 2007, samningur um afnot af sorpgeymslum í Austurstræti 6 dags. 4. júní 2015 og umsögn burðarvirkishönnuðar dags. 10. júní 2015. Stækkun:  xx rúmm. Gjald kr. 9.823"
49601 (02.82.020.4),http://gamli.rvk.is/vefur/owa/edutils.parse_page?nafn=BN049601,Vesturfold 40,"Kjallararými - gluggar, hurðir",Frestað. Vísað til athugasemda á umsóknarblaði.,"Sótt er um leyfi til að gera glugga og inngang á kjallara, koma fyrir hringstiga milli hæða og innrétta íbúðarrými í kjallara í einbýlishúsi á lóð nr. 40 við Vesturfold.  Stækkun:  121 ferm., 336,2 rúmm. Gjald kr. 9.823"
48879 (01.52.410.6),http://gamli.rvk.is/vefur/owa/edutils.parse_page?nafn=BN048879,Víðimelur 63,  Hækka þak - kvistir svalir,Frestað. Vísað til athugasemda á umsóknarblaði.,"Sótt er um leyfi til að hækka ris, byggja kvisti, koma fyrir nýjum stiga milli hæða, stækka svalir og breikka inngangströppur og útbúa nýjan inngang fyrir íbúðir 0101 og 0201 í fjölbýlishúsi á lóð nr. 63 við Víðmel. Útskrift úr gerðabók embættisafgreiðslufundar skipulagsfulltrúa frá 13. mars 2015 fylgir erindinu ásamt umsögn skipulagsfulltrúa dags. 12. mars 2015 og útskrift úr gerðabók embættisafgreiðslufundar skipulagsfulltrúa frá 26. júní 2015. Erindið var grenndarkynnt frá 22. maí til og með 19. júní 2015. Engar athugasemdir bárust. Jákvæðar fyrirspurnir BN048310 dags. 14. október 2014 og BN048437 28. október 2014 fylgja erindinu. Samþykki meðlóðarhafa á A4 teikningum dags. 15.jan. 2015 fylgir erindinu. Samþykki meðlóðarhafa á A4 teikningum dags. 15 jan. 2015 fylgir erindinu. Stækkun:  97,0 ferm., 276,0 rúmm. Gjald kr. 9.823 + 9.823"
49603 (04.68.300.5),http://gamli.rvk.is/vefur/owa/edutils.parse_page?nafn=BN049603,"03"">Völvufell 13-21","Nýlistasafn -0001, 0101",Frestað. Vísað til athugasemda á umsóknarblaði.,Sótt er um leyfi til að innrétta í mhl. 01 rými 0101 og í rými 0001 listasafn og geymslu fyrir safneigna í húsi nr.13 til 21 við Völvufell.  Gjald kr. 9.823
49515 (04.93.000.5),http://gamli.rvk.is/vefur/owa/edutils.parse_page?nafn=BN049515,Ystasel 19,Reykrör,Frestað. Vísað til athugasemda á umsóknarblaði.,"Sótt er um leyfi til að setja reykrör úr stáli  frá kamínu, sbr. fyrirspurn BN048933 dags. 3. mars 2015, og tvo glugga á þak einbýlishúss á lóð nr. 19 við Ystasel. Gjald kr. 9.823"
49496 (01.18.360.5),http://gamli.rvk.is/vefur/owa/edutils.parse_page?nafn=BN049496,Þingholtsstræti 29A,Skúr,Frestað. Grenndarkynningu ólokið.,"Sótt er um leyfi til að byggja timburskúr á steyptum sökkli í suðurhorni garðs við einbýlishús á lóð nr. 29A við Þingholtsstræti. Stærð:  5,8 ferm., 13,5 rúmm. Gjald kr. 9.823"
49607 (01.17.030.3),http://gamli.rvk.is/vefur/owa/edutils.parse_page?nafn=BN049607,Þingholtsstræti 3-5,Loftinntak fyrir eldhús - kjallari,Frestað. Vísað til athugasemda á umsóknarblaði.,Sótt er um leyfi til að setja loftinntak inn í eldhús í kjallara hússins á lóð nr. 3-5 við Þingholtstræti. Gjald kr. 9.823
49652 (00.05.400.0),http://gamli.rvk.is/vefur/owa/edutils.parse_page?nafn=BN049652,Móavík 125732,mæliblað,Samþykkt.  Samræmist ákvæðum laga nr. 160 / 2010.,"Óskað er eftir  samþykki byggingarfulltrúans á lóðauppdrætti 33.493.1, vegna nýrrar lóðar undir dreifistöð O.R (landnr.223043, staðgr.  33.493.101). Lóðin (landnr.223043, staðgr.  33.493.101) verður 16 m2 að stærð og kemur úr landi Móavíkur( landnr. 125732).  Ekki er til lóðauppdráttur fyrir lóðina Móavík.    Í fasteignaskrá er stærð Móavíkur (landnr. 125744) skráð 470800 m2. Lóðin Móavík (landnr. 125744) verður því 470784 m2. Sjá samþykkt umhverfis- og skipulagsráð 20. 05. 2015 og samþykkt borgarráðs 28.05.2015. Með fylgir umsókn OR til skipulagsfulltrúa um stofnun lóðar."
49648 (01.47.120.2),http://gamli.rvk.is/vefur/owa/edutils.parse_page?nafn=BN049648,Mörkin 8,Mæliblað,Samþykkt.  Samræmist ákvæðum laga nr. 160 / 2010.,"Óskað er eftir  samþykki byggingarfulltrúans til að stækka lóðina Mörkin 8 eða eins og sýnt er meðfylgjandi uppdráttum Landupplýsingadeildar dags. 25. 06. 2015.  Lóðin Mörkin 8 (staðgr. 1.471.202, landnr. 105735) er 2868 m², bætt er 1194 m² við lóðina úr óútvísuðu landi (landnr. 218177), lóðin verður  4062 m². Sjá deiliskipulagsbreytingu samþykkta í skipulagsráði þann       10. 05. 2006, samþykkta í borgarráðí 08. 06. 2006 og auglýsta í B-deild Stjórnartíðinda þann 31. 08. 2006."
49655 (00.06.400.0),http://gamli.rvk.is/vefur/owa/edutils.parse_page?nafn=BN049655,Saltvík 125744,mæliblað,Samþykkt.  Samræmist ákvæðum laga nr. 160 / 2010.,"Óskað er eftir  samþykki byggingarfulltrúans á lóðauppdrætti 33.264.8, vegna nýrrar lóðar undir dreifistöð O.R (landnr.223396, staðgr.  33.264.801). Lóðin (landnr.223396, staðgr.  33.264.801) verður 16 m2 að stærð og kemur úr landi Saltvíkur ( landnr. 125744).  Ekki er til lóðauppdráttur fyrir lóðina Saltvík    Í fasteignaskrá er stærð Saltvíkur (landnr. 125744) ekki skráð. Sjá samþykkt umhverfis- og skipulagsráð 20. 05. 2015 og samþykkt borgarráðs 28.05.2015. Með fylgir umsókn OR til skipulagsfulltrúa um stofnun lóðar."
49654 (00.02.200.6),http://gamli.rvk.is/vefur/owa/edutils.parse_page?nafn=BN049654,Spilda 7 / Esjuberg,mæliblað,Samþykkt.  Samræmist ákvæðum laga nr. 160 / 2010.,"Óskað er eftir  samþykki byggingarfulltrúans á lóðauppdrætti 33.418.1, vegna nýrrar lóðar undir dreifistöð O.R (landnr.223394, staðgr.  33.418.101). Lóðin (landnr.223394, staðgr.  33.418.101) verður 16 m2 að stærð og kemur úr landi Spildu 7/Esjuberg ( landnr. 125669).  Ekki er til lóðauppdrátttur af Spildu 7/Esjuberg ( landnr. 125669).  Í fasteignaskrá er stærð Spildu 7/Esjuberg ( landnr. 125699) skráð  616000 m2.  Spilda 7/Esjuberg ( landnr. 125669) verður því 615984 m2.   Sjá samþykkt umhverfis- og skipulagsráð 20. 05. 2015 og samþykkt borgarráðs 28.05.2015. Með fylgir umsókn OR til skipulagsfulltrúa um stofnun lóðar."
49653 (00.02.200.6),http://gamli.rvk.is/vefur/owa/edutils.parse_page?nafn=BN049653,Spilda 7 / Esjuberg,mæliblað,Samþykkt.  Samræmist ákvæðum laga nr. 160 / 2010.,"Óskað er eftir  samþykki byggingarfulltrúans á lóðauppdrætti 33.418.1, vegna nýrrar lóðar undir dreifistöð O.R (landnr.223394, staðgr.  33.418.101). Lóðin (landnr.223394, staðgr.  33.418.101) verður 16 m2 að stærð og kemur úr landi Spildu 7/Esjuberg ( landnr. 125669).  Ekki er til lóðauppdrátttur af Spildu 7/Esjuberg ( landnr. 125669).  Í fasteignaskrá er stærð Spildu 7/Esjuberg ( landnr. 125699) skráð  616000 m2.  Spilda 7/Esjuberg ( landnr. 125669) verður því 615984 m2.   Sjá samþykkt umhverfis- og skipulagsráð 20. 05. 2015 og samþykkt borgarráðs 28.05.2015. Með fylgir umsókn OR til skipulagsfulltrúa um stofnun lóðar."
49555 (01.29.010.1),http://gamli.rvk.is/vefur/owa/edutils.parse_page?nafn=BN049555,Ármúli 10,(fsp) - Yogaskóli og gistiheimili í rými 0201,Erindið er framsent til embættis skipulagsfulltrúans í Reykjavík sbr. 2. mgr. 7. gr. stjórnsýslulaga nr. 37/1993.,Spurt er hvort leyft yrði að innrétta yogaskóla og gististað í flokki II í rými 0201 í húsi á lóð nr. 10 við Ármúla.
49587 (01.82.401.0),http://gamli.rvk.is/vefur/owa/edutils.parse_page?nafn=BN049587,Básendi 2,"(fsp) - Rífa þak, og bæta hæð ofaná.",Erindið er framsent til embættis skipulagsfulltrúans í Reykjavík sbr. 2. mgr. 7. gr. stjórnsýslulaga nr. 37/1993.,Spurt er hvort leyfi fengist til að rífa ónýtt þak og bæta hæð ofan á húsið á lóð nr. 2 við Básenda.
49589 (01.80.440.7),http://gamli.rvk.is/vefur/owa/edutils.parse_page?nafn=BN049589,Brekkugerði 10,(fsp) - Garðhýsi,Erindið er framsent til embættis skipulagsfulltrúans í Reykjavík sbr. 2. mgr. 7. gr. stjórnsýslulaga nr. 37/1993.,Spurt er hvort leyft yrði að byggja garðskála í suðausturhorni lóðar nr. 10 við Brekkugerði.
49622 (04.97.200.2),http://gamli.rvk.is/vefur/owa/edutils.parse_page?nafn=BN049622,Fljótasel  1-17,(fsp) - Svalalokun - efstu hæð,Erindið er framsent til embættis skipulagsfulltrúans í Reykjavík sbr. 2. mgr. 7. gr. stjórnsýslulaga nr. 37/1993.,Spurt er hvort leyft yrði að koma fyrir svalalokun á svalir efstu hæðar á raðhúsi nr. 5 á lóð nr. 1-17 við Fljótasel.
49600 (01.35.300.3),http://gamli.rvk.is/vefur/owa/edutils.parse_page?nafn=BN049600,Kleppsvegur 92,(fsp) - Sólstofa,Erindið er framsent til embættis skipulagsfulltrúans í Reykjavík sbr. 2. mgr. 7. gr. stjórnsýslulaga nr. 37/1993.,Spurt er hvort leyfi fengist til að byggja sólstofu á húsið nr. 92 við Kleppsveg.
49556 (01.32.970.2),http://gamli.rvk.is/vefur/owa/edutils.parse_page?nafn=BN049556,Köllunarklettsvegur 4,(fsp) - Yogaskóli í rými 0202,Nei. Með vísan til umsagnar skipulagsfulltrúa dags. 26. júní 2015.,Spurt er hvort leyfi fengist til að opna yogaskóla með aðstöðu til gistingar fyrir heimsóknargesti sem taka þátt í yoga samkomu í húsinu á lóð nr. 4 við Köllunarklettsveg. Útskrift úr gerðabók embættisafgreiðslufundar skipulagsfulltrúa frá 26. júní 2015 fylgir erindinu ásamt umsögn skipulagsfulltrúa dags. 26. júní 2015.
49644 (04.05.570.1),http://gamli.rvk.is/vefur/owa/edutils.parse_page?nafn=BN049644,Malarhöfði 2-2A,(fsp) - 2 - Lofthæð/starfsleyfi,"Nei. Lofthæð í atvinnuhúsnæði skal vera að lágmarki 2,5 m samanber grein 6.8.2 í byggingarreglugerð nr. 112/2012.",Spurt er hvort of lítil lofthæð komi í veg fyrir starfsleyfi fyrir hárgreiðslustofu  verði gefið út í húsinu á lóð nr. 2 við Malarhöfða.
49520 (01.22.300.4),http://gamli.rvk.is/vefur/owa/edutils.parse_page?nafn=BN049520,Miðtún 8,(fsp) - Breyta 0101 í tvær íbúðir,Jákvætt. Að uppfylltum skilyrðum enda verði sótt um byggingarleyfi.,Spurt er hvort hægt sé að gera  tvær íbúðir úr íbúð 01 0101 í húsinu á lóð nr. 8 við Miðtún. Útskrift úr gerðabók embættisafgreiðslufundar skipulagsfulltrúa frá 26. júní 2015 fylgir erindinu ásamt umsögn skipulagsfulltrúa dags. 25. júní 2015.
49641 (01.23.000.3),http://gamli.rvk.is/vefur/owa/edutils.parse_page?nafn=BN049641,Sóltún 1,(fsp) - Mánatún 13 - Sameina tvær íbúðir - 8.hæð,Jákvætt. Að uppfylltum skilyrðum enda verði sótt um byggingarleyfi.,Spurt er hvort leyfi fengist til að sameina tvær íbúðir á 8. hæð í eina íbúð í húsi á lóð nr. 13 við Sóltún.
49634 (01.80.010.1),http://gamli.rvk.is/vefur/owa/edutils.parse_page?nafn=BN049634,Stóragerði  4-8,(fsp) - Auglýsingaskilti,Erindið er framsent til embættis skipulagsfulltrúans í Reykjavík sbr. 2. mgr. 7. gr. stjórnsýslulaga nr. 37/1993.,Spurt er hvort leyfi fengist til mála auglýsingar á hlið bílskúrs sem snýr að Miklubraut og er á lóð nr. 4-8 við Stóragerði.
49599 (02.34.300.1),http://gamli.rvk.is/vefur/owa/edutils.parse_page?nafn=BN049599,Vættaborgir 89-91,(fsp) - 91 - Viðbygging,Jákvætt. Að uppfylltum skilyrðum enda verði sótt um byggingarleyfi.,Spurt er hvort leyfi fengist til að byggja viðbyggingu úr steinsteypu á norð- austur hlið hússins á lóð nr. 91 við Vættaborgir.
49592 (04.72.430.2),http://gamli.rvk.is/vefur/owa/edutils.parse_page?nafn=BN049592,Þverás 4,(fsp) - Viðbygging - kvistur,Erindið er framsent til embættis skipulagsfulltrúans í Reykjavík sbr. 2. mgr. 7. gr. stjórnsýslulaga nr. 37/1993.,Spurt er hvort leyfi fengist til að byggja yfir svalir á efstuhæð í húsinu á lóð nr. 4 við Þverás.
