nr,url,heimilisfang,tegund,nidurstada,spurning
50110 (01.18.520.4),http://gamli.rvk.is/vefur/owa/edutils.parse_page?nafn=BN050110,Bergstaðastræti 44,Breyting á lóð - bílastæði,Synjað. Samanber umsögn skipulagsfulltrúa dags. 30. október 2015.,Sótt er um leyfi til að fjölga bílastæðum um þrjú og hætt er við eitt bílastæði  við suðurhlið fjölbýlishússins á lóð nr. 44 við Bergstaðastræti. Útskrift úr gerðabók embættisafgreiðslufundar skipulagsfulltrúa frá 30. október 2015 fylgir erindinu ásamt umsögn skipulagsfulltrúa dags. 30. október 2015. Gjald kr. 9.823
49455 (01.19.032.6),http://gamli.rvk.is/vefur/owa/edutils.parse_page?nafn=BN049455,Bergþórugata 23,Viðbygging,"Samþykkt.  Samræmist ákvæðum laga nr. 160 / 2010. Frágangur á lóðamörkum verði gerður í samráði við lóðarhafa aðliggjandi lóða. Með vísan til samþykktar borgarráðs frá 1. september 1998 skal utanhúss- og lóðarfrágangi vera lokið eigi síðar en innan tveggja ára frá útgáfu byggingarleyfis að viðlögðum dagsektum sbr. greinar nr. 2.4.7 og 2.9.2 í byggingarreglugerð nr. 112/2012. Með vísan til samþykktar umhverfis- og skipulagsráðs, dags. 22. maí 2013, skal lóðarhafi, í samráði við byggingarfulltrúa, setja upp skilti til kynningar á fyrirhuguðum framkvæmdum á byggingarstað. Í samræmi við samþykkt umhverfis- og skipulagsráðs dags. 9. október 2013 skal vélknúinn þvottabúnaður vera til staðar á byggingarlóð sem tryggi að vörubílar og aðrar þungavinnuvélar verði þrifnar áður en þær yfirgefa byggingarstað. Samráð skal haft við byggingarfulltrúa um staðsetningu búnaðarins. Sérstakt samráð skal haft við yfirverkfræðing byggingarfulltrúa vegna jarðvinnu. Skilyrt er að ný eignaskiptayfirlýsing sé samþykkt fyrir útgáfu byggingarleyfis, henni verður þinglýst eigi síðar en við fokheldi. Áskilin lokaúttekt byggingarfulltrúa.","Sótt er um leyfi til að byggja tveggja hæða viðbyggingu með kjallara og risi, innrétta þrjár nýjar íbúðir og til að gera  tvennar svalir á rishæð húss á lóð nr. 23 við Bergþórugötu. Útskrift úr gerðabók embættisafgreiðslufundar skipulagsfulltrúa frá 12. júní 2015 fylgir erindinu ásamt umsögn skipulagsfulltrúa dags. 11. júní 2015. Erindi fylgir umboð eiganda dags. 19. maí 2015 og bílastæðabókhald dags. 14. október 2015. Stækkun:  340,6 ferm., 1.055,8 rúmm. Gjald kr. 9.823"
50166 (01.23.010.1),http://gamli.rvk.is/vefur/owa/edutils.parse_page?nafn=BN050166,Borgartún 28,28a - íbúðar- og verslunarrými,Frestað. Vísað til athugasemda á umsóknarblaði. Málinu vísað til umsagnar skipulagsfulltrúa.,"Sótt er um leyfi til að byggja steinsteypt fjölbýlishús, einangrað að utan og klætt zinki, timburklæðningu og virocplötum, 6 hæðir og inndregin 7. hæð með 21 íbúð, skrifstofuhúsnæði á 1. hæð og bílgeymslu í kjallara fyrir 23 bíla á lóð nr. 28 við Borgartún. Stærð A-rými:  3.581,4 ferm., 10.798,2 rúmm. B-rými:  192,5 ferm., xx rúmm. C-rými:  202 ferm. Gjald kr. 9.823"
50080 (01.21.810.3),http://gamli.rvk.is/vefur/owa/edutils.parse_page?nafn=BN050080,Borgartún 29,Skyndibitastaður - jarðhæð og kjallara,Frestað. Vísað til athugasemda heilbrigðiseftirlits á umsóknarblaði.,"Sótt er um leyfi til að innrétta veitingastað í flokki I í rými 0002 og í 0102, koma fyrir útblástursröri og gasskáp á norðurhlið hússins á lóð nr. 29 við Borgartún.  Umboð frá RA 6 ehf. dags. 9. okt. 2015. Tölvupóstur frá hönnuði þar sem farið er fram á að fjarlægja skráningartöflu dags. 22. okt. 2015. Bréf frá hönnuði ódags. Bréf frá umsækjanda ódags. fylgir.  Samþykki fylgir á teikningu dags.  7. október 2015 Gjald kr. 9.823"
50146 (01.22.000.2),http://gamli.rvk.is/vefur/owa/edutils.parse_page?nafn=BN050146,Borgartún 6,Fjölgun eigna,Frestað. Vísað til athugasemda á umsóknarblaði.,"Sótt er um samþykki á fjölgun eigna, þrem eignum sem áður tilheyrðu séreign 0101 er breytt í séreignir, eignum fjölgar úr 7 í 10, meðfylgjandi er samþykki eigenda, dags. 13.10. 2015, í húsi á lóð nr. 6 við Borgartún. Gjald kr. 9.823"
50141 (00.00.000.0),http://gamli.rvk.is/vefur/owa/edutils.parse_page?nafn=BN050141,Borgartún 8-16A,"Katrínartún 2, H1 - Hótel 19.hæð",Frestað. Vísað til athugasemda eldvarnaeftirlits á umsóknarblaði.,"Sótt er um leyfi til að innrétta hótel fyrir 16 gesti á 19. hæð Katrínartúns 2 á lóð nr. 8-16A við Borgartún. Erindi fylgir endurskoðuð brunahönnun frá EFLU dags. 20. október 2015, yfirlýsing um ábyrgðarsvið hönnuða dags. sama dag og bréf umsækjanda dags. 6. október 2015. Gjald kr. 9.823"
49912 (01.22.010.7),http://gamli.rvk.is/vefur/owa/edutils.parse_page?nafn=BN049912,Borgartún 8-16A,Nýbygging H2 og G2,"Samþykkt.  Samræmist ákvæðum laga nr. 160 / 2010. Frágangur á lóðamörkum verði gerður í samráði við lóðarhafa aðliggjandi lóða. Með vísan til samþykktar umhverfis- og skipulagsráðs, dags. 22. maí 2013, skal lóðarhafi, í samráði við byggingarfulltrúa, setja upp skilti til kynningar á fyrirhuguðum framkvæmdum á byggingarstað. Í samræmi við samþykkt umhverfis- og skipulagsráðs dags. 9. október 2013 skal vélknúinn þvottabúnaður vera til staðar á byggingarlóð sem tryggi að vörubílar og aðrar þungavinnuvélar verði þrifnar áður en þær yfirgefa byggingarstað. Samráð skal haft við byggingarfulltrúa um staðsetningu búnaðarins. Sérstakt samráð skal haft við yfirverkfræðing byggingarfulltrúa vegna jarðvinnu. Skilyrt er að ný eignaskiptayfirlýsing sé samþykkt fyrir útgáfu byggingarleyfis, henni verður þinglýst eigi síðar en við fokheldi. Áskilin lokaúttekt byggingarfulltrúa.","Sótt er um leyfi til að byggja 7-9 hæða verslunar- og skrifstofuhús, H2 auk kjallara á þremur hæðum og tengibyggingu G2 á einni hæð sem tengir nýbygginguna við H1 til norðurs á lóð nr. 8-16 við Borgartún. Erindi fylgir brunahönnunarskýrsla frá EFLU dags. í ágúst 2015. Stærð A-rými:  13.418,1 ferm., 52.491,3 rúmm. B-rými:  0 C-rými:  361,1 ferm. Gjald kr. 9.823"
49976 (01.24.230.2),http://gamli.rvk.is/vefur/owa/edutils.parse_page?nafn=BN049976,Brautarholt 10-14,Hótel,Samþykkt.  Samræmist ákvæðum laga nr. 160 / 2010. Með vísan til samþykktar borgarráðs frá 1. september 1998 skal utanhúss- og lóðarfrágangi vera lokið eigi síðar en innan tveggja ára frá útgáfu byggingarleyfis að viðlögðum dagsektum sbr. greinar nr. 2.4.7 og 2.9.2 í byggingarreglugerð nr. 112/2012. Áskilin lokaúttekt byggingarfulltrúa. Áskilið samþykki heilbrigðiseftirlits. Áskilið samþykki Vinnueftirlits ríkisins.,"Sótt er um leyfi til að stækka anddyri, byggja flóttastiga á báða gafla og innrétta gististað í flokki V, teg. hótel með 65 herbergjum í verslunar- og skrifstofuhúsi á lóð nr. 10-14 við Brautarholt. Erindi fylgir brunahönnun frá Verkís dags. í september 2015 og minnisblað um hljóðvist einnig frá Verkís dags. 15. september 2015. Stækkun:  6 ferm., 18 rúmm. Gjald kr. 9.823"
50100 (01.24.120.4),http://gamli.rvk.is/vefur/owa/edutils.parse_page?nafn=BN050100,Brautarholt 6,Íbúðir - 4.hæð,Frestað. Vísað til athugasemda á umsóknarblaði.,Sótt er um leyfi til að innrétta 6 íbúðir og byggja tvennar svalir á norðurhlið og fernar á suðurhlið 4. hæðar skrifstofuhúss á lóð nr. 6 við Brautarholt. Útskrift úr gerðabók embættisafgreiðslufundar skipulagsfulltrúa frá 30. október 2015 fylgir erindinu ásamt umsögn skipulagsfulltrúa dags. 29. október 2015. Gjald kr. 9.823
49668 (01.80.440.4),http://gamli.rvk.is/vefur/owa/edutils.parse_page?nafn=BN049668,Brekkugerði 4,"bílageymsla, stoðveggur, kjallararými",Samþykkt.  Samræmist ákvæðum laga nr. 160 / 2010. Frágangur á lóðamörkum verði gerður í samráði við lóðarhafa aðliggjandi lóða. Með vísan til samþykktar borgarráðs frá 1. september 1998 skal utanhúss- og lóðarfrágangi vera lokið eigi síðar en innan tveggja ára frá útgáfu byggingarleyfis að viðlögðum dagsektum sbr. greinar nr. 2.4.7 og 2.9.2 í byggingarreglugerð nr. 112/2012. Áskilin lokaúttekt byggingarfulltrúa.,"Sótt er um leyfi til að byggja nýjan steinsteyptan bílskúr að vestanverðu, koma fyrir geymslukjallara undir verönd 0102 og steypa lágan stoðvegg á lóðamörkum nr. 6 og 8 við Brekkugerði á  lóð nr. 4 við Brekkugerði. Útskrift úr gerðabók embættisafgreiðslufundar skipulagsfulltrúa frá 7. ágúst 2015 fylgir erindinu ásamt umsögn skipulagsfulltrúa dags. 5. ágúst 2015. Erindið var grenndarkynnt frá 10. september til og með 8. október 2015. Engar athugasemdir bárust. Einnig lagt fram samþykki hluta hagsmunaðila mótt. 14. september 2015. Bílaskúr stærð: 33,4 ferm., 84,9 rúmm.  Geymslukjallari: 36,3 ferm., 98,0 rúmm. Gjald kr. 9.823 + 9.823"
50162 (04.76.540.8),http://gamli.rvk.is/vefur/owa/edutils.parse_page?nafn=BN050162,B-Tröð 8,Breyting -stækkun hesthúss,Frestað. Vísað til athugasemda á umsóknarblaði.,"Sótt er um leyfi til að hækka hlöðuhluta norðanmegin þannig að þar myndast 2. hæð á hesthússins á lóð nr. 8 við B-tröð í Viðidal. Jákvæð fyrirspurn BN049858 dags. 22. september 2015 og samþykki meðlóðarhafa dags. 15. júlí 2015 fylgja erindi. Stækkun:  XX ferm., XX rúmm. Gjald kr. 9.823"
50168 (02.84.120.1),http://gamli.rvk.is/vefur/owa/edutils.parse_page?nafn=BN050168,Dalhús 2,Stöðuleyfi - kaldur pottur,Frestað. Vísað til athugasemda heilbrigðiseftirlits á umsóknarblaði.,Sótt er um leyfi til að staðsetja kaldan pott á pottasvæði sundlaugar Grafarvogs á lóð nr. 2 við Dalhús. Gjald kr. 9.823
50028 (01.08.930.1),http://gamli.rvk.is/vefur/owa/edutils.parse_page?nafn=BN050028,Fiskislóð 15-21,Anddyri,Samþykkt.  Samræmist ákvæðum laga nr. 160 / 2010. Með vísan til samþykktar borgarráðs frá 1. september 1998 skal utanhúss- og lóðarfrágangi vera lokið eigi síðar en innan tveggja ára frá útgáfu byggingarleyfis að viðlögðum dagsektum sbr. greinar nr. 2.4.7 og 2.9.2 í byggingarreglugerð nr. 112/2012.  Áskilin lokaúttekt byggingarfulltrúa. Áskilið samþykki heilbrigðiseftirlits. Áskilið samþykki Vinnueftirlits ríkisins.,"Sótt er um leyfi til að byggja nýtt anddyri og skipta núverandi verslun og timbursölu Byko í þrjú verslunarrými, Byko, Elko og Rúmfatalagerinn, og byggja milliloft í þrennu lagi í verslun á lóð nr. 15-21 við Fiskislóð. Stækkun samtals: mhl. 1.254,8 ferm., 997,3 rúmm. Samtals stærðir eftir stækkun: 7.364,1 ferm., 65.331,1 rúmm. Gjald kr. 9.823"
50070 (01.63.670.7),http://gamli.rvk.is/vefur/owa/edutils.parse_page?nafn=BN050070,Fossagata 2,Einbýlishús,"Frestað. Málinu vísað til skipulagsfulltrúa til ákvörðunar um grenndarkynningu. Vísað er til uppdrátta nr. 1.00, 1.01, 1.02, 1.03, 104, 1.05, 1.06 og  1.07 dags. 6. október 2015, teikn. 1.00 breytt 16. október 2015.","Sótt er um leyfi til að byggja steinsteypt einbýlishús, kjallara, hæð og ris, einangrað að utan og klætt standandi borðaklæðningu á lóð nr. 2 við Fossagötu. Útskrift úr gerðabók embættisafgreiðslufundar skipulagsfulltrúa frá 16. október 2015 fylgir erindinu ásamt umsögn skipulagsfulltrúa dags. 16. október 2015. Erindi fylgir útreikningur á varmatapi dags. 6. október 2015 og lögð fram umsögn Minjastofnunar Íslands dags. 21. apríl 2014. Stærð A-rými:  216 ferm., 666,2 rúmm. C-rými:  36,9 ferm. Gjald kr. 9.823"
49336 (01.63.670.9),http://gamli.rvk.is/vefur/owa/edutils.parse_page?nafn=BN049336,Fossagata 6,Endurnýja þak - portbyggja efri hæð,Frestað. Vísað til athugasemda á umsóknarblaði.,"Sótt er um leyfi til að endurnýja og portbyggja þak og byggja nýtt bíslag við einbýlishús á lóð nr. 6 við Fossagötu. Útskrift úr gerðabók embættisafgreiðslufundar skipulagsfulltrúa frá 12. júní 2015 fylgir erindinu ásamt umsögn skipulagsfulltrúa dags. 9. júní 2015. Erindið var grenndarkynnt frá 24. júlí til og með 22. ágúst 2015. Einnig er lögð fram umsögn skipulagsfulltrúa dags. 19. október 2015 og umsögn Minjastofnunar Íslands dags. 26. júní 2015. Stækkun:  29,7 ferm., 178,8 rúmm. Gjald kr. 9.823"
50151 (02.46.740.1),http://gamli.rvk.is/vefur/owa/edutils.parse_page?nafn=BN050151,Fossaleynir 16,Reyndarteikningar v/lokaúttektar,Frestað. Vísað til athugasemda á umsóknarblaði.,Sótt er um leyfi fyrir áður gerðum breytingum vegna lokaúttektar á erindi BN0???? þar sem gerð er grein fyrir breytingum á brunamerkingum í húsi á lóð nr. 16 við Fossaleyni . Bréf frá hönnuði dags. 21. október 2015 fylgir erindi. Gjald kr. 9.823
48498 (05.05.320.1),http://gamli.rvk.is/vefur/owa/edutils.parse_page?nafn=BN048498,Friggjarbrunnur 42-44,Fjölbýlishús,Frestað. Lagfæra skráningu.,"Sótt er um leyfi til að byggja steinsteypt fjölbýlishús, þrjár til fimm hæðir með 52 íbúðum, og bílakjallara fyrir 53 bíla á lóð nr. 42-44 við Friggjarbrunn. Útskrift úr gerðabók embættisafgreiðslufundar skipulagsfulltrúa frá 13. febrúar 2015 fylgir erindinu ásamt umsögn skipulagsfulltrúa dags. 13. febrúar 2015, ásamt útskrift úr gerðabók embættisafgreiðslufundar skipulagsfulltrúa frá 7. ágúst 2015 og umsögn skipulagsfulltrúa dags. 5. ágúst 2015 ásamt útskrift úr gerðabók embættisafgreiðslufundar skipulagsfulltrúa frá 23. október 2015 og umsögn skipulagsfulltrúa dags. 23. október 2015. Stærð A-rými:  6.079,8 ferm., 18.420,4 rúmm. B-rými:  1.901,5 ferm., þ.a. bílgeymsla 1.457,6 ferm. C-rými:  282,7 ferm. Samtals:  8.264 ferm. Gjald kr. 9.500"
50148 (01.54.030.7),http://gamli.rvk.is/vefur/owa/edutils.parse_page?nafn=BN050148,Grenimelur 23,Raunteikning vegna áður gerðra framkvæmda,Frestað. Vísað til athugasemda á umsóknarblaði.,Sótt er um samþykki fyrir áður gerðum breytingum í kjallara fjölbýlishúss á lóð nr. 23 við Grenimel. Gjald kr. 9.823
50003 (01.29.540.6),http://gamli.rvk.is/vefur/owa/edutils.parse_page?nafn=BN050003,Grensásvegur 12,Breyta þaki - breyting 1.og 2.hæð,Frestað. Vísað til athugasemda á umsóknarblaði.,Sótt er um leyfi til að breyta þaki á mhl. 02 og hækka til austurs og innrétta gistiheimili með 27 herbergjum á lóð nr. 12 við Grensásveg. Útskrift úr gerðabók embættisafgreiðslufundar skipulagsfulltrúa frá 2. október 2015 fylgir erindinu ásamt umsögn skipulagsfulltrúa dags. 2. október 2015. Einnig lýsing á brunavörnum dags. 15. október 2015. Stækkun:  74 rúmm. Gjald kr. 9.823
50159 (01.24.770.4),http://gamli.rvk.is/vefur/owa/edutils.parse_page?nafn=BN050159,Guðrúnargata 8,"Breyting - BN048976
","Samþykkt.  Samræmist ákvæðum laga nr. 160 / 2010. Með vísan til samþykktar borgarráðs frá 1. september 1998 skal utanhúss- og lóðarfrágangi vera lokið eigi síðar en innan tveggja ára frá útgáfu byggingarleyfis að viðlögðum dagsektum sbr. greinar nr. 2.4.7 og 2.9.2 í byggingarreglugerð nr. 112/2012. Skilyrt er að ný eignaskiptayfirlýsing sé samþykkt fyrir útgáfu byggingarleyfis, henni verður þinglýst eigi síðar en við lokaúttekt. Áskilin lokaúttekt byggingarfulltrúa.","Sótt er um leyfi til að breyta áður samþykktu erindi BN048976, tröppur eru færðar inn á pallinn við hús á lóð nr. 8 við Guðrúnargötu. Bréf frá hönnuði dags. 26. október 2015 fylgir erindi. Gjald kr. 9.823"
50156 (05.13.520.2),http://gamli.rvk.is/vefur/owa/edutils.parse_page?nafn=BN050156,Gvendargeisli 16,Hækka þak - byggja setustofu,Frestað. Vísað til athugasemda á umsóknarblaði.,"Sótt er um leyfi til að hækka þak og byggja setustofu á 2. hæð,  sbr. fyrirspurn BN049939, einnig er sótt um samþykki á þegar gerðum breytingum innanhúss, í einbýlishúsi á lóð nr. 16 við Gvendargeisla. Stækkun: xx ferm., xx rúmm. Gjald kr. 9.823"
50170 (01.73.000.1),http://gamli.rvk.is/vefur/owa/edutils.parse_page?nafn=BN050170,Hamrahlíð 2,Færanlegar kennslustofur,Samþykkt.  Samræmist ákvæðum laga nr. 160 / 2010. Með vísan til samþykktar borgarráðs frá 1. september 1998 skal utanhúss- og lóðarfrágangi vera lokið eigi síðar en innan tveggja ára frá útgáfu byggingarleyfis að viðlögðum dagsektum sbr. greinar nr. 2.4.7 og 2.9.2 í byggingarreglugerð nr. 112/2012. Áskilin lokaúttekt byggingarfulltrúa.,"Sótt er um leyfi til að koma fyrir færanlegri kennslustofu K115-F og 116-F við Hlíðaskóla á lóðinni nr. 2 við Hamrahlíð. Stærð: K115-F er 78,6 ferm., 279,1 rúmm. K116-K 78,6 ferm., 279,1 rúmm. tengigangur 0,9 ferm., 2,5 rúmm.  Samtals:  158,1 ferm., 560,7 rúmm. Gjald kr. 9.823"
50142 (01.23.400.1),http://gamli.rvk.is/vefur/owa/edutils.parse_page?nafn=BN050142,Hátún 10-12,12 - Upptökustudio kjallara,Frestað. Vísað til athugasemda á umsóknarblaði.,Sótt er um leyfi til að innrétta upptökustúdíó í kjallara í fjölbýlishúsi nr. 12 á lóð nr. 10-12 við Hátún. Gjald kr. 9.823
50082 (04.67.410.1),http://gamli.rvk.is/vefur/owa/edutils.parse_page?nafn=BN050082,Hraunberg 8,Sumarhús FB22 og FB23 - Stöðuleyfi,Samþykkt.  Samræmist ákvæðum laga nr. 160 / 2010. Áskilin lokaúttekt byggingarfulltrúa innan níu mánaða.,"Sótt er um leyfi til að byggja gestahús FB22 og FB23 sem verða staðsett tímabundið til flutnings frá lóð Fjölbrautaskólans í Breiðholti á lóð nr. 8 við Hraunberg. Tölvupóstur frá hönnuði dags. 28. febrúar 2013 fylgir erindi. Stærð  FB22 og FB23  er hver 21,4 ferm., 83,0 rúmm. Samtals: 42,8 ferm., 166 rúmm. Gjald kr. 9.823"
50157 (01.17.410.7),http://gamli.rvk.is/vefur/owa/edutils.parse_page?nafn=BN050157,Hverfisgata 102A,Reyndarteikning - kjallari,Frestað. Vísað til athugasemda á umsóknarblaði.,Sótt er um samþykki á breyttum kjallara og dýpkun á landi við útvegg fjölbýlishúss á lóð nr. 102a við Hverfisgötu. Meðfylgjandi er samþykki meðeigenda dags. 20.10. 2015. Gjald kr. 9.823
50155 (01.22.200.1),http://gamli.rvk.is/vefur/owa/edutils.parse_page?nafn=BN050155,Hverfisgata 113-115,"Endurnýja glugga, skábraut o.fl.",Frestað. Samkvæmt gögnum embættisins er lágmarksgjald ógreitt.,"Sótt er um leyfi til að breyta samþykktu erindi BN049661 dags. 28.7. 2015, í þá veru að lóðréttir fletir milli glugga eru pússaðir og málaðir í sama lit og veggir í stað málmklæðningar á húsi á lóð nr. 113-115 við Hverfisgötu. Gjald kr. 9.823"
50158 (04.06.020.7),http://gamli.rvk.is/vefur/owa/edutils.parse_page?nafn=BN050158,Hyrjarhöfði 3,Skáplön/viðbyggingar - fjölgun eignarhl.,Frestað. Málinu vísað til umsagnar skipulagsfulltrúa.,Sótt er um leyfi til að byggja akstursbrautir upp á aðra hæð og til að fjölga eignum í iðnaðar- og geymsluhúsi á lóð nr. 3 við Hyrjarhöfða. Gjald kr. 9.823
50061 (01.17.000.5),http://gamli.rvk.is/vefur/owa/edutils.parse_page?nafn=BN050061,Ingólfsstræti 2A,Breytingar á jarðhæð,Frestað. Vísað til umsagnar skrifstofu reksturs og umhirðu og skrifstofu samgöngustjóra.,"Sótt er um leyfi til að fella niður skábraut innanhúss í anddyri og útbúa í staðinn skábraut utanhúss við syðsta innganginn og til að loka hliðarinngangi við lyftu á 1. hæð, sjá erindi BN046942, í Gamla Bíói á lóð nr. 2A við Ingólfsstræti. Erindi fylgir umsögn Minjastofnunar Íslands dags. 14. október 2015 og bréf frá hönnuði dags. 22. október 2015. Gjald kr. 9.823"
50163 (01.33.080.2),http://gamli.rvk.is/vefur/owa/edutils.parse_page?nafn=BN050163,Klettagarðar 7A,Dreifistöð - verknr. 10021828,Frestað. Samkvæmt gögnum embættisins er lágmarksgjald ógreitt.,"Sótt er um leyfi til að byggja dreifistöð úr forsteyptum einingum á lóð nr. 7. A  við Klettagarða.  Stærð dreifistöðvar er: 15,3 ferm., 60,6 rúmm. Gjald kr. 9.823"
49811 (01.83.201.0),http://gamli.rvk.is/vefur/owa/edutils.parse_page?nafn=BN049811,Langagerði 20,Viðbygging/sólskáli,Samþykkt.  Samræmist ákvæðum laga nr. 160 / 2010. Frágangur á lóðamörkum verði gerður í samráði við lóðarhafa aðliggjandi lóða. Með vísan til samþykktar borgarráðs frá 1. september 1998 skal utanhúss- og lóðarfrágangi vera lokið eigi síðar en innan tveggja ára frá útgáfu byggingarleyfis að viðlögðum dagsektum sbr. greinar nr. 2.4.7 og 2.9.2 í byggingarreglugerð nr. 112/2012. Áskilin lokaúttekt byggingarfulltrúa.,"Sótt er um leyfi til að byggja sólskála með steyptum sökkli við húsið á lóð nr. 20 við Langagerði. Erindi BN048250 er dregið til baka með þessu erindi. Lögð er fram umsögn skipulagsfulltrúa dags. 27. ágúst 2015. Erindið var grenndarkynnt frá 3. september til og með 1. október 2015. Engar athugasemdir bárust. Umsögn burðarvirkishönnuðar dags. 20. nóvember 2014 og bréf frá hönnuði dags. 28. ágúst 2015 fylgir erindi.  Stækkun:  5,18 ferm., 13,6 rúmm. Gjald kr. 9.823"
49673 (01.19.701.0),http://gamli.rvk.is/vefur/owa/edutils.parse_page?nafn=BN049673,Laufásvegur 65,Bílskúr o.fl.,Frestað. Vísað til athugasemda á umsóknarblaði og umsagnar skipulagsfulltrúa dags. 20. október 2015.,"Sótt er um leyfi til að gera nýja innkeyrslu við eystri lóðamörk, byggja tvöfaldan bílskúr með tröppum í bakgarð, gera þaksvalir á bílskúr og koma þar fyrir setlaug við tvíbýlishús á lóð nr. 65 við Laufásveg. Lögð fram umsögn skipulagsfulltrúa dags. 15. júlí 2015. Erindið var grenndarkynnt 20. ágúst til og með 24. september 2015. Einnig er lögð fram umsögn skipulagsfulltrúa dags. 20. október 2015. Stærð:  58 ferm., 203 rúmm. Gjald kr. 9.823"
50160 (01.24.020.3),http://gamli.rvk.is/vefur/owa/edutils.parse_page?nafn=BN050160,Laugavegur 120,Breyting - BN049580,Frestað. Vísað til athugasemda á umsóknarblaði.,"Sótt er um samþykki á breytingum á áður samþykktu erindi BN049580, sem felast í ýmsum breytingum og tilfærslum innanhúss og stærðarbreytingum í hóteli á lóð nr. 120 við Laugaveg. Meðfylgjandi er bréf arkitekts dags. 27.10. 2015 þar sem breytingar eru tilgreindar. Stærðabreytingar: minnkun 34,1 ferm., minnkun 102,7 rúmm. Stærðir eftir breytingu: 6.585,6 ferm., 21.903,1 rúmm. Gjald kr. 9.823"
49459 (01.87.410.1),http://gamli.rvk.is/vefur/owa/edutils.parse_page?nafn=BN049459,Láland 17-23,23 - Einbýlishús,Samþykkt.  Samræmist ákvæðum laga nr. 160 / 2010. Frágangur á lóðamörkum verði gerður í samráði við lóðarhafa aðliggjandi lóða. Með vísan til samþykktar borgarráðs frá 1. september 1998 skal utanhúss- og lóðarfrágangi vera lokið eigi síðar en innan tveggja ára frá útgáfu byggingarleyfis að viðlögðum dagsektum sbr. greinar nr. 2.4.7 og 2.9.2 í byggingarreglugerð nr. 112/2012. Áskilin lokaúttekt byggingarfulltrúa. Sækja þarf um leyfi fyrir niðurrifi áður en útgáfa byggingarleyfis fer fram.,"Sótt er um leyfi til að byggja steinsteypt einbýlishús með innbyggðri bílgeymslu á grunni eldra húss sem verður rifið og er nr. 23 á lóð nr. 17-23 við Láland. Útskrift úr gerðabók embættisafgreiðslufundar skipulagsfulltrúa frá 12. júní 2015 fylgir erindinu ásamt umsögn skipulagsfulltrúa dags. 9. júní 2015 og útskrift úr gerðabók embættisafgreiðslufundar skipulagsfulltrúa frá 30. október 2015, ásamt umsögn skipulagsfulltrúa dags. 29. október 2015. Stærð á nýbyggingu:  A-rými 327,4 ferm., 1.175,6 rúmm. B-rými:  53,2 ferm., 186,2 rúmm. Stærð á eldra húsi sem verður rifið:  XXX ferm., XXX rúmm.

Gjald kr. 9.823"
50137 (04.32.600.1),http://gamli.rvk.is/vefur/owa/edutils.parse_page?nafn=BN050137,Lyngháls 1,"Uppfærsla brunavarna, áður gert sorpskýli  og fl.",Frestað. Er til meðferðar hjá skipulagsfulltrúa.,"Sótt er um leyfi fyrir áður gerðum breytingum, m.a. eru brunavarnir uppfærðar, innra  skipulagi breytt og gerð grein fyrir áður gerðri sorpgeymslu við austurhlið húss á  lóð nr. 1 við Lyngháls. Bréf frá hönnuði dags. 28.okt. 2015 fylgir. Stækkun á sorpgeymslu: 62,8 ferm., 238,6 rúmm. Gjald kr. 9.823"
50042 (01.14.120.3),http://gamli.rvk.is/vefur/owa/edutils.parse_page?nafn=BN050042,Lækjargata 12,Rífa innan úr húsi,"Frestað. Niðurrif ekki tímabært þar sem niðurstaða liggur ekki fyrir hvað varðar skipulag, fornleifar og hönnun.",Sótt er um leyfi til að rífa innan úr verslunar- og skrifstofuhúsi á lóð nr. 12 við Lækjargötu. Gjald kr. 9.823
47802 (34.53.340.3),http://gamli.rvk.is/vefur/owa/edutils.parse_page?nafn=BN047802,Lækjarmelur 12,Reyndarteikningar,Samþykkt.  Samræmist ákvæðum laga nr. 160 / 2010. Skilyrt er að eignaskiptayfirlýsingu vegna breytinga í húsinu sé þinglýst til þess að samþykktin öðlist gildi.     Áskilin lokaúttekt byggingarfulltrúa.,"Sótt er um leyfi fyrir áður gerðum breytingum, komið hefur verið fyrir millipöllum í rýmum 0111, 0112 og 0113 í húsi á lóð nr. 12 við Lækjarmel.  Samþykki meðlóðarhafa dags. 28 janúar 2015, greinargerð um brunavarnir dags. 6. maí 2015 og bréf frá hönnuði dags. 29. október 2015 fylgja erindi. Stækkun millipalla: 0102:  75,1 ferm., 0104  11,1 ferm., 0107 71,2 ferm. og 0108 15,8 ferm. Samtals stækkun:  173,2 ferm. Gjald kr. 9.500 + 9.823"
50128 (01.22.300.2),http://gamli.rvk.is/vefur/owa/edutils.parse_page?nafn=BN050128,Miðtún 4,Breytingar inn og úti,Samþykkt.  Samræmist ákvæðum laga nr. 160 / 2010. Með vísan til samþykktar borgarráðs frá 1. september 1998 skal utanhúss- og lóðarfrágangi vera lokið eigi síðar en innan tveggja ára frá útgáfu byggingarleyfis að viðlögðum dagsektum sbr. greinar nr. 2.4.7 og 2.9.2 í byggingarreglugerð nr. 112/2012. Áskilin lokaúttekt byggingarfulltrúa.,"Sótt er um leyfi til að gera tröppur niður í garð, innrétta tvö herbergi og bað í kjallara, stækka kjallaraglugga og gera björgunarop, stækka bað á 1. hæð og færa hurð á sólskála einbýlishúss á lóð nr. 4 við Miðtún. Gjald kr. 9.823"
50102 (01.11.630.5),http://gamli.rvk.is/vefur/owa/edutils.parse_page?nafn=BN050102,Mýrargata 14-16,Reyndarteikningar,Samþykkt.  Samræmist ákvæðum laga nr. 160 / 2010. Með vísan til samþykktar borgarráðs frá 1. september 1998 skal utanhúss- og lóðarfrágangi vera lokið eigi síðar en innan tveggja ára frá útgáfu byggingarleyfis að viðlögðum dagsektum sbr. greinar nr. 2.4.7 og 2.9.2 í byggingarreglugerð nr. 112/2012. Áskilin lokaúttekt byggingarfulltrúa. Áskilið samþykki heilbrigðiseftirlits.,"Sótt er um samþykki á áður gerðum beytingum, sjá erindi BN048577,  lagnagangur í kjallara hefur minnkað, þakgluggar dottið út og svalir breyst í hóteli á lóð nr. 14 - 16 við Mýrargötu. stærðarbreyting:  5,1 ferm., 90,4 rúmm.. Samtals eftir breytingar:  569,5 ferm., 1.868,9 rúmm. Gjald kr. 9.823"
48945 (01.18.222.6),http://gamli.rvk.is/vefur/owa/edutils.parse_page?nafn=BN048945,Njálsgata 18,"Færa hús, nýr byggingarhluti, hækkun o.fl.",Frestað. Lagfæra skráningu.,"Sótt er um leyfi til að færa til vesturs um tvo metra, byggja stigahús í bilið að Njálsgötu 20, hækka um eina hæð, byggja kvisti að götu, gera viðbyggingu og svalir á bakhlið og innrétta tvær íbúðir í húsi á lóð nr. 18 við Njálsgötu. Erindi var grenndarkynnt frá 24. apríl til og með 22. maí 2015. Eftirtaldir aðilar sendu inn athugasemdir:  Pétur Óli Gíslason dags. 5. maí 2015, Bryndís Emilsdóttir f.h. Heimsborga ehf. dags. 6. maí 2015 og Elísabet Árnadóttir dags. 19. maí 2015.  Einnig er lagður fram tölvupóstur Péturs Óla  Gíslasonar dags. 1. júní 2015 þar sem athugasemdir eru dregnar til baka og umsögn skipulagsfulltrúa dags. 9. júní 2015. Útskrift úr gerðabók embættisafgreiðslufundar skipulagsfulltrúa frá 25. september 2015 fylgir erindinu ásamt umsögn skipulagsfulltrúa dags. 25. september 2015. Erindi fylgir umsögn Minjastofnunar Íslands dags. 18. nóvember 2014. Stærð verður:  212,7 ferm., 601,8 rúmm. Stækkun A-rými:  88,6 ferm., 238 rúmm. Gjald kr. 9.823"
50167 (01.18.030.7),http://gamli.rvk.is/vefur/owa/edutils.parse_page?nafn=BN050167,Óðinsgata 8B,Verslun - kjallara,Frestað. Málinu vísað til umsagnar skipulagsfulltrúa.,"Sótt er um leyfi til að breyta íbúðarhúsnæði í smávöruverslun með matvæli, sbr. fyrirspurn BN049818 (jákv.) í kjallara húss á lóð nr. 8b við Óðinsgötu. Meðfylgjandi er bréf væntanlegs rekstraraðila í kjallara dags. 27.10. 2015. Gjald kr. 9.823"
49696 (01.13.520.7),http://gamli.rvk.is/vefur/owa/edutils.parse_page?nafn=BN049696,""">Ránargata 29A","Breytingar utanhúss, kvistur og fl.",Samþykkt.  Samræmist ákvæðum laga nr. 160 / 2010. Frágangur á lóðamörkum verði gerður í samráði við lóðarhafa aðliggjandi lóða. Með vísan til samþykktar borgarráðs frá 1. september 1998 skal utanhúss- og lóðarfrágangi vera lokið eigi síðar en innan tveggja ára frá útgáfu byggingarleyfis að viðlögðum dagsektum sbr. greinar nr. 2.4.7 og 2.9.2 í byggingarreglugerð nr. 112/2012. Áskilin lokaúttekt byggingarfulltrúa.,"Sótt er um leyfi til að fjarlægja kvist sem fyrir er, byggja nýjan stærri og svalir á vesturhlið og nýjar tröppur og pall við aðalinngang einbýlishúss á lóð nr. 29A við Ránargötu. Stækkun:  6,27 rúmm. Útskrift úr gerðabók embættisafgreiðslufundar skipulagsfulltrúa frá 31. júlí 2015 fylgir erindinu, ásamt umsögn skipulagsfulltrúa dags. 21. júlí 2015.  Erindi var grenndarkynnt  frá 3. september til og með 1. október 2015, einnig fylgir umsögn Minjastofnunar Íslands. Gjald kr. 9.823"
50154 (01.28.430.5),http://gamli.rvk.is/vefur/owa/edutils.parse_page?nafn=BN050154,Safamýri 89,Reyndarteikningar v/eignaskiptayfirlýsingar,Frestað. Lagfæra skráningu.,Sótt er um leyfi fyrir áður gerðum breytingum v/gerðar eignaskiptayfirlýsingar í fjölbýlishúsi á lóð nr. 89 við Safamýri. Gjald kr. 9.823
50165 (01.15.230.1),http://gamli.rvk.is/vefur/owa/edutils.parse_page?nafn=BN050165,Skúlagata 14-16,Lindargata 37 - samnýta íbúðir 0901 og 0902,Frestað. Samkvæmt gögnum embættisins er lágmarksgjald ógreitt.,Sótt er um leyfi til að samnýta tímabundið íbúðir 0901 og 0902 í fjölbýlishúsinu á Lindargötu nr. 37 á lóð nr. 14-16 við Skúlagötu. Meðfylgjandi er brunahönnunarskýrsla dags. 27.10. 2015. Gjald kr. 9.823
50097 (01.13.451.0),http://gamli.rvk.is/vefur/owa/edutils.parse_page?nafn=BN050097,Sólvallagata 68,Breyting inni -  0001,Samþykkt.  Samræmist ákvæðum laga nr. 160 / 2010. Áskilin lokaúttekt byggingarfulltrúa.,Sótt er um leyfi til að breyta innra skipulagi þannig að komið er fyrir auka salerni og eldhúsi í íbúð 0001 í fjölbýlishúsi á lóð nr. 68 við Sólvallagötu.  Samþykki meðeigenda dags. 1. október 2015 fylgir erindi. Gjald kr. 9.823
50172 (04.32.680.1),http://gamli.rvk.is/vefur/owa/edutils.parse_page?nafn=BN050172,Stuðlaháls 1,Breyting inni,Samþykkt.  Samræmist ákvæðum laga nr. 160 / 2010. Áskilin lokaúttekt byggingarfulltrúa.,"Sótt er um leyfi til að breyta innra skipulagi í kjallara, 1. og 2. hæð í húsi á lóð nr. 1 við Stuðlaháls. Gjald kr. 9.823"
50130 (01.26.520.1),http://gamli.rvk.is/vefur/owa/edutils.parse_page?nafn=BN050130,Suðurlandsbraut 34/Ár,2.hæð - skurðstofa,Frestað. Vísað til athugasemda heilbrigðiseftirlits á umsóknarblaði.,"Sótt er um leyfi fyrir áður gerðum breytingum, að innrétta skurðstofu á 2. hæð og bæta við loftræsisamstæðu á þaki hússins á lóð nr. 34 við Suðurlandsbraut. Bréf frá VSB verkfræðistofa 15. október 2015 fylgir erindi. Gjald kr. 9.823"
50169 (01.63.130.3),http://gamli.rvk.is/vefur/owa/edutils.parse_page?nafn=BN050169,Sæmundargata 15-19,Reyndarteikningar,Frestað. Vísað til athugasemda heilbrigðiseftirlits á umsóknarblaði.,"Sótt er um samþykki á áður gerðum breytingum, sjá erindi BN046396, aðallega er um að ræða minni háttar breytingar á innra skipulagi í líftæknihúsi Alvogen á lóð nr. 15-19 við Sæmundargötu. Erindi fylgir uppfærð brunahönnun dags. 27. október 2015 og bréf arkitekts dags. í október 2015. Leiðréttar stærðir:   Voru A- og B-rými:  12.983,8 ferm., 62.953 rúmm. Verða A-rými:13.278,6 ferm., 63.250,3  rúmm. B-rými:  31,4 ferm., 125,4 rúmm. Stækkun:  326,2 ferm.,  422,7 rúmm. Gjald kr. 9.823"
50177 (04.02.340.1),http://gamli.rvk.is/vefur/owa/edutils.parse_page?nafn=BN050177,Tangabryggja 2-4,Takmarkað byggingarleyfi,"Samþykkt.  Samræmist ákvæðum laga nr. 160 / 2010. Frágangur á lóðamörkum verði gerður í samráði við lóðarhafa aðliggjandi lóða. Með vísan til samþykktar umhverfis- og skipulagsráðs, dags. 22. maí 2013, skal lóðarhafi, í samráði við byggingarfulltrúa, setja upp skilti til kynningar á fyrirhuguðum framkvæmdum á byggingarstað. Í samræmi við samþykkt umhverfis- og skipulagsráðs dags. 9. október 2013 skal vélknúinn þvottabúnaður vera til staðar á byggingarlóð sem tryggi að vörubílar og aðrar þungavinnuvélar verði þrifnar áður en þær yfirgefa byggingarstað. Samráð skal haft við byggingarfulltrúa um staðsetningu búnaðarins. Sérstakt samráð skal haft við yfirverkfræðing byggingarfulltrúa vegna jarðvinnu. Samþykktin fellur úr gildi við útgáfu á endanlegu byggingarleyfi. Vegna útgáfu á takmörkuðu byggingarleyfi skal umsækjandi hafa samband við yfirverkfræðing embættis byggingarfulltrúa. Áskilin lokaúttekt byggingarfulltrúa.","Sótt er um takmarkað byggingarleyfi fyrir jarðvinnu, undirstöðum, grunnlögnum og botnplötu fjölbýlishúss að Tangabryggju 2-4, sbr. BN049759."
49217 (01.14.130.6),http://gamli.rvk.is/vefur/owa/edutils.parse_page?nafn=BN049217,Tjarnargata 12,Fjölgun gesta,Samþykkt.  Samræmist ákvæðum laga nr. 160 / 2010. Áskilin lokaúttekt byggingarfulltrúa.,Sótt er um leyfi til að breyta sætaskipan í áhorfendasal og auka leyfilegan gestafjölda í 300  í  Tjarnarbíói á lóð nr. 12 við Tjarnargötu. Meðfylgjandi er brunnahönnun VSI dags 26. nóvember 2014 og umsögn Minjastofnunar Íslands dags. 6. mars 2015. Gjald kr. 9.823
50164 (01.11.740.6),http://gamli.rvk.is/vefur/owa/edutils.parse_page?nafn=BN050164,Tryggvagata 15,Viðbygging,Frestað. Vísað til athugasemda á umsóknarblaði.,"Sótt er um leyfi til að byggja mhl. 02 við núverandi mhl. 01 sem stækkun á söfnum hússins á lóð nr. 15 við Tryggvagötu. Stærð mhl. 02: 1.202,4 ferm., 4.387,1 rúmm. Gjald kr. 9.823"
49970 (01.13.210.4),http://gamli.rvk.is/vefur/owa/edutils.parse_page?nafn=BN049970,Tryggvagata 16,Upplýsingaskilti  Stórholt/Þverholt,Samþykkt.  Samræmist ákvæðum laga nr. 160 / 2010. Áskilin lokaúttekt byggingarfulltrúa.,Sótt er um leyfi til að setja upp upplýsingarskilti í samræmi við samning við Reykjavíkurborg við Stórholt/Þverholt. Útskrift úr gerðabók embættisafgreiðslufundar skipulagsfulltrúa frá 9. október 2015 fylgir erindinu ásamt umsögn skipulagsfulltrúa dags. 8. október 2015  ásamt útskrift úr gerðabók embættisafgreiðslufundar skipulagsfulltrúa frá 30. október 2015 og leiðréttri umsögn skipulagsfulltrúa dags. dags. 30. október 2015. Meðfylgjandi er fundargerð dags. 8.9. 2015. Gjald kr. 9.823
49969 (01.13.210.4),http://gamli.rvk.is/vefur/owa/edutils.parse_page?nafn=BN049969,Tryggvagata 16,Upplýsingaskilti - Lækjargata/Kalkofsvegur,Samþykkt.  Samræmist ákvæðum laga nr. 160 / 2010. Áskilin lokaúttekt byggingarfulltrúa.,Sótt er um leyfi til að setja upp upplýsingarskilti í samræmi við samning við Reykjavíkurborg við Lækjargötu/Kalkofnsveg. Útskrift úr gerðabók embættisafgreiðslufundar skipulagsfulltrúa frá 9. október 2015 fylgir erindinu ásamt umsögn skipulagsfulltrúa dags. 8. október 2015  ásamt útskrift úr gerðabók embættisafgreiðslufundar skipulagsfulltrúa frá 30. október 2015 og leiðréttri umsögn skipulagsfulltrúa dags. dags. 30. október 2015. Fundargerð dags. 8.9. 2015 er meðfylgjandi. Gjald kr. 9.823
49968 (01.13.210.4),http://gamli.rvk.is/vefur/owa/edutils.parse_page?nafn=BN049968,Tryggvagata 16,Upplýsingaskilti - Ánanaust,Frestað. Með vísan til umsagnar skipulagafulltrúa dags.30. október 2015.,Sótt er um leyfi til að setja upp upplýsingarskilti í samræmi við samning við Reykjavíkurborg við Ánanust. Útskrift úr gerðabók embættisafgreiðslufundar skipulagsfulltrúa frá 9. október 2015 fylgir erindinu umsögn skipulagsfulltrúa dags. 8. október 2015 ásamt  ásamt útskrift úr gerðabók embættisafgreiðslufundar skipulagsfulltrúa frá 30. október 2015 og leiðréttri umsögn skipulagsfulltrúa dags. dags. 30. október 2015. Meðfylgjandi er fundargerð 8.9. 2015. Gjald kr. 9.823
49894 (04.34.210.1),http://gamli.rvk.is/vefur/owa/edutils.parse_page?nafn=BN049894,Tunguháls 8,Breyta innra skipulagi,"Samþykkt.  Samræmist ákvæðum laga nr. 160 / 2010. Skilyrt er að ný eignaskiptayfirlýsing sé samþykkt fyrir útgáfu byggingarleyfis, henni verður þinglýst eigi síðar en við lokaúttekt. Áskilin lokaúttekt byggingarfulltrúa.",Sótt er um leyfi til að breyta innra skipulagi 0102 og 0201 úr lagerhúsnæði í geymsluhúsnæði og innrétta minni geymsluhólf í mhl. 02 í húsinu á lóð nr. 8 við Tunguháls. Bréf frá hönnuði dags. 14 sept. 2015 og kaupsamningar af Tunguhálsi 8 fyrir eingarhluta 0101 og 0102 dags. 17. júlí 2015 Samþykki Efnisviðs ehf. dags.16. okt. 2015 fylgir. Gjald kr. 9.823 + 9.823
50145 (02.69.830.7),http://gamli.rvk.is/vefur/owa/edutils.parse_page?nafn=BN050145,Úlfarsbraut 46,Einbýlishús,Samþykkt.  Samræmist ákvæðum laga nr. 160 / 2010. Sérstakt samráð skal haft við yfirverkfræðing byggingarfulltrúa vegna jarðvinnu. Frágangur á lóðamörkum verði gerður í samráði við lóðarhafa aðliggjandi lóða. Áskilin lokaúttekt byggingarfulltrúa.,"Sótt er um leyfi til að byggja tvílyft einbýlishús úr steinsteyptum einingum með innbyggðri tvöfaldri bílgeymslu, einangrað að utan og klætt steinflísum á lóð nr. 46 við Úlfarsbraut. Lögð er fram umsögn skipulagsfulltrúans í Reykjavík dags. 1. október 2015. Stærð A-rými:  272,4 ferm., 1.010,6 rúmm. B-rými:  43,4 ferm., 127 rúmm. C-rými:  49,6 ferm. Gjald kr. 9.823"
50207 (01.40.790.2),http://gamli.rvk.is/vefur/owa/edutils.parse_page?nafn=BN050207,Vatnagarðar 38,takmarkað byggingarleyfi,Synjað. Uppfyllir ekki ákvæði byggingarreglugerðar.,"Sótt er um takmarkað byggingarleyfi fyrir jarðvinnu að Vatnagörðum 38, sbr. erindi BN049803 sem samþykkt var 01.09 2015;"
50152 (02.84.350.1),http://gamli.rvk.is/vefur/owa/edutils.parse_page?nafn=BN050152,Veghús  7-17,13 - Svalaskýli - 0201 og 0101,Samþykkt.  Samræmist ákvæðum laga nr. 160 / 2010. Með vísan til samþykktar borgarráðs frá 1. september 1998 skal utanhúss- og lóðarfrágangi vera lokið eigi síðar en innan tveggja ára frá útgáfu byggingarleyfis að viðlögðum dagsektum sbr. greinar nr. 2.4.7 og 2.9.2 í byggingarreglugerð nr. 112/2012. Áskilin lokaúttekt byggingarfulltrúa.,"Sótt er um leyfi til að byggja svalaskýli á svalir á íbúð 0201 og á verönd íbúðar 0101, sbr. fyrirspurn BN049872, í fjölbýlishúsi á lóð nr. 13 við Veghús. Meðfylgjandi er samþykki meðeigenda. Stærðir: 0101 - 32,9 rúmm., 0201 - 32,9 rúmm. Hvort um sig 12,2 ferm. Gjald kr. 9.823"
50133 (01.53.200.4),http://gamli.rvk.is/vefur/owa/edutils.parse_page?nafn=BN050133,Ægisíða 123,Veitingastaður - sameina jarðhæð,Frestað. Með vísan til umsagnar skipulagsfulltrúa dags. 30. október 2015.,"Sótt er um leyfi til að innrétta veitingastað í flokki II, teg. c á 1. hæð húss á lóð nr. 123 við Ægisíðu. Útskrift úr gerðabók embættisafgreiðslufundar skipulagsfulltrúa frá 30. október 2015 fylgir erindinu ásamt umsögn skipulagsfulltrúa dags. 30. október 2015. Gjald kr. 9.823"
50183 (01.83.210.1),http://gamli.rvk.is/vefur/owa/edutils.parse_page?nafn=BN050183,Langagerði 40,mæliblað,Samþykkt.  Samræmist ákvæðum laga nr. 160 / 2010.,"Óskað er eftir  samþykki byggingarfulltrúans á meðsendum Lóðauppdrætti 1.832.1 dagsettum 21.10.2015, vegan lóðanna Langagerði 40 til Langagerðis 60, alls 11 lóðir, einnig er óskað eftir að skrá lóðastærðir í samræmi við niðurstöður úr rannsóknavinnu Landupplýsingadeildar á áðurnefndum lóðum. Lóðin Langagerði 40 (staðgr. 1.832.101, landnr  108547)  er talin 476.0 m², lóðin reynist 476 m². Samanber eldra mæliblað og rannsóknavinnu Landupplýsingadeildar. Nú gerir Landupplýsingadeild blaðið tölvutækt, setur á A3-blaðstærð  og varpar í hnitakerfi Reykjavíkur."
50184 (01.83.210.2),http://gamli.rvk.is/vefur/owa/edutils.parse_page?nafn=BN050184,Langagerði 42,mæliblað,Samþykkt.  Samræmist ákvæðum laga nr. 160 / 2010.,"Óskað er eftir  samþykki byggingarfulltrúans á meðsendum Lóðauppdrætti 1.832.1 dagsettum 21.10.2015, vegan lóðanna Langagerði 40 til Langagerðis 60, alls 11 lóðir, einnig er óskað eftir að skrá lóðastærðir í samræmi við niðurstöður úr rannsóknavinnu Landupplýsingadeildar á áðurnefndum lóðum.  Lóðin Langagerði 42 (staðgr. 1.832.102, landnr  108548)  er talin 484,0 m², lóðin reynist 485 m².  Samanber eldra mæliblað og rannsóknavinnu Landupplýsingadeildar. Nú gerir Landupplýsingadeild blaðið tölvutækt, setur á A3-blaðstærð  og varpar í hnitakerfi Reykjavíkur."
50185 (01.83.210.3),http://gamli.rvk.is/vefur/owa/edutils.parse_page?nafn=BN050185,Langagerði 44,mæliblað,Samþykkt.  Samræmist ákvæðum laga nr. 160 / 2010.,"Óskað er eftir  samþykki byggingarfulltrúans á meðsendum Lóðauppdrætti 1.832.1 dagsettum 21.10.2015, vegan lóðanna Langagerði 40 til Langagerðis 60, alls 11 lóðir, einnig er óskað eftir að skrá lóðastærðir í samræmi við niðurstöður úr rannsóknavinnu Landupplýsingadeildar á áðurnefndum lóðum.  Lóðin Langagerði 44 (staðgr. 1.832.103, landnr  108549)  er talin 490,0 m², lóðin reynist 490 m².  Samanber eldra mæliblað og  rannsóknavinnu Landupplýsingadeildar. Nú gerir Landupplýsingadeild blaðið tölvutækt, setur á A3-blaðstærð  og varpar í hnitakerfi Reykjavíkur."
50186 (01.83.210.4),http://gamli.rvk.is/vefur/owa/edutils.parse_page?nafn=BN050186,Langagerði 46,mæliblað,Samþykkt.  Samræmist ákvæðum laga nr. 160 / 2010.,"Óskað er eftir  samþykki byggingarfulltrúans á meðsendum Lóðauppdrætti 1.832.1 dagsettum 21.10.2015, vegan lóðanna Langagerði 40 til Langagerðis 60, alls 11 lóðir, einnig er óskað eftir að skrá lóðastærðir í samræmi við niðurstöður úr rannsóknavinnu Landupplýsingadeildar á áðurnefndum lóðum.  Lóðin Langagerði 46 (staðgr. 1.832.104, landnr  108550)  er talin 507,0 m², lóðin reynist 507 m². Lóðin Langagerði 46 (staðgr. 1.832.104, landnr  108550)  er talin 507,0 m², lóðin reynist 507 m². Samanber eldra mæliblað og rannsóknavinnu Landupplýsingadeildar. Nú gerir Landupplýsingadeild blaðið tölvutækt, setur á A3-blaðstærð  og varpar í hnitakerfi Reykjavíkur."
50187 (01.83.210.5),http://gamli.rvk.is/vefur/owa/edutils.parse_page?nafn=BN050187,Langagerði 48,mæliblað,Samþykkt.  Samræmist ákvæðum laga nr. 160 / 2010.,"Óskað er eftir  samþykki byggingarfulltrúans á meðsendum Lóðauppdrætti 1.832.1 dagsettum 21.10.2015, vegan lóðanna Langagerði 40 til Langagerðis 60, alls 11 lóðir, einnig er óskað eftir að skrá lóðastærðir í samræmi við niðurstöður úr rannsóknavinnu Landupplýsingadeildar á áðurnefndum lóðum.  Lóðin Langagerði 48 (staðgr. 1.832.105, landnr  108551)  er talin 506,0 m², lóðin reynist 506 m². Samanber eldra mæliblað og rannsóknavinnu Landupplýsingadeildar. Nú gerir Landupplýsingadeild blaðið tölvutækt, setur á A3-blaðstærð og varpar í hnitakerfi Reykjavíkur."
50188 (01.83.210.6),http://gamli.rvk.is/vefur/owa/edutils.parse_page?nafn=BN050188,Langagerði 50,mæliblað,Samþykkt.  Samræmist ákvæðum laga nr. 160 / 2010.,"Óskað er eftir  samþykki byggingarfulltrúans á meðsendum Lóðauppdrætti 1.832.1 dagsettum 21.10.2015, vegan lóðanna Langagerði 40 til Langagerðis 60, alls 11 lóðir, einnig er óskað eftir að skrá lóðastærðir í samræmi við niðurstöður úr rannsóknavinnu Landupplýsingadeildar á áðurnefndum lóðum.  Lóðin Langagerði 50 (staðgr. 1.832.106, landnr  108552)  er talin 495,0 m , lóðin reynist 495 m².  Samanber eldra mæliblað og rannsóknavinnu Landupplýsingadeildar. Nú gerir Landupplýsingadeild blaðið tölvutækt, setur á A3-blaðstærð  og varpar í hnitakerfi Reykjavíkur."
50189 (01.83.210.7),http://gamli.rvk.is/vefur/owa/edutils.parse_page?nafn=BN050189,Langagerði 52,mæliblað,Samþykkt.  Samræmist ákvæðum laga nr. 160 / 2010.,"Óskað er eftir  samþykki byggingarfulltrúans á meðsendum Lóðauppdrætti 1.832.1 dagsettum 21.10.2015, vegan lóðanna Langagerði 40 til Langagerðis 60, alls 11 lóðir, einnig er óskað eftir að skrá lóðastærðir í samræmi við niðurstöður úr rannsóknavinnu Landupplýsingadeildar á áðurnefndum lóðum. Lóðin Langagerði 52 (staðgr. 1.832.107, landnr  108553)  er talin 511,0 m², lóðin reynist 511 m².    Nú gerir Landupplýsingadeild blaðið tölvutækt, setur á A3-blaðstærð og varpar í hnitakerfi Reykjavíkur. Samanber eldra mæliblað og rannsóknavinnu Landupplýsingadeildar."
50190 (01.83.210.8),http://gamli.rvk.is/vefur/owa/edutils.parse_page?nafn=BN050190,Langagerði 54,mæliblað,Samþykkt.  Samræmist ákvæðum laga nr. 160 / 2010.,"Óskað er eftir  samþykki byggingarfulltrúans á meðsendum Lóðauppdrætti 1.832.1 dagsettum 21.10.2015, vegan lóðanna Langagerði 40 til Langagerðis 60, alls 11 lóðir, einnig er óskað eftir að skrá lóðastærðir í samræmi við niðurstöður úr rannsóknavinnu Landupplýsingadeildar á áðurnefndum lóðum.  Lóðin Langagerði 54 (staðgr. 1.832.108, landnr  108554)  er talin 496,0 m², lóðin reynist 496 m². Nú gerir Landupplýsingadeild blaðið tölvutækt, setur á A3-blaðstærð og varpar í hnitakerfi Reykjavíkur. Samanber eldra mæliblað og rannsóknavinnu Landupplýsingadeildar."
50191 (01.83.210.9),http://gamli.rvk.is/vefur/owa/edutils.parse_page?nafn=BN050191,Langagerði 56,mæliblað,Samþykkt.  Samræmist ákvæðum laga nr. 160 / 2010.,"Óskað er eftir  samþykki byggingarfulltrúans á meðsendum Lóðauppdrætti 1.832.1 dagsettum 21.10.2015, vegan lóðanna Langagerði 40 til Langagerðis 60, alls 11 lóðir, einnig er óskað eftir að skrá lóðastærðir í samræmi við niðurstöður úr rannsóknavinnu Landupplýsingadeildar á áðurnefndum lóðum.  Lóðin Langagerði 56 (staðgr. 1.832.109, landnr  108555)  er talin 492,0 m², lóðin reynist 492 m².  Nú gerir Landupplýsingadeild blaðið tölvutækt, setur á A3-blaðstærð og varpar í hnitakerfi Reykjavíkur. Samanber eldra mæliblað og rannsóknavinnu Landupplýsingadeildar."
50192 (01.83.211.0),http://gamli.rvk.is/vefur/owa/edutils.parse_page?nafn=BN050192,Langagerði 58,mæliblað,Samþykkt.  Samræmist ákvæðum laga nr. 160 / 2010.,"Óskað er eftir  samþykki byggingarfulltrúans á meðsendum Lóðauppdrætti 1.832.1 dagsettum 21.10.2015, vegan lóðanna Langagerði 40 til Langagerðis 60, alls 11 lóðir, einnig er óskað eftir að skrá lóðastærðir í samræmi við niðurstöður úr rannsóknavinnu Landupplýsingadeildar á áðurnefndum lóðum.  Lóðin Langagerði 58 (staðgr. 1.832.110, landnr  108556)  er talin 484,0 m², lóðin reynist 484 m². Nú gerir Landupplýsingadeild blaðið tölvutækt, setur á A3-blaðstærð og varpar í hnitakerfi Reykjavíkur. Samanber eldra mæliblað og rannsóknavinnu Landupplýsingadeildar."
50193 (01.83.211.1),http://gamli.rvk.is/vefur/owa/edutils.parse_page?nafn=BN050193,Langagerði 60,mæliblað,Samþykkt.  Samræmist ákvæðum laga nr. 160 / 2010.,"Óskað er eftir  samþykki byggingarfulltrúans á meðsendum Lóðauppdrætti 1.832.1 dagsettum 21.10.2015, vegan lóðanna Langagerði 40 til Langagerðis 60, alls 11 lóðir, einnig er óskað eftir að skrá lóðastærðir í samræmi við niðurstöður úr rannsóknavinnu Landupplýsingadeildar á áðurnefndum lóðum. Lóðin Langagerði 60 (staðgr. 1.832.111, landnr  108557)  er talin 458,0 m², lóðin reynist 459 m². Nú gerir Landupplýsingadeild blaðið tölvutækt, setur á A3-blaðstærð og varpar í hnitakerfi Reykjavíkur. Samanber eldra mæliblað og rannsóknavinnu Landupplýsingadeildar."
50194 (01.83.220.1),http://gamli.rvk.is/vefur/owa/edutils.parse_page?nafn=BN050194,Langagerði 62,mæliblað,Samþykkt.  Samræmist ákvæðum laga nr. 160 / 2010.,"Óskað er eftir  samþykki byggingarfulltrúans á meðsendum Lóðauppdrætti 1.832.2 dagsettum 21.10.2015, vegan lóðanna Langagerði 62 til Langagerðis 82, alls 12 lóðir, einnig er óskað eftir að skrá lóðastærðir í samræmi við niðurstöður úr rannsóknavinnu Landupplýsingadeildar á áðurnefndum lóðum.  Lóðin Langagerði 62 (staðgr. 1.832.201, landnr  108558)  er talin 484.0 m², lóðin reynist 485 m². Samanber eldra mæliblað og rannsóknavinnu Landupplýsingadeildar.Nú gerir Landupplýsingadeild blaðið tölvutækt, setur á A3-blaðstærð og varpar í hnitakerfi Reykjavíkur."
50195 (01.83.220.2),http://gamli.rvk.is/vefur/owa/edutils.parse_page?nafn=BN050195,Langagerði 64,mæliblað,Samþykkt.  Samræmist ákvæðum laga nr. 160 / 2010.,"Óskað er eftir  samþykki byggingarfulltrúans á meðsendum Lóðauppdrætti 1.832.2 dagsettum 21.10.2015, vegan lóðanna Langagerði 62 til Langagerðis 82, alls 12 lóðir, einnig er óskað eftir að skrá lóðastærðir í samræmi við niðurstöður úr rannsóknavinnu Landupplýsingadeildar á áðurnefndum lóðum.  Lóðin Langagerði 64 (staðgr. 1.832.202, landnr  108559)  er talin 538,0 m², lóðin reynist 539 m².  Samanber eldra mæliblað og rannsóknavinnu Landupplýsingadeildar. Nú gerir Landupplýsingadeild blaðið tölvutækt, setur á A3-blaðstærð og varpar í hnitakerfi Reykjavíkur."
50196 (01.83.220.3),http://gamli.rvk.is/vefur/owa/edutils.parse_page?nafn=BN050196,Langagerði 66,mæliblað,Samþykkt.  Samræmist ákvæðum laga nr. 160 / 2010.,"Óskað er eftir  samþykki byggingarfulltrúans á meðsendum Lóðauppdrætti 1.832.2 dagsettum 21.10.2015, vegan lóðanna Langagerði 62 til Langagerðis 82, alls 12 lóðir, einnig er óskað eftir að skrá lóðastærðir í samræmi við niðurstöður úr rannsóknavinnu Landupplýsingadeildar á áðurnefndum lóðum. Lóðin Langagerði 66 (staðgr. 1.832.203, landnr  108560)  er talin 552,0 m², lóðin reynist 552 m². Nú gerir Landupplýsingadeild blaðið tölvutækt, setur á A3-blaðstærð Samanber eldra mæliblað og rannsóknavinnu Landupplýsingadeildar og varpar í hnitakerfi Reykjavíkur."
50198 (01.83.220.4),http://gamli.rvk.is/vefur/owa/edutils.parse_page?nafn=BN050198,Langagerði 68,mæliblað,Samþykkt.  Samræmist ákvæðum laga nr. 160 / 2010.,"Óskað er eftir  samþykki byggingarfulltrúans á meðsendum Lóðauppdrætti 1.832.2 dagsettum 21.10.2015, vegan lóðanna Langagerði 62 til Langagerðis 82, alls 12 lóðir, einnig er óskað eftir að skrá lóðastærðir í samræmi við niðurstöður úr rannsóknavinnu Landupplýsingadeildar á áðurnefndum lóðum. Lóðin Langagerði 68 (staðgr. 1.832.204, landnr  108561)  er talin 586,0 m², lóðin reynist 586 m². Nú gerir Landupplýsingadeild blaðið tölvutækt, setur á A3-blaðstærð Samanber eldra mæliblað og rannsóknavinnu Landupplýsingadeildar og varpar í hnitakerfi Reykjavíkur."
50199 (01.83.220.5),http://gamli.rvk.is/vefur/owa/edutils.parse_page?nafn=BN050199,Langagerði 70,mæliblað,Samþykkt.  Samræmist ákvæðum laga nr. 160 / 2010.,"Óskað er eftir  samþykki byggingarfulltrúans á meðsendum Lóðauppdrætti 1.832.2 dagsettum 21.10.2015, vegan lóðanna Langagerði 62 til Langagerðis 82, alls 12 lóðir, einnig er óskað eftir að skrá lóðastærðir í samræmi við niðurstöður úr rannsóknavinnu Landupplýsingadeildar á áðurnefndum lóðum.  Lóðin Langagerði 70 (staðgr. 1.832.205, landnr  108562)  er talin 553,0 m², lóðin reynist 554 m². Nú gerir Landupplýsingadeild blaðið tölvutækt, setur á A3-blaðstærð Samanber eldra mæliblað og rannsóknavinnu Landupplýsingadeildar og varpar í hnitakerfi Reykjavíkur."
50200 (01.83.220.6),http://gamli.rvk.is/vefur/owa/edutils.parse_page?nafn=BN050200,Langagerði 70A,mæliblað,Samþykkt.  Samræmist ákvæðum laga nr. 160 / 2010.,"Óskað er eftir  samþykki byggingarfulltrúans á meðsendum Lóðauppdrætti 1.832.2 dagsettum 21.10.2015, vegan lóðanna Langagerði 62 til Langagerðis 82, alls 12 lóðir, einnig er óskað eftir að skrá lóðastærðir í samræmi við niðurstöður úr rannsóknavinnu Landupplýsingadeildar á áðurnefndum lóðum. Lóðin Langagerði 70A (staðgr. 1.832.206, landnr  108563)  er talin 50,0 m², lóðin reynist 47 m². Lóðin Langagerði 70A (staðgr. 1.832.206, landnr  108563)  er talin 50,0 m², lóðin reynist 47 m². Nú gerir Landupplýsingadeild blaðið tölvutækt, setur á A3-blaðstærð  Samanber eldra mæliblað og rannsóknavinnu Landupplýsingadeildar. og varpar í hnitakerfi Reykjavíkur."
50201 (01.83.220.7),http://gamli.rvk.is/vefur/owa/edutils.parse_page?nafn=BN050201,Langagerði 72,mæliblað,Samþykkt.  Samræmist ákvæðum laga nr. 160 / 2010.,"Óskað er eftir  samþykki byggingarfulltrúans á meðsendum Lóðauppdrætti 1.832.2 dagsettum 21.10.2015, vegan lóðanna Langagerði 62 til Langagerðis 82, alls 12 lóðir, einnig er óskað eftir að skrá lóðastærðir í samræmi við niðurstöður úr rannsóknavinnu Landupplýsingadeildar á áðurnefndum lóðum. Lóðin Langagerði 72 (staðgr. 1.832.207, landnr  108564)  er talin 565,0 m , lóðin reynist 560 m². Nú gerir Landupplýsingadeild blaðið tölvutækt, setur á A3-blaðstærð Samanber eldra mæliblað og rannsóknavinnu Landupplýsingadeildar og varpar í hnitakerfi Reykjavíkur."
50202 (01.83.220.8),http://gamli.rvk.is/vefur/owa/edutils.parse_page?nafn=BN050202,Langagerði 74,mæliblað,Samþykkt.  Samræmist ákvæðum laga nr. 160 / 2010.,"Óskað er eftir  samþykki byggingarfulltrúans á meðsendum Lóðauppdrætti 1.832.2 dagsettum 21.10.2015, vegan lóðanna Langagerði 62 til Langagerðis 82, alls 12 lóðir, einnig er óskað eftir að skrá lóðastærðir í samræmi við niðurstöður úr rannsóknavinnu Landupplýsingadeildar á áðurnefndum lóðum. Lóðin Langagerði 74 (staðgr. 1.832.208, landnr  108565)  er talin 585,0 m², lóðin reynist 586 m².  Nú gerir Landupplýsingadeild blaðið tölvutækt, setur á A3-blaðstærð Samanber eldra mæliblað og rannsóknavinnu Landupplýsingadeildar og varpar í hnitakerfi Reykjavíkur."
50203 (01.83.220.9),http://gamli.rvk.is/vefur/owa/edutils.parse_page?nafn=BN050203,Langagerði 76,mæliblað,Samþykkt.  Samræmist ákvæðum laga nr. 160 / 2010.,"Óskað er eftir  samþykki byggingarfulltrúans á meðsendum Lóðauppdrætti 1.832.2 dagsettum 21.10.2015, vegan lóðanna Langagerði 62 til Langagerðis 82, alls 12 lóðir, einnig er óskað eftir að skrá lóðastærðir í samræmi við niðurstöður úr rannsóknavinnu Landupplýsingadeildar á áðurnefndum lóðum. Lóðin Langagerði 76 (staðgr. 1.832.209, landnr  108566)  er talin 552,0 m², lóðin reynist 552 m². Nú gerir Landupplýsingadeild blaðið tölvutækt, setur á A3-blaðstærð Samanber eldra mæliblað og rannsóknavinnu Landupplýsingadeildar og varpar í hnitakerfi Reykjavíkur."
50204 (01.83.221.0),http://gamli.rvk.is/vefur/owa/edutils.parse_page?nafn=BN050204,Langagerði 78,mæliblað,Samþykkt.  Samræmist ákvæðum laga nr. 160 / 2010.,"Óskað er eftir  samþykki byggingarfulltrúans á meðsendum Lóðauppdrætti 1.832.2 dagsettum 21.10.2015, vegan lóðanna Langagerði 62 til Langagerðis 82, alls 12 lóðir, einnig er óskað eftir að skrá lóðastærðir í samræmi við niðurstöður úr rannsóknavinnu Landupplýsingadeildar á áðurnefndum lóðum. Lóðin Langagerði 78 (staðgr. 1.832.210, landnr  108567)  er talin 523,0 m², lóðin reynist 523 m². Nú gerir Landupplýsingadeild blaðið tölvutækt, setur á A3-blaðstærð Samanber eldra mæliblað og rannsóknavinnu Landupplýsingadeildar og varpar í hnitakerfi Reykjavíkur."
50205 (01.83.221.1),http://gamli.rvk.is/vefur/owa/edutils.parse_page?nafn=BN050205,Langagerði 80,mæliblað,Samþykkt.  Samræmist ákvæðum laga nr. 160 / 2010.,"Óskað er eftir  samþykki byggingarfulltrúans á meðsendum Lóðauppdrætti 1.832.2 dagsettum 21.10.2015, vegan lóðanna Langagerði 62 til Langagerðis 82, alls 12 lóðir, einnig er óskað eftir að skrá lóðastærðir í samræmi við niðurstöður úr rannsóknavinnu Landupplýsingadeildar á áðurnefndum lóðum. Lóðin Langagerði 80 (staðgr. 1.832.211, landnr  108568)  er talin 512,0 m², lóðin reynist 515 m². Nú gerir Landupplýsingadeild blaðið tölvutækt, setur á A3-blaðstærð Samanber eldra mæliblað og rannsóknavinnu Landupplýsingadeildar og varpar í hnitakerfi Reykjavíkur."
50206 (01.83.221.2),http://gamli.rvk.is/vefur/owa/edutils.parse_page?nafn=BN050206,Langagerði 82,mæliblað,Samþykkt.  Samræmist ákvæðum laga nr. 160 / 2010.,"21.10.2015, vegan lóðanna Langagerði 62 til Langagerðis 82, alls 12 lóðir, einnig er óskað eftir að Óskað er eftir  samþykki byggingarfulltrúans á meðsendum Lóðauppdrætti 1.832.2 dagsettum skrá lóðastærðir í samræmi við niðurstöður úr rannsóknavinnu Landupplýsingadeildar á áðurnefndum lóðum. Lóðin Langagerði 82 (staðgr. 1.832.212, landnr  108569)  er talin 495,0 m² (misritun, átti að vera 459 m²), lóðin reynist 463 m². Samanber eldra mæliblað og rannsóknavinnu Landupplýsingadeildar.Nú gerir Landupplýsingadeild blaðið tölvutækt, setur á A3-blaðstærð og varpar í hnitakerfi Reykjavíkur."
50179 (01.38.210.8),http://gamli.rvk.is/vefur/owa/edutils.parse_page?nafn=BN050179,Laugarásvegur,mæliblað,Samþykkt.  Samræmist ákvæðum laga nr. 160 / 2010.,"Óskað er eftir  samþykki byggingarfulltrúans í fyrsta lagi til að fella niður lóð nefnda Laugarásvegur, notkun opið svæði, landnúmer 104821 og í öðru lagi til að stækka lóðina Laugarásvegur 29-37 bílageymslulóð, eða eins og sýnt er meðfylgjandi uppdráttum Landupplýsingadeildar dags. 30. 10. 2015.  Lóðin Laugarásvegur (staðgr. 1.382.108, landnr. 104821) er talin  4250,0 m², teknir eru 4250 m² af lóðinni og lagt við óútvísað land (landnr. 218177), lóðin verður  0 m², hverfur og verður afmáð úr skrám. Lóðin Laugarásvegur 29-37, bílageymslulóð (staðgr. 1.382.115, landnr. 104828)  er 220 m², teknir eru 41m² af lóðinni og bætt við óútvísað land (landnr. 218177), bætt er 134 m² við lóðina úr óútvísuðu landi (landnr. 218177), leiðrétt um 1 m² vegna fermetrabrota, lóðin verður 314 m². Sjá deiliskipulagsbreytingu sem var samþykkt á embættisafgreiðslufundi byggingarfulltrúa 15. 03. 2013 og auglýst í B-deild Stjórnartíðinda þann 08. 04. 2013."
50180 (01.38.211.5),http://gamli.rvk.is/vefur/owa/edutils.parse_page?nafn=BN050180,Laugarásvegur 29-37,mæliblað,Samþykkt.  Samræmist ákvæðum laga nr. 160 / 2010.,"Óskað er eftir  samþykki byggingarfulltrúans í fyrsta lagi til að fella niður lóð nefnda Laugarásvegur, notkun opið svæði, landnúmer 104821 og í öðru lagi til að stækka lóðina Laugarásvegur 29-37 bílageymslulóð, eða eins og sýnt er meðfylgjandi uppdráttum Landupplýsingadeildar dags. 30. 10. 2015.  Lóðin Laugarásvegur (staðgr. 1.382.108, landnr. 104821) er talin  4250,0 m², teknir eru 4250 m² af lóðinni og lagt við óútvísað land (landnr. 218177), lóðin verður  0 m², hverfur og verður afmáð úr skrám. Lóðin Laugarásvegur 29-37, bílageymslulóð (staðgr. 1.382.115, landnr. 104828)  er 220 m², teknir eru 41m² af lóðinni og bætt við óútvísað land (landnr. 218177), bætt er 134 m² við lóðina úr óútvísuðu landi (landnr. 218177), leiðrétt um 1 m² vegna fermetrabrota, lóðin verður 314 m². Sjá deiliskipulagsbreytingu sem var samþykkt á embættisafgreiðslufundi byggingarfulltrúa 15. 03. 2013 og auglýst í B-deild Stjórnartíðinda þann 08. 04. 2013."
50182,http://gamli.rvk.is/vefur/owa/edutils.parse_page?nafn=BN050182,Túngata 11A,mæliblað,Samþykkt.  Samræmist ákvæðum laga nr. 160 / 2010.,"Óskað er eftir  samþykki byggingarfulltrúans á lóðauppdrætti með  staðgr. 1.160.4 af lóðinni Túngötu 11A (staðgr. 1.160.401, landnr 223704), eða eins og sýnt er á meðfylgandi uppdrætti Landupplýsingadeildar dagsettum 02.11. 2015. Mæliblað eða Lóðauppdráttur hefur ekki verið gerður áður fyrir  lóðina Túngötu 11A. Teknir eru 30 m2 af borgarlandi (landnr. 218177) og lagðir við lóðina, lóðin Túngötu 11A (staðgr. 1.160.401, landnr 223704) verður 30 m2. Sjá samþykkt umhverfis- og skipulagsráðs þann 18. 03. 2015 og auglýsingu í B-deild Stjórnartíðinda þann 15. 04. 2015. Ath! Lóðauppdráttur þessi þarf m.a. samþykki skipulagsfulltrúi til að hann öðlist gildi."
49809 (01.13.322.9),http://gamli.rvk.is/vefur/owa/edutils.parse_page?nafn=BN049809,Framnesvegur 14,(fsp) - Risíbúð,Nei. Með vísan til umsagnar á fyrirspurnarblaði.,"Spurt er hvort samþykki fáist á íbúð í risi fjölbýlishúss á lóð nr. 14 við Framnesveg. Meðfylgjandi eru bréf dags. 18.7. 2015, 23.7. 2015 og eignaskiptasamningur dags. 8.8. 2015."
50175 (01.13.340.8),http://gamli.rvk.is/vefur/owa/edutils.parse_page?nafn=BN050175,Holtsgata 35,(fsp) - Útlitsbreyting,Nei. Með vísan til umsagnar á fyrirspurnarblaði.,Spurt er hvort leyft yrði að sameina kvisti á vesturhlið fjölbýlishúss á lóð nr. 35 við Holtsgötu.
