nr,url,heimilisfang,tegund,nidurstada,spurning
50415 (01.14.041.8),http://gamli.rvk.is/vefur/owa/edutils.parse_page?nafn=BN050415,Austurv Thorvaldsenss,Thorvaldsenstræti 6 - Stöðuleyfi,Samþykkt.  Samræmist ákvæðum laga nr. 160 / 2010. Áskilin lokaúttekt byggingarfulltrúa.,Sótt er um stöðuleyfi tímabundið skv. tímatöflu á teikningu fyrir stálgrindarhús yfir fornleifauppgröft framan við Landssímahúsið við Thorvaldsenstræti 6 á lóðinni Austurv Thorvaldsenss.
50390 (01.29.000.3),http://gamli.rvk.is/vefur/owa/edutils.parse_page?nafn=BN050390,Ármúli 8,Þak,Frestað. Vísað til athugasemda á umsóknarblaði.,Sótt er um leyfi til að byggja uppstólað þak með tveggja gráðu halla og tvöföldu pappalagi á vestari hluta húss á lóð nr. 8 við Ármúla. Meðfylgjandi á teikningu er samþykki meðeiganda. Stækkun: xx rúmm. Gjald kr. 9.823
50398 (04.73.110.1),http://gamli.rvk.is/vefur/owa/edutils.parse_page?nafn=BN050398,Árvað 5,Framreiðsla í leikskóla,Frestað. Vísað til athugasemda heilbrigðiseftirlits á umsóknarblaði.,"Sótt er um leyfi til að innrétta aðstöðu til upphitunar á aðfluttum mat og uppvöskunar í stað kælis, frystis og geymslu í  leikskóladeild Norðlingaskóla á lóð nr. 5 við Árvað. Gjald kr. 9.823"
48813 (01.13.521.9),http://gamli.rvk.is/vefur/owa/edutils.parse_page?nafn=BN048813,Bárugata 30,Ofanábygging,Frestað. Vísað til athugasemda á umsóknarblaði.,"Sótt er um leyfi til að byggja hæð ofaná og klæða með bárujárni einbýlishús á lóð nr. 30 við Bárugötu. Erindi var grenndarkynnt frá 12. maí til og með 9. júní 2015. Eftirtaldir aðilar sendu athugasemdir: Jón Gunnar S. húseigandi dags. 14. maí 2015, Hildur S. Pálsdóttir f.h. húseigenda að Stýrimannastíg 6 dags. 7. júní 2015, Friðleifur  Egill Guðmundsson f.h. Black sheep ehf dags. 8. júní 2015,  Ingvi Óttarsson  og Dagrún Hálfdánardóttir dags.  8. júní 2015 og  Gunnar Gunnarsson og  Valva Árnadóttir dags. 8. júní 2015. Einnig er lögð fram umsögn skipulagsfulltrúa dags. 23. júlí 2015. Erindi fylgir umsögn Minjastofnunar Íslands dags. 16. febrúar 2015 og fsp. BN048834 dags. 17. febrúar 2015. Útskrift úr gerðabók embættisafgreiðslufundar skipulagsfulltrúa frá 18. desember 2015 fylgir erindinu ásamt umsögn skipulagsfulltrúa dags. 18. desember 2015. Stækkun: 134 rúmm. Gjald kr. 9.823"
50166 (01.23.010.1),http://gamli.rvk.is/vefur/owa/edutils.parse_page?nafn=BN050166,Borgartún 28,28a - íbúðar- og verslunarrými,Frestað. Vísað til athugasemda á umsóknarblaði.,"Sótt er um leyfi til að byggja steinsteypt fjölbýlishús, einangrað að utan og klætt zinki, timburklæðningu og virocplötum, 6 hæðir og inndregin 7. hæð með 21 íbúð, skrifstofuhúsnæði á 1. hæð og bílgeymslu í kjallara fyrir 23 bíla á lóð nr. 28 við Borgartún. Útskrift úr gerðabók embættisafgreiðslufundar skipulagsfulltrúa frá 20. nóvember 2015 fylgir erindinu ásamt umsögn skipulagsfulltrúa dags. 16. nóvember 2015. Einnig samþykki meðlóðarhafa dags. 1. júní 2015. Niðurrif:  Fastanr. 201-0018, mhl. 02, merkt 0101 vörugeymsla. Stærð A-rými:  3.541,8 ferm., 10.607,1 rúmm. B-rými:  178 ferm., xx rúmm. C-rými:  202 ferm. Gjald kr. 9.823"
50162 (04.76.540.8),http://gamli.rvk.is/vefur/owa/edutils.parse_page?nafn=BN050162,B-Tröð 8,Breyting -stækkun hesthúss,Samþykkt.  Samræmist ákvæðum laga nr. 160 / 2010. Með vísan til samþykktar borgarráðs frá 1. september 1998 skal utanhúss- og lóðarfrágangi vera lokið eigi síðar en innan tveggja ára frá útgáfu byggingarleyfis að viðlögðum dagsektum sbr. greinar nr. 2.4.7 og 2.9.2 í byggingarreglugerð nr. 112/2012. Áskilin lokaúttekt byggingarfulltrúa.,"Sótt er um leyfi til að hækka hlöðuhluta norðanmegin þannig að þar myndast 2. hæð á hesthúsi á lóð nr. 8 við B-tröð í Víðidal. Jákvæð fyrirspurn BN049858 dags. 22. september 2015 og samþykki meðlóðarhafa dags. 15. júlí 2015 fylgja erindi. Stækkun:  33,6 ferm., 51,7 rúmm. Gjald kr. 9.823"
50004 (04.30.430.4),http://gamli.rvk.is/vefur/owa/edutils.parse_page?nafn=BN050004,Dragháls 18-26,Reyndarteikningar og ný 3.hæð viðbygging,Samþykkt.  Samræmist ákvæðum laga nr. 160 / 2010. Með vísan til samþykktar borgarráðs frá 1. september 1998 skal utanhúss- og lóðarfrágangi vera lokið eigi síðar en innan tveggja ára frá útgáfu byggingarleyfis að viðlögðum dagsektum sbr. greinar nr. 2.4.7 og 2.9.2 í byggingarreglugerð nr. 112/2012. Áskilin lokaúttekt byggingarfulltrúa.,"Sótt er um leyfi fyrir áður gerðum breytingum á 1. og 2. hæð og sótt er um að byggja 3. hæð ofaná hús á lóð nr. 18-26 og 17-25 við Dragháls / Fossháls.  Útskrift úr gerðabók embættisafgreiðslufundar skipulagsfulltrúa frá 9. október 2015 fylgir erindinu ásamt umsögn skipulagsfulltrúa dags. 9. október 2015. Stækkun 3. hæðar :  4.872,4 ferm og 38.240,5 rúmm. Gjald kr. 9.823"
49639 (01.66.--9.9),http://gamli.rvk.is/vefur/owa/edutils.parse_page?nafn=BN049639,Flugvöllur 106748,Nauthólsvegur 66 - Stækkun reiðhjólaskýlis,"Samþykkt.  Samræmist ákvæðum laga nr. 160 / 2010. Með vísan til samþykktar borgarráðs frá 1. september 1998 skal utanhúss- og lóðarfrágangi vera lokið eigi síðar en innan tveggja ára frá útgáfu byggingarleyfis að viðlögðum dagsektum sbr. greinar nr. 2.4.7 og 2.9.2 í byggingarreglugerð nr. 112/2012. Skilyrt er að ný eignaskiptayfirlýsing sé samþykkt fyrir útgáfu byggingarleyfis, henni verður þinglýst eigi síðar en við lokaúttekt. Áskilin lokaúttekt byggingarfulltrúa.","Sótt er um leyfi til að stækka núverandi reiðhjólaskýli mhl. 37 sem er staðsett norðanmegin við húsið á nr. 66 við Nauthólsveg á lóð nr. 106748 við flugvöllinn. Útskrift úr gerðabók embættisafgreiðslufundar skipulagsfulltrúa frá 14. ágúst 2015 fylgir erindinu. Reiðhjólageymsla A rými 43,2 ferm., 107,0 rúmm. Gjald kr. 9.823 + 9.823"
50406 (01.18.231.7),http://gamli.rvk.is/vefur/owa/edutils.parse_page?nafn=BN050406,Frakkastígur 26A,Útisvæði - ný brunahönnun,Frestað. Vísað til athugasemda á umsóknarblaði.,"Sótt er um leyfi fyrir 16 gesti við útiveitingaborð, til að bæta við snyrtingu fyrir gesti, til annarra smærri breytinga innanhúss og til að breyta brunahönnun, sbr. erindi BN048943 samþ. 12.5. 2015, í veitingahúsi á lóð nr. 26A við Frakkastíg. Gjald kr. 9.823"
50380 (01.44.410.1),http://gamli.rvk.is/vefur/owa/edutils.parse_page?nafn=BN050380,Gnoðarvogur 44-46,44 - Pizzugerð 1.hæð,Frestað. Vísað til athugasemda á umsóknarblaði.,Sótt er um samþykki á breyttum innréttingum vegna pizzugerðar og pizzusölu til meðtöku á 1. hæð í vesturenda húss á lóð nr. 44-46 við Gnoðarvog. Gjald kr. 9.823
50400 (01.11.250.1),http://gamli.rvk.is/vefur/owa/edutils.parse_page?nafn=BN050400,Grandagarður 20,"Breytingar - sýningarsalir, veitingastaður o.fl.",Frestað. Vísað til athugasemda á umsóknarblaði.,"Sótt er um leyfi til breytinga sem felast í að innréttaðir eru sýningarsalir og vinnustofur á efri hæðum og veitingasalur á jarðhæð, komið er fyrir lyftu og nýjum aðalstiga og eldvarnarmálum komið í rétt horf,  aðkoma og bílastæði verða frá Járnbraut í Marshall húsi á lóð nr. 20 við Grandagarð. Meðfylgjandi er mat á burðarþoli hússins dags. 1.6. 2015 og brunavarnaskýrsla dags. 15.12. 2015. Gjald kr. 9.823"
50321 (01.18.211.3),http://gamli.rvk.is/vefur/owa/edutils.parse_page?nafn=BN050321,Grettisgata 18A,Endurreisa hús - burðargrind ónothæf,Samþykkt.  Samræmist ákvæðum laga nr. 160 / 2010. Frágangur á lóðamörkum verði gerður í samráði við lóðarhafa aðliggjandi lóða. Með vísan til samþykktar borgarráðs frá 1. september 1998 skal utanhúss- og lóðarfrágangi vera lokið eigi síðar en innan tveggja ára frá útgáfu byggingarleyfis að viðlögðum dagsektum sbr. greinar nr. 2.4.7 og 2.9.2 í byggingarreglugerð nr. 112/2012. Áskilin lokaúttekt byggingarfulltrúa.,"Sótt er um leyfi til að fjarlægja efri hæð og endurbyggja, sbr. erindi BN049363 samþ. dags. 9.6. 2015, breyta inngangi, pöllum og tröppum, setja nýja glugga og breyta fyrirkomulagi innanhúss í einbýlishúsi á lóð nr. 18a við Grettisgötu. Meðfylgjandi er bréf arkitekts dags. 8. 12. 2015 og umsögn Minjastofnunar Íslands dags. 18.12. 2015. Stærðir:  stækkun 29,5 rúmm., flatarmál óbreytt. Gjald kr. 9.823"
50290 (01.18.330.8),http://gamli.rvk.is/vefur/owa/edutils.parse_page?nafn=BN050290,Grundarstígur 10,Veitingastaður - fl.2,Frestað. Vísað til athugasemda á umsóknarblaði.,"Sótt er um leyfi fyrir veitingastað í flokki II fyrir 45 gesti í sætum og rekstur salar fyrir menningartengda starfsemi, tónleika, fyrirlestra, fundahöld o.fl. fyrir 80 - 100 manns í Hannesarholti á lóð nr. 10 við Grundarstíg. Útskrift úr gerðabók embættisafgreiðslufundar skipulagsfulltrúa frá 18. desember 2015 fylgir erindinu ásamt umsögn skipulagsfulltrúa dags. 18. desember 2015. Gjald kr. 9.823"
50397 (01.11.140.1),http://gamli.rvk.is/vefur/owa/edutils.parse_page?nafn=BN050397,Hólmaslóð 4,Breyting inni,Frestað. Vísað til athugasemda á umsóknarblaði.,"Sótt er um leyfi til að breyta fyrirkomulagi innanhúss sem felst í að lagersvæði, pökkun og starfsmannarými er stækkað á 1. hæð í húsi á lóð nr. 4 við Hólmaslóð. Gjald kr. 9.823"
50370 (01.19.890.1),http://gamli.rvk.is/vefur/owa/edutils.parse_page?nafn=BN050370,Hringbraut Landsp.,Húsnæði fyrir jáeindaskanna,"Samþykkt.  Samræmist ákvæðum laga nr. 160 / 2010. Frágangur á lóðamörkum verði gerður í samráði við lóðarhafa aðliggjandi lóða. Með vísan til samþykktar umhverfis- og skipulagsráðs, dags. 22. maí 2013, skal lóðarhafi, í samráði við byggingarfulltrúa, setja upp skilti til kynningar á fyrirhuguðum framkvæmdum á byggingarstað. Í samræmi við samþykkt umhverfis- og skipulagsráðs dags. 9. október 2013 skal vélknúinn þvottabúnaður vera til staðar á byggingarlóð sem tryggi að vörubílar og aðrar þungavinnuvélar verði þrifnar áður en þær yfirgefa byggingarstað. Samráð skal haft við byggingarfulltrúa um staðsetningu búnaðarins. Sérstakt samráð skal haft við yfirverkfræðing byggingarfulltrúa vegna jarðvinnu. Áskilin lokaúttekt byggingarfulltrúa. Áskilið samþykki heilbrigðiseftirlits.","Sótt er um leyfi til að byggja hús fyrir jáeindaskanna og starfsemi tengda honum sem verður mhl. 45 á lóð Landsspítalans við Hringbraut. Erindi fylgir brunahönnun frá Verkís dags. í desember 2015. Stærð:  375,4 ferm., 1.379,6 rúmm. Gjald kr. 9.823"
50157 (01.17.410.7),http://gamli.rvk.is/vefur/owa/edutils.parse_page?nafn=BN050157,Hverfisgata 102A,Reyndarteikning - kjallari,Frestað. Vísað til athugasemda á umsóknarblaði.,Sótt er um samþykki fyrir breyttum kjallara og dýpkun á landi við útvegg fjölbýlishúss á lóð nr. 102a við Hverfisgötu. Meðfylgjandi er samþykki meðeigenda dags. 20. október 2015 og íbúðarskoðun dags. 15. október 2015. Gjald kr. 9.823
50392 (01.22.200.1),http://gamli.rvk.is/vefur/owa/edutils.parse_page?nafn=BN050392,Hverfisgata 113-115,Búningsherbergi - kjallara,Frestað. Vísað til athugasemda á umsóknarblaði.,Sótt er um leyfi til að koma fyrir búningsherbergjum starfsfólks í norðvesturhluta kjallara húss á lóð nr. 113-115 við Hverfisgötu. Gjald kr. 9.823
50339 (01.17.000.3),http://gamli.rvk.is/vefur/owa/edutils.parse_page?nafn=BN050339,Hverfisgata 4,Nr. 6 - Breyting jarðhæð,Synjað. Með vísan til umsagnar skipulagsfulltrúa dags. 15. desember 2015.,Sótt er um leyfi til að innrétta veitingastað í flokki ? sem tengist eldhúsi í hóteli á lóð nr. 8-10 fyrir ? gesti á jarðhæð húss á lóð nr. 4 við Hverfisgötu. Útskrift úr gerðabók embættisafgreiðslufundar skipulagsfulltrúa frá 18. desember 2015 fylgir erindinu ásamt umsögn skipulagsfulltrúa dags. 15. desember 2015. Gjald kr. 9.823
50394 (01.17.121.8),http://gamli.rvk.is/vefur/owa/edutils.parse_page?nafn=BN050394,Ingólfsstræti 5,Matvöruverslun,Frestað. Vísað til athugasemda heilbrigðiseftirlits á umsóknarblaði.,Sótt er um leyfi til að innrétta matvöruverslun í rými 0101 þar sem áður var verslun í húsinu á lóð nr. 5 við Ingólfsstræti.  Gjald kr. 9.823
48409 (01.17.150.5),http://gamli.rvk.is/vefur/owa/edutils.parse_page?nafn=BN048409,Klapparstígur 38,Reyndarteikningar - veitingatjald,Frestað. Vísað til athugasemda á umsóknarblaði.,"Sótt er um samþykki á áður gerðum breytingum innanhúss, sem felast í að færa stiga úr sal inn í glerskála, einnig er sótt um leyfi til að innrétta veitingastað í flokki III , tegund A og F á 2. hæð og í glerskála, við hús á lóð nr. 38 við Klapparstíg. Gjald kr. 9.599"
50341 (01.32.310.1),http://gamli.rvk.is/vefur/owa/edutils.parse_page?nafn=BN050341,Korngarðar 1,Opið þvottaskýli. Br. á BN048020,Samþykkt.  Samræmist ákvæðum laga nr. 160 / 2010. Með vísan til samþykktar borgarráðs frá 1. september 1998 skal utanhúss- og lóðarfrágangi vera lokið eigi síðar en innan tveggja ára frá útgáfu byggingarleyfis að viðlögðum dagsektum sbr. greinar nr. 2.4.7 og 2.9.2 í byggingarreglugerð nr. 112/2012. Áskilin lokaúttekt byggingarfulltrúa. Áskilið samþykki heilbrigðiseftirlits.,"Sótt er um leyfi til að byggja þvottaskýli, mhl. 02, úr steinsteypu og stálgrind klætt lóðréttri trapisuklæðningu sem verður notað til að handþvo minni sendibíla í rekstri fyrirtækis á lóð nr. 1 við Korngarða.  A-rými, læstur skápur:  4,0 ferm., 21,0 rúmm. B-rými, þvottaskýli: 57,5 ferm., 197,3 rúmm. Gjald kr. 9.823"
49322 (01.19.701.1),http://gamli.rvk.is/vefur/owa/edutils.parse_page?nafn=BN049322,Laufásvegur 63,"Kvistir, þakgluggar, endurnýja þak o.fl.",Frestað. Vísað til athugasemda á umsóknarblaði.,"Sótt er um leyfi til að endurnýja og hækka þak, stækka kvist á norðausturhlið, byggja kvist á suðvesturhlið og innrétta herbergi og bað í risi einbýlishúss á lóð nr. 63 við Laufásveg. Útskrift úr gerðabók embættisafgreiðslufundar skipulagsfulltrúa frá 5. júní 2015 fylgir erindinu ásamt umsögn skipulagsfulltrúa dags. 3. júní 2015. Einnig bréf umsækjanda dags. 20. september 2015. Stækkun:  xx rúmm. Gjald kr. 9.823"
50215 (01.17.220.6),http://gamli.rvk.is/vefur/owa/edutils.parse_page?nafn=BN050215,Laugavegur 28,Hótel - breyting inni,Frestað. Vísað til athugasemda á umsóknarblaði.,"Sótt er um leyfi til að byggja viðbyggingu úr gleri á baklóð, endurgera þak, gera nýjan flóttastiga og byggja kvist á suðurhlið, gera útskot úr gleri og klæða norðurhlið, koma fyrir heitum pottum á svölum, koma fyrir lyftu og innrétta gististað í flokki V, teg. hótel með 20 herbergjum fyrir 40 gesti í húsi á lóð nr. 28 við Laugaveg. Útskrift úr gerðabók embættisafgreiðslufundar skipulagsfulltrúa frá 4. desember 2015 fylgir erindinu ásamt umsögn skipulagsfulltrúa dags. 4. desember 2015, umsögn burðarvirkishönnuðar dags. 17. desember 2015 og brunahönnun dags. í desember 2015. Stækkun:  111,4 ferm., xx rúmm. Gjald kr. 9.823"
50403 (01.79.430.5),http://gamli.rvk.is/vefur/owa/edutils.parse_page?nafn=BN050403,Lautarvegur 2,Fjölbýlishús,Frestað. Vísað til athugasemda á umsóknarblaði.,"Sótt er um leyfi til að byggja steinsteypt fjölbýlishús með þremur íbúðum og tvöfaldri bílgeymslu á lóð nr. 2 við Lautarveg. Stærð A-rými:  552 ferm., 1.895,1 rúmm. B-rými:  69,1 ferm. C-rými:  91,3 ferm. Gjald kr. 9.823"
50393 (05.05.550.2),http://gamli.rvk.is/vefur/owa/edutils.parse_page?nafn=BN050393,Lofnarbrunnur 16,Breyting - BN049530,Samþykkt.  Samræmist ákvæðum laga nr. 160 / 2010. Frágangur á lóðamörkum verði gerður í samráði við lóðarhafa aðliggjandi lóða. Í samræmi við samþykkt umhverfis- og skipulagsráðs dags. 9. október 2013 skal vélknúinn þvottabúnaður vera til staðar á byggingarlóð sem tryggi að vörubílar og aðrar þungavinnuvélar verði þrifnar áður en þær yfirgefa byggingarstað. Samráð skal haft við byggingarfulltrúa um staðsetningu búnaðarins. Sérstakt samráð skal haft við yfirverkfræðing byggingarfulltrúa vegna jarðvinnu. Áskilin lokaúttekt byggingarfulltrúa.,"Sótt er um leyfi til að breyta erindi BN049530, m. a. innrétta hjóla- og vagnageymslu í tæknirými í kjallara, breyta lyftuopnun, tæknirými innrétta' í geymslu á 1. hæð í fjölbýlishúsi á lóð nr. 16 við Lofnarbrunn.  Gjald kr. 9.823"
50364 (04.64.270.1),http://gamli.rvk.is/vefur/owa/edutils.parse_page?nafn=BN050364,Lóuhólar 2-6,"Breyting á rýmum 0109, 0110 og 0111",Samþykkt.  Samræmist ákvæðum laga nr. 160 / 2010. Áskilin lokaúttekt byggingarfulltrúa. Áskilið samþykki heilbrigðiseftirlits.,"Sótt er um leyfi til að breyta innra skipulagi í rýmum 0109, 0110 og 0111 í verslunarhúsi á lóð nr. 2-6 við Lóuhóla. Erindi fylgir greinargerð hönnuðar dags. 16. desember 2015. Gjald kr. 9.823"
50345 (00.01.300.2),http://gamli.rvk.is/vefur/owa/edutils.parse_page?nafn=BN050345,Melavellir,Kjúklingaeldishús,Frestað. Vísað til athugasemda á umsóknarblaði.,"Sótt er um leyfi til að byggja kjúklingaeldishús fyrir 14000 fugla, mhl. 09  á Melavöllum, landnúmer 125655, á Kjalarnesi. Útskrift úr gerðabók embættisafgreiðslufundar skipulagsfulltrúa frá 18. desember 2015 fylgir erindinu ásamt umsögn skipulagsfulltrúa dags. 15. desember 2015. Stærðir: 1.767,3 ferm., 7.774,1 rúmm. Gjald kr. 9.823"
49374 (01.11.640.3),http://gamli.rvk.is/vefur/owa/edutils.parse_page?nafn=BN049374,Mýrargata 12,"Reyndarteikningar - 1.hæð, kjallari","Samþykkt.  Samræmist ákvæðum laga nr. 160 / 2010. Með vísan til samþykktar borgarráðs frá 1. september 1998 skal utanhúss- og lóðarfrágangi vera lokið eigi síðar en innan tveggja ára frá útgáfu byggingarleyfis að viðlögðum dagsektum sbr. greinar nr. 2.4.7 og 2.9.2 í byggingarreglugerð nr. 112/2012. Frágangur á lóðamörkum verði gerður í samráði við lóðarhafa aðliggjandi lóða. Með vísan til samþykktar umhverfis- og skipulagsráðs, dags. 22. maí 2013, skal lóðarhafi, í samráði við byggingarfulltrúa, setja upp skilti til kynningar á fyrirhuguðum framkvæmdum á byggingarstað. Í samræmi við samþykkt umhverfis- og skipulagsráðs dags. 9. október 2013 skal vélknúinn þvottabúnaður vera til staðar á byggingarlóð sem tryggi að vörubílar og aðrar þungavinnuvélar verði þrifnar áður en þær yfirgefa byggingarstað. Samráð skal haft við byggingarfulltrúa um staðsetningu búnaðarins. Sérstakt samráð skal haft við yfirverkfræðing byggingarfulltrúa vegna jarðvinnu. Áskilin lokaúttekt byggingarfulltrúa. Áskilið samþykki heilbrigðiseftirlits. Áskilið samþykki Vinnueftirlits ríkisins.","Sótt er um samþykki á þegar breyttu fyrirkomulagi í kjallara og á 1. hæð, sbr. erindi BN047562 í hóteli á lóð nr. 12 við Mýrargötu. Meðfylgjandi eru teikningar sem sýna breytingar á A4 blaði. Gjald kr. 9.823"
50358 (01.19.020.7),http://gamli.rvk.is/vefur/owa/edutils.parse_page?nafn=BN050358,Njálsgata 34B,Gluggabreyting,Frestað. Vísað til athugasemda á umsóknarblaði.,Sótt er um samþykki á nýjum og breyttum gluggum sbr. erindi BN047869 samþykkt 16.9. 2015 á húsi á lóð nr. 34B við Njálsgötu. Gjald kr. 9.823
49824 (01.18.120.6),http://gamli.rvk.is/vefur/owa/edutils.parse_page?nafn=BN049824,Skólavörðustígur 24,Breytingar inni og úti,Frestað. Lagfæra skráningu.,"Sótt er um leyfi fyrir ýmsum breytingum, innan húss og utan, m.a. taka upp loft, færa inngang, breyta gluggum og hurðum og koma fyrir þakglugga í einbýlishúsi á lóð nr. 24 við Skólavörðustíg. Samþykki lóðarhafa aðliggjandi lóða á Lokastíg 9 og Skólavörðustíg 24 A dags. 29. október 2015 og 30. ágúst 2015 og umsögn burðarvirkshönnuðar dags. 1. desember 2015 fylgja erindi.  Einnig útskrift úr gerðabók embættisafgreiðslufundar skipulagsfulltrúa frá 21. ágúst 2015 og umsögn skipulagsfulltrúa dags. 20. ágúst 2015. Gjald kr. 9.823 + 9.823"
50293 (01.15.230.1),http://gamli.rvk.is/vefur/owa/edutils.parse_page?nafn=BN050293,Skúlagata 14-16,Loka bílgeymslu,Frestað. Vísað til athugasemda á umsóknarblaði.,"Sótt er um leyfi til að loka bílageymslu á fleti 1 (kjallara) í matshluta 11, með bílskúrshurð og gera að séreignarhluta, jafnframt færist geymsla vestan við stiga frá matshluta 11 til matshluta 16 og sameinast hinum nýja séreignarhluta bílskúrsins í Vatnsstíg 14, mhl. 11, á lóð nr. 14-16 við Skúlagötu. Meðfylgjandi er samþykki stjórnar húsfélagsins dags. 17.11. 2015 og brunahönnunarskýrsla Eflu dags. 17.11. 2015. Gjald kr. 9.812"
50388 (01.14.100.3),http://gamli.rvk.is/vefur/owa/edutils.parse_page?nafn=BN050388,Suðurgata 3,Veitingarekstur,Frestað. Vísað til athugasemda á umsóknarblaði.,Sótt er um leyfi fyrir aðstöðu til veitingareksturs í flokki II fyrir 49 gesti í skrifstofu- og félagsmiðstöð samtakanna 78 á 1. hæð í húsi á lóð nr. 3 við Suðurgötu. Meðfylgjandi er bréf umsækjanda dags. 4.12. 2015. Gjald kr. 9.823
49880 (01.26.210.3),http://gamli.rvk.is/vefur/owa/edutils.parse_page?nafn=BN049880,Suðurlandsbraut 8,Hækka hús,Frestað. Vísað til athugasemda á umsóknarblaði.,"Sótt er um leyfi til að byggja þrjár hæðir ofaná, dýpka til suðurs og til að byggja bílastæðahús á þremur pöllum, sem verður sameiginlegt fyrir hús nr. 8 og 10, sunnan við  verslunar- og skrifsstofuhús á lóð nr. 8 við Suðurlandsbraut. Erindi fylgir greinargerð um ábyrgðarsvið hönnuða og forsendur hönnunar dags. 22. maí 2015, minnisblað um skábraut í bílastæðahúsi dags. 15. desember 2015 og kvöð um afnot af bílastæðum á lóð dags. 9. desember 2015. Mhl. 01, aðalbygging:  4.869,4 ferm., 18.668,1 rúmm. Þar af stækkun:  2.371,8 ferm., xx rúmm. Mhl. 02, bílastæðahús:  2300,5 ferm., 8.164,8 rúmm. Mhl. 03, spennistöð:  30,8 ferm., 117,1 rúmm. Gjald kr. 9.823"
50405 (01.14.130.1),http://gamli.rvk.is/vefur/owa/edutils.parse_page?nafn=BN050405,Tjarnargata 20,Breytingar v/brunavarna - stigi o.fl.,Samþykkt.  Samræmist ákvæðum laga nr. 160 / 2010. Með vísan til samþykktar borgarráðs frá 1. september 1998 skal utanhúss- og lóðarfrágangi vera lokið eigi síðar en innan tveggja ára frá útgáfu byggingarleyfis að viðlögðum dagsektum sbr. greinar nr. 2.4.7 og 2.9.2 í byggingarreglugerð nr. 112/2012. Áskilin lokaúttekt byggingarfulltrúa.,"Sótt er um leyfi til að gera breytingar vegna brunavarna á öllum hæðum, koma fyrir sjálfvirku úðakerfi, setja hringstiga milli 2. og 3. hæðar, eldverja flóttaleiðir með klæðningum í fl. 1 og eldvarnarmálningu á körmum og hurðum og sjálfvirkum lokunum, enga breytingar eru gerðar aðrar eða á skráningartöflu húss á lóð nr. 20 við Tjarnargötu. Gjald kr. 9.823"
50402 (01.54.501.3),http://gamli.rvk.is/vefur/owa/edutils.parse_page?nafn=BN050402,Tómasarhagi 51,Hækka útveggi og þak bílskúrs,Frestað. Málinu vísað til umsagnar skipulagsfulltrúa.,"Sótt er um leyfi til að hækka útveggi um 35 cm og þak bílskúrsins á þrjá vegu, þakhæð til suðurs verður óbreytt, borðarviðir þaks verði endurnýjaðir, þakhalli aukinn til samræmis við hækkun, þak einangrað og gengið frá brunavörnum milli eignarhluta bílskúrs á lóð nr. 51 við Tómasarhaga. Stærðir eftir stækkun: 75,3 ferm., 224,9 rúmm. Stækkun: 0,0 ferm., 9 rúmm. Gjald kr. 9.823"
50408 (01.11.740.7),http://gamli.rvk.is/vefur/owa/edutils.parse_page?nafn=BN050408,Tryggvagata 13,Takmarkað byggingarleyfi,Synjað. Samræmist ekki ákvæðum gr. 2.4.6 í byggingarreglugerð nr. 112/2012.,"Sótt er um útvíkkað takmarkað byggingarleyfi á grundvelli samþykktra séruppdrátta á staðnum að Tryggvagötu 13 til að steypa plötu yfir kjallara, og einnig veggi og plötu yfir 1.hæð sbr. BN048982."
50404 (01.13.210.3),http://gamli.rvk.is/vefur/owa/edutils.parse_page?nafn=BN050404,Tryggvagata 14,Verslunar-og þjónustuhúsnæði - hótel,Frestað. Vísað til athugasemda á umsóknarblaði.,"Sótt er um leyfi til að fjarlægja Tryggvagötu 14 og iðnaðarhús á Vesturgötu 18, endurbyggja framhús á Tryggvagötu 12 og byggja nýbyggingu með bílgeymslu fyrir 13 bíla, verslun og þjónustu á götuhæð við Tryggvagötu og neðsta hluta Norðurstígs og hótel í flokki V með 107 herbergjum á efri hæðum á sameinaðri lóð nr. 14 við Tryggvagötu. Erindi fylgir bílastæðabókhald dags. 15. desember 2015, greinargerð um hljóðvist frá EFLU dags. 15. desember 2015, stöðugleikagreinding og yfirlit yfir orkubúskap bygginga frá Verkfræðistofu Reykjavíkur dags. 15. desember 2015, umsögn Minjastofnunar Íslands dags. 24. febrúar og 17. desember 2015, brunahönnun frá Verkís dags. í desember 2015, framkvæmdalýsing hönnuða ódagsett og umsögn Húsafriðunarnefndar dags. 23. október 2007. Niðurrif Tryggvagata 14:  Fastanr. 200-0551, merkt 01 0001, veitingahús 149 ferm., fastanr. 230-3223, merkt 01 0102 íbúðarherbergi 97,6 ferm., fastanr. 200-0552 merkt 01 0201 íbúð og fastanr. 230-3224 merkt 01 0301 íbúðarherb í risi 44,9 ferm. Niðurrif Vesturgata 12:  hluti ? Niðurrif Vesturgata 18:  Fastanr. 200-0598 merkt 01 0101 iðnaðarhús 146 ferm. Nýbygging: A-rými:  5.189,1 ferm., 17.018,9 rúmm. B-rými:  15,3 ferm., 45,4 rúmm. c-rými:  453,8 ferm. Gjald kr. 9.823"
50391 (05.05.570.1),http://gamli.rvk.is/vefur/owa/edutils.parse_page?nafn=BN050391,Úlfarsbraut 122-124,Breyting inni,Samþykkt.  Samræmist ákvæðum laga nr. 160 / 2010. Áskilin lokaúttekt byggingarfulltrúa. Áskilið samþykki heilbrigðiseftirlits.,Sótt er um samþykki á breytingum innanhúss samanber erindi BN049807 samþ. 15.9. 2015 sem felast í tilfærslum á innréttingum og hurðum í Dalskóla á lóð nr. 122-124 við Úlfarsbraut. Gjald kr. 9.823
50344 (01.33.780.2),http://gamli.rvk.is/vefur/owa/edutils.parse_page?nafn=BN050344,Vatnagarðar 12,"Breyting á þaki, breyting inni o.fl.",Frestað. Vísað til athugasemda á umsóknarblaði og umsagnar skipulagsfulltrúa dags. 17. desember 2015.,"Sótt er um leyfi til breytinga á þaki, rífa millibyggingu og byggja nýtt, hærra þak. Breyta fyrirkomulagi innanhúss, byggja nýtt milligólf, einnig er gluggum og hurðum breytt í iðnaðarhúsi/skrifstofu á lóð nr. 12 við Vatnagarða. Útskrift úr gerðabók embættisafgreiðslufundar skipulagsfulltrúa frá 18. desember 2015 fylgir erindinu ásamt umsögn skipulagsfulltrúa dags. 17. desember 2015. Stærðir; stækkun xx ferm., xx rúmm. Gjald kr. 9.823"
50377 (02.34.620.2),http://gamli.rvk.is/vefur/owa/edutils.parse_page?nafn=BN050377,Vættaborgir 26-28,26 - Sökkulrými,Frestað. Vísað til athugasemda á umsóknarblaði.,"Sótt er um leyfi til að taka í notkun óútgrafið rými í kjallar og innrétta snyrtingu og eldunaraðstöðu, koma fyriir hurð út á lóð á norðurhlið og glugga á austurhlið parhúss nr. 26 á lóð nr. 26-28 við Vættaborgir. Stækkun:  47,5 ferm.,  167,3 rúmm. Gjald kr. 9.823"
50372 (01.13.720.7),http://gamli.rvk.is/vefur/owa/edutils.parse_page?nafn=BN050372,Ægisgata 26,Reyndarteikningar,Samþykkt.  Samræmist ákvæðum laga nr. 160 / 2010. Skilyrt er að eignaskiptayfirlýsingu vegna breytinga í húsinu sé þinglýst til þess að samþykktin öðlist gildi.     Áskilin lokaúttekt byggingarfulltrúa.,Sótt er um samþykki fyrir áður gerðum breytingum í tvíbýlishúsi á lóð nr. 26 við Ægisgötu. Erindi fylgir samþykki meðeiganda áritað á uppdrátt. Gjald kr. 9.823
50421 (04.97.410.6),http://gamli.rvk.is/vefur/owa/edutils.parse_page?nafn=BN050421,Hálsasel 27,mæliblað,Samþykkt.  Samræmist ákvæðum laga nr. 160 / 2010.,"Óskað er eftir samþykki byggingarfulltrúans á Lóðauppdrætti með staðgr. 4.974.1 , eða eins og sýnt er á meðfylgandi uppdrætti Landupplýsingadeildar dagsettum 18.12. 2015. Lóðin Hálsasel 33  ( staðgr. 4.974.101, landnr. 113193 ) er talin 390 m2, lóðin verður 440 m2, samanber samþykkt byggingarnefndar dags. 26. 05. 1983. Lóðin Hálsasel 35  (staðgr. 4.974.102, landnr. 113194 ) er talin 390 m2, lóðin verður 440 m2, samanber samþykkt byggingarnefndar dags. 26. 05. 1983. Lóðin Hálsasel 37  (staðgr. 4.974.103, landnr. 113195 ) er talin 390 m2, lóðin verður 440 m2, samanber samþykkt byggingarnefndar dags. 26. 05. 1983. Lóðin Hálsasel 39  (staðgr. 4.974.104, landnr. 113196 ) er talin 390 m2, lóðin verður 440 m2, samanber samþykkt byggingarnefndar dags. 26. 05. 1983. Af Hálsaseli 27 (staðgr. 4.974.106, landnr. 112912 ) hefur ekki verið afmörkuð lóð á Mæliblaði eða Lóðauppdrætti áður, nú er lóðin afmörkuð, lóðin Hálsasel 27 ( 4.974.106, landnr. 112912 ) er í skrám talin 5625 m2, lóðin verður 6736 m2 að stærð. Til í skrám er lóðin Hálsasel 27-29x ( staðgr. 4.974.105, landnr. 172494 ) sögð 6633 m2 að stærð, lóðin verður 0 m2 og hverfur og verður feld úr skrám, mannvirki oþl. skráð á þá lóð, ef eru, færast yfir á nýju lóðina Hálsasel 27 og númerist samkvæmt ákvörðun byggingarfulltrúa.  Það aukaland sem til fellur, ef er, verður  af óútvísuðu borgarlandi (landnr. 221448).   Sjá samþykkt borgarráðs 13. 07. 1982 og samþykkt byggingarnefndar 26. 05. 1983 vegna lóðanna Hálsasel 33-39. Sbr. deiliskipulag samþykkt í skipulagsráði 12. 01. 2005 og auglýsingu í B-deild stjórnartíðinda þann 20. mars 2005."
50417 (04.97.410.1),http://gamli.rvk.is/vefur/owa/edutils.parse_page?nafn=BN050417,Hálsasel 33,mæliblað,Samþykkt.  Samræmist ákvæðum laga nr. 160 / 2010.,"Óskað er eftir samþykki byggingarfulltrúans á Lóðauppdrætti með staðgr. 4.974.1 , eða eins og sýnt er á meðfylgandi uppdrætti Landupplýsingadeildar dagsettum 18.12. 2015. Lóðin Hálsasel 33  ( staðgr. 4.974.101, landnr. 113193 ) er talin 390 m2, lóðin verður 440 m2, samanber samþykkt byggingarnefndar dags. 26. 05. 1983. Lóðin Hálsasel 35  (staðgr. 4.974.102, landnr. 113194 ) er talin 390 m2, lóðin verður 440 m2, samanber samþykkt byggingarnefndar dags. 26. 05. 1983. Lóðin Hálsasel 37  (staðgr. 4.974.103, landnr. 113195 ) er talin 390 m2, lóðin verður 440 m2, samanber samþykkt byggingarnefndar dags. 26. 05. 1983. Lóðin Hálsasel 39  (staðgr. 4.974.104, landnr. 113196 ) er talin 390 m2, lóðin verður 440 m2, samanber samþykkt byggingarnefndar dags. 26. 05. 1983. Af Hálsaseli 27 (staðgr. 4.974.106, landnr. 112912 ) hefur ekki verið afmörkuð lóð á Mæliblaði eða Lóðauppdrætti áður, nú er lóðin afmörkuð, lóðin Hálsasel 27 ( 4.974.106, landnr. 112912 ) er í skrám talin 5625 m2, lóðin verður 6736 m2 að stærð. Til í skrám er lóðin Hálsasel 27-29x ( staðgr. 4.974.105, landnr. 172494 ) sögð 6633 m2 að stærð, lóðin verður 0 m2 og hverfur og verður feld úr skrám, mannvirki oþl. skráð á þá lóð, ef eru, færast yfir á nýju lóðina Hálsasel 27 og númerist samkvæmt ákvörðun byggingarfulltrúa.  Það aukaland sem til fellur, ef er, verður  af óútvísuðu borgarlandi (landnr. 221448).   Sjá samþykkt borgarráðs 13. 07. 1982 og samþykkt byggingarnefndar 26. 05. 1983 vegna lóðanna Hálsasel 33-39. Sbr. deiliskipulag samþykkt í skipulagsráði 12. 01. 2005 og auglýsingu í B-deild stjórnartíðinda þann 20. mars 2005."
50418 (04.97.410.2),http://gamli.rvk.is/vefur/owa/edutils.parse_page?nafn=BN050418,Hálsasel 35,mæliblað,Samþykkt.  Samræmist ákvæðum laga nr. 160 / 2010.,"Óskað er eftir samþykki byggingarfulltrúans á Lóðauppdrætti með staðgr. 4.974.1 , eða eins og sýnt er á meðfylgandi uppdrætti Landupplýsingadeildar dagsettum 18.12. 2015. Lóðin Hálsasel 33  ( staðgr. 4.974.101, landnr. 113193 ) er talin 390 m2, lóðin verður 440 m2, samanber samþykkt byggingarnefndar dags. 26. 05. 1983. Lóðin Hálsasel 35  (staðgr. 4.974.102, landnr. 113194 ) er talin 390 m2, lóðin verður 440 m2, samanber samþykkt byggingarnefndar dags. 26. 05. 1983. Lóðin Hálsasel 37  (staðgr. 4.974.103, landnr. 113195 ) er talin 390 m2, lóðin verður 440 m2, samanber samþykkt byggingarnefndar dags. 26. 05. 1983. Lóðin Hálsasel 39  (staðgr. 4.974.104, landnr. 113196 ) er talin 390 m2, lóðin verður 440 m2, samanber samþykkt byggingarnefndar dags. 26. 05. 1983. Af Hálsaseli 27 (staðgr. 4.974.106, landnr. 112912 ) hefur ekki verið afmörkuð lóð á Mæliblaði eða Lóðauppdrætti áður, nú er lóðin afmörkuð, lóðin Hálsasel 27 ( 4.974.106, landnr. 112912 ) er í skrám talin 5625 m2, lóðin verður 6736 m2 að stærð. Til í skrám er lóðin Hálsasel 27-29x ( staðgr. 4.974.105, landnr. 172494 ) sögð 6633 m2 að stærð, lóðin verður 0 m2 og hverfur og verður feld úr skrám, mannvirki oþl. skráð á þá lóð, ef eru, færast yfir á nýju lóðina Hálsasel 27 og númerist samkvæmt ákvörðun byggingarfulltrúa.  Það aukaland sem til fellur, ef er, verður  af óútvísuðu borgarlandi (landnr. 221448).   Sjá samþykkt borgarráðs 13. 07. 1982 og samþykkt byggingarnefndar 26. 05. 1983 vegna lóðanna Hálsasel 33-39. Sbr. deiliskipulag samþykkt í skipulagsráði 12. 01. 2005 og auglýsingu í B-deild stjórnartíðinda þann 20. mars 2005."
50419 (04.97.410.3),http://gamli.rvk.is/vefur/owa/edutils.parse_page?nafn=BN050419,Hálsasel 37,mæliblað,Samþykkt.  Samræmist ákvæðum laga nr. 160 / 2010.,"Óskað er eftir samþykki byggingarfulltrúans á Lóðauppdrætti með staðgr. 4.974.1 , eða eins og sýnt er á meðfylgandi uppdrætti Landupplýsingadeildar dagsettum 18.12. 2015. Lóðin Hálsasel 33  ( staðgr. 4.974.101, landnr. 113193 ) er talin 390 m2, lóðin verður 440 m2, samanber samþykkt byggingarnefndar dags. 26. 05. 1983. Lóðin Hálsasel 35  (staðgr. 4.974.102, landnr. 113194 ) er talin 390 m2, lóðin verður 440 m2, samanber samþykkt byggingarnefndar dags. 26. 05. 1983. Lóðin Hálsasel 37  (staðgr. 4.974.103, landnr. 113195 ) er talin 390 m2, lóðin verður 440 m2, samanber samþykkt byggingarnefndar dags. 26. 05. 1983. Lóðin Hálsasel 39  (staðgr. 4.974.104, landnr. 113196 ) er talin 390 m2, lóðin verður 440 m2, samanber samþykkt byggingarnefndar dags. 26. 05. 1983. Af Hálsaseli 27 (staðgr. 4.974.106, landnr. 112912 ) hefur ekki verið afmörkuð lóð á Mæliblaði eða Lóðauppdrætti áður, nú er lóðin afmörkuð, lóðin Hálsasel 27 ( 4.974.106, landnr. 112912 ) er í skrám talin 5625 m2, lóðin verður 6736 m2 að stærð. Til í skrám er lóðin Hálsasel 27-29x ( staðgr. 4.974.105, landnr. 172494 ) sögð 6633 m2 að stærð, lóðin verður 0 m2 og hverfur og verður feld úr skrám, mannvirki oþl. skráð á þá lóð, ef eru, færast yfir á nýju lóðina Hálsasel 27 og númerist samkvæmt ákvörðun byggingarfulltrúa.  Það aukaland sem til fellur, ef er, verður  af óútvísuðu borgarlandi (landnr. 221448).   Sjá samþykkt borgarráðs 13. 07. 1982 og samþykkt byggingarnefndar 26. 05. 1983 vegna lóðanna Hálsasel 33-39. Sbr. deiliskipulag samþykkt í skipulagsráði 12. 01. 2005 og auglýsingu í B-deild stjórnartíðinda þann 20. mars 2005."
50420 (04.97.410.4),http://gamli.rvk.is/vefur/owa/edutils.parse_page?nafn=BN050420,Hálsasel 39,mæliblað,Samþykkt.  Samræmist ákvæðum laga nr. 160 / 2010.,"Óskað er eftir samþykki byggingarfulltrúans á Lóðauppdrætti með staðgr. 4.974.1 , eða eins og sýnt er á meðfylgandi uppdrætti Landupplýsingadeildar dagsettum 18.12. 2015. Lóðin Hálsasel 33  ( staðgr. 4.974.101, landnr. 113193 ) er talin 390 m2, lóðin verður 440 m2, samanber samþykkt byggingarnefndar dags. 26. 05. 1983. Lóðin Hálsasel 35  (staðgr. 4.974.102, landnr. 113194 ) er talin 390 m2, lóðin verður 440 m2, samanber samþykkt byggingarnefndar dags. 26. 05. 1983. Lóðin Hálsasel 37  (staðgr. 4.974.103, landnr. 113195 ) er talin 390 m2, lóðin verður 440 m2, samanber samþykkt byggingarnefndar dags. 26. 05. 1983. Lóðin Hálsasel 39  (staðgr. 4.974.104, landnr. 113196 ) er talin 390 m2, lóðin verður 440 m2, samanber samþykkt byggingarnefndar dags. 26. 05. 1983. Af Hálsaseli 27 (staðgr. 4.974.106, landnr. 112912 ) hefur ekki verið afmörkuð lóð á Mæliblaði eða Lóðauppdrætti áður, nú er lóðin afmörkuð, lóðin Hálsasel 27 ( 4.974.106, landnr. 112912 ) er í skrám talin 5625 m2, lóðin verður 6736 m2 að stærð. Til í skrám er lóðin Hálsasel 27-29x ( staðgr. 4.974.105, landnr. 172494 ) sögð 6633 m2 að stærð, lóðin verður 0 m2 og hverfur og verður feld úr skrám, mannvirki oþl. skráð á þá lóð, ef eru, færast yfir á nýju lóðina Hálsasel 27 og númerist samkvæmt ákvörðun byggingarfulltrúa.  Það aukaland sem til fellur, ef er, verður  af óútvísuðu borgarlandi (landnr. 221448).   Sjá samþykkt borgarráðs 13. 07. 1982 og samþykkt byggingarnefndar 26. 05. 1983 vegna lóðanna Hálsasel 33-39. Sbr. deiliskipulag samþykkt í skipulagsráði 12. 01. 2005 og auglýsingu í B-deild stjórnartíðinda þann 20. mars 2005."
50411 (01.32.970.2),http://gamli.rvk.is/vefur/owa/edutils.parse_page?nafn=BN050411,Köllunarklettsvegur 4,Mæliblað,Samþykkt.  Samræmist ákvæðum laga nr. 160 / 2010.,"Hjálagt er nýtt mæliblað fyrir lóðina nr. 4 við Köllunarklettsveg í Sundahöfn, breyting var gerð á stærð lóðar árið 2001 og láðst hafði að senda inn breytinguna til byggingarfulltrúa. Mæliblaðið eru í samræmi við deiliskipulag lóðarinnar sem samþykkt var í byrjun árs 2001. Óskað er eftir að gengið verði frá skráningu lóðarinnar í samræmi við mæliblaðið."
50413 (01.16.110.8),http://gamli.rvk.is/vefur/owa/edutils.parse_page?nafn=BN050413,Garðastræti 39,(fsp) - Bílastæði,Frestað. Málinu vísað til umsagnar skipulagsfulltrúa.,"Spurt er hvort byggja megi 5,2 x 5,5 ferm. innkeyrslubílaplan sambærilegt við það á nr. 37 með kaldri geymslu fyrir garðáhöld undir og lofthæð 2,7 m við hús á lóð nr. 39 við Garðastræti."
50379 (04.34.330.1),http://gamli.rvk.is/vefur/owa/edutils.parse_page?nafn=BN050379,Hraunbær 102,(fsp)  -102B - Skipta eign í tvennt,Jákvætt. Að uppfylltum skilyrðum enda verði sótt um byggingarleyfi með vísan til leiðbeininga á fyrirspurnarblaði,Spurt er hvort skipta megi núverandi eign með fastanúmer 204-4915 í tvær eignir á  1. hæð í húsi á lóð nr. 102B við Hraunbæ.
50409 (01.19.501.1),http://gamli.rvk.is/vefur/owa/edutils.parse_page?nafn=BN050409,Leifsgata 15,(fsp) - Íbúð kjallara,Frestað. Gera betur grein fyrir erindinu.,Spurt er hvort samþykkja megi íbúð í kjallara húss á lóð nr. 15 við Leifsgötu.
50363 (01.17.120.6),http://gamli.rvk.is/vefur/owa/edutils.parse_page?nafn=BN050363,Skólavörðustígur 8,(fsp) - Breyta veitingastað,Nei. Með vísan til umsagnar heilbrigðiseftirlits dags. 18. desember 2015.,Spurt er hvort leyft yrði að breyta starfsemi veitingahúss á lóð nr. 8 við Skólavörðustíg. Umsögn heilbrigðiseftirlits dags. 18. desember 2015 fylgir erindinu.
