nr,url,heimilisfang,tegund,nidurstada,spurning
Þetta gerðist:,http://gamli.rvk.is/vefur/owa/edutils.parse_page?nafn=BN011853,Austurstræti 20,br.innrétting,Samþykkt.,Sótt er um leyfi til að innrétta fyrir ferðaþjónustu og gjaldeyrisviðskipti í húsinu á lóðinni nr. 20 við Austurstræti. Gjald kr. 2.250.oo.
"11853 (01.01.140.503) Austurstræti 20,",http://gamli.rvk.is/vefur/owa/edutils.parse_page?nafn=BN011755,Baldursgata 22,íbúð,Samþykkt.,Sótt er um leyfi fyrir áður gerðri íbúð í húsinu á lóðinni nr. 22 við Baldursgötu. Gjald kr. 2.250.oo. Skoðunarskýrslur byggingarfulltrúa dags. 01.12.95 og heilbrigðiseftirlitsins dags. 18.04.96 fylgja erindinu.
"11755 (01.01.186.206) Baldursgata 22,",http://gamli.rvk.is/vefur/owa/edutils.parse_page?nafn=BN011894,Barónsstígur 11,Breyta einbýli í tvíbýli,Samþykkt.,Sótt er um leyfi til að fá samþykktar tvær áður gerðar íbúðir í húsinu á lóðinni nr. 11 við Barónsstíg. Gjald kr. 2.250.oo.
"11894 (01.01.174.128) Barónsstígur 11,",http://gamli.rvk.is/vefur/owa/edutils.parse_page?nafn=BN011792,Bíldshöfði 18,fjölga fasteignum á 1.  hæð,Samþykkt.,Sótt er um leyfi til að fjölga eignahlutum í austurenda 1. hæðar í húsinu á lóðinni nr. 18 við Bíldshöfða. Gjald kr. 2.250.oo.
"11792 (01.04.065.002) Bíldshöfði 18,",http://gamli.rvk.is/vefur/owa/edutils.parse_page?nafn=BN011820,Grensásvegur 8 - 10,Áður gerðar breytingar,Frestað. Fjarlæga módúllínur. Sýna dæmi um húsgögn.,"Sótt er um leyfi fyrir áður gerðum breytingum (innra skipulagi) í húsinu á lóðinni nr. 8 við Grensásveg, samanber bréf dags. 22.04.96. Gjald kr. 2.250.oo. Bréf Ásmundar Harðarsonar, arkitekts, dags. 14.05.1996 fylgir erindinu."
"11820 (01.01.295.305) Grensásvegur 8 - 10,",http://gamli.rvk.is/vefur/owa/edutils.parse_page?nafn=BN011842,Grjótasel 9,Íbúð á neðri hæð,Frestað. Ófullnægjandi teikningar. Öll inntök verði í sérstöku tæknirými í sameign. Vantar samþykki skipulagsnefndar.,Sótt er um leyfi til að skipta í tvo eignarhluta og gera tvær íbúðir í húsinu á lóðinni nr. 9 við Grjótasel. Gjald kr. 2.250.oo.
"11842 (01.04.933.709) Grjótasel 9,",http://gamli.rvk.is/vefur/owa/edutils.parse_page?nafn=BN011891,Gullengi 3 bílskúralóð,Fjarlægja glugga,Samþykkt. Frágangur á lóðamörkum verði gerður í samráði við lóðarhafa aðliggjandi lóða.,Sótt er um leyfi til að fella niður glugga á bílskúrum á lóðinni nr. 3 við Gullengi. Gjald kr. 2.250.oo.
"11891 (01.02.386.404) Gullengi 3 bílskúralóð,",http://gamli.rvk.is/vefur/owa/edutils.parse_page?nafn=BN011847,Háteigsvegur sjómsk.,"Lagfæra, breyta notkun ofl.",Frestað. Vantar stærðir á skúrum. Gera grein fyrir eldvarnarmálum.,Sótt er um leyfi til að breyta innréttingum vegna breyttrar notkunar og eldvarnaraðgerða og fyrir nýrri staðsetningu geymsluskúrs á lóð Sjómannaskólans við Háteigsveg. Gjald kr.  2.250.oo.
"11847 (01.01.254.201) Háteigsvegur sjómsk.,",http://gamli.rvk.is/vefur/owa/edutils.parse_page?nafn=BN011757,Klapparstígur 1 - 7a,geymsla í íbúð 04-02,Samþykkt.,Sótt er um leyfi til að innrétta geymslu í íbúð 04-02 í húsinu á lóðinni nr. 10 við Skúlagötu. Gjald kr. 2.250.oo.
"11757 (01.01.152.201) Klapparstígur 1 - 7a,",http://gamli.rvk.is/vefur/owa/edutils.parse_page?nafn=BN011849,Krókháls 5-5f,Brunavarnaruppdrættir,Frestað. Umsækjandi skili leiðréttum aðalteikningum samhliða brunavarnaruppdráttum.,Sótt er um leyfi til að breyta brunavarnaruppdráttum af húsinu á lóðinni nr. 5A við Krókháls. Gjald kr. 2.250.oo.
"11849 (01.04.323.401) Krókháls 5-5f,",http://gamli.rvk.is/vefur/owa/edutils.parse_page?nafn=BN011893,Laugavegur 170-174,Breytingar,Samþykkt.,Sótt er um leyfi til að breyta áður samþykktum teikningum af húsinu á lóðinni nr. 170 - 174 við Laugaveg. Gjald kr. 2.250.oo.
"11893 (01.01.250.201) Laugavegur 170-174,",http://gamli.rvk.is/vefur/owa/edutils.parse_page?nafn=BN011858,Lokastígur 13,skipta húseign í 2 íbúðir,Frestað. Lagfæra teikningar.,Sótt er um leyfi fyrir áður gerðri íbúð í húsinu á lóðinni nr. 13 við Lokastíg. Gjald kr. 2.250.oo.
"11858 (01.01.181.416) Lokastígur 13,",http://gamli.rvk.is/vefur/owa/edutils.parse_page?nafn=BN007035,Otrateigur 2 - 14,grindverk á lóðarmörkum,Samþykkt. Breytingu á girðingu skal lokið fyrir maílok 1996.,Sótt er um leyfi fyrir áður gerðri girðingu úr timbri og breytingum á henni í austurlóðarmörkum Otrateigs 2-14. Gjald kr. 2.140.oo.
"7035 (01.01.347.001) Otrateigur 2 - 14,",http://gamli.rvk.is/vefur/owa/edutils.parse_page?nafn=BN011852,Reykjafold 2,Garðveggir,Samþykkt.,"Sótt er um leyfi til að byggja garðveggi úr timbri við húsinu á lóðinni nr. 2 við Reykjafold. Gjald kr. 2.250.oo. Meðfylgjandi er samþykki eiganda Reykjafoldar 4, dags. 01.05.96."
"11852 (01.02.870.601) Reykjafold 2,",http://gamli.rvk.is/vefur/owa/edutils.parse_page?nafn=BN011895,Skeggjagata 11,Áður gerð íbúð,Samþykkt.,Sótt er um leyfi fyrir áður gerðri íbúð í kjallara hússins á lóðinni nr. 11 við Skeggjagötu. Gjald kr. 2.250.oo. Skoðunarskýrlur heilbrigðiseftirlitsins dags. 09.04.96 og byggingarfulltrúa dags. 09.04.96.
"11895 (01.01.243.514) Skeggjagata 11,",http://gamli.rvk.is/vefur/owa/edutils.parse_page?nafn=BN011890,Skeggjagata 8,Áður gerð íbúð,Samþykkt.,Sótt er um leyfi fyrir áður gerðri íbúð í kjallara hússins á lóðinni nr. 8 við Skeggjagötu. Gjald kr. 2.250.oo. Skoðunarskýrslur byggingarfulltrúa dags. 05.03.96 og heilbrigðiseftirlits dags. 26.06.1988 fylgir erindinu.
"11890 (01.01.243.604) Skeggjagata 8,",http://gamli.rvk.is/vefur/owa/edutils.parse_page?nafn=BN011896,Skipholt 43-47,Fá samþ. íbúð í kjallara,Samþykkt.,"Sótt er um að fá samþykkta íbúð í húsinu á lóðinni nr.  43 við Skipholt. Gjald kr. 2.180.oo. Samþykki meðeigenda dags. 08.12.95, yfirlýsing Bjarna Frímannssonar dags. 20.12.95 fylgja erindinu. Skoðunarskýrslur heilbrigðiseftirlitsins dags. 12.12.95 og byggingarfulltrúa dags. 22.01.96 fylgja erindinu. Yfirlýsing Hrefnu Ólafsdóttir dags. 16.01.1996 og afsalsbréf fylgja erindinu."
"11896 (01.01.272.001) Skipholt 43-47,",http://gamli.rvk.is/vefur/owa/edutils.parse_page?nafn=BN011861,Skipholt 50d,Innrétta skrifstofu,"Frestað. Vantar afstöðumynd, merkingar á lokuð loftræst rými og brunamerkingar.",Sótt er um leyfi til að innrétta skrifstofu á 3. hæð í húsinu á lóðinni nr. 50D við Skipholt. Gjald kr. 2.250.oo.
"11861 (01.01.254.102) Skipholt 50d,",http://gamli.rvk.is/vefur/owa/edutils.parse_page?nafn=BN011862,Skipholt 50d,Innrétta skrifstofur,"Frestað. Vantar afstöðumynd, merkingar á loftræst rými sem eru lokuð  og brunamerkingar.",Sótt er um leyfi til að innrétta skrifstofur á 2. hæð og hluta af 1. hæð í húsinu á lóðinni nr. 50D við Skipholt. Gjald kr. 2.250.oo.
"11862 (01.01.254.102) Skipholt 50d,",http://gamli.rvk.is/vefur/owa/edutils.parse_page?nafn=BN011830,Stóragerði 29,endurnýja ums.um sólstofu,Frestað. Vantar samþykki meðeigenda.,"Sótt er um endurnýjun á byggingarleyfi frá 28.07.94 þar sem sótt var um leyfi til að byggja sólstofu við húsið á lóðinni nr. 29 við Stóragerði. Stærð: sólstofa 6,4 ferm., 17 rúmm. Gjald kr. 2.250.oo + 383.oo."
"11830 (01.01.804.401) Stóragerði 29,",http://gamli.rvk.is/vefur/owa/edutils.parse_page?nafn=BN011848,Suðurgata 22,Gistiheimili,Frestað. Vísað til athugasemda á umsóknareyðublaði.,Sótt er um leyfi til að innrétta gistiheimili í húsinu á lóðinni nr. 22 við Suðurgötu. Gjald kr. 2.250.oo.
"11848 (01.01.161.205) Suðurgata 22,",http://gamli.rvk.is/vefur/owa/edutils.parse_page?nafn=BN011845,Suðurhlíð 35,Nuddstofa,Frestað. Ófullnægjandi teikningar.,Sótt er um leyfi til að innrétta nuddstofu í kjallara hússins á lóðinni nr. 35 við Suðurhlíð. Gjald kr. 2.250.oo.
"11845 (01.01.788.101) Suðurhlíð 35,",http://gamli.rvk.is/vefur/owa/edutils.parse_page?nafn=BN011786,Suðurhús 13,Aukaíbúð í kjallara,Frestað. Vísað til skipulagsnefndar.,Sótt er um leyfi fyrir aukaíbúð í kjallara hússins á lóðinni nr. 13 við Suðurhús. Gjald kr. 2.250.oo.
"11786 (01.02.848.813) Suðurhús 13,",http://gamli.rvk.is/vefur/owa/edutils.parse_page?nafn=BN011898,Vagnhöfði 29,Stoðveggir,Samþykkt.,Sótt er um leyfi til að byggja stoðvegg úr steinsteypu við skemmu á lóðinni nr. 29 við Vagnhöfða. Gjald kr. 2.250.oo.
"11898 (01.04.063.204) Vagnhöfði 29,",http://gamli.rvk.is/vefur/owa/edutils.parse_page?nafn=BN011904,Byggingarstjóri,Byggingarstjóri,Samþykkt.,"Páll Magnússon, óskar eftir leyfi til að Þorvaldur Björnsson, kt:300553-5329 rafverktaki verði byggingarstjóri vegna nýbyggingar að Smárarima 42."
"11904 Byggingarstjóri,",http://gamli.rvk.is/vefur/owa/edutils.parse_page?nafn=BN011884,Byggingastjóri,Byggingastjóri,Samþykkt.,"Jón Kristjánsson f.h. Sund ehf sækir um leyfi fyrir Þorvald Björnsson, 300553-5329 rafverktaka til þess að vera byggingarstjóri á nýbyggingum við Jötnaborgir 1-3 og 5-7. Bréf dags. 02.05.1996 fylgir málinu."
"11884 Byggingastjóri,",http://gamli.rvk.is/vefur/owa/edutils.parse_page?nafn=BN011930,Dragh 14-16 fossh 13-15,Byggingarleyfi fellt úr gildi,Samþykkt.,Með vísan til 11. og 14. greina byggingarlaga nr.54/1978 er lagt til að byggingarleyfi sem veitt var á fundi þann 26.03.1996 verði fellt úr gildi.
"11930 (01.04.304.504) Dragh 14-16 fossh 13-15,",http://gamli.rvk.is/vefur/owa/edutils.parse_page?nafn=BN011899,Freyjugata 46,Trjáfelling.,Samþykkt.,"Auður Sveinsdóttir, landslagsarkitekt, sækir um leyfi f.h. Ólafs Jóhanns Ólafssonar til að fella nokkur tré á lóðinni nr. 46 við Freyjugötu sbr. bréf dags. 24.04.96. Umsögn garðyrkjustjóra dags. 03.05.96 fylgir erindinu."
"11899 (01.01.196.103) Freyjugata 46,",http://gamli.rvk.is/vefur/owa/edutils.parse_page?nafn=BN011887,Hvassaleiti 87-99,Trjáfelling,Samþykkt.,Sótt er um leyfi til að fella grenitré á lóðinni nr. 89 við Hvassaleiti. Umsögn garðyrkjustjóra dags. 30.04.96 fylgir erindinu.
"11887 (01.01.726.003) Hvassaleiti 87-99,",http://gamli.rvk.is/vefur/owa/edutils.parse_page?nafn=BN011900,Langholtsvegur 92,Trjáfelling,Samþykkt.,Sótt er um leyfi til að fella þrjár aspir á lóðinni nr. 92 við Langholtsveg sbr. ódagsett bréf umsækjanda. Umsögn garðyrkjustjóra dags. 3. maí 1996 fylgir erindinu.
"11900 (01.01.430.204) Langholtsvegur 92,",http://gamli.rvk.is/vefur/owa/edutils.parse_page?nafn=BN011901,Meistari/húsasmíðameistari,Meistari/húsasmíðameistari,Samþykkt.,Ofanritaður sækir um leyfi byggingarnefndar til að mega standa fyrir byggingum í lögsagnarumdæmi Reykjavíkur sem húsasmíðameistari.
"11901 Meistari/húsasmíðameistari,",http://gamli.rvk.is/vefur/owa/edutils.parse_page?nafn=BN011882,Meistari/múrarameistari,Meistari/múrarameistari,Samþykkt.,Ofanritaður sækir um leyfi byggingarnefndar til að mega standa fyrir byggingum í lögsagnarumdæmi Reykjavíkur sem múrarameistari.
"11882 Meistari/múrarameistari,",http://gamli.rvk.is/vefur/owa/edutils.parse_page?nafn=BN011883,Meistari/múrarameistari,Meistari/múrarameistari,Samþykkt.,Ofanritaður sækir um leyfi byggingarnefndar til að mega standa fyrir byggingum í lögsagnarumdæmi Reykjavíkur sem múrarameistari.
"11883 Meistari/múrarameistari,",http://gamli.rvk.is/vefur/owa/edutils.parse_page?nafn=BN011888,Reynimelur 36,Trjáfelling,Samþykkt.,"Sótt er um leyfi til að fella nokkur tré á lóðinni nr. 36 við Reynimel, sbr. bréf dags. 19.04.96. Umsögn garðyrkjustjóra dags. 30.04.96 fylgir erindinu."
"11888 (01.01.540.122) Reynimelur 36,",http://gamli.rvk.is/vefur/owa/edutils.parse_page?nafn=BN011889,Sogavegur 160,Trjáfelling,Samþykkt.,Sótt er um leyfi til að fella grenitré á lóðinni nr. 160 við Sogaveg sbr. bréf dags. 17.04.96. Umsögn garðyrkjustjóra dags. 30.04.96 fylgir erindinu.
"11889 (01.01.830.115) Sogavegur 160,",http://gamli.rvk.is/vefur/owa/edutils.parse_page?nafn=BN011902,Sævarland 2-20,Trjáfelling,Samþykkt.,Sótt er um leyfi til að fella grenitré á lóðinni nr. 14 við Sævarland sbr. bréf dags. 29.04.96. Umsögn garðyrkjustjóra dags. 3. maí 1996 fylgir erindinu.
