nr,url,heimilisfang,tegund,nidurstada,spurning
,http://gamli.rvk.is/vefur/owa/edutils.parse_page?nafn=BN018374,Ármúli 28,Br. inni og úti,Frestað. Vísað til athugasemda á umsóknarblaði.,"Sótt er um leyfi til þess að saga op í plötu milli 1. og 2. hæðar, stækka glugga á  götuhlið þannig að gluggaflötur verði frá 1. og að 3. hæð og breyta innra skipulagi á öllum þremur hæðum hússins á lóðinni nr. 28 við Ármúla. Gjald kr. 2.500 Umsögn Borgarskipulags dags. 15. febrúar 1999 fylgir erindinu."
,http://gamli.rvk.is/vefur/owa/edutils.parse_page?nafn=BN018442,Ármúli 30,br. innanhúss og útlitsbr.,Frestað. Vísað til athugasemda á umsóknarblaði.,Sótt er um leyfi til þess að breyta innra skipulagi á hluta 1. hæðar og útliti norðurglugga að eignarhluta Europay á lóðinni nr. 30 við Ármúla. Gjald kr. 2.500 Umsögn Borgarskipulags dags. 15. febrúar 1999 fylgir erindinu.
,http://gamli.rvk.is/vefur/owa/edutils.parse_page?nafn=BN018421,Bakkastaðir 75,Breytingar  á milliveggjum,Samþykkt. Samræmist ákvæðum laga nr. 73/1997. Frágangur á lóðamörkum verði gerður í samráði við lóðarhafa aðliggjandi lóða. Áskilin lokaúttekt byggingarfulltrúa.,"Sótt er um leyfi til að breyta léttum milliveggjum í steypta, þ.m.t. bílgeymslu í húsinu á lóðinni nr. 75 við Bakkastaði. Gjald kr. 2500"
,http://gamli.rvk.is/vefur/owa/edutils.parse_page?nafn=BN018370,Bankastræti 5 ,Byggja brunavarnarstiga við norður-hlið húss Íslandsbanka,Samþykkt. Samræmist ákvæðum laga nr. 73/1997. Áskilin lokaúttekt byggingarfulltrúa.,Sótt er um leyfi fyrir brunastiga við norðurhlið hússins á lóðinni nr. 5 við Bankastræti og að fá samþykkta eldvarnaruppdrætti. Gjald kr. 2.500 Greinagerð vegna eldvarnauppdrátta fylgir erindinu.
,http://gamli.rvk.is/vefur/owa/edutils.parse_page?nafn=BN018455,Barmahlíð 23,Áður gerð íbúð í kjallara,Frestað. Vísað til athugasemda á umsóknarblaði.,"Sótt er um samþykki fyrir áður gerðri íbúð í kjallara hússins á lóðinni nr. 23 við Barmahlíð. Gjald kr. 2.500 Ljósrit úr manntali frá 16. október 1952, samþykki meðeiganda dags. 15. febrúar 1999, íbúðaskoðun byggingarfulltrúa dags. 25. janúar 1999 og bréf hönnuðar dags. 16. febrúar 1999 og 3. mars 1999 fylgir erindinu."
,http://gamli.rvk.is/vefur/owa/edutils.parse_page?nafn=BN018423,Barónsstígur 3,Áður gert þvottahús,Frestað. Vísað til athugasemda á umsóknarblaði.,Sótt er um leyfi fyrir áður gerðri innréttingu þvottahúss sem hefur verið í rekstri síðastliðin 10 ár og breikkun hurðar á suðurhlið í húsinu á lóðinni nr. 3 við Barónsstíg. Gjald kr.2.500
,http://gamli.rvk.is/vefur/owa/edutils.parse_page?nafn=BN018433,Bergstaðastræti 53,"áður gerð íbúð, reyndart. v. eignask.",Frestað. Vísað til athugasemda á umsóknarblaði.,"Sótt er um samþykki fyrir áður gerðum kjallara og skiptingu íbúðar 1. hæðar í tvær íbúðir á lóðinni nr. 53 við Bergstaðastræti. Gjald kr. 2.500 Ljósrit af afsölum dags 17. apríl og 30. október 1947, hússkoðun Heilbrigðiseftirlits dags. 3. nóvember 1997, íbúðaskoðun byggingafulltrúa dags. 3. nóvember 1997 og samþykki meðeiganda dags. 20. desember 1998 fylgir erindinu."
,http://gamli.rvk.is/vefur/owa/edutils.parse_page?nafn=BN018299,Borgartún 21,Breytingar á atv.húsn. (Bn 17998),Samþykkt. Samræmist ákvæðum laga nr. 73/1997. Frágangur á lóðamörkum verði gerður í samráði við lóðarhafa aðliggjandi lóða. Áskilin lokaúttekt byggingarfulltrúa.,"Sótt er um leyfi til að breyta skrifstofu- og verslunarhúsnæði sem samþykkt var 5. janúar 1999 á lóðinni nr. 21 við Borgartún. Breytingarnar felast einkum í stækkun tengibyggingar og skriðkjallara undir hluta húss. Jafnframt er sótt um leyfi til að leiðrétta stærðir frá fyrri skráningu. Stærðir: Kjallari 767 ferm., 1. hæð 1931,1 ferm., 2. hæð 1972,6 ferm., 3. hæð 1751,4 ferm., 4. hæð 997,5 ferm., samtals 7574 ferm. og 28733,9 rúmm.  Gjald kr. 2.500 + 41.223 Umsagnir Borgarskipulags dags. 2. og 22. febrúar 1999 og útskrift úr gerðabók skipulags- og umferðarnefndar frá 22. febrúar 1999 fylgir erindinu."
,http://gamli.rvk.is/vefur/owa/edutils.parse_page?nafn=BN018329,Borgartún 24 ,klæðning stenex,Samþykkt. Samræmist ákvæðum laga nr. 73/1997.,Sótt er um leyfi til þess að klæða með sléttu Steni bakhús á lóðinni nr. 24 við Borgartún. Gjald kr 2.500  Ástandsskýrsla dags. 28. janúar 1999 fylgir erindinu.
,http://gamli.rvk.is/vefur/owa/edutils.parse_page?nafn=BN017451,Bólstaðarhlíð 12 ,Reyndarteikn. ,Samþykkt. Samræmist ákvæðum laga nr. 73/1997.,"Sótt er um samþykki fyrir núverandi fyrirkomulagi í húsinu vegna gerðar eignaskiptayfirlýsingar á lóðinni nr. 12 við Bólstaðarhlíð. Gjald kr 2.500 Erindið var kynnt fyrir meðeigendum, engar athugsemdir hafa borist. Mótmæli bárust með bréfi dags. 17. september 1998 móttekið 25. september 1998. Jafnframt lagt fram bréf hönnuðar dags. 5. október  1998. Erindinu var frestað og  vísað til byggingarfulltrúa á fundi borgarráðs þann 29. september 1998."
,http://gamli.rvk.is/vefur/owa/edutils.parse_page?nafn=BN018420,Brautarholt 2,breyting inni,Frestað. Á milli funda.,Sótt er leyfi fyrir áður gerðum breytingum á 3. og 4. hæð og skráningu hússins á lóðinni nr. 2 við Brautarholt. Gjald kr. 2.500
,http://gamli.rvk.is/vefur/owa/edutils.parse_page?nafn=BN018417,Breiðavík 87 ,Breytingar,Samþykkt. Samræmist ákvæðum laga nr. 73/1997. Frágangur á lóðamörkum verði gerður í samráði við lóðarhafa aðliggjandi lóða. Áskilin lokaúttekt byggingarfulltrúa.,Sótt er um leyfi til að breyta gluggum í eldhúsi og stofu í húsinu á lóðinni nr. 87 við Breiðuvík. Gjald kr. 2.500
,http://gamli.rvk.is/vefur/owa/edutils.parse_page?nafn=BN018450,Brekkuhús 1 ,Breyting úti,Samþykkt. Samræmist ákvæðum laga nr. 73/1997.,Sótt er um samþykki fyrir handriði á útipall á suðurhlið  1. hæðar á lóðinni nr. 1 við Brekkuhús. Gjald kr. 2.500
,http://gamli.rvk.is/vefur/owa/edutils.parse_page?nafn=BN018351,Brekkustígur 12 ,Baðh. kjallaraíbúðar o.fl.,Samþykkt. Samræmist ákvæðum laga nr. 73/1997. Athygli umsækjanda er vakin á því að brunavarnir í húsinu uppfylla ekki ákvæði núverandi byggingarreglugerðar.,Sótt er um samþykki fyrir áður gerðum breytingum í kjallara vegna gerðar eignaskiptayfirlýsingar á lóðinni nr. 12 við Brekkustíg. Gjald kr. 2.500
,http://gamli.rvk.is/vefur/owa/edutils.parse_page?nafn=BN018134,Bræðraborgarst 41 ,Br. bílskýli í bílskúr og lokun á gangi í kj.,Samþykkt. Samræmist ákvæðum laga nr. 73/1997.,"Sótt er um leyfi til að breyta bílskýli í lokaða bílgeymslu og að gera breytingar á innra fyrirkomulagi í matshluta 02 (kjallara) hússins á lóðinni nr. 39-41 við Bræðraborgarstíg. Ný bílgeymsla: 27,6 ferm., 68,2 rúmm. Gjald kr. 2.500 + 1.705 Samþykki f.h. eigenda mhl 01 dags. 18. febrúar 1999 fylgir erindinu."
,http://gamli.rvk.is/vefur/owa/edutils.parse_page?nafn=BN018427,Efstaland 2-24,Klæðning á  Efstalandi 8-10-12 gaflar,Samþykkt. Samræmist ákvæðum laga nr. 73/1997.,Sótt er um að klæða með formicaplötum  gafla á fjölbýlishúsinu á lóðinni nr. 8 - 12 við Efstaland. Gjald kr. 2.500  Samþykki meðeigenda og ástandsskýrsla dags. 16. febrúar 1999 fylgir erindinu.
,http://gamli.rvk.is/vefur/owa/edutils.parse_page?nafn=BN018408,Efstaland 26 ,Niðurbrot á veggjum,Samþykkt. Samræmist ákvæðum laga nr. 73/1997. Umsækjandi skal leggja fram umsókn vegna fyrirhugaðs fyrirkomulags á hæðinni.,Sótt er um leyfi til að brjóta niður burðarveggi í austurhluta  verslunarhúsnæðis á 1. hæð.í húsinu á lóðinni nr. 26 við Efstaland Gjald kr. 2500 Greinagerð hönnuðar dags. 9. febrúar 1999 fylgir erindinu.
,http://gamli.rvk.is/vefur/owa/edutils.parse_page?nafn=BN018457,Efstaleiti 1,"Br. á i.frkl., útliti og skipul. lóðar",Frestað. Vísað til athugasemda á umsóknarblaði.  Málinu vísað til umsagnar Borgarskipulags vegna bílastæða með Bústaðavegi.,Sótt er um leyfi til að breyta innra fyrirkomulagi og útliti Útvarpshússins á lóðinni nr. 1 við Efstaleiti. Jafnfram er sótt um breytt skipulag lóðarinnar. Stækkun: xx ferm. Gjald kr. 2.500 Erindinu fylgir greinargerð hönnuða dags. 17. febrúar 1999.
,http://gamli.rvk.is/vefur/owa/edutils.parse_page?nafn=BN018456,Engjavegur 6,Stakstætt  leiðbeiningaskiltikilti ,Frestað. Vísað til athugasemda á umsóknarblaði.,"Sótt er um leyfi til að koma fyrir stakstæðu upplýstu leiðbeiningaskilti á lóðinni nr. 6 við Engjaveg. Skiltið er 2,4 ferm., 220 cm hátt. Gjald kr. 2.500"
,http://gamli.rvk.is/vefur/owa/edutils.parse_page?nafn=BN018436,Eskihlíð 13,Sjálfstæð íbúð á þakhæð.,Frestað. Vísað til athugasemda á umsóknarblaði. Málinu vísað til umsagnar gatnamálastjóra vegna bílastæðis.,"Sótt er um leyfi til þess að skipta íbúð annarar og þakhæðar í tvær íbúðir, fyrir skúr við bílskúr og fyrir einu nýju bílastæði á lóðinni nr. 13 við Eskihlíð. Stærð: Skúr 6,2 ferm., 15,4 rúmm. Gjald kr. 2.500 + 385 Bréf húsasmíðameistara dags. 20. janúar 1999 fylgir erindinu."
,http://gamli.rvk.is/vefur/owa/edutils.parse_page?nafn=BN018418,Faxafen 8-14,Leiðrétt merking á hurðum,Frestað. Vísað til athugasemda á umsóknarblaði.,Sótt er um leyfi til leiðréttingar á bruna táknum hurða inn á skrifstofur í húsinu á lóðinni nr. 19 við Skeifuna Gjald kr. 2.500
,http://gamli.rvk.is/vefur/owa/edutils.parse_page?nafn=BN018378,Fellsmúli 2 - 12,skjólveggir,Samþykkt. Samræmist ákvæðum laga nr. 73/1997.,Sótt er um leyfi til þess að byggja skjólveggi á endasvalir á suðurhlið hússins á lóðinni nr. 2-12 við Fellsmúla. Gjald kr. 2.500 Bréf til staðfestingar á kynningu fyrir íbúum hússins dags. 21. janúar 1999 fylgir erindinu.
,http://gamli.rvk.is/vefur/owa/edutils.parse_page?nafn=BN018363,Flugvöllur Loftleiðir ,Núverandi frkl. v/ eignask.,Samþykkt. Samræmist ákvæðum laga nr. 73/1997.,Sótt er um leyfi til að breyta skráningu hótel- og skrifstofuhúsnæðis á Reykjavíkurflugvelli í samræmi við breytt eignarhald og reyndarteikningar. Jafnframt er sótt um leyfi til að skipta lóð í sér- og samnotahluta. Gjald kr. 2.500 Erindinu fylgir greinargerð hönnuðar dags. 16. febrúar 1999.
,http://gamli.rvk.is/vefur/owa/edutils.parse_page?nafn=BN018290,Flúðasel 74,Íbúð í kjallara,Frestað. Vantar samþykki meðlóðarhafa vegna bílastæða.,"Sótt er um samþykki fyrir áður gerðri íbúð í kjallara hússins nr. 74 á lóðinni nr. 60-76 við Flúðasel. Gjald kr. 2.500 Íbúðaskoðun byggingarfulltrúa dags.27. nóvember 1998, hússkoðun heilbrigðiseftirlits dags. 27. nóvember 1998, ljósrit af veðleyfi 27. júní 1978 og samþykki meðeiganda (á teikningu) fylgir erindinu."
,http://gamli.rvk.is/vefur/owa/edutils.parse_page?nafn=BN018435,Frakkastígur 13,Br. húsinu í tvær íbúðir ofl,Frestað. Vísað til athugasemda á umsóknarblaði.,"Sótt er um leyfi til þess að fjölga íbúðum í tvær, og stækka útipall á núverandi tröppum við norðurhlið hússins á lóðinni nr. 13 við Frakkastíg. Gjald kr. 2.500"
,http://gamli.rvk.is/vefur/owa/edutils.parse_page?nafn=BN018384,Frakkastígur 22,áður gerð íbúð,Frestað. Vísað til athugasemda á umsóknarblaði. Byggingarfulltrúi mun kynna málið fyrir meðeiganda.,Sótt er um samþykki fyrir áður gerðri íbúð í kjallara hússins á lóðinni nr. 22 við Frakkastíg. Gjald kr. 2.500 Ljósrit af afsali frá 12. ágúst 1960 og íbúðaskoðun byggingarfulltrúa dags. 30. september 1998 fylgir erindinu.
,http://gamli.rvk.is/vefur/owa/edutils.parse_page?nafn=BN018348,Frostafold 21 ,geymsluherbergi,Samþykkt. Samræmist ákvæðum laga nr. 73/1997.,"Sótt er um leyfi fyrir áður gerðu geymsluherbergi í norðvesturhorni fyrstu hæðar, sem var áður óútgrafið rými og klöpp í húsinu á lóðinni nr. 21 við Frostafold. Stærð: Geymsla 37,3 ferm., 93,25 rúmm. Gjald kr. 2.500 + 2.335"
,http://gamli.rvk.is/vefur/owa/edutils.parse_page?nafn=BN018218,Funahöfði 19,Breyting á viðbyggingu,Samþykkt. Samræmist ákvæðum laga nr. 73/1997. Frágangur á lóðamörkum verði gerður í samráði við lóðarhafa aðliggjandi lóða. Áskilin lokaúttekt byggingarfulltrúa.,"Sótt er um leyfi til þess að fjölga bílastæðum um eitt stæði, breyta burðarvirki viðbyggingar og útliti, jafnfamt er sótt um að byggja sameiginlegan eldvarnarvegg á lóðarmörkum Smiðshöfða 1 á lóðinni nr. 19 við Funahöfða. Gjald kr. 2.500 Samþykki lóðarhafa að Smiðshöfða 1 og Funahöfða 19 vegna sameiginlegs eldvarnaveggs dags. 5. janúar 1999 fylgir erindinu. Bréf Egils Guðmundssonar dags. 17. febrúar 1999 og samþykki Brunamálastofnunar dags. 9. febrúar 1999 fylgir erindinu."
,http://gamli.rvk.is/vefur/owa/edutils.parse_page?nafn=BN018296,Garðastræti 17 ,Breytingar á 3. hæð,Samþykkt. Samræmist ákvæðum laga nr. 73/1997.,Sótt er um leyfi til þess að færa eldhús og saga 2m dyraop í burðarvegg í vestari íbúð á 3. hæð í húsinu á lóðinni nr. 17 við Garðastræti. Gjald kr. 2.500 Útreikningar burðavirkishönnuðar dags. 8. desember 1998 og samþykki meðeiganda dags. 3. febrúar 1999 fylgir erindinu.
,http://gamli.rvk.is/vefur/owa/edutils.parse_page?nafn=BN018461,Garðsstaðir 60,Breytingar inni,Samþykkt. Samræmist ákvæðum laga nr. 73/1997.,Sótt er um leyfi til að steypa súlu á milli svefnálmu og stofu í húsinu á lóðinni nr. 60 við Garðstaði. Gjald kr. 2.500
,http://gamli.rvk.is/vefur/owa/edutils.parse_page?nafn=BN018272,Grandagarður 8,"Br innr.,útliti, notkun og afm. notaein.",Frestað. Vísað til athugasemda á umsóknarblaði. Vantar samþykki Reykjavíkurhafnar.,"Sótt er um leyfi fyrir áður gerðum breytingum á húsinu á lóðinni nr. 8 við Grandagarð. Jafnframt verði heimilaðar breytingar á útliti hússins, innra fyrirkomulagi og skráningu. Með erindinu er fyrirspurn nr. 17917 dregin til baka. Gjald kr. 2.500 Erindinu fylgir bréf umsækjanda dags. 4. október 1998, umsögn Borgarskipulags dags. 20. nóvember 1998, bréf umsækjanda dags. 20. janúar 1999."
,http://gamli.rvk.is/vefur/owa/edutils.parse_page?nafn=BN018415,Grenimelur 35,Áður gerð íbúð í kjallara,Frestað. Vísað til athugasemda á umsóknarblaði.,Sótt er um samþykki fyrir áður gerðri íbúð í kjallara og endurnýjun á byggingarleyfi fyrir svalir á 1. og 2. hæð hússins á lóðinni nr. 35 við Grenimel. Gjald kr. 2.500 Virðingargjörð dags. 12. júlí 1945 og ljósrit af samþykkt meðeiganda vegna stækkunar svala dags. 3. febrúar 1997 fylgir erindinu.
,http://gamli.rvk.is/vefur/owa/edutils.parse_page?nafn=BN018443,Gylfaflöt 9,skipta húsi í eignahluta.,Frestað. Vísað til athugasemda á umsóknarblaði.,Sótt er um leyfi til eignahlutaskiptingar og breytinga á innra skipulagi á húsinu á lóðinni nr. 9 við Gylfaflöt. Gjald kr. 2.500
,http://gamli.rvk.is/vefur/owa/edutils.parse_page?nafn=BN018314,Hafnarstræti 17 ,opn. milli veitinga og samk. á 1 hæð og kj.,Var samþykkt 11. febrúar 1999. Áskilin lokaúttekt byggingarfulltrúa. Áskilið samþykki heilbrigðiseftirlits.,Sótt er um leyfi til þess að sameina tvo eignarhluta þannig að veitingastaður verði á allri 1. hæðinni og í kjallara hússins á lóðinni nr. 17 við Hafnarstræti.  Gjald kr. 2.500 Umboð umsækjanda dags. 8. febrúar 1999 fylgir erindi.
,http://gamli.rvk.is/vefur/owa/edutils.parse_page?nafn=BN018369,Hamarshöfði 4,Viðbygging úr steinst. á 1 hæð,Frestað. Vísað til athugasemda á umsóknarblaði.,"Sótt er um leyfi til að byggja við húsið á lóðinni nr. 4 við Hamarshöfða til austurs. Viðbyggingin er atvinnuhúsnæði úr steinsteypu á einni hæð. Jafnframt er sótt um leyfi til að breyta opnu skýli á lóð í sýningarsal. Stækkun: 263, 2 ferm., 1359,8 rúmm. Gjald kr. 2.500 + 33.995"
,http://gamli.rvk.is/vefur/owa/edutils.parse_page?nafn=BN017982,Hjarðarhagi 24-32,vegna eignaskipta,Samþykkt. Samræmist ákvæðum laga nr. 73/1997.,Sótt er um leyfi fyrir áður gerðum breytingum og skráningu húsanna nr. 24 - 32 á lóðinni nr. 24-32 við Hjarðarhaga. Gjald kr. 2.500
,http://gamli.rvk.is/vefur/owa/edutils.parse_page?nafn=BN018409,Hraunbær 36-60,"Áðurgerð steniklæðning á austur- og suðurhlið
klæðningu á vesturhlið, niðurrif svala ofl vegna Hraunbær 60",Frestað. Vantar samþykki meðlóðarhafa.,"Sótt er um leyfi fyrir áður gerðri Steniklæðningu á austur- og suðurhlið og sambærilega  klæðningu á vesturhlið, ásamt niðurrifi á svölum og uppsteypu á nýjum svalagólfum, léttum handriðum klæddum með Steni á húsinu nr. 60 á lóðinni nr. 36-60 við Hraunbæ. Gjald kr. 2.500"
,http://gamli.rvk.is/vefur/owa/edutils.parse_page?nafn=BN018258,Hraunbær 36-60,Raunt. kjallari vegna nr.60,Frestað. Leiðrétta skráningartöflu.,"Sótt er um leyfi fyrir áorðinni breytingu á eignarhaldi herbergis nr. 1 í kjallara hússins nr. 60 á lóðinni nr. 36-60 við Hraunbæ. Gjald kr. 2.500 Erindinu fylgir afsal dags. 31. október 1991, bréf hönnuðar dags. 17. febrúar 1999."
,http://gamli.rvk.is/vefur/owa/edutils.parse_page?nafn=BN018452,Hulduborgir 1-5,Breyting úti,Samþykkt. Samræmist ákvæðum laga nr. 73/1997. Frágangur á lóðamörkum verði gerður í samráði við lóðarhafa aðliggjandi lóða. Áskilin lokaúttekt byggingarfulltrúa.,Sótt er um samþykki fyrir leiðréttum teikningum af stigahúsi til samræmis við sérteikningar á lóðinni nr. 1-5 við Hulduborgir. Gjald kr. 2.500
,http://gamli.rvk.is/vefur/owa/edutils.parse_page?nafn=BN018371,Írabakki 6 ,Br. aðst. húsv.á 1. h í nr. 6 í íbúð,Samþykkt. Samræmist ákvæðum laga nr. 73/1997.,Sótt er um leyfi til þess að breyta aðstöðu húsvarðar á 1. hæð í húsi nr. 6 í íbúð og fjölga um eitt bílastæði á lóðinni nr. 2-16 við Írabakka. Gjald kr. 2.500 Bréf hönnuðar dags. 2. febrúar 1999 fylgir erindinu.
,http://gamli.rvk.is/vefur/owa/edutils.parse_page?nafn=BN016732,Kambsvegur 17 ,V/eignaskipta,Samþykkt. Samræmist ákvæðum laga nr. 73/1997.,Sótt er um leyfi fyrir smávægilegum breytingum  á innra fyrirkomulagi og skráningu vegna eignaskipta í húsinu á lóðinni nr. 17 við Kambsveg. Gjald kr. 2.500
,http://gamli.rvk.is/vefur/owa/edutils.parse_page?nafn=BN018256,Karfavogur 13,Áður gerður bílskúr,Samþykkt. Samræmist ákvæðum laga nr. 73/1997.,"Sótt er um samþykki fyrir áður gerðum steinsteyptum bílskúr á lóðinni nr. 13 við Karfavog. Stærð: Bílskúr 29,1 ferm., 77,2 rúmm. Gjald kr. 2.500 + 1.933"
,http://gamli.rvk.is/vefur/owa/edutils.parse_page?nafn=BN018426,Kárastígur 1,reyndart. vegna eignask.,Frestað. Vísað til athugasemda á umsóknarblaði.,Sótt er um samþykki fyrir íbúð á 1. og 3. hæð ásamt núverandi fyrirkomulagi í húsinu á lóðinni nr. 1 við Kárastíg. Gjald kr. 2.500
,http://gamli.rvk.is/vefur/owa/edutils.parse_page?nafn=BN018463,Kirkjutorg 4, Breyting á innra skipulagi,Frestað. Gera skal grein fyrir fyrirkomulagi í öllu húsinu.,Sótt er um leyfi fyrir skrifstofu og til breytinga á innra skipulagi í húsinu á lóðinni nr. 4 við Kirkjutorg. Gjald kr.2.500
,http://gamli.rvk.is/vefur/owa/edutils.parse_page?nafn=BN018460,Kjalarvogur 5,Br. á i.frkl. jarð- og 1. hæðar og hurðum á austurhl.,Frestað. Vísað til athugasemda á umsóknarblaði.,Sótt er um leyfi til að breyta innra fyrirkomulagi á jarðhæð og 1. hæð og setja nýjar innkeyrsludyr á jarðhæð austurhliðar í húsinu á lóðinni nr. 5 við Kjalarvog. Gjald kr. 2.500 Erindinu fylgir minnisblað hönnuða ódags.
,http://gamli.rvk.is/vefur/owa/edutils.parse_page?nafn=BN018268,Klapparstígur 1-7,Sameining íbúða á 5. hæð (nr 3),Frestað. Vísað til fyrri athugasemda.,Sótt er um leyfi til að sameina íbúðir nr. 0501 og 0502 á fimmtu og sjöttu hæð í vesturenda húss nr. 3 á lóðinni nr. 1-7 við Klapparstíg. Jafnframt eru svalir á fimmtu hæð sýndar í þeirri mynd sem þær voru byggðar. Stækkun: xx Gjald kr. 2.500 + xx Erindinu fylgir samþykki húsfélagsins dags. 15. febrúar 1999.
,http://gamli.rvk.is/vefur/owa/edutils.parse_page?nafn=BN018395,Kleppsvegur 26-32,Reyndart. kj. á nr. 30-32,Frestað. Vísað til athugasemda á umsóknarblaði.,Sótt er um samþykki fyrir núverandi fyrirkomulagi í kjallara hússins nr. 30-32 á lóðinni nr. 26-32 við Kleppsveg. Gjald kr. 2.500
,http://gamli.rvk.is/vefur/owa/edutils.parse_page?nafn=BN018444,Kögursel 31,Kvistur og innrétt unglingaherb.,Frestað. Vísað til athugasemda á umsóknarblaði. Vísað til umsagnar Borgarskipulags.,Sótt er um að setja kvist og innrétta unglingaherbergi á efri hæð bílskúrs að vestan sem nú er skráð sem geymsla. Gjald kr. 2.500 Samþykki meðeigenda og nágranna fylgir erindinu.
,http://gamli.rvk.is/vefur/owa/edutils.parse_page?nafn=BN018113,Kötlufell 1-11,Klæðning og lokun svala,Frestað. Gera skal grein fyrir samþykki meðeigenda.,"Sótt er um leyfi til að einangra og klæða húsin á lóðinni nr. 1-11 við Kötlufell að utan með 2 mm þykkri álklæðningu. Jafnframt er sótt um leyfi til að koma fyrir svalaskýlum á öllum svölum, breyta brunavörnum og endurnýja opnanlega gluggaramma í húsunum. Stækkun: 330,6 ferm., 892,6 rúmm. Gjald kr. 2.500 + 22.315 Erindinu fylgir greinargerð hönnuðar vegna eldvarna og skoðunarskýrsla sama, dags. 28. nóvember 1998, undirskriftir til staðfestingar á boðun og samþykkt húsfundar hinn 19. nóvember 1998 ásamt yfirlýsing formanns húsfélags dags. 14. desember 1998. Lagt fram bréf borgarstjórar dags. 18. febrúar vegna frestunar á afgreiðslu málsins í borgarstjórn."
,http://gamli.rvk.is/vefur/owa/edutils.parse_page?nafn=BN018425,Langholtsvegur 109-111,Reyndarteikn. og fjölgun eignahluta,Frestað. Vísað til athugasemda á umsóknarblaði.,Sótt er um leyfi fyrir skráningu hússins á lóðinni nr. 109-111 við Langholtsveg í samræmi við reyndarteikningar. Gjald kr. 2.500
,http://gamli.rvk.is/vefur/owa/edutils.parse_page?nafn=BN018445,Langholtsvegur 37,Stækkun kjallara og bílgeimslu.,Frestað. Vísað til athugasemda á umsóknarblaði.,"Sótt er um samþykki fyrir áður gerðum framkvæmdum á lóðinni nr. 37 við Langholtsveg. Stærð: 34 ferm., 21,9 ferm.,136 rúmm   Gjald kr.  2.500 + 1.367"
,http://gamli.rvk.is/vefur/owa/edutils.parse_page?nafn=BN018405,Laugavegur 13,Breyting inni,Frestað. Vísað til athugasemda á umsóknarblaði.,"Sótt er um leyfi til að breyta skipulagi, fjarlægja stiga og loka stigaopum á 2. og 3. hæð, ásamt uppsetningu á fellistiga á norðurhlið hússins á lóðinni nr. 13  við Laugaveg. Gjald kr. 2500"
,http://gamli.rvk.is/vefur/owa/edutils.parse_page?nafn=BN018221,Laugavegur 63 ,Reyndarteikningar vegna nr. 63,Samþykkt. Samræmist ákvæðum laga nr. 73/1997.,"Sótt er um leyfi fyrir núverandi fyrirkomulagi og skráningu eigna í húsinu nr. 63, matshluta 02 á lóðinni nr. 61-63 við Laugaveg. Gjald kr. 2.500"
,http://gamli.rvk.is/vefur/owa/edutils.parse_page?nafn=BN018253,Leifsgata 15,"Bílskúr, áður gerð stækkun",Frestað. Byggingarfulltrúi mun kynna erindið fyrir eiganda 1. hæðar.,"Sótt er um samþykki fyrir áður gerðri stækkun á bílgeymslu úr holsteini til vesturs á lóðinni nr. 15 við Leifsgötu. Stærð: Stækkun bílgeymslu 11,7 ferm., 27 rúmm. Gjald kr. 2.500 + 675 Samþykki meðeigenda dags. 12. febrúar 1999 fylgir erindinu."
,http://gamli.rvk.is/vefur/owa/edutils.parse_page?nafn=BN018451,Lindargata 42,Reyndarteikning,Frestað. Vísað til athugasemda á umsóknarblaði.,Sótt er um samþykki fyrir áður gerðum íbúðum og áður gerðri stækkun og breyttum útitröppum á suðvesturhlið hússins á lóðinni nr. 42 við Lindargötu. Stærð: Viðbygging xxx Gjald kr. 2.500 + xxx Bréf hönnuðar dags. 16. febrúar 1999 fylgir erindinu.
,http://gamli.rvk.is/vefur/owa/edutils.parse_page?nafn=BN018343,Lyngháls 10,Beyting inni,Samþykkt. Samræmist ákvæðum laga nr. 73/1997.,"Sótt er um leyfi til þess að fjarlægja hringstiga milli 1. og 2. hæðar, fjarlægja stiga frá 3. hæð upp á þakhæð, fjölga eignum og bæta eldvarnir í húsinu á lóðinni nr. 10 við Lyngháls. Gjald kr. 2.500 Bréf hönnuðar dags. 31. janúar og 15. febrúar 1999 fylgir erindinu."
,http://gamli.rvk.is/vefur/owa/edutils.parse_page?nafn=BN018440,Lyngháls 2,Gluggabr.o.fl.,Frestað. Vísað til athugasemda á umsóknarblaði.,Sótt er um leyfi til þess að breyta útliti norðurhliðar og  burðarveggjum til samræmis við sérteikningar af húsinu á lóðinni nr. 2 við Lyngháls. Gjald kr. 2.500
,http://gamli.rvk.is/vefur/owa/edutils.parse_page?nafn=BN018453,Lækjargata 2,Nýr skyndibitastaður,Frestað. Vísað til athugasemda á umsóknarblaði.,Sótt er um breytingu á innra skipulagi 1. hæðar vegna nýs skyndibitastaðar í húsinu nr. 2  við Lækjargötu. Gjald kr. 2500 Greinagerð hönnuðar dags. 11. febrúar 1999 fylgir erindinu.
,http://gamli.rvk.is/vefur/owa/edutils.parse_page?nafn=BN018349,Mávahlíð 20,Núv. frkl. og áður gerð íbúð á þakhæð,Synjað. Samræmist ekki ákvæðum byggingarreglugerðar.,"Sótt er um leyfi fyrir núverandi fyrirkomulagi í húsinu á lóðinni nr. 20 við Mávahlíð. Jafnframt er óskað samþykkis á áður gerðri íbúð á þakhæð hússins. Gjald kr. 2.500 Bréf hönnuðar dags. 15. febrúar 1999, skoðunarskýrsla byggingarfulltrúa dags. 1. febrúar 1999 fylgir erindinu."
,http://gamli.rvk.is/vefur/owa/edutils.parse_page?nafn=BN018167,Miklabraut 54 ,"áður gerð íbúð og br, v/ eignask",Samþykkt. Samræmist ákvæðum laga nr. 73/1997.,"Sótt er um samþykki fyrir áður gerðri íbúð í kjallara hússins á lóðinni nr. 54 við Miklubraut. Gjald kr. 2.500 Ljósrit af skattframtali 1979, staðfesting skattstjóra dags. 29. janúar 1999, íbúðaskoðun byggingarfulltrúa dags. 23. nóvember 1998,  hússkoðun heilbrigðiseftirlits dags. 19. nóvember 1998 og samþykki meðeiganda (á teikningu) fylgir erindinu."
,http://gamli.rvk.is/vefur/owa/edutils.parse_page?nafn=BN018447,Mosarimi 33-41,Br. innra skip. og dyr út í garð á nr. 33,Frestað. Vísað til athugasemda á umsóknarblaði.,Sótt er um leyfi til þess að breyta innra skipulagi og setja dyr út í garð á húsinu nr. 33 á lóðinni nr. 33-41 við Mosarima. Gjald kr. 2.500 Samþykki meðeiganda dags. 16. febrúar 1999 og bréf hönnuðar ódagsett  fylgir erindinu.
,http://gamli.rvk.is/vefur/owa/edutils.parse_page?nafn=BN018470,Mururimi 2,Breytingar,Frestað. Vísað til athugasemda á umsóknarblaði.,"Sótt er um leyfi til að breyta innra skipulagi lítillega, fjarlægja léttan skjólvegg og hækkun á gólfkóta í leikskólanum á lóðinni nr. 2 við Mururima. Gjald kr. 2.500"
,http://gamli.rvk.is/vefur/owa/edutils.parse_page?nafn=BN018466,Njálsgata 76,br. á teikn. v/eignaskipta,Frestað. Vísað til athugasemda á umsóknarblaði.,Sótt er um samþykki fyrir áður gerðum breytingum í kjallara vegna gerðar eignaskiptayfirlýsingar á lóðinni nr. 76 við Njálsgötu. Gjald kr. 2.500
,http://gamli.rvk.is/vefur/owa/edutils.parse_page?nafn=BN018381,Nökkvavogur 19,áður gerð íbúð í kjallara ofl,Frestað. Vísað til athugasemda á umsóknarblaði.,"Sótt er um leyfi fyrir áður gerðri íbúð í kjallara, færslu á intökum fyrir heitt og kalt vatn og viðbyggingu við garðskála á lóðinni nr. 19 við Nökkvavog. Stækkun: 30,9 ferm., 78,4 rúmm. Gjald kr. 2.500 + 1.960 Erindinu fylgir bréf hönnuðar dags. 27. janúar 1999, skoðunarskýrsla byggingarfulltrúa dags. 15. júlí 1997, hjónavígsluvottorð dags. 16. febrúar 1999 og 8. janúar 1998 ásamt gögnum frá fyrirspurn nr. 17805."
,http://gamli.rvk.is/vefur/owa/edutils.parse_page?nafn=BN018416,Rauðarárstígur 33,áður gerð fatahreinsun,Frestað. Vísað til athugasemda á umsóknarblaði.,Sótt er um samþykki fyrir áður gerðri innréttingu á húsnæði fyrir  fatahreinsun á 1. hæð hússins á lóðinni nr. 33 við Rauðarárstíg. Gjald kr. 2.500
,http://gamli.rvk.is/vefur/owa/edutils.parse_page?nafn=BN018055,Sigluvogur 12,Reyndarteikning ,Frestað. Vísað til fyrri athugasemda á umsóknarblaði.,"Sótt er um samþykki fyrir áður gerðri viðbyggingu við kjallara og fyrir stækkun á kjallaraíbúð í húsinu á lóðinni nr. 12 við Sigluvog. Stærð: Viðbygging 9,2 ferm., 10,5 rúmm. Gjald kr. 2.500 + 263"
,http://gamli.rvk.is/vefur/owa/edutils.parse_page?nafn=BN017968,Skaftahlíð 12-22,Br skráningu mhl 03 og 06,Frestað. Vísað til fyrri athugasemda að hluta.,Sótt er um leyfi til að breyta innra fyrirkomulagi og skráningu fyrstu hæðar (kjallari)  húsanna  á lóðinni nr. 12-22 við Skaftahlíð. Gjald kr. 2.500
,http://gamli.rvk.is/vefur/owa/edutils.parse_page?nafn=BN018468,Skaftahlíð 24 ,Breyting inni og úti,Samþykkt. Samræmist ákvæðum laga nr. 73/1997.,"Sótt er um samþykki fyrir áður gerðum breytingum á útliti og innra skipulagi í kjallara, á 1. og 4. hæð húss Nýherja á lóðinni nr. 24 við Skaftahlíð. Gjald kr. 2.500"
,http://gamli.rvk.is/vefur/owa/edutils.parse_page?nafn=BN018465,Skipasund 14 ,Breytingar úti,Samþykkt. Samræmist ákvæðum laga nr. 73/1997.,Sótt er um samþykki fyrir áður gerðri hækkun bílskúrs og hringstiga frá verönd niður í garð á lóðinni nr. 14 við Skipasund. Stærð: Rúmmálsaukning 43 rúmm. Gjald kr. 2.500 + 1.075
,http://gamli.rvk.is/vefur/owa/edutils.parse_page?nafn=BN018350,Skipholt 19,Uppmæling geymsluskúrs,Frestað. Málinu vísað til umsagnar Borgarskipulags.,"Sótt er um samþykki fyrir áður gerðri stækkun á geymsluskúr á baklóð lóðarinnar nr. 19 við Skipholt. Stærð: Stækkun 46,4 ferm., 151,7 rúmm. Gjald kr. 2.500 + 3.793"
,http://gamli.rvk.is/vefur/owa/edutils.parse_page?nafn=BN017692,Skúlagata 42-46,Br. á 8. hæð Skúlag.44,Samþykkt. Samræmist ákvæðum laga nr. 73/1997. Frágangur á lóðamörkum verði gerður í samráði við lóðarhafa aðliggjandi lóða. Áskilin lokaúttekt byggingarfulltrúa.,"Sótt er um leyfi til þess að breyta lítilega inngangi frá yfirbyggðum bílastæðum í hús nr. 44, breyta gluggum á 2.-4. hæð húss nr. 44, breyta þakgluggum og lyftuhúsum húsa nr. 42 og 46, breyta svalahandriðum og útliti á svalagöngum og stækka íbúðir á 8. hæð upp á 9. hæð, í rými sem áður var fylgirými, með tilheyrandi útlitsbreytingum hússins nr. 44 á lóðinni nr. 42-46 við Skúlagötu. Jafnframt eru leiðréttar stærðir húsanna. Stærð: Hús nr. 42 var bókað 7684 rúmm., en á að vera 4495,7 rúmm. Hús nr. 44 á að vera: kjallari 204 ferm., 1.- 7. hæð 259,6 ferm., 8. hæð 229,2 ferm., 9. hæð 99,7 ferm., samtals var bókað 2301,5 ferm., 6722 rúmm., en á að vera 2350,2 ferm., 6709,5 rúmm. Hús nr. 46 á að vera kjallari 265,7 ferm., 1.- 5. hæð 269 ferm., 6. hæð 231,1 ferm., samtals var bókað 1900,1 ferm., 5503,6 rúmm., en á að vera 1841,8 ferm., 5385 rúmm. Gjald kr. 2.500 Umsögn Rb dags. 15. febrúar 1999 fylgir erindinu."
,http://gamli.rvk.is/vefur/owa/edutils.parse_page?nafn=BN018464,Skútuvogur 13,Reyndarteikningar,Frestað. Vísað til athugasemda á umsóknarblaði.,"Sótt er um samþykki fyrir áður gerðri viðbyggingu og breytingu á innra skipulagi ásamt endurbótum á eldvörnum í eignarhluta Þyrpingar í vestara húsinu á lóðinni nr. 13 við Skútuvog. Stærð: Viðbygging 1. hæð 34,5 ferm., 92,4 rúmm. Gjald kr. 2.500 + 2.310"
,http://gamli.rvk.is/vefur/owa/edutils.parse_page?nafn=BN018390,Smiðjustígur 6 / Hverfisgata 26-28,Breyting inni,Var samþykkt 16. febrúar 1999. Áskilin lokaúttekt byggingarfulltrúa. Áskilið samþykki heilbrigðiseftirlits.,Sótt er um leyfi til þess að breyta innra skipulagi vegna breytts reksturs þannig að eldhús minnkar og borðum fyrir gesti fjölgar í veitingahúsinu á lóðinni nr. 6 við Smiðjustíg. Gjald kr. 2.500
,http://gamli.rvk.is/vefur/owa/edutils.parse_page?nafn=BN018431,Sólheimar 23,"Bílageymslur, viðbygging",Frestað. Vantar samþykki meðlóðarhafa.,"Sótt er um leyfi til að byggja tvær bílgeymslur á lóðinni nr. 23 við Sólheima. Stærð: 24,6 ferm., 23,9 ferm., 65,1 rúmm., 65 rúmm. Gjald kr. 2.500 + 3.252  Erindi gatnamálastjóra 2. nóvember 1998 og samþykki nágranna dags. 11. febrúar 1999 fylgir erindinu."
,http://gamli.rvk.is/vefur/owa/edutils.parse_page?nafn=BN018053,Sólvallagata 27,v.eignaskipta,Frestað. Vísað til athugasemda á umsóknarblaði.,Sótt er um samþykki fyrir skiptingu á geymslu í séreignargeymslur í húsinu á lóðinni nr. 27 við Sólvallagötu. Gjald kr. 2.500
,http://gamli.rvk.is/vefur/owa/edutils.parse_page?nafn=BN018168,Stangarhylur 7 ,Innra skip.v. endurhæf. 1. h,Samþykkt. Samræmist ákvæðum laga nr. 73/1997. Áskilin lokaúttekt byggingarfulltrúa. Áskilið samþykki heilbrigðiseftirlits. Áskilið samþykki Vinnueftirlits ríkisins.,Sótt er um breytingar á innra skipulagi fyrir endurhæfingarstöð á 1. hæð í norðurálmu hússins á lóðinni nr. 7 við Stangarhyl. Gjald kr. 2.500 Samþykki eiganda (á teikningu) fylgir erindinu.
,http://gamli.rvk.is/vefur/owa/edutils.parse_page?nafn=BN018397,Stararimi 61 ,br. inni,Samþykkt. Samræmist ákvæðum laga nr. 73/1997. Helga Guðmundsdóttir vék af fundi við afgreiðslu málsins.,Sótt er um leyfi til þess að breyta innra skipulagi í einbýlishúsinu á lóðinni nr. 61 við Stararima. Gjald kr. 2.500
,http://gamli.rvk.is/vefur/owa/edutils.parse_page?nafn=BN017443,Stórhöfði 15,"br. á lóð, anddyri, innrétt. stigum",Frestað. Vísað til athugasemda á umsóknarblaði.,"Sótt er um leyfi til að breyta skipulagi lóðar austan húss, fella niður stiga og vörulyftu milli 1. og 2. hæðar, fella niður göngudyr á austurhlið 2. hæðar og að breyta aðkomu og anddyri skrifstofuhúsnæðis á 3. hæð að vestanverðu við húsið nr. 15 við Stórhöfða. Jafnframt er sótt um áður gerðar breytingar á innra fyrirkomulagi á 3. hæð, 4. hæð og 5. hæð. Gjald kr. 2.500"
,http://gamli.rvk.is/vefur/owa/edutils.parse_page?nafn=BN018124,Suðurgata Háskóli Ísl  ,"Nýji Garður, br. notkun og innra frkl",Samþykkt. Samræmist ákvæðum laga nr. 73/1997. Áskilin lokaúttekt byggingarfulltrúa.,Sótt er um leyfi til að breyta notkun og innra fyrirkomulagi í Nýja Garði á lóð Háskóla Íslands við Suðurgötu. Í megindráttum verður húsið innréttað fyrir skrifstofur og sett upp lyfta. Gjald kr. 2.500
,http://gamli.rvk.is/vefur/owa/edutils.parse_page?nafn=BN017665,Suðurhlíð 35 ,Br.  á útliti og  i.frkl. mhl 04,Samþykkt. Samræmist ákvæðum laga nr. 73/1997.,Sótt er um leyfi fyrir áður gerðum breytingum á útliti og innra fyrirkomulagi á matshluta 04 á lóðinni nr. 35 við Suðurhlíð.  Gjald kr. 2.500
,http://gamli.rvk.is/vefur/owa/edutils.parse_page?nafn=BN018342,Vagnhöfði 19,Reyndarteikningar,Frestað. Vísað til athugasemda á umsóknarblaði. Helga Guðmundsdóttir vék af fundi við afgreiðslu málsins.,"Sótt er um leyfi fyrir ýmsum áður gerðum breytingum í austurhluta hússins á lóðinni nr. 19 við Vagnhöfða. Meðal breytinga eru nýjar útidyr og milligólf. Stækkun: 156,6 ferm. Gjald kr. 2.500"
,http://gamli.rvk.is/vefur/owa/edutils.parse_page?nafn=BN018454,Vesturlandsv. Landss. ,Br. á i.frkl mhl 05 og 08,Samþykkt. Samræmist ákvæðum laga nr. 73/1997.,Sótt er um leyfi til þess að breyta innra fyrirkomulagi á 1. hæð í mhl 05 og á 1. og 2. hæð í mhl 08 á lóð Landssímans hf við Vesturlandsveg. Gjald kr. 2.500
,http://gamli.rvk.is/vefur/owa/edutils.parse_page?nafn=BN018446,Vífilsgata 22,Áður gerð íbúð ofl.,Frestað. Vísað til athugasemda á umsóknarblaði.,Sótt er um leyfi fyrir áður gerðri íbúð í kjallara og breytingu á innra skipulagi á 1. og 2. hæð hússins á lóðinni nr. 22 við Vífilsgötu. Gjald kr. 2.500 Ljósrit af virðingargjörð dags. 1. febrúar 1941 fylgir erindinu.
,http://gamli.rvk.is/vefur/owa/edutils.parse_page?nafn=BN018469,Vættaborgir 11,breytingar,Frestað. Vísað til athugasemda á umsóknarblaði.,Sótt er um leyfi til að breyta gluggum á öllum hliðum og breyta eldhúsi í leikskólanum á lóðinni nr. 11 við Vættarborgir. Gjald kr. 2.500
,http://gamli.rvk.is/vefur/owa/edutils.parse_page?nafn=BN018439,Æsuborgir 9 - 11,Nýting á óuppfylltu rými.,Samþykkt. Samræmist ákvæðum laga nr. 73/1997.,"Sótt er um leyfi til að nýta óuppfyllt rými neðri hæðar í húsinu nr. 9 - 11 við  Æsuborgir. Stærð: Hús nr. 9, 44,8 ferm, hús nr. 11, 44,8 ferm., samtals 224 rúmm. Gjald kr. 2500 + 5600"
,http://gamli.rvk.is/vefur/owa/edutils.parse_page?nafn=BN018478,Breiðhöfði 3 ,Leiðrétting á stærð,Samþykkt.,"Á fundi byggingarnefndar þann 11. febrúar s.l., var lögð fram umsókn B.M. Vallá ehf., þar sem sótt var um leyfi til þess að byggja einnar hæðar sýningar- og skrifstofuhús úr forsteyptum einingum á lóðinni nr. 3 við Breiðhöfða. Rúmmál var bókað 714,2 rúmm., en á að vera 741,2 rúmm."
,http://gamli.rvk.is/vefur/owa/edutils.parse_page?nafn=BN018424,Langholtsvegur 184 ,Fella tré,Samþykkt. Með vísan til umsagnar garðyrkjustjóra.,Sótt er um leyfi til þess að fella tré á lóðinni nr. 184 við Langholtsveg. Umsögn garðyrkjustjóra dags. 11. febrúar  1999 fylgir erindinu.
,http://gamli.rvk.is/vefur/owa/edutils.parse_page?nafn=BN018462,Lindargata 42A,uppdr. v/ eignaskipta,Jákvætt. Að uppfylltum skilyrðum. Afla skal samþykkis nágranna vegna klæðningar sem fer yfir lóðarmörk.,"Spurt er hvort samþykkur yrði áður gerður kjallari, tröppur og viðbygging á norðurhlið og klæðning hússins á lóðinni nr. 42A við Lindargötu."
,http://gamli.rvk.is/vefur/owa/edutils.parse_page?nafn=BN018355,Reykás Vatnsveita Reykjavíkur,Tækjaskýli og loftnetssúla,Jákvætt. Að uppfylltum skilyrðum til reynslu. Fulltrúi umsækjanda hafi samband við embættið.,"Spurt er hvort leyft yrði að setja loftnetssúlu á vatnstanka Vatnsveitu Reykjavíkur við Reykás, að mestu í samræmi við framlögð gögn. Jafnframt yrði til bráðabirgða reist tækjaskýli úr timbri vestan tanka. Ef staðsetning loftnetsins reynist tæknilega fullnægjandi mun Tal sækja um byggingarleyfi en fjarlægja búnaðinn ella.  Erindinu fylgir umboð frá Vatnsveitu Reykjavíkur dags. 28. janúar 1999, bréf Tals hf dags. 28. janúar 1999."
,http://gamli.rvk.is/vefur/owa/edutils.parse_page?nafn=BN018430,Reykjafold 3,Tengibygging á milli íb.húss og bílskúrs,Frestað. Málinu vísað til umsagnar Borgarskipulags.,Spurt er hvort leyft yrði að stækka tengibyggingu á milli íbúðarhúss og bílskúrs á lóðinni nr. 3 við Reykjafold.
,http://gamli.rvk.is/vefur/owa/edutils.parse_page?nafn=BN018414,Skaftahlíð 7, Íbúð í risi og stækk. íb. kj.,Jákvætt að uppfylltum skilyrðum við íbúð í kjallara. Nei vegna íbúðar í þakhæð.,Spurt er hvort samþykkt yrði að stækka íbúð í kjallara og íbúð á þakhæð í hússinu á lóðinni nr. 7 við Skaftahlíð.
