nr,url,heimilisfang,tegund,nidurstada,spurning
47235 (32.16.110.1),http://gamli.rvk.is/vefur/owa/edutils.parse_page?nafn=BN047235,Arnarholt,Heilsuhótel,Frestað. Málinu vísað til umsagnar skipulagsfulltrúa.,"Sótt er um leyfi til að innrétta ""heilsuhótel"" í flokki III, þar sem áður var sjúkrahús í Arnarholti á Kjalarnesi. Gjald kr. 9.500"
47124 (01.43.430.1),http://gamli.rvk.is/vefur/owa/edutils.parse_page?nafn=BN047124,Álfheimar 74,Farfuglaheimili,Frestað. Vísað til athugasemda á umsóknarblaði.,"Sótt er um leyfi til að innrétta farfuglaheimili, gistiheimili í flokki 2, fyrir 22 gesti í 11 kojum í 4 herbergjum á 1. hæð í Glæsibæ á lóð nr. 74 við Álfheima. Útskrift úr gerðabók embættisafgreiðslufundar skipulagsfulltrúa frá 7. febrúar 2014 fylgir erindinu ásamt umsögn skipulagsfulltrúa dags. 6. febrúar 2014 og bréf húsumsjónar Landfesta, LF13 ehf. dags. 24.2. 2014. Gjald kr. 9.500 + 9.500"
47229 (01.15.441.2),http://gamli.rvk.is/vefur/owa/edutils.parse_page?nafn=BN047229,Barónsstígur 5,Breyta 0302 í íbúð,Frestað. Vísað til athugasemda á umsóknarblaði.,Sótt er um leyfi til að innrétta íbúð í rými 0302 í íbúðar- og atvinnuhúsi á lóð nr. 5 við Barónsstíg. Erindi fylgir fyrirspurn sem fékk jákvæðar undirtektir dags. 25. september 2012. Gjald kr. 9.500
47131 (01.67.420.2),http://gamli.rvk.is/vefur/owa/edutils.parse_page?nafn=BN047131,Bauganes 22,Einbýlishús,Samþykkt.  Samræmist ákvæðum laga nr. 160 / 2010. Frágangur á lóðamörkum verði gerður í samráði við lóðarhafa aðliggjandi lóða. Áskilin lokaúttekt byggingarfulltrúa.,"Sótt er um leyfi til að byggja einbýlishús, hæð og kjallara með bílskýli undir hluta húss, úr forsteyptum einingum á lóð nr. 22 við Bauganes. Útskrift úr gerðabók embættisafgreiðslufundar skipulagsfulltrúa frá 21. febrúar 2014 fylgir erindinu ásamt umsögn skipulagsfulltrúa dags. 14. febrúar 2014. Erindi fylgir útreikningur á varmatapi dags. 8. febrúar 2014. Stærð:  Kjallari 127,7 ferm., 1. hæð 215,6 ferm. Samtals A-rými 343,3 ferm., 1179,6 rúmm. B-rými:  bílskýli 45,5 ferm., 129,7 rúmm. Gjald kr. 9.500"
47156 (01.67.500.5),http://gamli.rvk.is/vefur/owa/edutils.parse_page?nafn=BN047156,Bauganes 40,"Hækka þak, kvistir",Samþykkt.  Samræmist ákvæðum laga nr. 160 / 2010. Með vísan til samþykktar borgarráðs frá 1. september 1998 skal utanhúss- og lóðarfrágangi vera lokið eigi síðar en innan tveggja ára frá útgáfu byggingarleyfis að viðlögðum dagsektum sbr. greinar nr. 2.4.7 og 2.9.2 í byggingarreglugerð nr. 112/2012. Áskilin lokaúttekt byggingarfulltrúa.,"Sótt er um leyfi til að hækka þak og byggja þrjá kvisti á einbýlishús á lóð nr. 40 við Bauganes. Útskrift úr gerðabók embættisafgreiðslufundar skipulagsfulltrúa frá 14. febrúar 2014 fylgir erindinu. Stækkun:  37,1 ferm., 123,1 rúmm. Gjald kr. 9.500"
47195 (01.22.100.1),http://gamli.rvk.is/vefur/owa/edutils.parse_page?nafn=BN047195,Borgartún 18,Breyting á burðarvirki,Samþykkt.  Samræmist ákvæðum laga nr. 160 / 2010. Með vísan til samþykktar borgarráðs frá 1. september 1998 skal utanhúss- og lóðarfrágangi vera lokið eigi síðar en innan tveggja ára frá útgáfu byggingarleyfis að viðlögðum dagsektum sbr. greinar nr. 2.4.7 og 2.9.2 í byggingarreglugerð nr. 112/2012. Áskilin lokaúttekt byggingarfulltrúa.,"Sótt er um leyfi til að breyta áður samþykktu erindi BN046872 þannig að steypt peningageymsla er fjarlægð á jarðhæð,  burðarvirki er endurhannað í framhaldi,  steypt upp í glugga á suðurhornum og aðalinngangur á jarðhæð er færður um eitt gluggabil í húsin á lóð nr. 18 við Borgartún.   Umsögn burðarvirkishönnuðar dags. 11. feb. 2014 fylgir. Gjald kr. 9.500"
47061 (01.24.230.1),http://gamli.rvk.is/vefur/owa/edutils.parse_page?nafn=BN047061,Brautarh 10-14/Skiph,Skipholt 11-13 - Viðbygging,Frestað. Vísað til athugasemda á umsóknarblaði.,"Sótt er um leyfi til að byggja þrjár hæðir ofan á eldra hús og innrétta 20 íbúðir í ofanábyggingunni, 1. hæð verður verslun og kjallari verður innréttaður sem geymslur og bílgeymslur fyrir sex bíla í Skipholti 11-13 á lóðinni Brautarh 10-14/Skiph. Útskrift úr gerðabók embættisafgreiðslufundar skipulagsfulltrúa frá 31. janúar 2014 og 21. febrúar 2014 fylgja erindinu ásamt umsögn skipulagsfulltrúa dags. 31. janúar 2014. Erindi fylgir varmatapsútreikningur dags. 12. janúar 2014. Stækkun:  1.867,1 ferm., 5.282,8 rúmm. Gjald kr. 9.500"
46788 (01.83.6-9.8),http://gamli.rvk.is/vefur/owa/edutils.parse_page?nafn=BN046788,Bústaðav. Bjarkahlíð,Breyting inni,Samþykkt.  Samræmist ákvæðum laga nr. 160 / 2010. Áskilin lokaúttekt byggingarfulltrúa.,"Sótt er um leyfi fyrir innri breytingum á áður samþykktu erindi BN043955 þar sem breytt er herbergjaskipan, flutt til eldhús en hætt er við að breyta geymslum í sali í kjallaranum í húsinu á lóð með landnr. 108619 Bústaðavegi. Bjarkahlíð. Gjald kr. 9.000 + 9.500"
47230 (04.06.140.3),http://gamli.rvk.is/vefur/owa/edutils.parse_page?nafn=BN047230,Dvergshöfði 27,Reyndarteikningar,Samþykkt.  Samræmist ákvæðum laga nr. 160 / 2010. Áskilin lokaúttekt byggingarfulltrúa. Áskilið samþykki heilbrigðiseftirlits.,"Sótt er um samþykki fyrir áður gerðum breytingum á erindi BN045902, þar kemur fram minni hátta breyting á stigagangi 1. hæðar og breyting á eldhúsi á 2. hæð í húsi á lóð nr. 27 við Dvergshöfða. Gjald kr. 9.500"
47205 (01.08.910.3),http://gamli.rvk.is/vefur/owa/edutils.parse_page?nafn=BN047205,Fiskislóð 11-13,Breyta reyklúgum,Samþykkt.  Samræmist ákvæðum laga nr. 160 / 2010. Áskilin lokaúttekt byggingarfulltrúa.,Sótt er um leyfi til breyta sbr. BN038305 brunavarnartexta og færa tvær reyklúgur milli brunahólfa í húsinu á lóð nr. 11-13 við Fiskislóð. Gjald kr. 9.500
47208 (01.08.920.2),http://gamli.rvk.is/vefur/owa/edutils.parse_page?nafn=BN047208,Fiskislóð 23-25,"Breyting - Lyfta, stigi o.fl.",Samþykkt.  Samræmist ákvæðum laga nr. 160 / 2010. Með vísan til samþykktar borgarráðs frá 1. september 1998 skal utanhúss- og lóðarfrágangi vera lokið eigi síðar en innan tveggja ára frá útgáfu byggingarleyfis að viðlögðum dagsektum sbr. greinar nr. 2.4.7 og 2.9.2 í byggingarreglugerð nr. 112/2012. Áskilin lokaúttekt byggingarfulltrúa.,"Sótt er um leyfi til að koma fyrir geymslum á milli módullínu 7-13 á 1. hæð og taka í notkun millipall með því að setja lyftu og stiga upp á hann, koma fyrir móttöku í anddyri og hringstiga á norðurhlið hússins á lóð nr. 23-25 við Fiskislóð. Meðfylgjandi er brunahönnun frá Verkís dags. 11.2. 2014. Stækkun millipalls : 21,3 ferm. Gjald kr. 9.500"
47114 (01.18.511.4),http://gamli.rvk.is/vefur/owa/edutils.parse_page?nafn=BN047114,Fjólugata 5,Reyndarteikningar,Samþykkt.  Samræmist ákvæðum laga nr. 160 / 2010. Áskilin lokaúttekt byggingarfulltrúa. Skilyrt er að  eignaskiptayfirlýsingu  vegna breytinga í húsinu sé þinglýst svo samþykkt öðlist gildi.,"Sótt er um samþykki á reyndarteikningum sbr. BN044059 þar sem kemur fram stækkun á bílskúr, kalt rými, núverandi girðing er færð að lóðarmörkum, verönd stækkuð, eldvarnarmerkingu á hurð í bílskúr breytt , þakgluggar færðir til á vesturhlið og þakgluggi á austurhlið felldur út í húsi á lóð nr. 5 við Fjólugötu. Samþykki Fjólugötu 7 dags. 22. feb. 2014 fylgir. Stækkun: 10,4 ferm., 22,7 rúmm Gjald kr. 9.500 + 9.500"
47178 (04.61.230.5),http://gamli.rvk.is/vefur/owa/edutils.parse_page?nafn=BN047178,Fremristekkur 9,Verönd,Frestað. Vísað til athugasemda á umsóknarblaði.,"Sótt er um leyfi til þess að stækka glugga og byggja verönd við vesturhlið einbýlishúss á lóðinni nr. 9 við Fremristekk. Samþykki nágranna í húsum nr. 7, 8 og 10 við Fremristekk (á teikn.) fylgir erindinu. Umsögn burðarvirkishönnuðar vegna stækkunar glugga fylgir erindinu. Gjald kr. 9.500"
47163 (04.67.430.2),http://gamli.rvk.is/vefur/owa/edutils.parse_page?nafn=BN047163,Gerðuberg 3-5,Eldhúsaðstaða - hringstigi o.fl.,Samþykkt.  Samræmist ákvæðum laga nr. 160 / 2010. Áskilin lokaúttekt byggingarfulltrúa. Áskilið samþykki heilbrigðiseftirlits.,"Sótt er um leyfi til að breyta áður samþykktu erindi BN044702 þannig að sagaður verður niður veggur á 2. hæð, eldhúsaðstaða færð til og hringstigi á milli hæða fjarlægður í húsinu á lóð nr.3-5 við Gerðuberg. Umsögn burðarvirkishönnuðar fylgir dags. 4. feb. 2014. Gjald kr. 9.500"
47236 (01.51.540.4),http://gamli.rvk.is/vefur/owa/edutils.parse_page?nafn=BN047236,Granaskjól 36,Baðherbergisgluggi 2.hæð,Frestað. Vantar samþykki meðeigenda.,Sótt er um leyfi til að minnka glugga í baðherbergi á 2. hæð norð- vestur hlið hússins á lóð nr. 36 við Granaskjól. Gjald kr. 9.500
47210 (01.11.250.1),http://gamli.rvk.is/vefur/owa/edutils.parse_page?nafn=BN047210,Grandagarður 20,Niðurrif,Samþykkt.  Samræmist ákvæðum laga nr. 160 / 2010. Áskilin lokaúttekt byggingarfulltrúa. Áskilið samþykki heilbrigðiseftirlits.,"Sótt er um leyfi til að rífa og fjarlægja þróarhús mhl. 08, gamla skrifstofubyggingu/sérhæfða byggingu mhl. 09 og dæluhús mhl. 24 vegna endurskipulagningar lóðar nr. 20 við Grandagarð. Niðurrif:	mhl. 08, 55 ferm., 160 rúmm.  	mhl. 09, 651 ferm., 2165 rúmm. 	mhl. 24, 638,5 ferm., 3624 rúmm. Samtals:	1344,5 ferm., 5949 rúmm. Teikningar finnast ekki. Gjald kr. 9.500"
47166 (01.18.210.2),http://gamli.rvk.is/vefur/owa/edutils.parse_page?nafn=BN047166,Grettisgata 2,2B - Gistiheimili,Frestað. Málið er til umfjöllunar hjá skipulagsfulltrúa.,"Sótt er um leyfi til þess að breyta íbúðarhúsi í gistiheimili í flokki II fyrir allt að tíu gesti í húsi nr. 2B, matshluta 02, á lóðinni nr. 2 við Grettisgötu. Móttaka gististaðarins verður staðsett í gistiheimilinu að Grettisgötu 2A, sömu eigendur eru að báðum húsunum. Samþykki meðlóðarhafa dags. í desember 2013 fylgir erindinu. Gjald kr. 9.500"
47216 (01.14.000.5),http://gamli.rvk.is/vefur/owa/edutils.parse_page?nafn=BN047216,Hafnarstræti  1-3,Endurnýjun - BN042517 o.fl.,Frestað. Vísað til athugasemda á umsóknarblaði.,Sótt er um endurnýjun á erindi BN022776 þar sem veitt var leyfi til að innrétta veitingastað á 1. hæð í austurenda Fálkahússins og fjölga gluggum á  viðbyggingu á norðurhlið hússins á lóð nr. 1-3 við Hafnarstræti. Við upphaflega samþykkt fylgdu umsagnir Húsafriðunarnefndar dags. 6. september 2001 og umsögn Árbæjarsafns dags. 4. september 2001. Gjald kr. 9.500
46676 (01.55.--9.7),http://gamli.rvk.is/vefur/owa/edutils.parse_page?nafn=BN046676,Hagatorg Hótel Saga,Reyndarteikningar o.fl.,"Samþykkt.  Samræmist ákvæðum laga nr. 160 / 2010. Með vísan til samþykktar borgarráðs frá 1. september 1998 skal utanhúss- og lóðarfrágangi vera lokið eigi síðar en innan tveggja ára frá útgáfu byggingarleyfis að viðlögðum dagsektum sbr. greinar nr. 2.4.7 og 2.9.2 í byggingarreglugerð nr. 112/2012. Skilyrt er að ný eignaskiptayfirlýsing sé samþykkt fyrir útgáfu byggingarleyfis, henni verður þinglýst eigi síðar en við lokaúttekt. Áskilin lokaúttekt byggingarfulltrúa. Áskilið samþykki heilbrigðiseftirlits.","Sótt er um leyfi til að uppfæra aðalteikningar í tengslum við gerð eignaskiptasamnings, sameina matshluta 01 og 03 í matshula 01,  sækja um nýja útihurð á bankaútibúið að norðan og nýja hurð í skála  að norðanverðu Hótel Sögu á lóð nr. 1 við Hagatorg. Erindi fylgir brunahönnun frá VSI dags. 20. febrúar 2014, einnig samþykki meðeigenda dags. 13 febrúar 2014 og bréf frá hönnuði dags. 14. febrúar 2014 . Gjald kr. 9.000"
46517 (05.11.410.3),http://gamli.rvk.is/vefur/owa/edutils.parse_page?nafn=BN046517,Haukdælabraut 98,Einbýlishús,Samþykkt.  Samræmist ákvæðum laga nr. 160 / 2010. Frágangur á lóðamörkum verði gerður í samráði við lóðarhafa aðliggjandi lóða. Áskilin lokaúttekt byggingarfulltrúa.,"Sótt er um leyfi til að byggja steinsteypt einbýlishús á einni hæð klætt ljósum steinflísum á lóð nr. 98 við Haukdælabraut. Útskrift úr gerðabók embættisafgreiðslufundar skipulagsfulltrúa frá 11. október 2013 fylgir erindinu. Stærð:  Íbúð 193,7 ferm., bílgeymsla 63,3 ferm. Samtals A-rými 256,9 ferm., 1.191,7 rúmm. B-rými 22,6 ferm., 92,4 rúmm. Gjald kr. 9.000"
46802 (04.74.130.2),http://gamli.rvk.is/vefur/owa/edutils.parse_page?nafn=BN046802,Hólavað 29-43,Raðhús,"Samþykkt.  Samræmist ákvæðum laga nr. 160 / 2010. Frágangur á lóðamörkum verði gerður í samráði við lóðarhafa aðliggjandi lóða. Með vísan til samþykktar umhverfis- og skipulagsráðs, dags. 22. maí 2013, skal lóðarhafi, í samráði við byggingarfulltrúa, setja upp skilti til kynningar á fyrirhuguðum framkvæmdum á byggingarstað. Áskilin lokaúttekt byggingarfulltrúa.","Sótt er um leyfi til þess að byggja tvílyft raðhús úr forsteyptum einingum með átta íbúðum og átta innbyggðum bílgeymslum sbr. erindi BN032951 á lóð nr. 29-43 við Hólavað. Meðfylgjandi er EC-vottun eininga dags. 28.6. 2013. Stærðir: Hús nr. 29 (matshl. 01) íbúð 1. hæð 52,8 ferm., 2. hæð 72,0 ferm., bílgeymsla 27,2 ferm., samtals 152,0 ferm., 534,4 rúmm.  Hús nr. 31 (matshl. 02), hús nr. 33 (matshl. 03), hús nr. 35 (matshl. 04), hús nr. 37 (matshl. 05), hús nr. 39 (matshl. 06), hús nr. 41 (matshl. 07) og hús nr. 43 (matshl. 08) eru öll sömu stærðar og hús nr. 29 eða samtals 152,0 ferm. og 534,4 rúmm hvert.  Raðhúsið er samtals 1173,6 ferm., 4275,2 rúmm. Gjald kr. 9.000+9.500"
47252 (01.52.400.9),http://gamli.rvk.is/vefur/owa/edutils.parse_page?nafn=BN047252,Hringbraut 79,Breyta þaki - byggja yfir svalir 2.hæð,Frestað. Vísað til athugasemda á umsóknarblaði.,"Sótt er um leyfi til að byggja Mansardþak og byggja yfir svalir á 2. hæð í fjölbýlishúsi á lóð nr. 79 við Hringbraut. Erindi fylgir fsp. dags. Stækkun:  74 ferm??, xx rúmm. Gjald kr. 9.500"
47078 (01.17.111.6),http://gamli.rvk.is/vefur/owa/edutils.parse_page?nafn=BN047078,Hverfisgata 28,Br. inni kjallari o.fl.,Samþykkt.  Samræmist ákvæðum laga nr. 160 / 2010. Með vísan til samþykktar borgarráðs frá 1. september 1998 skal utanhúss- og lóðarfrágangi vera lokið eigi síðar en innan tveggja ára frá útgáfu byggingarleyfis að viðlögðum dagsektum sbr. greinar nr. 2.4.7 og 2.9.2 í byggingarreglugerð nr. 112/2012. Frágangur á lóðamörkum verði gerður í samráði við lóðarhafa aðliggjandi lóða. Áskilin lokaúttekt byggingarfulltrúa.,"Sótt er um leyfi til að breyta nýsamþykktri endurbyggingu, sjá erindi BN046189, - flóttastigi og svalir á bakhlið eru felld út, útbúinn nýr flóttastigi af þaki Hverfisgötu 30 og innréttuð 7 gistiherbergi og setustofa, sem verða hluti stærra hótels á Hljómalindarreit) í húsi á lóð nr. 28 við Hverfisgötu. Útskrift úr gerðabók embættisafgreiðslufundar skipulagsfulltrúa frá 21. janúar 2014 fylgir erindinu ásamt umsögn skipulagsfulltrúa dags. 20. febrúar 2014. Gjald kr. 9.500"
47133 (01.17.110.2),http://gamli.rvk.is/vefur/owa/edutils.parse_page?nafn=BN047133,Hverfisgata 30,Hótel,Frestað. Til kynningar í umhverfis- og skipulagsráði.,"Sótt er um leyfi til að byggja 2. áfanga hótels á Hljómalindareit, staðsteypt hús á fimm hæðum sem í verða 64 herbergi, fjórar íbúðir, veitingasalur, eldhús og verslunarrými á aðgönguhæðum húsa á lóð nr. 30 við Hverfisgötu. Útskrift úr gerðabók embættisafgreiðslufundar skipulagsfulltrúa frá 21. janúar 2014 fylgir erindinu ásamt umsögn skipulagsfulltrúa dags. 20. febrúar 2014. Nýbygging:  kjallari 272,5 ferm., 1. hæð 267,8 ferm., 2. hæð 273,6 ferm., 3. og 4. hæð 264,4 ferm., 5. hæð 153 ferm. Samtals 1.495,8 ferm., 4.860,1 rúmm. Gjald kr. 9.500"
47140 (01.17.110.3),http://gamli.rvk.is/vefur/owa/edutils.parse_page?nafn=BN047140,Hverfisgata 32,Hótel,Frestað. Til kynningar í umhverfis- og skipulagsráði.,"Sótt er um leyfi til að byggja 2. áfanga hótels á Hljómalindareit, staðsteypt hús á fimm hæðum sem í verða 64 herbergi, fjórar íbúðir, veitingasalur, eldhús og verslunarrými á aðgönguhæðum húsa á lóðum nr. 32 við Hverfisgötu. Útskrift úr gerðabók embættisafgreiðslufundar skipulagsfulltrúa frá 21. janúar 2014 fylgir erindinu ásamt umsögn skipulagsfulltrúa dags. 20. febrúar 2014. Niðurrif:  476,2 ferm. Nýbygging:  Kjallari 260,2 ferm., 1., 2., 3. og 4. hæð 263,7 ferm., 5. hæð 223,0 ferm. Samtals 1.514,7 ferm., 5.186,2 rúmm. Gjald kr. 9.500"
47141 (01.17.110.5),http://gamli.rvk.is/vefur/owa/edutils.parse_page?nafn=BN047141,Hverfisgata 34,Hótel,Frestað. Til kynningar í umhverfis- og skipulagsráði.,"Sótt er um leyfi til að byggja 2. áfanga hótels á Hljómalindareit, staðsteypt hús á fimm hæðum sem í verða 64 herbergi, fjórar íbúðir, veitingasalur, eldhús og verslunarrými á aðgönguhæðum húsa á lóð nr. 34 við Hverfisgötu. Útskrift úr gerðabók embættisafgreiðslufundar skipulagsfulltrúa frá 21. janúar 2014 fylgir erindinu ásamt umsögn skipulagsfulltrúa dags. 20. febrúar 2014. Niðurrif:  309,1 ferm. Nýbygging:  Kjallari 158,4 ferm., 1. hæð 139,9 ferm., 2. hæð 149,4 ferm., 3. og 4. hæð 160,2 ferm., 5. hæð 133,9 ferm. Samtals 902,0 ferm., 3.121,6 rúmm. Gjald kr. 9.500"
47168 (01.15.251.7),http://gamli.rvk.is/vefur/owa/edutils.parse_page?nafn=BN047168,Hverfisgata 57,Lyftuturn - risíbúð,Frestað. Vísað til athugasemda eldvarnaeftirlits á umsóknarblaði.,"Sótt er um leyfi til þess að breyta innra fyrirkomulagi í kjallara, byggja lyftuturn að norðurhlið húss, innrétta íbúð á rishæð og breyta kvistum á suður- og vesturhlið, sbr. fyrirspurn BN046764 sem fékk jákvæða umsögn 14.1. 2014, hússins á lóðinni nr. 57 við Hverfisgötu. Eftir breytinguna verða sjö íbúðir í húsinu í stað sex.  Umsögn skipulagsfulltrúa vegna fyrirspurnarerindis sama efnis sem fékk jákvæða afgreiðslu þann 10. janúar 2014 fylgir erindinu.  Gjald kr. 9.500"
46942 (01.17.000.5),http://gamli.rvk.is/vefur/owa/edutils.parse_page?nafn=BN046942,Ingólfsstræti 2A,Breyting inni,Frestað. Vísað til athugasemda á umsóknarblaði.,"Sótt er um leyfi til að breyta innanhúss á öllum hæðum, koma fyrir lyftu frá kjallara upp á 2. hæð, breyta 3. hæð til veisluhalda, breyta áhorfendarými og sviði á 1. og 2. hæð þannig að upphækkanir séu færanlegar og gólf geti verið slétt, breyta fyrirkomulagi í kjallara og innrétta fyrir veitingastað í flokki III, tegund A í Gamla Bíói á lóðinni nr. 2A við Ingólfsstræti. Umsögn Minjastofnunar Íslands dags. 19. febrúar 2014 fylgir erindinu, einnig brunavarnaskýrsla frá Eflu dags. des. 2013, bréf arkitekts dags. 18.2. 2014, umsögn skipulagsstjóra fylgir fyrirspurn BN047080 dags. 3.2. 2014. Gjald kr. 9.000 + 9.500"
47115 (01.32.500.1),http://gamli.rvk.is/vefur/owa/edutils.parse_page?nafn=BN047115,Klettagarðar 15,Breyta fiskikæli í frysti,Samþykkt.  Samræmist ákvæðum laga nr. 160 / 2010. Með vísan til samþykktar borgarráðs frá 1. september 1998 skal utanhúss- og lóðarfrágangi vera lokið eigi síðar en innan tveggja ára frá útgáfu byggingarleyfis að viðlögðum dagsektum sbr. greinar nr. 2.4.7 og 2.9.2 í byggingarreglugerð nr. 112/2012. Áskilin lokaúttekt byggingarfulltrúa. Áskilið samþykki heilbrigðiseftirlits.,Sótt er um leyfi til að breyta fiskkæli í frysti og til að fjarlægja vöruhurð á vesturhlið hússins á lóð nr. 15 við Klettagarða. Gjald kr. 9.500
47199 (01.72.100.1),http://gamli.rvk.is/vefur/owa/edutils.parse_page?nafn=BN047199,Kringlan  4-12,S-282 - Breytingar 2. og 3.hæð,Samþykkt.  Samræmist ákvæðum laga nr. 160 / 2010. Áskilin lokaúttekt byggingarfulltrúa.,Sótt er um leyfi til að breyta innra skipulagi í rými S-282 og breyta flóttaleið á 2. og 3. hæð í verslanamiðstöðinni Kringlunni á lóð nr. 4-12 í Kringlunni. Erindi fylgir brunatæknileg skýrsla frá Verkís dags. 11. febrúar 2014. Gjald kr. 9.500
47184 (04.11.450.2),http://gamli.rvk.is/vefur/owa/edutils.parse_page?nafn=BN047184,Kristnibraut 37-41,37 - Svalaskýli - 0102,Samþykkt.  Samræmist ákvæðum laga nr. 160 / 2010. Með vísan til samþykktar borgarráðs frá 1. september 1998 skal utanhúss- og lóðarfrágangi vera lokið eigi síðar en innan tveggja ára frá útgáfu byggingarleyfis að viðlögðum dagsektum sbr. greinar nr. 2.4.7 og 2.9.2 í byggingarreglugerð nr. 112/2012. Áskilin lokaúttekt byggingarfulltrúa.,"Sótt er um leyfi til að setja upp svalalokun úr glerflekum á brautum með 85% opnun á íbúð 0102 í fjölbýlishúsinu nr. 37 á lóð nr. 37 til 41 við Kristnibraut. Samþykki meðeigenda dags. 29. júní 2013 fylgir. Rúmm. stækkun: 18,5 rúmm. Gjald kr. 9.500"
47241 (01.83.210.4),http://gamli.rvk.is/vefur/owa/edutils.parse_page?nafn=BN047241,Langagerði 46,Breyta burðarvegg - færa eldhús og bað,Frestað. Vísað til athugasemda á umsóknarblaði.,Sótt er um leyfi til að fjarlægja veggi sem standa á milli tveggja herbergja og breyta í eldhús og koma fyrir baðherbergi þar sem eldhúsið var í einbýlishúsinu á lóð nr. 46 við Langagerði. Gjald kr. 9.500
47249 (01.18.351.0),http://gamli.rvk.is/vefur/owa/edutils.parse_page?nafn=BN047249,Laufásvegur 19,Jarðhæð - tvær íbúðir,Frestað. Vísað til athugasemda á umsóknarblaði.,Sótt er um leyfi til þess að breyta skrifstofuhúsnæði í tvær íbúðir á fyrstu hæð hússins á lóðinni nr. 19 við Laufásveg. Gjald kr. 9.500
47251 (01.24.000.7),http://gamli.rvk.is/vefur/owa/edutils.parse_page?nafn=BN047251,Laugavegur 103,Reyndarteikningar,Frestað. Vísað til athugasemda á umsóknarblaði.,"Sótt eru um samþykki á áður gerðum breytingum, þar sem geymslu 0010 og þvottahúsi 0021 er víxlað í húsi á lóð nr. 103 við Laugaveg. Gjald kr. 9.500"
47129 (01.17.111.1),http://gamli.rvk.is/vefur/owa/edutils.parse_page?nafn=BN047129,Laugavegur 17,"Endurgera hús, viðbygging",Frestað. Til kynningar í umhverfis- og skipulagsráði.,"Sótt er um leyfi til að endurbyggja eldra hús, byggja steinsteypta viðbyggingu með kjallara á bakhlið og innrétta fimm íbúðir og verslunarrými í húsi á lóð nr. 17 við Laugaveg. Útskrift úr gerðabók embættisafgreiðslufundar skipulagsfulltrúa frá 21. janúar 2014 fylgir erindinu ásamt umsögn skipulagsfulltrúa dags. 20. febrúar 2014. Stækkun:  xx ferm., xx rúmm. Gjald kr. 9.500"
47130 (01.17.111.0),http://gamli.rvk.is/vefur/owa/edutils.parse_page?nafn=BN047130,Laugavegur 19-19B,"Endurgera hús, ofanábygging, viðbygging",Frestað. Til kynningar í umhverfis- og skipulagsráði.,"Sótt er um leyfi til að endurbyggja eldra timburhús og byggja ""Mansard"" hæð ofaná, einnig að byggja steinsteypta viðbyggingu , þrjár hæðir og kjallara á bakhlið og innrétta fimm íbúðir og verslunarrými í húsi á lóð nr. 19-19B við Laugaveg. Útskrift úr gerðabók embættisafgreiðslufundar skipulagsfulltrúa frá 21. janúar 2014 fylgir erindinu ásamt umsögn skipulagsfulltrúa dags. 20. febrúar 2014. Stækkun:  xx ferm., xx rúmm. Gjald kr. 9.500"
47189 (01.17.221.1),http://gamli.rvk.is/vefur/owa/edutils.parse_page?nafn=BN047189,Laugavegur 30,"Gluggi, hjólastólabraut o.fl.",Frestað. Vísað til athugasemda á umsóknarblaði.,"Sótt er um leyfi til þess að breyta innra fyrirkomulagi, koma fyrir glugga á vesturhlið og falla frá fyrri samþykkt um stigalyftu bakdyramegin en leysa ferlimál með lausri skábraut í kjallara hússins á lóðinni nr. 30 við Laugaveg. Gjald kr. 9.500"
47099 (01.17.221.8),http://gamli.rvk.is/vefur/owa/edutils.parse_page?nafn=BN047099,Laugavegur 36,Stækkun kaffihúss,Frestað. Vísað til athugasemda heilbrigðiseftirlits á umsóknarblaði.,"Sótt er um leyfi til að stækka kaffihús flokki I og fjölga sætum úr 20 í 50 í húsi á lóð nr. 36 við Laugaveg.  Fyrirspurn BN042859 dags. 5. apríl 2011, bréf frá umsækjanda dags. 20. janúar 2014 og umsögn burðarvirkishönnuðar dags. 7. feb. 2014 fylgir. Gjald kr. 9.500"
47243 (01.15.220.4),http://gamli.rvk.is/vefur/owa/edutils.parse_page?nafn=BN047243,Lin29-33Vat13-21Skú12,Lindargata 37 - 9.hæð - Hurð milli íbúða 0901 og 0902,Frestað. Vísað til athugasemda á umsóknarblaði.,Sótt er um leyfi til að opna á milli íbúða 0901 og 0902 og koma fyrir hurðum í opnunina á 9. hæð í Lindargötu 37 sem er fjölbýlishús (mhl. 13) á lóð nr. 14-16 við Skúlagötu. Meðfylgjandi er brunahönnunarskýrsla frá Eflu dags. feb. 2014. Gjald kr. 9.500
47240 (01.18.110.1),http://gamli.rvk.is/vefur/owa/edutils.parse_page?nafn=BN047240,Lokastígur 2,Reyndarteikingar,Samþykkt.  Samræmist ákvæðum laga nr. 160 / 2010. Áskilin lokaúttekt byggingarfulltrúa. Áskilið samþykki heilbrigðiseftirlits.,Sótt er um samþykki á þegar framkvæmdum breytingum sem felast í að ræstikompa hefur verið aðgreind frá þvottahúsi og lokuð frá gangi með hurð í kjallara hótels á lóð nr. 2 við Lokastíg. Gjald kr. 9.500
47118 (01.24.313.3),http://gamli.rvk.is/vefur/owa/edutils.parse_page?nafn=BN047118,Mánagata 17,Sameina íbúðir á 1.og 2.hæð,"Samþykkt.  Samræmist ákvæðum laga nr. 160 / 2010. Með vísan til samþykktar borgarráðs frá 1. september 1998 skal utanhúss- og lóðarfrágangi vera lokið eigi síðar en innan tveggja ára frá útgáfu byggingarleyfis að viðlögðum dagsektum sbr. greinar nr. 2.4.7 og 2.9.2 í byggingarreglugerð nr. 112/2012. Skilyrt er að ný eignaskiptayfirlýsing sé samþykkt fyrir útgáfu byggingarleyfis, henni verður þinglýst eigi síðar en við lokaúttekt. Áskilin lokaúttekt byggingarfulltrúa.","Sótt er um leyfi til að sameina íbúðir 0101 og 0201 í eina og stækka og fella niður kvaðir á íbúð 0001, saga úr steyptum veggjum og styrkja göt með stálbitum, færa inntök í útiskáp og byggja óupphitaðan geymsluskúr norðan við húsið á lóð nr. 17 við Mánagötu. Meðfylgjandi er umsögn burðarvirkishönnuðar dags. 11.2. 2014, samþykki meðeigenda á Mánagötu 19 og samþykki nágranna á Vífilsgötu 18. Gjald kr. 9.500"
47214 (01.17.313.2),http://gamli.rvk.is/vefur/owa/edutils.parse_page?nafn=BN047214,Njálsgata 33B,Nýtt einbýlishús úr timbri,Frestað. Vísað til athugasemda á umsóknarblaði.,"Sótt er um leyfi til að byggja einbýlishús úr timbri, hæð og ris með staðsteyptum kjallara á lóð nr. 33B við Njálsgötu. Stærðir: kjallari: 29,7 ferm., 58,6 rúmm.  1.hæð: 52,5 ferm., 147,7 rúmm. Ris 47,8 ferm., 147,0 rúmm. Samtals: 130,0 ferm., 363,6 rúmm. Gjald kr. 9.500"
47159 (01.41.411.1),http://gamli.rvk.is/vefur/owa/edutils.parse_page?nafn=BN047159,Sigluvogur 4,Reyndarteikning v/lokaúttektar,Samþykkt.  Samræmist ákvæðum laga nr. 160 / 2010. Áskilin lokaúttekt byggingarfulltrúa.,Sótt er um samþykki á áður gerðum breytingum vegna lokaúttektar á erindi BN041964 á lóð nr. 4 við Sigluvog.  Gjald kr. 9.500
47160 (01.41.411.2),http://gamli.rvk.is/vefur/owa/edutils.parse_page?nafn=BN047160,Sigluvogur 6,Reyndarteikning v/lokaúttektar,Frestað. Samkvæmt gögnum embættisins er lágmarksgjald ógreitt.,Sótt er um samþykki á áður gerðum breytingum vegna lokaúttektar á erindinu BN041965 á lóð nr. 6 við Sigluvog.  Gjald kr. 9.500
47247 (01.29.310.3),http://gamli.rvk.is/vefur/owa/edutils.parse_page?nafn=BN047247,Síðumúli 16-18,Reyndarteikningar,Frestað. Vísað til athugasemda á umsóknarblaði.,Sótt er um leyfi fyrir áður gerðum breytingum sem koma fram á byggingalýsingu að húsinu á lóð nr. 16-18 við Síðumúla. Gjald kr. 9.500
47077 (01.46.600.1),http://gamli.rvk.is/vefur/owa/edutils.parse_page?nafn=BN047077,"Skeifan 15, Faxafen 8",Breytingar inni - öryggishlið,Frestað. Vísað til athugasemda á umsóknarblaði.,Sótt er um leyfi til að breyta innra skipulagi í lagerrými og verslun og til að koma fyrir öryggishliðum innan við aðalinngang verslunar Hagkaups í húsi á lóð nr. 15 við Skeifuna. Jafnframt eru erindi BN041042 og BN045110 dregin til baka. Erindi fylgir brunatæknileg úttekt frá VSI dags. 16. janúar 2014 og greinargerð með breytingum dags. 18. febrúar 2014. Gjald kr. 9.500
47161 (01.46.020.1),http://gamli.rvk.is/vefur/owa/edutils.parse_page?nafn=BN047161,Skeifan 7,Sameina rými 0101 og 0102 og mhl.,Frestað. Lagfæra skráningartöflu.,"Sótt er um leyfi til að sameina mhl. 01, 03 og 04 og til að sameina  rými 0101 og 0102, einnig að breyta innra fyrirkomulagi verslunar í húsi á lóð nr. 7 við Skeifuna. Bréf hönnuðar dags.  4. febrúar 2014 fylgir. Gjald kr. 9.500"
47136 (01.18.141.7),http://gamli.rvk.is/vefur/owa/edutils.parse_page?nafn=BN047136,Skólavörðustígur 42,Endurnýjun - BN041529,Frestað. Vísað til athugasemda á umsóknarblaði.,"Sótt er um endurnýjun á byggingarleyfi BN041529, BN042329 og eða BN044933 fyrir hús á lóð nr. 42 við Skólavörðustíg/23 við Lokastíg. Gjald kr. 9.500"
47065 (01.23.000.3),http://gamli.rvk.is/vefur/owa/edutils.parse_page?nafn=BN047065,Sóltún 1,Breytingar - BN046869,Frestað. Vísað til athugasemda á umsóknarblaði.,"Sótt er um leyfi til breytinga á erindi BN046869 sem gert var vegna breytinga á erindi BN045300 sem fól í sér að ákvæði byggingarreglugerðar nr. 441/1998 gilti fyrir Mánatún 7-17 með síðari breytingum skv. ákvæði til bráðabirgða í gr. 17.1.2. í nýrri byggingarreglugerð nr. 112/2012. Breytingar sem nú eru gerðar felast í að lækka kjallaraplötu, fyrirkomulagi er breytt í kjallara K-0, íbúð bætt við á 1. hæð og sorpgeymsla er sameinuð sorpgeymslu á 1. hæð í fjölbýlishúsi á lóð nr. 7-17 við Mánatún 1-17/Sóltún 1-3. Útskrift úr gerðabók embættisafgreiðslufundar skipulagsfulltrúa frá 24. janúar 2014 fylgir erindinu ásamt umsögn skipulagsfulltrúa dags. 23. janúar 2014. Einnig bréf arkitekts dags. 14. janúar 2014 og annað dags. 18. febrúar 2014. Stækkun A-rými:  144,7 ferm., 378,5 rúmm. Stækkun B-rými:  9,2 ferm. Gjald kr. 9.500"
47265 (01.23.000.3),http://gamli.rvk.is/vefur/owa/edutils.parse_page?nafn=BN047265,Sóltún 1,takmarkað byggingarleyfi- Mánatún 7-17,"Samþykkt.  Samræmist ákvæðum laga nr. 160 / 2010. Samþykktin fellur úr gildi við útgáfu á endanlegu byggingarleyfi. Vegna útgáfu á takmörkuðu byggingarleyfi skal umsækjandi hafa samband við yfirverkfræðing embættis byggingarfulltrúa. Með vísan til samþykktar umhverfis- og skipulagsráðs, dags. 22. maí 2013, skal lóðarhafi, í samráði við byggingarfulltrúa, setja upp skilti til kynningar á fyrirhuguðum framkvæmdum á byggingarstað. Í samræmi við samþykkt umhverfis- og skipulagsráðs dags. 9. október 2013 skal vélknúinn þvottabúnaður vera til staðar á byggingarlóð sem tryggi að vörubílar og aðrar þungavinnuvélar verði þrifnar áður en þær yfirgefa byggingarstað. Samráð skal haft við byggingarfulltrúa.","Óskað ég eftir að takmarkað byggingarleyfi vegna Mánatúns 7-17 verði útvíkkað sbr. meðfylgjandi yfirlitsteikningar.  Til grundvallar er samþykkt erindis BN046869  vegna breytinga á fjölbýlishúsinu á lóð nr. 1-17 við Mánatún og 1-3 við Sóltún sbr. erindi BN045300. Útvíkkun takmarkaða byggingarleyfisins á við stigahúsið Mánatún 13 og nær til uppsteypu 1. - 6. hæðar.   Hönnunargögnum hefur verið skilað inn til byggingarfulltrúaembættisins.   Meðfylgjandi eru eftirfarandi gögn: -Yfirlitsmyndir yfir áfangaskipti, -Skýringarmynd sem sýnir áætlun hönnunarstjóra um skil hönnunargagna og  skiptingu í hönnunaráfanga, -Bréf byggingarstjóra með rökstuðningi vegna útgáfu takmarkaðra     byggingarleyfa skv gr. 2.4.6 í bygingarreglugerð nr 112/2012"
47246 (01.28.300.1),http://gamli.rvk.is/vefur/owa/edutils.parse_page?nafn=BN047246,Starmýri 2,2C - Jarðhæð - breyta í tvær eignir,Frestað. Málinu vísað til umsagnar skipulagsfulltrúa.,Sótt er um leyfi til þess að breyta útliti og innra fyrirkomulagi og jafnframt breyta atvinnuhúsnæði sem skráð er fjórar eignir í  tvær vinnustofur með íbúðaraðstöðu á fyrstu hæð hússins nr. 2C á lóðinni nr. 2 við Starmýri. Ný skráningartafla fylgir erindinu. Umsagnir skipulagsfulltrúa varðandi áður afgreidd erindi dags. 6. maí og 27. september 2013 fylgja erindinu. Gjald kr. 9.500
47260 (01.63.130.3),http://gamli.rvk.is/vefur/owa/edutils.parse_page?nafn=BN047260,Sæmundargata 15-19,takmarkað byggingarleyfi,"Samþykkt.  Samræmist ákvæðum laga nr. 160 / 2010. Með vísan til samþykktar borgarráðs frá 1. september 1998 skal utanhúss- og lóðarfrágangi vera lokið eigi síðar en innan tveggja ára frá útgáfu byggingarleyfis að viðlögðum dagsektum sbr. greinar nr. 2.4.7 og 2.9.2 í byggingarreglugerð nr. 112/2012. Með vísan til samþykktar umhverfis- og skipulagsráðs, dags. 22. maí 2013, skal lóðarhafi, í samráði við byggingarfulltrúa, setja upp skilti til kynningar á fyrirhuguðum framkvæmdum á byggingarstað. Í samræmi við samþykkt umhverfis- og skipulagsráðs dags. 9. október 2013 skal vélknúinn þvottabúnaður vera til staðar á byggingarlóð sem tryggi að vörubílar og aðrar þungavinnuvélar verði þrifnar áður en þær yfirgefa byggingarstað. Samráð skal haft við byggingarfulltrúa.","Sótt er um takamarkað byggingaleyfi fyrir uppsteypu botnplötu, veggja og súlna í kjallara botnplötu, ásamt innsteyptum lögnum Hátækniseturs Alvogen Biotech í Vatnsmýrinni á lóðinni nr. 15-19 við Sæmundargötu sbr. erindi BN046396."
47154 (01.60.320.1),http://gamli.rvk.is/vefur/owa/edutils.parse_page?nafn=BN047154,Sæmundargata/Hringbraut,Skilti,Samþykkt.  Samræmist ákvæðum laga nr. 160 / 2010.,"Sótt er um leyfi til að setja upp 3,20/4,55 metra skilti úr segldúk á grind tímabundið frá 10.2. - 5.3. 2014, skiltið er til kynningar á Háskóladeginum og er staðsett á lóð Háskólans á horni Hringbrautar og Sæmundargötu. Umsögn skrifstofu reksturs-og umhirðu dags. 17. febrúar 2014 og bréf frá uppsetningaraðilum skiltisins dags. 20. feb. 2014 fylgir erindinu. Gjald kr. 9.500"
46804 (01.18.600.5),http://gamli.rvk.is/vefur/owa/edutils.parse_page?nafn=BN046804,Urðarstígur 8,Ofanábygging - stækkun til austurs o.fl.,Frestað. Vísað til athugasemda á umsóknarblaði.,"Sótt er um leyfi til að stækka grunnflöt til austurs, dýpka kjallara, byggja hæð og rishæð og svalir á norðurhlið hússins á lóð nr. 8 við Urðarstíg. Stærðir: kjallari 66,5 ferm., 1. hæð 63,6 ferm., 2. hæð 63,6 ferm., þakhæð 57,0 ferm.,  Útskrift úr gerðabók embættisafgreiðslufundar skipulagsfulltrúa frá 6. desember 2013 fylgir erindinu ásamt umsögn skipulagsfulltrúa dags. 28. nóvember 2013. Samtals 250,7 ferm. A rými, B og C rými samtals 28,8 ferm. 656,2 rúmm. samtals. Gjald kr. 9.000 + 9.500"
47267 (02.69.870.2),http://gamli.rvk.is/vefur/owa/edutils.parse_page?nafn=BN047267,Úlfarsbraut 50-56,takmarkað byggingarleyfi,"Samþykkt.  Samræmist ákvæðum laga nr. 160 / 2010. Samþykktin fellur úr gildi við útgáfu á endanlegu byggingarleyfi. Vegna útgáfu á takmörkuðu byggingarleyfi skal umsækjandi hafa samband við yfirverkfræðing embættis byggingarfulltrúa. Með vísan til samþykktar umhverfis- og skipulagsráðs, dags. 22. maí 2013, skal lóðarhafi, í samráði við byggingarfulltrúa, setja upp skilti til kynningar á fyrirhuguðum framkvæmdum á byggingarstað. Í samræmi við samþykkt umhverfis- og skipulagsráðs dags. 9. október 2013 skal vélknúinn þvottabúnaður vera til staðar á byggingarlóð sem tryggi að vörubílar og aðrar þungavinnuvélar verði þrifnar áður en þær yfirgefa byggingarstað. Samráð skal haft við byggingarfulltrúa.","Sótt er um takmarkað byggingarleyfi fyrir jarðvinnu og aðstöðusköpun verktaka á lóðinni nr. 50-56 við Úlfarsbraut sbr. erindi BN047094 sem samþykkt var 11.02.14, þ.e. frágang á húsgrunni sem byrjað hefur verið á samkvæmt BN035698 frá 05.06 2007."
47221 (01.15.241.9),http://gamli.rvk.is/vefur/owa/edutils.parse_page?nafn=BN047221,Veghúsastígur 7,Leiðrétting á skráningartöflu,Samþykkt.  Samræmist ákvæðum laga nr. 160 / 2010. Áskilin lokaúttekt byggingarfulltrúa. Áskilið samþykki heilbrigðiseftirlits.,Sótt er um leyfi til að skrá sem eina eign gististaðinn á lóð nr. 7 við Veghúsastíg. Gjald kr. 9.500
46742 (01.13.610.2),http://gamli.rvk.is/vefur/owa/edutils.parse_page?nafn=BN046742,Vesturgata 3,Veitingastaður í flokki 2,Frestað. Vísað til athugasemda á umsóknarblaði.,Sótt er um leyfi til þess að breyta verslunarhúsnæði í veitingastað í flokki II í kjallara og á fyrstu hæð húss (matshl. 01) á lóðinni nr. 3 við Vesturgötu. Skv. uppdráttum er gestafjöldi staðarins 148 manns. Samþykki meðeigenda (vantar einn) dags. 31. október 2013 fylgir erindinu. Umsagnir skipulagsfulltrúa dags. 15. október og 1. nóvember 2013 fylgja erindinu. Bréf hönnuðar dags. 29. október 2013 fylgir erindinu ásamt útskrift úr gerðabók embættisafgreiðslufundar skipulagsfulltrúa frá 8. nóvember 2013. Gjald kr. 9.000
47239 (01.13.122.2),http://gamli.rvk.is/vefur/owa/edutils.parse_page?nafn=BN047239,Vesturgata 42,Reyndarteikningar v/eignaskiptasamnings,Frestað. Vísað til athugasemda á umsóknarblaði.,Vegna gerðar eignaskiptasamnings er sótt um samþykki fyrir áður gerðum breytingum á húsinu á lóð nr. 42 við Vesturgötu. Samþykki dánarbús Agnars Ludvigssonar (ódags.) fylgir erindinu Gjald kr. 9.500
47194 (01.17.311.9),http://gamli.rvk.is/vefur/owa/edutils.parse_page?nafn=BN047194,Vitastígur 12,Breyting inni og úti,Samþykkt.  Samræmist ákvæðum laga nr. 160 / 2010. Með vísan til samþykktar borgarráðs frá 1. september 1998 skal utanhúss- og lóðarfrágangi vera lokið eigi síðar en innan tveggja ára frá útgáfu byggingarleyfis að viðlögðum dagsektum sbr. greinar nr. 2.4.7 og 2.9.2 í byggingarreglugerð nr. 112/2012. Áskilin lokaúttekt byggingarfulltrúa.,Sótt er um leyfi til breytinga á erindi BN046442 sem felst í tilfærslu innanhúss og breytingu á gluggum í íbúð 0102 í matshluta 03 húsi á lóð nr. 12 við Vitastíg. Gjald kr. 9.500
47254 (04.12.110.1),http://gamli.rvk.is/vefur/owa/edutils.parse_page?nafn=BN047254,Vínlandsleið 2-4,Breyting á innréttingu,Samþykkt.  Samræmist ákvæðum laga nr. 160 / 2010. Áskilin lokaúttekt byggingarfulltrúa.,Sótt er um leyfi til að breyta innra skipulagi í atvinnuhúsi á lóð nr. 2-4 við Vínlandsleið. Gjald kr. 9.500
47250 (01.18.420.5),http://gamli.rvk.is/vefur/owa/edutils.parse_page?nafn=BN047250,Þórsgata 10,"Fækka íbúðum mhl 01 svalir, útitröppur o.fl.",Frestað. Vísað til athugasemda á umsóknarblaði.,"Sótt er um leyfi til að breyta innra skipulagi í mhl. 01, fækka þar íbúðum úr þrem í tvær og byggja tvennar svalir á bakhlið húss á lóð nr. 10 við Þórsgötu. Erindi fylgir umsögn Minjastofnunar Íslands dags. 21. febrúar 2014. Gjald kr. 9.500"
47237 (01.22.000.4),http://gamli.rvk.is/vefur/owa/edutils.parse_page?nafn=BN047237,Þórunnartún 4,Niðurrif -  mhl1 - mhl2 - hluta af mhl3,Frestað. Vísað til athugasemda á umsóknarblaði.,"Sótt er um leyfi til að rífa mhl. 01, mhl. 02 og hluta mhl. 03 sem eru skemmur bak við skrifstofuhús á lóð nr. 4 við Þórunnartún. Niðurrif mhl.01:  xx ferm., xx rúmm., mhl. 02:  xx ferm., xx rúmm., mhl. 03:  xx ferm., xx rúmm. Gjald kr. 9.500"
47238 (01.55.311.0 06),http://gamli.rvk.is/vefur/owa/edutils.parse_page?nafn=BN047238,Þrastargata 7,Reyndarteikningar,Frestað. Vísað til athugasemda á umsóknarblaði.,"Sótt er um leyfi fyrir áður gerðum breytingum v/lokaúttektar, sjá erindi BN045916, þar sem m.a. er felldur út björgunarstigi og björgunarop fært á einbýlishúsi á lóð nr. 7 við Þrastargötu.  Gjald kr. 9.500"
46596 (01.13.541.1),http://gamli.rvk.is/vefur/owa/edutils.parse_page?nafn=BN046596,Öldugata 28,Stækkun til norðurs og vesturs,Samþykkt.  Samræmist ákvæðum laga nr. 160 / 2010. Með vísan til samþykktar borgarráðs frá 1. september 1998 skal utanhúss- og lóðarfrágangi vera lokið eigi síðar en innan tveggja ára frá útgáfu byggingarleyfis að viðlögðum dagsektum sbr. greinar nr. 2.4.7 og 2.9.2 í byggingarreglugerð nr. 112/2012. Frágangur á lóðamörkum verði gerður í samráði við lóðarhafa aðliggjandi lóða. Áskilin lokaúttekt byggingarfulltrúa.,"Sótt er um leyfi til að byggja viðbyggingu við norðurhlið, kjallara, tvær hæðir og ris, stækka anddyrisviðbyggingu á vesturhlið og gera svalir á þaki hennar og byggja bílskúr með verönd og garði á þaki við austurhlið einbýlishúss á lóð nr. við Öldugötu. Umsögn skipulagsfulltrúa dags. 15. janúar 2014 fylgir erindinu. Tillagan var grenndarkynnt frá 27. nóvember til og með 27. desember 2013. Eftirtaldir aðilar sendu athugasemdir: Áróra Pálsdóttir dags. 30. nóvember 2013, Eiríkur Dór Jónsson og Áróra Pálsdóttir dags. 18. desember 2013 og Eva Gestsdóttir, Ásta B. Jónsdóttir og Einar I. Halldórsson eigendur að Bárugötu 33 dags. 27. desember 2013. Niðurrif:  Fastanr. 200-1547 mhl. 70 merkt 0101 bílskúr 1931 17,4 ferm., einnig kjallarainngangur og tröppur, kvistur, bakdyrainnangur og snyrting. Niðurrif samtals:  36,8 ferm., 91,5 rúmm. Viðbyggingar og bílskúr:  111 ferm., 308,2 rúmm. Gjald kr. 9.000"
47165 (01.13.430.4),http://gamli.rvk.is/vefur/owa/edutils.parse_page?nafn=BN047165,Öldugata 55,Kvistir og svalir,Frestað. Vísað til athugasemda á umsóknarblaði.,"Sótt er um leyfi til að byggja kvisti og svalir á norðurhlið og stækka þakglugga á suðurhlið fjölbýlishúss á lóð nr. 55 við Öldugötu. Útskrift úr gerðabók embættisafgreiðslufundar skipulagsfulltrúa frá 21. janúar 2014 fylgir erindinu ásamt umsögn skipulagsfulltrúa dags. 21. febrúar 2014. Stækkun 6,6 ferm., 37,4 rúmm. Gjald kr. 9.500"
47256 (01.33.080.1),http://gamli.rvk.is/vefur/owa/edutils.parse_page?nafn=BN047256,Klettagarðar 7,mæliblað,Samþykkt.  Samræmist ákvæðum laga nr. 160 / 2010.,"Óskað er eftir samþykki byggingarfulltrúans á nýju mæliblaði fyrir lóðina nr. 7 við Klettagarða, mæliblaðið er í samræmi við deiliskipulag lóðarinnar sem samþykkt var 10. janúar 2014. Helstu breytingar eru að byggingarreitur er breyttur frá fyrra skipulagi og lóðin minnkuð en áðurgreind kvöð um spennistöð er felld niður og gerð er ný lóð fyrir spennistöðina, ennfremur er aðkoma að lóðinni nú frá botlanga á móts við lóðina nr. 11. Aðkoma að spennistöð er frá botnlanga að lóðunum nr. 1, 3 og 5."
47263 (01.17.221.8),http://gamli.rvk.is/vefur/owa/edutils.parse_page?nafn=BN047263,Laugavegur 36,mæliblað,Samþykkt.  Samræmist ákvæðum laga nr. 160 / 2010.,"Óskað er eftir  samþykki byggingarfulltrúans til að gefa út breytingablað og lóðauppdrátt vegna lóðarinnar Laugavegur 36 (staðgr. 1.172.218, landnr. 101473), lóðin er talin 498 m², lóðin reynist.507 m², lóðin verður 507 m² Lóðin Laugavegur 36 er nú hnitsett í Hnitakerfi Reykjavíkur 1951, sbr. uppdrætti í safni Landupplýsingadeildar og sbr. rannsóknarvinnu á staðnum, við þetta breytast lengdir og stærð lóðar lítillega. Sjá deiliskipulag samþykkt í byggingarnefnd þann 19. 03. 2003, samþykkt í borgarráði þann 25. 03. 2003 og auglýst í B-deild Stjórnartíðinda þann 28. 05. 2003."
47232 (01.14.040.7),http://gamli.rvk.is/vefur/owa/edutils.parse_page?nafn=BN047232,Austurstræti 12,(fsp) - Austurstr. 12-14 - Útiveitingar v/Vallarstræti,Frestað. Vísað til skrifstofu reksturs- og umhirðu.,Spurt er hvort leyft yrði að breyta fyrirkomulagi á útiveitingasvæði í Vallarstræti framan við hús nr. 12 og 14 á lóð nr. 12 við Austurstræti.
47112 (01.15.441.2),http://gamli.rvk.is/vefur/owa/edutils.parse_page?nafn=BN047112,Barónsstígur 5,(fsp) - Gistiheimili - 2. hæð,Jákvætt. Að uppfylltum skilyrðum með vísan til umsagnar skipulagsfulltrúa dags. 19. febrúar 2014. Sækja skal um byggingarleyfi.,Spurt er hvort leyft yrði að starfrækja gistiheimili á annarri hæð hússins á lóðinni nr. 5 við Barónsstíg. Útskrift úr gerðabók embættisafgreiðslufundar skipulagsfulltrúa frá 21. febrúar 2014 fylgir erindinu ásamt umsögn skipulagsfulltrúa dags. 19. febrúar 2014. Bréf eins eigenda dags. 17. febrúar 2014 fylgir erindinu
47215 (01.18.030.9),http://gamli.rvk.is/vefur/owa/edutils.parse_page?nafn=BN047215,Bergstaðastræti 13,(fsp) - Skipting lóðar/breyting bakarís o.fl.,Frestað. Málinu vísað til umsagnar skipulagsfulltrúa.,"Spurt er hvort, A, skipta megi lóðinni nr. 13 við Bergstaðastræti þannig að hluti hennar, þar sem nú er nýbygging, verði við Spítalastíg, einnig er spurt, B, hvort draga megi stækkun bakarísins til baka og innrétta í staðinn á jarðhæð nýbyggingar skrifstofu og tvær geymslur fyrir íbúðir á 3. og 4. hæð hússins á lóð nr 13 við Bergstaðastræti. Meðfylgjandi skissa ,C, sýnir samþykkt fyrirkomulag."
47248 (01.81.410.8),http://gamli.rvk.is/vefur/owa/edutils.parse_page?nafn=BN047248,Breiðagerði 7,"(fsp) - Klæðning, stækkun, og kvistir",Frestað. Málinu vísað til umsagnar skipulagsfulltrúa.,"Spurt er hvort leyft yrði að klæða hús með báruáli, byggja fimm kvisti og hækka rishæð hússins lóðinni nr. 7 við Breiðagerði."
47255 (01.24.780.9),http://gamli.rvk.is/vefur/owa/edutils.parse_page?nafn=BN047255,Gunnarsbraut 47,(fsp) - Bílastæði,Frestað. Málinu vísað til umsagnar skipulagsfulltrúa.,Spurt er hvort leyft yrði að útbúa bílastæði í suðausturhorni lóðarinnar nr. 47 við Gunnarsbraut. Bréf fyrirspyrjanda dags. 17. febrúar 2014 fylgir erindinu.
47222 (04.07.000.1),http://gamli.rvk.is/vefur/owa/edutils.parse_page?nafn=BN047222,Höfðabakki 1,(fsp) - Hlið og girðing,Jákvætt. Að uppfylltum skilyrðum þar á meðal samþykki meðeigenda. Sækja skal um byggingarleyfi.,Spurt er hvort leyfi fengist til að girða og setja hlið og malbika lóðina nr. 1 við Höfðabakka.
47253 (01.17.433.0),http://gamli.rvk.is/vefur/owa/edutils.parse_page?nafn=BN047253,Laugavegur 86-94,(fsp) - Stækkun - 4.hæð,Frestað. Málinu vísað til umsagnar skipulagsfulltrúa.,Spurt er hvort leyft yrði að stækka 4. hæð til vesturs í  fjölbýlishúsi á lóð nr. 86-94 við Laugaveg.
47244 (04.05.570.1),http://gamli.rvk.is/vefur/owa/edutils.parse_page?nafn=BN047244,Malarhöfði 2-2A,(fsp) - Íbúð 2.hæð,Frestað. Málinu vísað til umsagnar skipulagsfulltrúa.,Spurt er hvort leyfi fengist til að breyta rými 0201 sem er um 218 ferm. í íbúð í húsinu á lóð nr. 2 við Malarhöfða.
47231 (01.24.221.1),http://gamli.rvk.is/vefur/owa/edutils.parse_page?nafn=BN047231,Skipholt 15,(fsp) - Breyta verslun í íbúð,Nei. Samanber umsögn skipulagsfulltrúa um sama efni dags. 6. júní 2013.,Spurt er hvort leyft yrði að breyta verslunarrými 0103 í íbúð á fyrstu hæð hússins á lóðinni nr. 15 við Skipholt. Umsögn skipulagsfulltrúa vegna svipaðrar fyrirspurnar dags. 6. júní 2013 fylgir erindinu.
47123 (01.24.221.1),http://gamli.rvk.is/vefur/owa/edutils.parse_page?nafn=BN047123,Skipholt 15,(fsp) - Gistiheimili,Nei. Með vísan til umsagnar skipulagsfulltrúa dags. 19. febrúar 2014.,Spurt er hvort leyft yrði að breyta fyrirkomulagi verslunarrýmis 0105 og starfrækja þar gististað í tengslum við gistiheimili sem samþykkt var 21. janúar 2014 í húsinu á lóðinni nr. 15 við Skipholt. Útskrift úr gerðabók embættisafgreiðslufundar skipulagsfulltrúa frá 21. janúar 2014 fylgir erindinu ásamt umsögn skipulagsfulltrúa dags. 19. febrúar 2014.
47138 (01.24.121.0),http://gamli.rvk.is/vefur/owa/edutils.parse_page?nafn=BN047138,Skipholt 9-Stúfh 1-3,(fsp) - Skipholt 9 - Íbúðir,Nei. Með vísan til umsagnar skipulagsfulltrúa dags. 18. febrúar 2014.,Spurt er hvort leyfi fengist til að útbúa 2. íbúðir á 1. hæð í atvinnuhúsi á á lóð nr. 9 við Skipholt. Útskrift úr gerðabók embættisafgreiðslufundar skipulagsfulltrúa frá 21. febrúar 2014 fylgir erindinu ásamt umsögn skipulagsfulltrúa dags. 18. febrúar 2014.
47187 (01.19.741.5),http://gamli.rvk.is/vefur/owa/edutils.parse_page?nafn=BN047187,Sóleyjargata 29,(fsp) - Íbúð í kjallara,Nei. Með vísan til útskriftar úr gerðabók embættisafgreiðslufundar skipulagsfulltrúa frá 21. febrúar 2014.,Spurt er hvort leyft yrði að grafa frá suðurhlið og innrétta íbúð í kjallara einbýlishússins á lóðinni nr. 29 við Sóleyjargötu. Útskrift úr gerðabók embættisafgreiðslufundar skipulagsfulltrúa frá 21. febrúar 2014 fylgir erindinu ásamt umsögn skipulagsfulltrúa dags. 7. nóvember 2013.
47234 (05.05.450.6),http://gamli.rvk.is/vefur/owa/edutils.parse_page?nafn=BN047234,Urðarbrunnur 72-74,(fsp) - Breyting á þaki,Nei. Samræmist ekki deiliskipulagi.,Spurt er hvort breyta megi þakformi á áður samþykktu einbýlishúsi á lóð nr. 72-74 við Urðarbrunn.
47245 (00.00.000.0 03),http://gamli.rvk.is/vefur/owa/edutils.parse_page?nafn=BN047245,Vatnsstígur 3b,(fsp) - Svalagangur 2.hæð,Frestað. Höfundur hafi samband við embætti byggingarfulltrúa.,Spurt er hvort leyft yrði að byggja svalagang á annarri hæð austurhliðar hússins Vatnsstígur 3B á lóðinni Laugavegur 31. Bréf fyrirspyrjanda dags. 18. febrúar fylgir erindinu.
47257 (01.38.210.7),http://gamli.rvk.is/vefur/owa/edutils.parse_page?nafn=BN047257,Vesturbrún 28,(fsp) - Breyta skráningu í þrjár íbúðir,Frestað. Málinu vísað til umsagnar skipulagsfulltrúa.,Spurt er hvort leyfi fengist til að breyta einbílshúsi í þrjár íbúðir á lóð nr. 28 við Vesturbrún. Bréf eigenda dags. 1. feb. 2014 og ljósmyndir fylgja
45718 (02.34.320.4),http://gamli.rvk.is/vefur/owa/edutils.parse_page?nafn=BN045718,Vættaborgir 67-69,(fsp) - Svalaskýli nr. 67,Nei. Samræmist ekki gildandi deiliskipulagi.,Spurt er hvort leyft yrði að byggja glerskála á svölum parhúss nr. 67 á lóðinni nr. 67-69 við Vættaborgir. Samþykki eigenda Vættaborga 69 (á teikn.) fylgir erindinu.
