nr,url,heimilisfang,tegund,nidurstada,spurning
47437 (01.14.041.5),http://gamli.rvk.is/vefur/owa/edutils.parse_page?nafn=BN047437,Aðalstræti 7,Endurbætur og viðbygging,Frestað. Vísað til athugasemda eldvarnaeftirlits á umsóknarblaði.,"Sótt er um leyfi til að endurbæta og byggja við friðuð hús við Aðal- og Vallarstræti skv. deiliskipulagi sem samþykkt var í júlí 2013 fyrir íbúðir og þjónustustarfsemi, framkvæmd þessi er fyrsti hluti uppbyggingar á Landsímareit á lóð nr. 7 við Aðalstræti. Meðfylgjandi er bréf verkfræðings dags. 28. mars 2014, útreikningur á varmatapi dags. 25. mars 2014, greinargerð um stærðarbreytingar dags. 29.apríl 2014, umsögn Minjastofnunar Íslands dags. 5. maí 2014, umsögn Minjasafns Reykjavíkur dags. 24. maí 2014 og greinargerð vegna bílastæða dags. 26. maí 2014 ásamt útskrift úr gerðabók embættisafgreiðslufundar skipulagsfulltrúa frá 25. apríl 2014 og umsögn skipulagsfulltrúa dags. 25. apríl 2014. Viðbygging 734,3 ferm., 2.374,4 rúmm. Stækkun samtals 743,8 ferm., 2.374,4 rúmm. Gjald kr. 9.500"
47626 (01.11.980.1),http://gamli.rvk.is/vefur/owa/edutils.parse_page?nafn=BN047626,Austurbakki 2,Fjölnota rými kjallara áK2,"Samþykkt.  Samræmist ákvæðum laga nr. 160 / 2010. Skilyrt er að ný eignaskiptayfirlýsing sé samþykkt fyrir útgáfu byggingarleyfis, henni verður þinglýst eigi síðar en við lokaúttekt. Áskilin lokaúttekt byggingarfulltrúa. Áskilið samþykki heilbrigðiseftirlits.","Sótt er um leyfi til að innrétta fjölnotarými í kjallara K2 og K1, WE/W10-W12, mhl. 01, fyrir 120 gesti í Hörpu tónlistarhúsi á lóð nr. 2 við Austurbakka. Meðfylgjandi er bréf arkitekts dags. 29. apríl 2014 og annað dags. 16. maí 2014. Gjald kr. 9.500 + 9.500"
47332 (01.26.310.3),http://gamli.rvk.is/vefur/owa/edutils.parse_page?nafn=BN047332,Ármúli 13,1.hæð - breyting á brunaskilum í anddyri,Frestað. Vísað til athugasemda á umsóknarblaði.,Sótt er um leyfi til að breyta brunaskilum í anddyri á 1. hæð húss á lóð nr. 13 við Ármúla. Gjald kr. 9.500
47780 (01.26.300.1),http://gamli.rvk.is/vefur/owa/edutils.parse_page?nafn=BN047780,Ármúli 9,Heilsu- og endurhæfingastöð,Frestað. Vísað til athugasemda á umsóknarblaði.,"Sótt er um leyfi til að innrétta heilsumiðstöð þar sem fyrirhugað er að reka margþætta starfsemi á sviði heilsuverndar,  endurhæfingar og skurðstofur í  húsi á lóð nr. 9 við Ármúla. Skýrsla brunahönnuðar dags. 27. maí 2014 fylgir. Stækkun: XX ferm., XX rúmm.  Gjald kr. 9.500"
47768 (04.06.410.2),http://gamli.rvk.is/vefur/owa/edutils.parse_page?nafn=BN047768,Bíldshöfði 14,Endurnýjun BN044509,Frestað. Vísað til athugasemda á umsóknarblaði.,Sótt er um leyfi til þess að breyta innra fyrirkomulagi og færa leiksvæði barna í veitingahúsi í flokki II á fyrstu hæð hússins á lóð nr. 14 við Bíldshöfða. Sjá erindi BN044509. Gjald kr. 9.500
47736 (04.05.560.3),http://gamli.rvk.is/vefur/owa/edutils.parse_page?nafn=BN047736,Bíldshöfði 5A,"Breytingar v/lokaúttektar Br. BN034282
",Samþykkt.  Samræmist ákvæðum laga nr. 160 / 2010. Áskilin lokaúttekt byggingarfulltrúa.,"Sótt er um samþykki á neyðarlýsingu og og smávægilegum breytingum á afgreiðslu, sjá erindi BN034282, vegna lokaúttektar á húsi á lóð nr. 5a við Bíldshöfða. Gjald kr. 9.500"
47770 (04.06.200.1),http://gamli.rvk.is/vefur/owa/edutils.parse_page?nafn=BN047770,Bíldshöfði 9,Dvergshöfði 2 - breyting inni 1. og 2.hæð,Frestað. Vísað til athugasemda á umsóknarblaði.,"Sótt er um leyfi til að koma fyrir nýjum inngangi með skyggni yfir á norðurhlið 1. hæðar á mhl. 04, koma fyrir verslun á 1. hæð og breyta innra fyrirkomulagi á 2. hæð, koma fyrir skilti  á norðvesturhluta lóðar og breyta rýmisnúmerum á 1. og 2. hæð í húsi nr. 2 við Dvergshöfða á lóð nr. 9 við Bíldshöfða. Gjald kr. 9.500"
47322 (01.24.120.3),http://gamli.rvk.is/vefur/owa/edutils.parse_page?nafn=BN047322,Brautarholt 4,Gistiheimili á 2. hæð,"Samþykkt.  Samræmist ákvæðum laga nr. 160 / 2010. Með vísan til samþykktar borgarráðs frá 1. september 1998 skal utanhúss- og lóðarfrágangi vera lokið eigi síðar en innan tveggja ára frá útgáfu byggingarleyfis að viðlögðum dagsektum sbr. greinar nr. 2.4.7 og 2.9.2 í byggingarreglugerð nr. 112/2012. Skilyrt er að ný eignaskiptayfirlýsing sé samþykkt fyrir útgáfu byggingarleyfis, henni verður þinglýst eigi síðar en við lokaúttekt. Áskilin lokaúttekt byggingarfulltrúa. Áskilið samþykki heilbrigðiseftirlits.",Sótt er um leyfi til þess að byggja flóttastiga á bakhlið (suðurhlið) og innrétta gistiheimili í hluta annarrar hæðar í matshluta 02 á lóð nr. 4 við Brautarholt. Erindi fylgir samþykki meðeiganda vegna reksturs gistiheimilis og staðsetningu brunastiga dags. 23. maí 2014. Gjald kr. 9.500 + 9.500
47645 (01.13.430.7),http://gamli.rvk.is/vefur/owa/edutils.parse_page?nafn=BN047645,Brekkustígur 10,Hækka mæni - bæta við kvistum,Frestað. Vísað til athugasemda á umsóknarblaði. Málinu vísað til umsagnar skipulagsfulltrúa.,"Sótt er um leyfi til að hækka mæni og bæta við kvistum á íbúðarhús á lóð nr. 10 við Brekkustíg. Stækkun: xx ferm., xx rúmm. Gjald 9.500"
47779 (02.57.600.1),http://gamli.rvk.is/vefur/owa/edutils.parse_page?nafn=BN047779,Bæjarflöt 1-3,Færa brunavarnarvegg,Frestað. Vísað til athugasemda á umsóknarblaði.,Sótt er um leyfi til að fjarlægja brunavarnavegg þannig að lager og þjálfunarsvæði verður í sama brunahólfi í húsinu á lóð nr. 1-3 við Bæjarflöt.  Sbr. erindið BN040502 Gjald kr. 9.500
47785 (01.45.230.5),http://gamli.rvk.is/vefur/owa/edutils.parse_page?nafn=BN047785,Dugguvogur 1B,Endurbygging eftir bruna,Frestað. Vísað til athugasemda á umsóknarblaði.,Sótt er um leyfi til að endurbyggja efri hæð suður eftir bruna þann 30.1. 2014 í sömu mynd og skv. gildandi teikningum atvinnuhúsið á lóð nr. 1B við Dugguvog. Gjald kr. 9.500
47668 (34.53.410.1),http://gamli.rvk.is/vefur/owa/edutils.parse_page?nafn=BN047668,Esjumelur 13-19,Girðing (Esjumelar 2),Samþykkt.  Samræmist ákvæðum laga nr. 160 / 2010.,Sótt er um leyfi til 24 mánaða fyrir 2 metra hárri girðingu utan um geymslusvæði innan byggingarreits á lóð nr. 13-19 við Esjumela. Meðfylgjandi er bréf aðalhönnuðar dags. 27.5. 2014. Gjald kr. 9.500
47518 (01.53.211.2),http://gamli.rvk.is/vefur/owa/edutils.parse_page?nafn=BN047518,Faxaskjól 26,"Kvistur, klæðning, svalir, stigi inni",Frestað. Vísað til athugasemda á umsóknarblaði. Málið er í grenndarkynningu.,"Sótt er um leyfi til að byggja kvist á vesturhlið, lengja kvist á austurhlið, byggja svalir á suður- og vesturhlið, nýjan inngang á norðurhlið, einangra og klæða að utan með timbri og breyta innra skipulagi í einbýlishúsi á lóð nr. 26 við Faxaskjól. Útskrift úr gerðabók embættisafgreiðslufundar skipulagsfulltrúa frá 2. maí 2014 fylgir erindinu ásamt umsögn skipulagsfulltrúa dags. 29. apríl 2014. Stækkun:  xx ferm., xx rúmm. Gjald kr. 9.500"
47774 (01.15.321.7),http://gamli.rvk.is/vefur/owa/edutils.parse_page?nafn=BN047774,Frakkastígur 5,Reyndarteikningar,Frestað. Vísað til athugasemda á umsóknarblaði.,Sótt er um leyfi fyrir áður gerðum breytingum vegna eignaskiptalýsingu af húsinu á lóð nr. 5 við Frakkastíg.  Gjald kr. 9.500
47585 (01.15.251.3),http://gamli.rvk.is/vefur/owa/edutils.parse_page?nafn=BN047585,Frakkastígur 6A,Viðbygging - gistiheimili,Frestað. Vísað til athugasemda á umsóknarblaði.,"Sótt er um leyfi til að byggja tveggja hæða steinsteypta viðbyggingu í sundi norðan húss og innrétta gististað með 11 gistieiningum í flokki II á lóð nr. 6A við Frakkastíg. Erindi fylgir umsögn Minjastofnunar Íslands dags. 15. maí 2014. Stækkun:  77,3 ferm., 263,5 rúmm. Gjald kr. 9.500"
47643 (01.17.210.9),http://gamli.rvk.is/vefur/owa/edutils.parse_page?nafn=BN047643,Frakkastígur 8,"Fjölbýlishús
ATH. ekki samþ. fyrr en búið er að ganga frá lóðamálum",Frestað. Vísað til athugasemda á umsóknarblaði.,"Sótt er um leyfi til að byggja 1. og  2. áfanga nýbygginga á svokölluðum Frakkastígsreit, Hverfisgötu 58-60, mhl. 02, steinsteypt fimm hæða fjölbýlishús með fimmtán íbúðum á efri hæðum, verslun og þjónustu á jarðhæð og bílakjallara og mhl. 03, Laugavegur 41A, fjögurra hæða fjölbýlishús með átta íbúðum á sameinaðri lóð nr. 8 við Frakkastíg. Meðfylgjandi er greinargerð um algilda hönnun dags. 5. maí 2014, orkurammi dags. 1. maí 2014, umsögn Minjastofnunar dags. 8. maí 2013, greinargerð hönnuðar um skipulagsskilmála dags. 20. og 27. maí 2014 og bílastæðabókhald, ódagsett. Stærð mhl.02:  3.027,3 ferm., 9.522,5 rúmm. Stærð mhl.03:  959,5 ferm., 3.107,9 Samtals:  3.986,8 ferm., 12.630,4 Gjald kr. 9.500"
47758 (01.18.341.5),http://gamli.rvk.is/vefur/owa/edutils.parse_page?nafn=BN047758,Fríkirkjuvegur 7,Breytt brunahönnun,Frestað. Vísað til athugasemda á umsóknarblaði.,Sótt er um leyfi fyrir nýrri brunahönnun og uppsetningu handriða við loftstokka á suðurhlið höggmyndatorgs Listasafns Íslands á lóð nr. 7 við Fríkirkjuveg. Gjald kr. 9.500
47298 (05.05.640.5),http://gamli.rvk.is/vefur/owa/edutils.parse_page?nafn=BN047298,Gerðarbrunnur 24-26,Stoðveggur,Samþykkt.  Samræmist ákvæðum laga nr. 160 / 2010. Frágangur á lóðamörkum verði gerður í samráði við lóðarhafa aðliggjandi lóða. Áskilin lokaúttekt byggingarfulltrúa.,"Sótt er um leyfi til að byggja stoðvegg á lóðarmörkum að Úlfarsbraut, sjá erindi BN037555, og hækka um 45 cm lóðarveggi austan og vestan parhúss á lóð nr. 24-26 við Gerðarbrunn. Umsögn skrifstofu rekstur- og umhirðu dags. 8. maí 2014, bréf frá eigendum ódagsett og samþykki á teikningu frá eiganda Gerðarbrunns 22 fylgir erindinu. Gjald kr. 9.500"
47704 (01.11.510.1),http://gamli.rvk.is/vefur/owa/edutils.parse_page?nafn=BN047704,Grandagarður 8,Breytingar 1.og 2.hæð,Samþykkt.  Samræmist ákvæðum laga nr. 160 / 2010. Áskilin lokaúttekt byggingarfulltrúa. Áskilið samþykki heilbrigðiseftirlits.,"Sótt er um samþykki á breytingum innanhúss, sjá erindi BN045353, sem fjallar um stiga milli 1. og 2. hæðar, lagfæra brunamerkingar, innrétta skrifstofu í vesturenda, færa kaffistofu á 2. hæð og falla frá breytingum á eldhúsi, veitinga/kaffisal og snyrtingum á 1. hæð sjóminjasafns á lóð nr. 8 við Grandagarð. Gjald kr. 9.500"
47179 (01.80.121.4),http://gamli.rvk.is/vefur/owa/edutils.parse_page?nafn=BN047179,Grensásvegur 24,Breyting inni,Frestað. Vísað til athugasemda eldvarnaeftirlits á umsóknarblaði.,"Sótt er um leyfi til að breyta nýsamþykktu erindi BN046421, breytingar felast í að innrétta aðstöðu fyrir starfsfólk í kjallara, innrétta stærri móttöku og setustofu á 1. hæð og færa handlaugar á 2. hæð í gistiheimili á lóð nr. 24 við Grensásveg. Meðfylgjandi er bréf aðalhönnuðar dags. 14.4. 2014 og greinargerð burðarvirkishönnuðar dags. 28.2. 2014. Gjald kr. 9.500 + 9.500"
47778 (01.21.630.3),http://gamli.rvk.is/vefur/owa/edutils.parse_page?nafn=BN047778,Guðrúnartún 8,Breytingar á lóð,Frestað. Vísað til athugasemda á umsóknarblaði.,Sótt er um leyfi til að breyta fyrirkomulagi á lóð atvinnuhúsa á lóð nr. 8 við Guðrúnartún. Gjald kr. 9.500
47347 (01.72.730.1),http://gamli.rvk.is/vefur/owa/edutils.parse_page?nafn=BN047347,Háaleitisbraut 68,Kjallari breyting - reyndarteikning 2.hæð,Samþykkt.  Samræmist ákvæðum laga nr. 160 / 2010. Áskilin lokaúttekt byggingarfulltrúa. Áskilið samþykki heilbrigðiseftirlits.,Sótt er um leyfi á að breyta innréttingum í kjallara og fyrir áður gerðum breytingum á 2. hæð í húsinu á lóð nr. 68 við Háaleitisbraut. Bréf frá hönnuði dags. 10. mars 2014 fylgir erindi.  Gjald kr. 9.500
47748 (04.34.330.1),http://gamli.rvk.is/vefur/owa/edutils.parse_page?nafn=BN047748,Hraunbær 102,102 B-E - Klæðning,Frestað. Vísað til athugasemda á umsóknarblaði.,"Sótt er um leyfi til að klæða með báruálklæðningu suðurhlið og austurgafl, framlengja þak yfir svalir á efstu hæð og endurnýja handrið á svölum í húsinu á lóð nr. 102 B,C,d og E við Hraunbæ. Umsögn burðarvirkishönnuðar um ástand veggja dags. 15. mars 2013 og fundargerð frá húsfélagsfundi dags. 3. apríl 2014 fylgir.  Gjald kr. 9.500"
47642 (01.17.210.2),http://gamli.rvk.is/vefur/owa/edutils.parse_page?nafn=BN047642,Hverfisgata 54,Flóttaleiðir - breyting,Frestað. Vísað til athugasemda heilbrigðiseftirlits á umsóknarblaði.,"Sótt er um leyfi til að breyta flóttaleiðum og brunamerkingum á 2.hæð, felld er út björgunarleið um bakhús á lóðinni Laugavegur 41A og hún færð inn í húsið á lóð nr. 54 við Hverfisgötu. Bréf frá hönnuði dags. 5. maí 2014 og samþykki eiganda dags. 15. maí 2014  fylgir erindi. Gjald kr. 9.500"
47674 (01.17.210.2),http://gamli.rvk.is/vefur/owa/edutils.parse_page?nafn=BN047674,Hverfisgata 54,Breytingar inni - 4.hæð,Frestað. Vísað til athugasemda á umsóknarblaði.,Sótt er um leyfi til breytinga innréttingum í íbúð á fjórðu hæð og sett hurð af stigapalli út á svalir í húsi á lóð nr. 54 við Hverfisgötu. Meðfylgjandi er samþykki sumra meðeigenda og bréf umsækjanda dags. 2.6. 2014. Gjald kr. 9.500
47470 (01.17.210.3),http://gamli.rvk.is/vefur/owa/edutils.parse_page?nafn=BN047470,Hverfisgata 56,2.hæð - Gistiheimili - svalir,Frestað. Vísað til athugasemda á umsóknarblaði.,Sótt er um leyfi til að byggja svalir á 2. og 3. hæð á norðurhlið og innrétta gistiheimili á 2. hæð húss á lóð nr. 56 við Hverfisgötu. Útskrift úr gerðabók embættisafgreiðslufundar skipulagsfulltrúa frá 25. apríl 2014 fylgir erindinu ásamt umsögn skipulagsfulltrúa dags. 22. apríl 2014. Meðfylgjandi er samþykki meðeigenda á lóð. Gjald kr. 9.500
47514 (04.07.500.1),http://gamli.rvk.is/vefur/owa/edutils.parse_page?nafn=BN047514,Höfðabakki 9,Málaskólinn Mímir - breyting inni - stigi,Frestað. Vísað til athugasemda á umsóknarblaði.,"Sótt er um leyfi til að innrétta skóla á 2. hæð í  mhl. 04 og koma fyrir lyftu frá 1.hæð upp á 2. hæð og fjarlægja stiga úr tengiálmu sem liggur á milli 1. og 2. hæðar í húsinu á lóð nr. 9 við Höfðabakka. Stækkun vegna lokunar stigagats : 13,5 ferm. Gjald kr. 9.500"
47767 (01.44.121.1),http://gamli.rvk.is/vefur/owa/edutils.parse_page?nafn=BN047767,Karfavogur 25,Kvistur,Frestað. Vísað til athugasemda á umsóknarblaði.,"Sótt er um leyfi til að breyta nýsamþykktu erindi, sjá BN045970, og lengja kvist á einbýlishúsi á lóð nr. 25 við Karfavog. Stækkun 12,4 rúmm. Gjald kr. 9.500"
47775 (01.18.340.7),http://gamli.rvk.is/vefur/owa/edutils.parse_page?nafn=BN047775,Laufásvegur 20,Þakgluggi og svalahurð,Frestað. Vísað til athugasemda á umsóknarblaði.,Sótt er um leyfi til að setja átta þakglugga á vesturhlið og svalahurð til að koma fyrir frönskum svölum á rishæð hússins á lóð nr. 20 við Laufásveg. Umsögn Minjastofnun Íslands dags. 31 maí 2014 Gjald kr. 9.500
47733 (01.17.402.1),http://gamli.rvk.is/vefur/owa/edutils.parse_page?nafn=BN047733,Laugavegur 77,3.hæð - Breyting,Samþykkt.  Samræmist ákvæðum laga nr. 160 / 2010. Áskilin lokaúttekt byggingarfulltrúa.,"Sótt er um leyfi til að breyta áður samþykktu erindið BN046944 18. febrúar 2014 þannig að innra skipulagi er breytt  á 3. hæð, sameiginleg flóttaleið breytist og rýmisnúmerum verður breytt á 2. hæð og geymsla minnkuð í húsinu á lóð nr. 77 við Laugaveg. Gjald kr. 9.500"
47782 (01.15.220.4),http://gamli.rvk.is/vefur/owa/edutils.parse_page?nafn=BN047782,Lin29-33Vat13-21Skú12,Lindargata 37 - Samnýta íbúðir 2ja efstu hæðanna,Frestað. Vísað til athugasemda á umsóknarblaði.,"Sótt er um leyfi til að samnýta tímabundið íbúðir á tveim efstu hæðunum, 1001 og 1101, gera stiga á milli hæða, byggja milliloft með hringstiga og koma fyrir heitum potti, saunu og léttbyggðu skyggni á þakgarði efstu hæðar, sbr. samþykkt húsfélags í húsi nr. 17 við Lindargötu, mhl. 13, í fjölbýlishúsi á lóð nr. 14-16 við Skúlagötu.  Meðfylgjandi er eldvarnaskýrsla Eflu dags. í maí 2014 og samþykktir fyrir húsfélag 101 Skuggahverfi 2-3. Stækkun xx ferm. Gjald kr. 9.500"
47355 (01.15.241.0),http://gamli.rvk.is/vefur/owa/edutils.parse_page?nafn=BN047355,Lindargata 28,Lindargata 28-32 - Fjölbýlishús,"Samþykkt.  Samræmist ákvæðum laga nr. 160 / 2010. Með vísan til samþykktar borgarráðs frá 1. september 1998 skal utanhúss- og lóðarfrágangi vera lokið eigi síðar en innan tveggja ára frá útgáfu byggingarleyfis að viðlögðum dagsektum sbr. greinar nr. 2.4.7 og 2.9.2 í byggingarreglugerð nr. 112/2012. Frágangur á lóðamörkum verði gerður í samráði við lóðarhafa aðliggjandi lóða. Með vísan til samþykktar umhverfis- og skipulagsráðs, dags. 22. maí 2013, skal lóðarhafi, í samráði við byggingarfulltrúa, setja upp skilti til kynningar á fyrirhuguðum framkvæmdum á byggingarstað. Í samræmi við samþykkt umhverfis- og skipulagsráðs dags. 9. október 2013 skal vélknúinn þvottabúnaður vera til staðar á byggingarlóð sem tryggi að vörubílar og aðrar þungavinnuvélar verði þrifnar áður en þær yfirgefa byggingarstað. Samráð skal haft við byggingarfulltrúa um staðsetningu búnaðarins. Sérstakt samráð skal haft við yfirverkfræðing byggingarfulltrúa vegna jarðvinnu. Áskilin lokaúttekt byggingarfulltrúa.","Sótt er um leyfi til að byggja staðsteypt fjölbýlishús með 21 íbúð, þrjár hæðir, kjallari og ris ásamt bakhúsi, mhl. 02, sem í eru fjórar vinnustofur í eigu íbúða í mhl. 01 á lóð nr. 28-32 við Lindargötu. Útskrift úr gerðabók embættisafgreiðslufundar skipulagsfulltrúa frá 21. mars 2014 fylgir erindinu ásamt umsögn skipulagsfulltrúa dags. 21. mars 2013. Mhl. 01:  Kjallari 281,6 ferm., 1. hæð 326,8 ferm., 2. hæð 362,2 ferm., 3. hæð 362,2 ferm., 4. hæð 287,4 ferm. Mhl. 01 samtals:  1.620,2 ferm., 5.047 rúmm. Mhl. 02:  189,4 ferm., 698,5 rúmm. Gjald kr. 9.500"
47791 (01.15.241.0),http://gamli.rvk.is/vefur/owa/edutils.parse_page?nafn=BN047791,Lindargata 28,takmarkað byggingarleyfi,"Samþykkt.  Samræmist ákvæðum laga nr. 160 / 2010. Með vísan til samþykktar borgarráðs frá 1. september 1998 skal utanhúss- og lóðarfrágangi vera lokið eigi síðar en innan tveggja ára frá útgáfu byggingarleyfis að viðlögðum dagsektum sbr. greinar nr. 2.4.7 og 2.9.2 í byggingarreglugerð nr. 112/2012. Frágangur á lóðamörkum verði gerður í samráði við lóðarhafa aðliggjandi lóða. Með vísan til samþykktar umhverfis- og skipulagsráðs, dags. 22. maí 2013, skal lóðarhafi, í samráði við byggingarfulltrúa, setja upp skilti til kynningar á fyrirhuguðum framkvæmdum á byggingarstað. Í samræmi við samþykkt umhverfis- og skipulagsráðs dags. 9. október 2013 skal vélknúinn þvottabúnaður vera til staðar á byggingarlóð sem tryggi að vörubílar og aðrar þungavinnuvélar verði þrifnar áður en þær yfirgefa byggingarstað. Samráð skal haft við byggingarfulltrúa um staðsetningu búnaðarins. Sérstakt samráð skal haft við yfirverkfræðing byggingarfulltrúa vegna jarðvinnu. Samþykktin fellur úr gildi við útgáfu á endanlegu byggingarleyfi. Vegna útgáfu á takmörkuðu byggingarleyfi skal umsækjandi hafa samband við yfirverkfræðing embættis byggingarfulltrúa. Áskilin lokaúttekt byggingarfulltrúa.",Sótt er um takmarkað byggingarleyfi fyrir aðstöðusköpun og jarðvinnu að Lindargötu 28-32 samhliða samþykkt á erindi númer BN047355.
47769 (04.64.270.1),http://gamli.rvk.is/vefur/owa/edutils.parse_page?nafn=BN047769,Lóuhólar 2-6,Stigi milli 1.og 2.hæðar,Samþykkt.  Samræmist ákvæðum laga nr. 160 / 2010. Áskilin lokaúttekt byggingarfulltrúa. Áskilið samþykki heilbrigðiseftirlits.,Sótt er um leyfi til að koma fyrir stiga fyrir starfsfólk milli rýma 0116 og 0201 sem þjóni auk þess sem flóttaleið fyrir starfsfólk í stað núverandi lúgu í veitingastað í flokki III í húsinu á lóð  nr. 2-6 við Lóuhóla  Gjald kr. 9.500
47781 (01.18.000.1),http://gamli.rvk.is/vefur/owa/edutils.parse_page?nafn=BN047781,Lækjargata 5,Breytingar úti og inni,Frestað. Vísað til athugasemda á umsóknarblaði. Vísað til umsagnar samgöngustjóra.,"Sótt er um leyfi til að gera á ný útidyr að Bókhlöðustíg, breyta gangstétt fyrir utan, færa aðstöðu bókasafns, lestrarsalar, bókavarðar og bæta salernisaðstöðu fyrir fatlaða, bæta við hringstiga og fjölga flóttaleiðum þar með í tvær, lagfæra klæðningar og glerja að nýju steypujárnsglugga með opnanlegum fögum og endurnýja þak með skífum á Íþöku, Bókhlöðu Menntaskólans í Reykjavík á lóð nr. 5 við Lækjargötu. Meðfylgjandi er umsögn Minjasafns Reykjavíkur dags. 10. maí 2014 og umsögn Minjastofnunar Íslands dags. 5. maí 2014. Gjald kr. 9.500"
47784 (01.70.220.4),http://gamli.rvk.is/vefur/owa/edutils.parse_page?nafn=BN047784,Mávahlíð 8,Kvistir,Frestað. Vísað til athugasemda á umsóknarblaði. Málinu vísað til umsagnar skipulagsfulltrúa.,"Sótt er um leyfi til að innrétta íbúðarrými og eldhús og byggja kvisti á norður- og suðurhlið til samræmis við kvisti á vestari helming parhúss á lóð nr. 8 við Mávahlíð. Erindi fylgir samþykki eins meðlóðarhafa dags. 25. maí 2014 og bréf umsækjenda dags. 26. maí 2014. Stækkun:  10,2 rúmm. Gjald kr. 9.500"
47702 (01.54.201.4),http://gamli.rvk.is/vefur/owa/edutils.parse_page?nafn=BN047702,Melhagi 20-22,"22 - Br. inni, nýr inngangur",Frestað. Vísað til athugasemda á umsóknarblaði.,"Sótt er um leyfi til að breyta innra skipulagi í norðurhluta 1. hæðar, innrétta lyfjaverslun og útbúa nýjan inngang frá Hofsvallagötu í verslunar- og skrifstofuhúsi á lóð nr. 20-22 við Melhaga. Erindi fylgir samþykki meðeigenda í matshluta 01 dags. 19. maí 2014. Jafnframt er erindi BN047202 dregið til baka. Gjald kr. 9.500"
47756 (01.71.000.2),http://gamli.rvk.is/vefur/owa/edutils.parse_page?nafn=BN047756,Miklabraut 70,Stækka kvisti,Frestað. Vísað til athugasemda á umsóknarblaði.,Sótt er um leyfi til að stækka kvisti á norður- og suðurhlið fjölbýlishússins á lóð nr. 70 við Miklubraut. Stærðir stækkun: xx ferm. brúttó. Gjald kr. 9.500
47742 (01.11.530.3),http://gamli.rvk.is/vefur/owa/edutils.parse_page?nafn=BN047742,Mýrargata 26,Breytingar á sniðum og grunnmyndum,Samþykkt.  Samræmist ákvæðum laga nr. 160 / 2010. Frágangur á lóðamörkum verði gerður í samráði við lóðarhafa aðliggjandi lóða. Áskilin lokaúttekt byggingarfulltrúa.,"Sótt er um leyfi fyrir minniháttar breytingum á sniðum og grunnmyndum, sbr. erindi BN035993 samþ. 22. maí 2007,  fjölbýlishúss á lóð nr. 26 við Mýrargötu. Meðfylgjandi er A3 sett af teikningum sem sýna húsið fyrir breytingar og þær merktar inn.  Gjald kr. 9.500"
47762 (01.18.221.1),http://gamli.rvk.is/vefur/owa/edutils.parse_page?nafn=BN047762,Njálsgata 12,Hækka þak - kvistir,Frestað. Vísað til athugasemda á umsóknarblaði. Málinu vísað til  skipulagsfulltrúa til ákvörðunar um grenndarkynningu Vísað er til uppdráttar nr. A01-02 dags. 11. apríl 2014.,"Sótt er um leyfi til að hækka þak og byggja tvo kvisti á fjölbýlishús á lóð nr. 12 við Njálsgötu. Erindi fylgir samþykki meðlóðarhafa dags. 12. apríl 2014. Stækkun:  44,5 ferm., 52 rúmm. Gjald kr. 9.500"
47776,http://gamli.rvk.is/vefur/owa/edutils.parse_page?nafn=BN047776,Norðlingaholt,Göngubú - Breiðholtsbraut - Norðlingaholt,Frestað. Vísað til athugasemda á umsóknarblaði.,"Sótt er um leyfi til að byggja 70 metra langa, steinsteypta göngu- og hjólabrú yfir Breiðholtsbraut milli Árbæjar og Norðlingaholts , staðgreinir 4724. Gjald kr. 9.500"
47741 (01.74.310.1),http://gamli.rvk.is/vefur/owa/edutils.parse_page?nafn=BN047741,Ofanleiti 2,Breyta skólabyggingu í skrifstofuhúsnæði,Samþykkt.  Samræmist ákvæðum laga nr. 160 / 2010.,"Sótt er leyfi til að bæta við nöfnum upphaflegra arkitekta hússins inn í haus teikninga, sbr. erindi BN046954 samþ. 14. janúar 2014, af húsi á lóð nr. 2 við Ofanleiti. Gjald kr. 9.500"
47765 (01.63.550.6),http://gamli.rvk.is/vefur/owa/edutils.parse_page?nafn=BN047765,Reykjavíkurvegur 35,Bílskúr - færsla á byggingareit,Frestað. Vísað til athugasemda á umsóknarblaði. Málinu vísað til skipulagsfulltrúa til ákvörðunar um grenndarkynningu. Vísað er til  uppdráttar dags. 26. maí 2014.,"Sótt er um leyfi til að byggja steinsteyptan bílskúr við einbýlishús á lóð nr. 35 við Reykjavikurveg. Stærð:  44,7 ferm., 166 rúmm. Gjald kr. 9.500"
47552 (01.63.550.6),http://gamli.rvk.is/vefur/owa/edutils.parse_page?nafn=BN047552,Reykjavíkurvegur 35,Stækka kvist,Frestað. Grenndarkynningu ólokið.,"Sótt er um leyfi til að stækka kvist á einbýlishúsi á lóð nr. 35 við Reykjavíkurveg. Stækkun:  14,1 ferm., 49,1 rúmm. Gjald kr. 9.500"
46813 (00.06.400.0),http://gamli.rvk.is/vefur/owa/edutils.parse_page?nafn=BN046813,Saltvík 125744,Stöðuleyfi - Gámar,Samþykkt.  Samræmist ákvæðum laga nr. 160 / 2010.,"Sótt er um stöðuleyfi fyrir einn tuttugu feta og þrjá fjörutíu feta gáma austan við slátur- og matvinnsluhús (matshl. 15) á lóðinni Saltvík 125744. Minnisblað um eldvarnir dags. 10. mars 2014 fylgir erindinu, sem og öryggiskröfur fyrir F-gasgeymi á lóð dags. 27.5. 2014 og greinargerð um öryggismál vegna útgáfu stöðuleyfis fyrir gáma dags. 27.5. 2014. Gjald kr. 9.000 + 9.500"
47694 (01.29.520.2),http://gamli.rvk.is/vefur/owa/edutils.parse_page?nafn=BN047694,Síðumúli 32,3.hæð - Volcano Design - breytingar,Frestað. Málinu vísað til umsagnar skipulagsfulltrúa.,"Sótt er um leyfi til að breyta áður samþykktu erindi, BN047203 þannig að komið verður fyrir nuddaðstöðu og hreyfisal  á 3. hæð vesturenda og flóttastiga á vesturhlið frá 3. hæð niður á bílaplan hússins á lóð nr. 32 við Síðumúla. Gjald kr. 9.500"
47544 (01.19.600.8),http://gamli.rvk.is/vefur/owa/edutils.parse_page?nafn=BN047544,Sjafnargata 11,Bílskúr,Frestað. Grenndarkynningu ólokið,"Sótt er um leyfi til að stækka bílskúr og bæta við kaldri geymslu í vesturenda sbr. erindi BN046679 og færist við það bílskúrinn um tvo metra til austur, sbr. fyrirspurn BN047409, á lóð nr. 11 við Sjafnargötu. Stækkun, geymsla: 8 ferm., 21,3 rúmm. Gjald kr. 9.500 + 9.500"
47699 (01.18.140.4),http://gamli.rvk.is/vefur/owa/edutils.parse_page?nafn=BN047699,Skólavörðustígur 40,0301 - Breyting inni,Samþykkt.  Samræmist ákvæðum laga nr. 160 / 2010. Áskilin lokaúttekt byggingarfulltrúa.,Sótt er um leyfi til að breyta innra skipulagi í íbúð 0301 í íbúðar- og atvinnuhúsi á lóð nr. 40 við Skólavörðustíg. Gjald kr. 9.500
47794 (01.18.540.1),http://gamli.rvk.is/vefur/owa/edutils.parse_page?nafn=BN047794,Sóleyjargata 15,Svalir,Samþykkt.  Samræmist ákvæðum laga nr. 160 / 2010. Með vísan til samþykktar borgarráðs frá 1. september 1998 skal utanhúss- og lóðarfrágangi vera lokið eigi síðar en innan tveggja ára frá útgáfu byggingarleyfis að viðlögðum dagsektum sbr. greinar nr. 2.4.7 og 2.9.2 í byggingarreglugerð nr. 112/2012. Skilyrt er að þinglýst verði yfirlýsingu um samruna eigna eigi síðar en við lokaúttekt. Áskilin lokaúttekt byggingarfulltrúa.,Sótt er um leyfi til að steypa nýjar svalir í stað eldri timbursvala á vesturhlið íbúðarhúss á lóð nr. 15 við Sóleyjargötu. Samþykki meðeiganda fylgir dags. 3. júní 2014. Gjald kr. 9.500
47665 (01.19.741.5),http://gamli.rvk.is/vefur/owa/edutils.parse_page?nafn=BN047665,Sóleyjargata 29,Heimagisting fl.I - breyting inni,Frestað. Vísað til athugasemda eldvarnaeftirlits á umsóknarblaði.,Sótt er um leyfi til að breyta innra skipulagi og notkun þannig að bætt er við baðherbergum við herbergi á 2. og 3. hæð í einbýlishúsi á lóð nr. 29 við Sóleyjargötu.  Gjald kr. 9.500
47783 (04.64.690.3),http://gamli.rvk.is/vefur/owa/edutils.parse_page?nafn=BN047783,Starrahólar 3,Garðveggur,Frestað. Vísað til athugasemda á umsóknarblaði.,Sótt er um leyfi til að steypa vegg við göngustíg á suðaustur mörkum lóðar ásamt sorpgeymslu og síkka glugga í kjallara einbýlishúss á lóð nr. 3 við Starrahóla. Gjald kr. 9.500
47749 (04.32.680.1),http://gamli.rvk.is/vefur/owa/edutils.parse_page?nafn=BN047749,Stuðlaháls 1,Öryggisgirðing,Frestað. Vísað til athugasemda á umsóknarblaði.,"Sótt er um leyfi til að koma fyrir 12.000 lítra mjólkurtanki á steyptum undirstöðum með öryggisgirðingu úr stáli við austurvegg verksmiðju Vífilfells á lóð nr. 1 við Stuðlaháls. Stærðir: 4,9 ferm., 14,3 rúmm. Gjöld 9.500"
47493 (01.55.311.7),http://gamli.rvk.is/vefur/owa/edutils.parse_page?nafn=BN047493,Suðurgata 100,Reyndarteikningar - Br. BN042388,Samþykkt.  Samræmist ákvæðum laga nr. 160 / 2010. Með vísan til samþykktar borgarráðs frá 1. september 1998 skal utanhúss- og lóðarfrágangi vera lokið eigi síðar en innan tveggja ára frá útgáfu byggingarleyfis að viðlögðum dagsektum sbr. greinar nr. 2.4.7 og 2.9.2 í byggingarreglugerð nr. 112/2012. Áskilin lokaúttekt byggingarfulltrúa.,"Sótt er um leyfi fyrir áður gerðum breytingum á erindi BN042688, þannig að þak er framlengt yfir bíslag, glugga í risi er breytt í hurð í húsi á lóð nr. 100 við Suðurgötu. Gjald kr. 9.500"
47766 (04.67.00-.-),http://gamli.rvk.is/vefur/owa/edutils.parse_page?nafn=BN047766,Suðurhólar 14-18,Sólskýli,Frestað. Vísað til athugasemda á umsóknarblaði.,"Sótt er um leyfi til að byggja sólskála á suðurhlið við íbúð 0102 í fjölbýlishúsi  á lóð nr. 14-18 við Suðurhóla. Erindi fylgja samþykki meðeigenda í húsi nr. 14 dags. 20. febrúar 2014, einnig fsp. BN046226 dags. 2. júlí 2013 og BN047057 dags. 21. janúar 2014. Stækkun:  17,2 ferm., 44,1 rúmm. Gjald kr. 9.500"
47755 (01.26.310.2),http://gamli.rvk.is/vefur/owa/edutils.parse_page?nafn=BN047755,Suðurlandsbraut 16,Ármúli 13A - Gluggar norðurhlið,Frestað. Vísað til athugasemda á umsóknarblaði.,Sótt er um leyfi til að setja tvo nýja glugga á norðurhlið 1. hæðar atvinnuhúss í Ármúla 13A á lóð nr. 16 við Suðurlandsbraut Gjöld 9.500
47599 (01.26.110.1),http://gamli.rvk.is/vefur/owa/edutils.parse_page?nafn=BN047599,Suðurlandsbraut 2,Breyta innra fyrirkomulagi í austurenda,Frestað. Vísað til athugasemda heilbrigðiseftirlits á umsóknarblaði.,Sótt er um leyfi til að breyta innra fyrirkomulagi og innrétta bar fyrir 50 gesti sem verður tengdur rekstri hótelsins Nordica Hilton á lóð nr. 2 við Suðurlandsbraut. Gjald kr. 9.500 + 9.500
47773 (01.45.000.3),http://gamli.rvk.is/vefur/owa/edutils.parse_page?nafn=BN047773,Súðarvogur 2,Niðurrif,Samþykkt.  Samræmist ákvæðum laga nr. 160 / 2010. Með vísan til samþykktar borgarráðs frá 1. september 1998 skal utanhúss- og lóðarfrágangi vera lokið eigi síðar en innan tveggja ára frá útgáfu byggingarleyfis að viðlögðum dagsektum sbr. greinar nr. 2.4.7 og 2.9.2 í byggingarreglugerð nr. 112/2012. Þinglýsa skal yfirlýsingu um sameiningu fasteigna að niðurrifi loknu til að unnt sé að taka matshlutann af skrá. Áskilin lokaúttekt byggingarfulltrúa. Áskilið samþykki heilbrigðiseftirlits.,"Sótt er um leyfi til að rífa matshluta 02 lóð nr. 2 við Súðarvog. Niðurrif, mhl. 02:  Fastanr. 202-3158 merkt 0101 iðnaður 286,9 ferm. og fastanr. 230-4700 merkt 0102 iðnaður 286,9 ferm. Samtals niðurrif:  573,8 ferm., 2.618 rúmm. Gjald kr. 9.500"
47647 (04.02.310.8),http://gamli.rvk.is/vefur/owa/edutils.parse_page?nafn=BN047647,Tangabryggja 14-16,Breytingar - Br. BN047480/BN045775,"Samþykkt.  Samræmist ákvæðum laga nr. 160 / 2010. Með vísan til samþykktar borgarráðs frá 1. september 1998 skal utanhúss- og lóðarfrágangi vera lokið eigi síðar en innan tveggja ára frá útgáfu byggingarleyfis að viðlögðum dagsektum sbr. greinar nr. 2.4.7 og 2.9.2 í byggingarreglugerð nr. 112/2012.	 Skilyrt er að ný eignaskiptayfirlýsing sé samþykkt fyrir útgáfu byggingarleyfis, henni verður þinglýst eigi síðar en við lokaúttekt. Áskilin lokaúttekt byggingarfulltrúa.","Sótt er um leyfi til að breyta áður samþykktu erindi BN045775 þannig að þaksvölum verður lokað með svalalokun með 95% opnun og komið verður fyrir geymslum undir stiga á 1. hæð í húsinu á lóð nr. 14 -16 við Tangabryggju. Stækkun: 28,5 ferm., 70,8 rúmm.  Gjald kr. 9.500"
47772 (01.14.000.4),http://gamli.rvk.is/vefur/owa/edutils.parse_page?nafn=BN047772,Tryggvagata 22,Breytingar innanhúss,Frestað. Vísað til athugasemda á umsóknarblaði.,Sótt er um leyfi til að breyta innra skipulagi þannig að barir á 1. hæð og í kjallara veitingastaðarins í flokki III eru færðir til og veggur sem skipti staðnum í tvö rými er fjarlægður og felliveggur settur í staðinn í húsnæðinu á lóð nr. 22 Tryggvagötu.  Gjald kr. 9.500
47440 (01.14.041.6),http://gamli.rvk.is/vefur/owa/edutils.parse_page?nafn=BN047440,Vallarstræti 4,Endurbætur og viðbygging,Frestað. Vísað til athugasemda eldvarnaeftirlits á umsóknarblaði.,"Sótt er um leyfi til að endurbæta og byggja við friðuð hús við Aðal- og Vallarstræti skv. deiliskipulagi sem samþykkt var í júlí 2013 fyrir íbúðir og þjónustustarfsemi, framkvæmd þessi er fyrsti hluti uppbyggingar á Landsímareit á lóð nr. 7 við Aðalstræti. Meðfylgjandi er bréf verkfræðings dags. 28. mars 2014, greinargerð um stærðarbreytingar dags. 29.apríl 2014, útreikningur á varmatapi dags. 25. mars 2014, umsögn Minjastofnunar Íslands dags. 5. maí 2014, umsögn Minjasafns Reykjavíkur dags. 24. maí 2014 ásamt útskrift úr gerðabók embættisafgreiðslufundar skipulagsfulltrúa frá 25. apríl 2014 og umsögn skipulagsfulltrúa dags. 25. apríl 2014. Niðurrif, skúr á baklóð, 12,6 ferm., 31,4 rúmm. Niðurrif, risloft: 30 ferm. Kjallari ónýttur? Viðbygging: 278,1 ferm., 930,3 rúmm. Stækkun eldra húss: 65 ferm. 217,4 rúmm. Gjald kr. 9.500"
47771 (01.13.500.3),http://gamli.rvk.is/vefur/owa/edutils.parse_page?nafn=BN047771,Vesturgata 41,Reyndarteikningar v/eignaskiptayfirlýsingar,Frestað. Vísað til athugasemda á umsóknarblaði.,Sótt er um samþykki fyrir áður gerðum breytingum vegna gerðar eignaskiptasamnings í tvíbýlishúsi á lóð nr. 41 við Vesturgötu. Stærðarbreyting:  ?? Gjald kr. 9.500
47759 (01.52.400.3),http://gamli.rvk.is/vefur/owa/edutils.parse_page?nafn=BN047759,Víðimelur 62,Rishæð - gluggar og svalarhurð-Br. BN045958,Samþykkt.  Samræmist ákvæðum laga nr. 160 / 2010. Með vísan til samþykktar borgarráðs frá 1. september 1998 skal utanhúss- og lóðarfrágangi vera lokið eigi síðar en innan tveggja ára frá útgáfu byggingarleyfis að viðlögðum dagsektum sbr. greinar nr. 2.4.7 og 2.9.2 í byggingarreglugerð nr. 112/2012. Áskilin lokaúttekt byggingarfulltrúa.,Sótt er um leyfi til að breyta glugga og svalahurð sbr. erindi BN047425 samþ. 1. apríl 2014 á rishæð fjölbýlishússins á lóð nr. 62 við Víðimel. Gjald kr. 9.500
47804 (01.13.652.3),http://gamli.rvk.is/vefur/owa/edutils.parse_page?nafn=BN047804,Garðastræti 21,Leiðrétt bókun,,"Leiðrétt bókun vegna BN047500 sem samþykkt var þann 27.05 2014.  Samþykkt var leyfi til að hækka um eina hæð og ris með tveimur kvistum á götuhlið og svölum á gafli, byggja svalir á bakhlið og fjölga íbúðum úr tveimur í sex í húsi á lóð nr. 21 við Garðastræti. Stækkun:  110,9 ferm., 295,2 rúmm. Skv. meðfylgjandi bílastæðabókhaldi með erindi skal greiða fyrir eitt stæði á hverja íbúð sem bætist við. Fjórar íbúðir bætast við og skal því greiða fyrir fjögur stæði í flokki II sem ekki verðurr komið fyrir á lóð."
47792 (01.86.230.1),http://gamli.rvk.is/vefur/owa/edutils.parse_page?nafn=BN047792,Kvistaland 26,mæliblað,Samþykkt.  Samræmist ákvæðum laga nr. 160 / 2010.,"Óskað er eftir  samþykki byggingarfulltrúans á meðfylgjandi Lóðauppdrætti, staðgr. 1.862.3, dagsettum 02. 06. 2014 vegna lóðarinnar Kvistaland 26. Í Fasteignaskrá, Þjóðskrá Íslands er lóðin talinn 0,0m², lóðin verður 4747m², lóðin telst öll koma úr óútvísuðu borgarlandi (landnr. 221448). Sbr. deiliskipulagsbreytingu sem samþykkt var í borgarráði 19. 05. 2011, og á embættisafgreiðslufundi skipulagsstjóra 15. 07. 2011 og auglýsingu í B-deild Stjórnartíðinda, dagsett 12. 08. 2011, um gildistöku deiliskipulagsbreytingarinnar."
47803 (01.17.310.7),http://gamli.rvk.is/vefur/owa/edutils.parse_page?nafn=BN047803,Laugavegur 50,Leiðrétt bókun,,"Leiðrétt bókun vegna BN047558 sem samþykkt var þann 27.05 2014.  Samþykkt var leyfi til þess að byggja við og hækka íbúðar- og verslunarhús á lóðinni nr. 50 við Laugaveg. Stækkun: 315,4 ferm. og 1.296,6 rúmm. brúttó. Bílastæðabókhald skilgreinir áður 1 stæði fyrir íbúð, 1 stæði fyrir verslun; samtals 2 stæði.  Samþykkt stækkun og fjöldi eigna er fyrir 4 íbúðir og 1 verslun, samtals 5 stæði.  Greiða skal því fyrir 3 bílastæði í flokki II sem ekki verður komið fyrir á lóð."
47750 (01.14.040.8),http://gamli.rvk.is/vefur/owa/edutils.parse_page?nafn=BN047750,Austurstræti 12A,(fsp) - Útiveitingar,Frestað. Vísað til athugasemda á fyrirspurnarblaði.,Spurt er hvort koma megi fyrir 12 útiborðum og sætum fyrir 32 gesti á Vallarstræti við hús á lóð nr. 12A við Austurstræti.
47753 (01.13.324.5),http://gamli.rvk.is/vefur/owa/edutils.parse_page?nafn=BN047753,Framnesvegur 30,(fsp) - Þakgluggi,Jákvætt. Að uppfylltum skilyrðum enda verði sótt um byggingarleyfi.,Spurt er hvort leyfi fengist til að setja þakglugga á salerni á hús nr. 30 við Framnesveg.
47760 (02.69.380.2),http://gamli.rvk.is/vefur/owa/edutils.parse_page?nafn=BN047760,Friggjarbrunnur 3-5,(fsp) - Garðskáli,Frestað. Gera betur grein fyrir erindi.,Spurt er hvort leyfi fengist til að setja garðskála á efstu hæð á svölum íbúðar 0301 í fjölbýlishúsinu á lóð nr. 3 við Friggjarbrunn.
47754 (01.19.501.2),http://gamli.rvk.is/vefur/owa/edutils.parse_page?nafn=BN047754,Leifsgata 13,(fsp) - Íbúð kjallara,Nei. Ekki er samþykkt íbúð í hluta 0001 í kjallara.,Spurt er hvort eign 0001 sé samþykkt í kjallara fjölbýlishúss á lóð nr. 13 við Leifsgötu.
47751 (01.34.410.1),http://gamli.rvk.is/vefur/owa/edutils.parse_page?nafn=BN047751,Rauðalækur 32,(fsp) - Síkka glugga - setja hurð,Jákvætt. Að uppfylltum skilyrðum enda verði sótt um byggingarleyfi.,Spurt er hvort leyfi fengist að síkka stofuglugga og koma fyrir hurð og hliðarglugga á kjallaraíbúð 0001 í húsinu á lóð nr. 32. Samþykki sumra ódags. fylgir erindi
47777 (02.29.560.1),http://gamli.rvk.is/vefur/owa/edutils.parse_page?nafn=BN047777,Sporhamrar 3,(fsp) - Alþjóðlegur skóli,Frestað. Málinu vísað til umsagnar skipulagsfulltrúa.,Spurt er hvort breyta megi núverandi verslunarhúsnæði og innrétta það fyrir alþjóðlegan skóla fyrir 30 nemendur á aldrinum frá 6-15 ára.
47764 (01.26.300.3),http://gamli.rvk.is/vefur/owa/edutils.parse_page?nafn=BN047764,Suðurlandsbraut 10,(fsp) - Veitingahús,Frestað. Málinu vísað til umsagnar skipulagsfulltrúa.,Spurt er hvort leyfi fengist til að innrétta í mhl. ? rými ?? veitingarstað í húsinu á lóð nr. 10 við Suðurlandsbraut .
