nr,url,heimilisfang,tegund,nidurstada,spurning
47437 (01.14.041.5),http://gamli.rvk.is/vefur/owa/edutils.parse_page?nafn=BN047437,Aðalstræti 7,Endurbætur og viðbygging,Frestað. Vísað til athugasemda á umsóknarblaði. Erindið verður kynnt  fyrir Umhverfis- og skipulagsráði.,"Sótt er um leyfi til að endurbæta og byggja við friðuð hús við Aðal- og Vallarstræti skv. deiliskipulagi sem samþykkt var í júlí 2013 fyrir íbúðir og þjónustustarfsemi, framkvæmd þessi er fyrsti hluti uppbyggingar á Landsímareit á lóð nr. 7 við Aðalstræti. Meðfylgjandi er bréf verkfræðings dags. 28. mars 2014, útreikningur á varmatapi dags. 25. mars 2014, greinargerð um stærðarbreytingar dags. 29.apríl 2014, umsögn Minjastofnunar Íslands dags. 5. maí 2014, umsögn Minjasafns Reykjavíkur dags. 24. maí 2014 og greinargerð vegna bílastæða dags. 26. maí 2014 ásamt útskrift úr gerðabók embættisafgreiðslufundar skipulagsfulltrúa frá 25. apríl 2014 og umsögn skipulagsfulltrúa dags. 25. apríl 2014. Stækkun samtals 743,8 ferm., 2.374,4 rúmm. Gjald kr. 9.500"
47568 (01.81.320.8),http://gamli.rvk.is/vefur/owa/edutils.parse_page?nafn=BN047568,Akurgerði 33,Sólskáli,Samþykkt.  Samræmist ákvæðum laga nr. 160 / 2010. Með vísan til samþykktar borgarráðs frá 1. september 1998 skal utanhúss- og lóðarfrágangi vera lokið eigi síðar en innan tveggja ára frá útgáfu byggingarleyfis að viðlögðum dagsektum sbr. greinar nr. 2.4.7 og 2.9.2 í byggingarreglugerð nr. 112/2012. Áskilin lokaúttekt byggingarfulltrúa.,"Sótt er um leyfi til að byggja sólskála við inngang á suðausturhlið parhúss á lóð nr. 33 við Akurgerði. Útskrift úr gerðabók embættisafgreiðslufundar skipulagsfulltrúa frá 2. maí 2014 fylgir erindinu ásamt umsögn skipulagsfulltrúa dags. 30. apríl 2014 og útskrift úr gerðabók embættisafgreiðslufundar skipulagsfulltrúa frá 27. júní 2014. Erindið var grenndarkynnt frá 28. maí til og með 25. júní 2014. Engar athugasemdir bárust. Stækkun:  15 ferm., 47,1 rúmm. Gjald kr. 9.500 + 9.500"
47949 (01.14.050.4),http://gamli.rvk.is/vefur/owa/edutils.parse_page?nafn=BN047949,Austurstræti 22,Innrétting,Frestað. Vísað til athugasemda á umsóknarblaði.,Sótt er um leyfi til að innrétta fyrir sameiginlega notkun sviðslistadeilda Listaháskóla Íslands á 2. og 3. hæð í Nýja Bíói í húsi á lóð við Lækjargötu 2/Austurstræti 22. Meðfylgjandi er bréf arkitekts dags. 30. júní 2014. Gjald kr. 9.500
47950 (01.43.800.4),http://gamli.rvk.is/vefur/owa/edutils.parse_page?nafn=BN047950,Álfheimar 49,Viðbygging,Frestað. Vísað til athugasemda á umsóknarblaði.,"Sótt er um leyfi til að stækka þjónustuhús til vesturs með kæliklefum og lager, og staðsetja sjálfsafgreiðslupóstkassa við vesturgafl á lóð Olís nr. 49 við Álfheima. Stækkun þjónustuhús: 28,3 ferm., 106,4 rúmm. Stækkun sjálfsafgreiðslupóstkassi: 2,5 fer., 5,9 rúmm. Gjald kr. 9.500"
47550 (01.29.040.1),http://gamli.rvk.is/vefur/owa/edutils.parse_page?nafn=BN047550,Ármúli 2,Viðbygging baklóð - breyting 1-3.hæð,Samþykkt.  Samræmist ákvæðum laga nr. 160 / 2010. Með vísan til samþykktar borgarráðs frá 1. september 1998 skal utanhúss- og lóðarfrágangi vera lokið eigi síðar en innan tveggja ára frá útgáfu byggingarleyfis að viðlögðum dagsektum sbr. greinar nr. 2.4.7 og 2.9.2 í byggingarreglugerð nr. 112/2012. Áskilið samþykki heilbrigðiseftirlits. Áskilin lokaúttekt byggingarfulltrúa.,"Sótt er um leyfi til að breyta fyrirkomulagi á 1.-3. hæð fyrir stafsemi Samgöngustofu, fjarlægja gluggahlera fyrir gluggum á norðurhlið og skipta út gluggum á norðurhlið, til að byggja búningsaðstöðu úr forsteyptum einingum og gera afgirt reiðhjólasvæði á baklóð við starfsmannainngang skrifstofuhúss á lóð nr. 2 við Ármúla. Útskrift úr gerðabók embættisafgreiðslufundar skipulagsfulltrúa frá 20. júní 2014 fylgir erindinu. Erindið var grenndarkynnt frá 15. maí til og með 12. júní 2014. Engar athugasemdir bárust. Meðfylgjandi er bréf arkitekts dags. 8. apríl 2014 og aftur 13. maí 2014 og 16. júní 2014.fylgir. Stærðir:  70,6 ferm., 240,7 rúmm. Gjald kr 9.500 + 9.500"
47780 (01.26.300.1),http://gamli.rvk.is/vefur/owa/edutils.parse_page?nafn=BN047780,Ármúli 9,Heilsu- og endurhæfingastöð,Frestað. Vísað til athugasemda á umsóknarblaði.,"Sótt er um leyfi til að fjarlægja millipall og stiga, til að steypa nýjan millipall, koma fyrir garðskála á austurhlið, koma fyrir þakglugga og  til að innrétta heilsumiðstöð  fyrir margþætta starfsemi á sviði heilsuverndar, skurðstofur og endurhæfingu í  húsi á lóð nr. 9 við Ármúla. Skýrsla brunahönnuðar dags. 27. maí 2014 fylgir erindi. Húsið er í dag skráð 8.638,7 ferm. og 30.089,0 rúmm hjá FMR. en skv. nýrri skráningar töflu er húsið að fara í 9.063,6 ferm. og 31.655,7 Niðurrif á milligólfi: 285,3 ferm. Stækkun millipalls: 412,6 ferm Stækkun garðskála: 15,8 ferm., 66,3 rúmm.  Stækkun á þakglugga: 141,0 rúmm Gjald kr. 9.500 + 9.500"
47964 (04.73.110.1),http://gamli.rvk.is/vefur/owa/edutils.parse_page?nafn=BN047964,Árvað 5,Færanlegar kennslustofur,Samþykkt.  Samræmist ákvæðum laga nr. 160 / 2010. Áskilið samþykki heilbrigðiseftirlits. Áskilin lokaúttekt byggingarfulltrúa.,"Sótt er um leyfi til að færa nýjar kennslustofur K99-E og K100-E  frá verksmiðjunni  og smíða tengirými milli stofanna við Norðlingaskóla á lóð nr. 5 við Árvað. Stærðir stofu og tengirými :  K99-E : 80,2 ferm., 279,1 rúmm.  K100-E : 80,2 ferm., 279,1 rúmm.  Tengirými: 1,9 ferm., 3,8 rúmm. Samtals: 162,3 ferm., 562,0 rúmm. Gjald kr. 9.500"
47912 (01.15.441.3),http://gamli.rvk.is/vefur/owa/edutils.parse_page?nafn=BN047912,Barónsstígur 3,Breytingar inni,Samþykkt.  Samræmist ákvæðum laga nr. 160 / 2010. Áskilið samþykki heilbrigðiseftirlits. Áskilin lokaúttekt byggingarfulltrúa.,"Sótt er um leyfi til að innrétta rými 0101 fyrir skrifstofur með kennsluaðstöðu, sbr. fyrirspurn BN047158 sem afgreidd var jákvætt 11. febrúar 2014, í húsi á lóð nr. 3 við Barónsstíg. Meðfylgjandi er samþykki meðeigenda. Gjald kr. 9.500"
47901 (01.54.150.2 01),http://gamli.rvk.is/vefur/owa/edutils.parse_page?nafn=BN047901,Birkimelur 8,Kæliklefi breyting,Samþykkt.  Samræmist ákvæðum laga nr. 160 / 2010.,Sótt er um leyfi til að breyta kæliklefa í hjóla og vagnageymslu í fjölbýlishúsinu á lóð nr. 8A við Birkimel. Gjald kr. 9.500
47856 (04.06.410.1),http://gamli.rvk.is/vefur/owa/edutils.parse_page?nafn=BN047856,Bíldshöfði 12,Lokun á sorpskýli,Samþykkt.  Samræmist ákvæðum laga nr. 160 / 2010. Áskilið samþykki heilbrigðiseftirlits. Með vísan til samþykktar borgarráðs frá 1. september 1998 skal utanhúss- og lóðarfrágangi vera lokið eigi síðar en innan tveggja ára frá útgáfu byggingarleyfis að viðlögðum dagsektum sbr. greinar nr. 2.4.7 og 2.9.2 í byggingarreglugerð nr. 112/2012. Áskilin lokaúttekt byggingarfulltrúa.,Sótt er um leyfi til að breyta áður samþykktu erindi BN046708 þannig að komið er fyrir þaki á sorpskýli á lóð nr. 12 við Bíldshöfða. Samþykki meðeigenda fylgir.  Gjald kr. 9.500
47928 (01.22.010.7),http://gamli.rvk.is/vefur/owa/edutils.parse_page?nafn=BN047928,Borgartún 8-16A,Fjölbýlishús - S1 - Þórunnartún,Frestað. Vísað til athugasemda á umsóknarblaði.,"Sótt er um leyfi til að byggja steinsteypt tólf hæða fjölbýlishús með 80 íbúðum við Bríetartún, mhl. 09, merkt S1 í deiliskipulagi,  á tveggja hæða kjallara sem tengist þegar byggðum bílakjallara á lóð nr. 8-16 við Borgartún. Stærð:  Kjallari -1, 541,2 ferm., kjallari 00, 411,3 ferm., 1. hæð 1.160,5 ferm., 2. hæð 1.058,8, 3. hæð 1.042,9 ferm., 4. og 6. hæð 1.052,8 ferm., 5. og 7. hæð 1.042,9 ferm., 8., 9. og 10.  hæð 492,1 ferm., 11. hæð 455,5 ferm., 12. hæð 430,3 ferm. Samtals:  10.762,2 ferm., 35.512,7 rúmm. B-rými:  466,8 ferm. Gjald kr. 9.500"
47805 (01.22.010.7),http://gamli.rvk.is/vefur/owa/edutils.parse_page?nafn=BN047805,Borgartún 8-16A,S1 - Bilakjallari - þrjár hæðir,Frestað. Vísað til athugasemda á umsóknarblaði.,"Sótt er um leyfi til að byggja 6. áfanga Höfðatorgs, bílakjallara BK5 á þremur hæðum með 175 stæðum, í horni við Skúlagötu/Skúlatún kringum byggingareit S1 á lóð nr. 8-16 við Borgartún. Stækkun:  8.516,7 ferm., 31.166,2 rúmm. Gjald kr. 9.500"
47900 (01.38.010.2),http://gamli.rvk.is/vefur/owa/edutils.parse_page?nafn=BN047900,Brúnavegur 6,Br. á innra fyrirkomulagi,Samþykkt.  Samræmist ákvæðum laga nr. 160 / 2010. Áskilin lokaúttekt byggingarfulltrúa.,"Sótt er um leyfi til að breyta innra skipulagi þannig að á 1. og 2. hæð stækkar eldhúsið, baðherbergi hjóna breytt, steypt loftplata fjarlægð til að hækka lofthæð yfir stofu svo og áðurgerðar breytingar þar sem þvottahús er fært og baðherbergi er bætt við í húsiðá lóð nr. 6 við Brúnaveg. Umsögn burðarvirkishönnuðar dags. 20. júní 2014, bréf frá hönnuði dags. 23. júní 2014 og tölvupóstur Byggingafulltrúa Reykjavíkur dags. 10. júní 2014 fylgir.  Gjald kr. 9.500"
47785 (01.45.230.5),http://gamli.rvk.is/vefur/owa/edutils.parse_page?nafn=BN047785,Dugguvogur 1B,Endurbygging eftir bruna,Frestað. Vísað til athugasemda á umsóknarblaði.,Sótt er um leyfi til að endurbyggja efri hæð suður eftir bruna þann 30. janúar 2014 í sömu mynd og skv. gildandi teikningum atvinnuhúsið á lóð nr. 1B við Dugguvog. Meðfylgjandi er úttektarskýrsla dags. 6. febrúar 2014 eftir brunann sem varð 30. janúar 2014 og ástandskönnun dags. 9. júní 2014. Gjald kr. 9.500
47906 (04.79.160.1),http://gamli.rvk.is/vefur/owa/edutils.parse_page?nafn=BN047906,Elliðavað 1-5,Breytingar inni,Samþykkt.  Samræmist ákvæðum laga nr. 160 / 2010. Áskilin lokaúttekt byggingarfulltrúa.,Sótt er um leyfi til breytinga innanhúss í húsi nr. 5 í raðhúsi á lóð nr. 1- 5 við Elliðavað. Gjald kr. 9.500
47948 (01.44.010.1),http://gamli.rvk.is/vefur/owa/edutils.parse_page?nafn=BN047948,Ferjuvogur 2,Frístundaheimili,Frestað. Vísað til athugasemda á umsóknarblaði.,"Sótt er um leyfi til að byggja frístundaheimili,  mhl. 02,  á einni hæð,  að mestu leyti niðurgrafið, staðsteyptir veggir einangraðir að innan þar sem þeir standa uppúr jörðu, en að utan neðanjarðar og þak er viðsnúið með lítið hallandi grasflöt efst og stétt við norðurbrún sem tengist  neðri skólalóð sunnan við aðal skólahús Vogaskóla á lóð nr. 2 við Ferjuvog. Bréf hönnuðar dags. 1. júlí 2014 og umsögn burðarvirkishönnuðar dags. 1. júlí 2014 fylgja erindi. Stærðir húss:   XX  ferm., XX rúmm. Gjald kr. 9.500"
46319 (04.97.040.3),http://gamli.rvk.is/vefur/owa/edutils.parse_page?nafn=BN046319,Fífusel 25-41,Svalaskýli á nr. 35,Samþykkt.  Samræmist ákvæðum laga nr. 160 / 2010. Með vísan til samþykktar borgarráðs frá 1. september 1998 skal utanhúss- og lóðarfrágangi vera lokið eigi síðar en innan tveggja ára frá útgáfu byggingarleyfis að viðlögðum dagsektum sbr. greinar nr. 2.4.7 og 2.9.2 í byggingarreglugerð nr. 112/2012. Áskilin lokaúttekt byggingarfulltrúa.,Sótt er um leyfi til að loka svölum með glerlokun á brautum í fjölbýlishúsi nr. 35 á lóð nr. 25-41 við Fífusel Bréf frá hönnuði um brunatæknilega úttekt á sameign ódagsett fylgir erindi. Jafnframt er erindi BN043684 dregið til baka. Samþykki meðeigenda ódags. fylgir erindi. Stærð: 180 rúmm. Gjald kr. 9.000
47555 (02.46.800.1),http://gamli.rvk.is/vefur/owa/edutils.parse_page?nafn=BN047555,Fossaleynir 17,Breyting inni og úti,Samþykkt.  Samræmist ákvæðum laga nr. 160 / 2010. Áskilið samþykki heilbrigðiseftirlits. Með vísan til samþykktar borgarráðs frá 1. september 1998 skal utanhúss- og lóðarfrágangi vera lokið eigi síðar en innan tveggja ára frá útgáfu byggingarleyfis að viðlögðum dagsektum sbr. greinar nr. 2.4.7 og 2.9.2 í byggingarreglugerð nr. 112/2012. Áskilin lokaúttekt byggingarfulltrúa.,"Sótt er um leyfi til breytinga á innra fyrirkomulagi sem fellst í breyttri herbergjaskipan og nýjum glugga á öryggisherbergi auk þess er sótt um leyfi fyrir útigeymslu við meðferðarstöðina á lóð nr. 17 við Fossaleyni. Meðfylgjandi er bréf arkitekts dags. 8.4. 2014 og eldvarnaskýrsla frá Eflu, dags. 26.6. 2014. Stækkun útigeymsla: 19,3 ferm., 63,5 rúmm. Gjald kr. 9.500"
47806 (01.18.231.1),http://gamli.rvk.is/vefur/owa/edutils.parse_page?nafn=BN047806,Frakkastígur 24,Svalir og sólstofa,Frestað. Vísað til athugasemda á umsóknarblaði.,"Sótt er um leyfi til að byggja úr timbri svalir við efri hæð og sólstofu á neðri hæð ásamt því að breyta gluggum á einbýlishúsi á lóð nr. 24 við Frakkastíg. Erindi fylgir samþykki meðlóðarhafa áritað á uppdrátt og umsögn Minjastofnunar Íslands dags. 25. júní 2014. Stækkun:  xx ferm., xx rúmm. Gjald kr. 9.500"
47643 (01.17.210.9),http://gamli.rvk.is/vefur/owa/edutils.parse_page?nafn=BN047643,Frakkastígur 8,"Fjölbýlishús
",Frestað. Vísað til athugasemda á umsóknarblaði.,"Sótt er um leyfi til að byggja 1. og  2. áfanga nýbygginga á svokölluðum Frakkastígsreit, Hverfisgötu 58-60, mhl. 02, steinsteypt fimm hæða fjölbýlishús með fimmtán íbúðum á efri hæðum, verslun og þjónustu á jarðhæð og bílakjallara og mhl. 03, Laugavegur 41A, fjögurra hæða fjölbýlishús með átta íbúðum á sameinaðri lóð nr. 8 við Frakkastíg. Meðfylgjandi er greinargerð um algilda hönnun dags. 5. maí 2014, orkurammi dags. 1. maí 2014, umsögn Minjastofnunar dags. 8. maí 2013, greinargerð hönnuðar um skipulagsskilmála dags. 20. og 27. maí 2014 og bílastæðabókhald, ódagsett. Stærð mhl.02:  3.006,3 ferm., 9.522,5 rúmm. Stærð mhl.03:  949,3 ferm., 3.093,1 Samtals:  3.955,6 ferm., 12.615,6 Gjald kr. 9.500"
47958 (02.69.550.3),http://gamli.rvk.is/vefur/owa/edutils.parse_page?nafn=BN047958,Freyjubrunnur 29,Loka bílskýlum,Frestað. Vísað til athugasemda á umsóknarblaði.,"Sótt er um leyfi til að breyta bílskýlum í bílskúra, 0111, 0112 og 0113 á lóð nr. 29 við Freyjubrunn. Gjald kr. 9.500"
47758 (01.18.341.5),http://gamli.rvk.is/vefur/owa/edutils.parse_page?nafn=BN047758,Fríkirkjuvegur 7,Breytt brunahönnun,Frestað. Vísað til athugasemda eldvarnaeftirlits á umsóknarblaði.,Sótt er um leyfi fyrir nýrri brunahönnun og uppsetningu handriða við loftstokka á suðurhlið höggmyndatorgs Listasafns Íslands á lóð nr. 7 við Fríkirkjuveg. Gjald kr. 9.500
47916 (01.11.430.1),http://gamli.rvk.is/vefur/owa/edutils.parse_page?nafn=BN047916,Grandagarður 16,Breytingar inni og úti,Samþykkt.  Samræmist ákvæðum laga nr. 160 / 2010. Með vísan til samþykktar borgarráðs frá 1. september 1998 skal utanhúss- og lóðarfrágangi vera lokið eigi síðar en innan tveggja ára frá útgáfu byggingarleyfis að viðlögðum dagsektum sbr. greinar nr. 2.4.7 og 2.9.2 í byggingarreglugerð nr. 112/2012. Áskilin lokaúttekt byggingarfulltrúa.,"Sótt er um leyfi til að breyta áður samþykktu erindi BN046022 þannig að 2. hæð og að hluta á 1. hæð breytast lítillega að innan, koma fyrir svölum og sólskála á suður-austur hlið og nýtt vindfang í tengslum við aðalinngang í suð-vestur hlið hússins á lóð nr. 16 við Grandagarð. Umsögn burðarvirkishönnuðar dags. 24.júní 2014 fylgir. Stækkun sólskála: A- rými 15,4 ferm., 41,6 rúmm. Stækkun vindfang B rými 10 ferm., 26 rúmm.   Samtals stækkun: 25,4 ferm., 67,6 rúmm. Útskrift úr gerðabók skipulagsfulltrúa dags. 04.07.2014 fylgir erindinu. Gjald kr. 9.500"
47840 (01.18.211.0),http://gamli.rvk.is/vefur/owa/edutils.parse_page?nafn=BN047840,Grettisgata 16,Hækka ris hússins,Frestað. Lagfæra skráningu.,"Sótt er um leyfi til að hækka ris, gera vinnuherbergi, snyrtingu, geymslu, þaksvalir, hækka þak yfir stigahúsi og koma fyrir þremur litlum kvistum á norðurhlið hússins á lóð nr. 16 við Grettisgötu.  Erindi BN045324 dregið til baka. Bréf frá hönnuði dags. 6. júní 2014 og samþykki meðeigenda dags. 7 maí 2014 fylgir. Stækkun : 80,4 ferm., 43,0 rúmm. Gjald kr. 9.500"
47960 (01.11.050.2),http://gamli.rvk.is/vefur/owa/edutils.parse_page?nafn=BN047960,Hólmaslóð 10,Skýli við girðingu,Samþykkt.  Samræmist ákvæðum laga nr. 160 / 2010. Með vísan til samþykktar borgarráðs frá 1. september 1998 skal utanhúss- og lóðarfrágangi vera lokið eigi síðar en innan tveggja ára frá útgáfu byggingarleyfis að viðlögðum dagsektum sbr. greinar nr. 2.4.7 og 2.9.2 í byggingarreglugerð nr. 112/2012. Áskilin lokaúttekt byggingarfulltrúa.,"Sótt er um leyfi til að byggja opið skýli fyrir reiðhjól við nýsamþykkta girðingu, sjá erindi BN047636, á lóð nr. 10 við Hólmaslóð. Gjald kr. 9.500"
47683 (01.08.500.1),http://gamli.rvk.is/vefur/owa/edutils.parse_page?nafn=BN047683,Hólmaslóð olíustöð 1,Varnarþró,Frestað. Vísað til athugasemda á umsóknarblaði.,Sótt er um leyfi til að steypa þrískipta varnarþró um bensíngeyma á olíustöð nr. 1 á lóð við Hólmaslóð. Meðfylgjandi er brunahönnun frá mannvit ódags. Einnig bréf Umhverfisstofnunar dags. 10.6. 2014. Gjald kr. 9.500
47351 (01.81.810.8),http://gamli.rvk.is/vefur/owa/edutils.parse_page?nafn=BN047351,Hólmgarður 19,Reyndarteikningar,Samþykkt.  Samræmist ákvæðum laga nr. 160 / 2010. Áskilin lokaúttekt byggingarfulltrúa.,Sótt er um samþykki fyrir núverandi innra og ytra fyrirkomulagi hússins á lóðinni nr. 19 við Hólmgarð. Sjá erindi BN034458 samþ. 1. júlí 2008 og erindi BN044666 (endurnýjun á 34458) samþ. 31. júlí 2012. Samþykki eigenda íbúðar 0101 í húsinu dags. 31. mars 2014 og bréf hönnuðar dags. 1. apríl 2014 fylgja erindinu ásamt umsögn skrifstofu sviðsstjóra dags. 20. maí 2014. Gjald kr. 9.500
47377 (01.15.440.7),http://gamli.rvk.is/vefur/owa/edutils.parse_page?nafn=BN047377,Hverfisgata 103,Hótel,Frestað. Vísað til athugasemda á umsóknarblaði.,"Sótt er um leyfi til að byggja hótel í flokki V, teg. a með 100 herbergjum úr forsteyptum einingum, þrjár til fjórar hæðir á kjallara  með bílgeymslu fyrir 28 bíla og veitingahúsi í flokki II, teg. a á jarðhæð á lóð nr. 103 við Hverfisgötu. Meðfylgjandi er brunahönnun frá VSI dags. 26. júní 2014, greinargerð vegna hljóðvistar dags. mars 2014, bréf hönnuðar dags. 24. júní 2014 og útskrift úr gerðabók skipulagsfulltrúa dags. 28. október 2013. Stærðir: Kjallari, 294 ferm., bílgeymsla 882 ferm., 1. hæð 886,1 ferm., 2. hæð 882,2 ferm., 3. hæð 818,4 ferm., 4. hæð 457 ferm. Samtals:  4.219,7 ferm., 13.481,3 rúmm. Gjald kr. 9.500"
47454 (01.22.200.1),http://gamli.rvk.is/vefur/owa/edutils.parse_page?nafn=BN047454,Hverfisgata 113-115,115 - Klæðning,Frestað. Vísað til umsagnar Minjastofnunar Íslands og Minjasafns Reykjavíkur.,Sótt er um leyfi til að endurnýja glugga og klæða með álplötuklæðningu hábyggingu á lóð nr. 113-115 við Hverfisgötu. Gjald kr. 9.500 + 9.500
47767 (01.44.121.1),http://gamli.rvk.is/vefur/owa/edutils.parse_page?nafn=BN047767,Karfavogur 25,Kvistur,Samþykkt.  Samræmist ákvæðum laga nr. 160 / 2010. Með vísan til samþykktar borgarráðs frá 1. september 1998 skal utanhúss- og lóðarfrágangi vera lokið eigi síðar en innan tveggja ára frá útgáfu byggingarleyfis að viðlögðum dagsektum sbr. greinar nr. 2.4.7 og 2.9.2 í byggingarreglugerð nr. 112/2012. Skilyrt er að þinglýst verði yfirlýsingu um samruna eigna eigi síðar en við fokheldi. Áskilin lokaúttekt byggingarfulltrúa.,"Sótt er um leyfi til að breyta nýsamþykktu erindi, sjá erindi BN045970, og til að lengja kvist á einbýlishúsi á lóð nr. 25 við Karfavog. Stækkun 12,4 rúmm. Gjald kr. 9.500"
47963 (01.36.300.1),http://gamli.rvk.is/vefur/owa/edutils.parse_page?nafn=BN047963,Kirkjuteigur 24,Færanlegar kennslustofu K-95E,Samþykkt.  Samræmist ákvæðum laga nr. 160 / 2010. Áskilið samþykki heilbrigðiseftirlits.,"Sótt er um leyfi til að færa nýja kennslustofu K95-E frá verksmiðjunni við Laugarnesskóla á lóð nr. 24 við Kirkjuteig.. Stærð stofu:  K95-E : 80,2 ferm., 279,1 rúmm.  Gjald kr. 9.500"
47811 (02.68.410.1),http://gamli.rvk.is/vefur/owa/edutils.parse_page?nafn=BN047811,Lambhagavegur 23,Stækkun á gróðurhúsi,"Samþykkt.  Samræmist ákvæðum laga nr. 160 / 2010. Frágangur á lóðamörkum verði gerður í samráði við lóðarhafa aðliggjandi lóða. Áskilið samþykki heilbrigðiseftirlits. Með vísan til samþykktar umhverfis- og skipulagsráðs, dags. 22. maí 2013, skal lóðarhafi, í samráði við byggingarfulltrúa, setja upp skilti til kynningar á fyrirhuguðum framkvæmdum á byggingarstað. Með vísan til samþykktar borgarráðs frá 1. september 1998 skal utanhúss- og lóðarfrágangi vera lokið eigi síðar en innan tveggja ára frá útgáfu byggingarleyfis að viðlögðum dagsektum sbr. greinar nr. 2.4.7 og 2.9.2 í byggingarreglugerð nr. 112/2012. Áskilin lokaúttekt byggingarfulltrúa.","Sótt er um leyfi til að breyta nýlega samþykktu erindi BN047660 samþykkt 13. maí 2014 þannig að lóðin og gróðurhúsið verður stækkað á lóð nr. 23 við Lambhagaveg. Stækkun frá áður samþykktu erindi:  4.837,7 ferm., 29.458,5 rúmm.  Gjald kr. 9.500"
47957 (02.68.070.1),http://gamli.rvk.is/vefur/owa/edutils.parse_page?nafn=BN047957,Lambhagavegur 29,Rampa breytt og útiröppur fjarlægðar,Frestað. Vísað til athugasemda á umsóknarblaði.,"Sótt er um leyfi til að breyta áður samþykktu erindi BN045705 þannig að fjarlægðar eru útitröppur niður í ramp og lengt í b-rými þannig að b-rýmið stækkar, breyta gluggaskipan á suðaustur hlið og sett er önnur lyftuhurð á húsið á lóð nr. 29 Lambhagaveg. Stækkun B- rýmis er : XX ferm., XX rúmm.  Gjald kr. 9.500"
47798 (01.43.300.5 01),http://gamli.rvk.is/vefur/owa/edutils.parse_page?nafn=BN047798,Langholtsvegur 108A,Þak - endurgert,Samþykkt.  Samræmist ákvæðum laga nr. 160 / 2010. Með vísan til samþykktar borgarráðs frá 1. september 1998 skal utanhúss- og lóðarfrágangi vera lokið eigi síðar en innan tveggja ára frá útgáfu byggingarleyfis að viðlögðum dagsektum sbr. greinar nr. 2.4.7 og 2.9.2 í byggingarreglugerð nr. 112/2012. Áskilin lokaúttekt byggingarfulltrúa.,"Sótt er um leyfi til að endurgera í óbreyttri mynd þak á raðhúsi nr. 108A, mhl. 05, í raðhúsalengju á lóð nr. 100A -E við Langholtsveg. Meðfylgjandi er samþykki meðeigenda á lóð dags. 12.6. 2014. Gjald kr. 9.500"
47953 (01.34.610.3),http://gamli.rvk.is/vefur/owa/edutils.parse_page?nafn=BN047953,Laugarnesvegur 56,Fjölbýlishús,Frestað. Vísað til athugasemda á umsóknarblaði. Málinu vísað til umsagnar skipulagsfulltrúa.,"Sótt er um leyfi til að byggja staðsteypt fjögurra íbúða fjölbýlishús á þremur hæðum á lóð nr. 56 við Laugarnesveg. Erindi fylgir útreikningur á varmatapi dags. 26. júní 2014. Stærð:  1. hæð 180,1 ferm., 2. hæð 173,9 3. hæð 92,4 ferm. Samtals:  446,4 ferm., 1.411,3 rúmm. Gjald kr. 9.500"
47251 (01.24.000.7),http://gamli.rvk.is/vefur/owa/edutils.parse_page?nafn=BN047251,Laugavegur 103,Reyndarteikningar,Samþykkt.  Samræmist ákvæðum laga nr. 160 / 2010.,"Sótt eru um samþykki á áður gerðum breytingum, þar sem geymslu 0010 og þvottahúsi 0021 er víxlað í húsi á lóð nr. 103 við Laugaveg. Samþykki frá húsfélagi Laugavegi 103 ódags. fylgir. Gjald kr. 9.500"
47925 (01.17.150.4),http://gamli.rvk.is/vefur/owa/edutils.parse_page?nafn=BN047925,Laugavegur 20B,Borð og stólar úti,Frestað. Málinu vísað til umsagnar skipulagsfulltrúa.,Sótt er um leyfi fyrir tíu tveggja manna borðum á útisvæði fyrir aftan veitingastaðinn Kalda Bar sem er á jarðhæð hússins á lóð nr. 20B við Laugarveg. Gjald kr. 9.500
47924 (01.17.200.9),http://gamli.rvk.is/vefur/owa/edutils.parse_page?nafn=BN047924,Laugavegur 27,Borð og stólar úti,Frestað. Vísað til umsagnar skrifstofu reksturs- og umhirðu.,Sótt er um leyfi til að setja fjögur tveggja manna borðum á gangstétt fyrir utan veitingastaðinn Tíu Dropa sem er í kjallara hússins á lóð nr. 27 við Laugarveg. Gjald kr. 9.500
47842 (01.17.420.2),http://gamli.rvk.is/vefur/owa/edutils.parse_page?nafn=BN047842,Laugavegur 66-68,"Fækka herbergjum, br. á BN046870",Samþykkt.  Samræmist ákvæðum laga nr. 160 / 2010. Áskilið samþykki heilbrigðiseftirlits. Áskilin lokaúttekt byggingarfulltrúa.,"Sótt er um leyfi til að fækka herbergjum fyrir hreyfihamlaða úr 12 í 6 sbr. byggreglg. 6.10.3., sameina herbergi 402 og 403 í eitt, loka opnun milli herbergja 407/408 og 415/416, fella eldunaraðstöðu í herbergjum niður og færa inntak stigleiðslu á 1. hæð í hóteli á lóð nr. 66-68 við Laugaveg, sbr. erindi BN046870. Gjald kr. 9.500"
47954 (01.17.402.1),http://gamli.rvk.is/vefur/owa/edutils.parse_page?nafn=BN047954,Laugavegur 77,Flóttaleið - BN046944,Samþykkt.  Samræmist ákvæðum laga nr. 160 / 2010. Með vísan til samþykktar borgarráðs frá 1. september 1998 skal utanhúss- og lóðarfrágangi vera lokið eigi síðar en innan tveggja ára frá útgáfu byggingarleyfis að viðlögðum dagsektum sbr. greinar nr. 2.4.7 og 2.9.2 í byggingarreglugerð nr. 112/2012. Áskilin lokaúttekt byggingarfulltrúa.,Sótt er um leyfi til að breyta áður samþykktu erindi BN046944 þannig að flóttaleiðum um hringstiga frá 3. og 4. hæð fara niður á svalir á 2. hæð og þaðan inn í vesturstigahús 0202 og þaðan út úr húsinu á lóð nr. 77 við Laugaveg.  Gjald kr. 9.500
47956 (01.15.150.2),http://gamli.rvk.is/vefur/owa/edutils.parse_page?nafn=BN047956,Lindargata 12,Gluggar á gafli húss,Frestað. Vísað til athugasemda á umsóknarblaði.,Sótt er um leyfi til að gera glugga í risi á vesturgafli fjölbýlishúss á lóð nr. 12 við Lindargötu. Gjald kr. 9.500
47942 (04.32.640.2),http://gamli.rvk.is/vefur/owa/edutils.parse_page?nafn=BN047942,Lyngháls 4,Breyta innra skipulagi í 01-0204,Frestað. Lagfæra skráningu.,Sótt er um leyfi til að koma fyrir hundasnyrtistofu í rými 0204 í húsinu á lóð nr. 4 við Lyngháls. Gjald kr. 9.500
47762 (01.18.221.1),http://gamli.rvk.is/vefur/owa/edutils.parse_page?nafn=BN047762,Njálsgata 12,Hækka þak - kvistir,Frestað. Málinu vísað til skipulagsfulltrúa til ákvörðunar um grenndarkynningu. Vísað til uppdrátta A-01.02 dags. 1. júní 2014.,"Sótt er um leyfi til að hækka þak og byggja tvo kvisti á fjölbýlishús á lóð nr. 12 við Njálsgötu. Útskrift úr gerðabók embættisafgreiðslufundar skipulagsfulltrúa frá 13. júní 2014 fylgir erindinu ásamt umsögn skipulagsfulltrúa dags. 6. júní 2014. Erindi fylgir samþykki meðlóðarhafa dags. 12. apríl 2014. Stækkun:  44,5 ferm., 52 rúmm. Gjald kr. 9.500"
47691 (01.19.003.5),http://gamli.rvk.is/vefur/owa/edutils.parse_page?nafn=BN047691,Njálsgata 27,Viðbygging - niðurrif,Frestað. Lagfæra skráningu.,"Sótt er um leyfi til að breyta einbýlishúsi í tvíbýlishús og að rífa mhl.02 bílageymslu sem er staðsett á lóðinni og stækka húsið til norðurs á öllum hæðum og byggja þakhæð úr timbri við húsið á lóð nr. 27 við Njálsgötu.  Umsagnir frá Minjastofnun Íslands dags. 14. maí 2014, Minjasafni Reykjavíkur dags. 31. maí 2014 fylgja erindi. Stækkun mhl.01 er 122,6 ferm., 281,6 rúmm.  Niðurrif mhl. 02 er 28,7 ferm., 66,7 rúmm.  Gjald kr. 9.500"
47869 (01.19.020.7),http://gamli.rvk.is/vefur/owa/edutils.parse_page?nafn=BN047869,Njálsgata 34,Stækka hús Njálsgata 34b,Frestað. Málinu vísað til umsagnar skipulagsfulltrúa.,"Sótt er um leyfi til að byggja port og rishæð á núverandi hús á lóð nr. 34B við Njálsgötu. Meðfylgjandi er bréf arkitekts dags. 16.6. 2014 og annað dags. 1.7. 2014. Stækkun 52,8 ferm., 138,2 rúmm. Samtals eftir stækkun: 102 ferm., 280,9 rúmm. Gjald kr. 9.500"
47905 (05.05.370.1),http://gamli.rvk.is/vefur/owa/edutils.parse_page?nafn=BN047905,Nönnubrunnur 1,Breytingar inni og úti,Frestað. Málinu vísað til umsagnar skipulagsfulltrúa.,"Sótt er um leyfi til að breyta innra skipulagi eldhúsa í íbúðum 104 og 204, steypa svalahandrið í stað léttra úr stáli og gleri og minnka bogaþak sbr. erindi BN046659 í fjölbýlishúsi á lóð nr. 1 við Nönnubrunn. Minnkun 105,3 rúmm. Gjald kr. 9.500"
47376 (01.82.321.0),http://gamli.rvk.is/vefur/owa/edutils.parse_page?nafn=BN047376,Rauðagerði 74,Viðbygging - kvistir,Samþykkt.  Samræmist ákvæðum laga nr. 160 / 2010. Með vísan til samþykktar borgarráðs frá 1. september 1998 skal utanhúss- og lóðarfrágangi vera lokið eigi síðar en innan tveggja ára frá útgáfu byggingarleyfis að viðlögðum dagsektum sbr. greinar nr. 2.4.7 og 2.9.2 í byggingarreglugerð nr. 112/2012. Áskilin lokaúttekt byggingarfulltrúa.,"Sótt er um leyfi til þess að byggja viðbyggingar úr timbri klæddu bárujárni að norður- og suðurhlið og byggja kvisti, einnig úr timbri og bárujárni, á norður- og suðurþekju hússins á lóðinni nr. 74 við Rauðagerði. Sjá einnig fyrirspurnarerindi BN046756 sem fékk jákvæða afgreiðslu þann 26. nóvember 2013. Samþykki nágranna í húsum nr. 70 og 72 við Rauðagerði dags. 17. mars 2014 Yfirlit brunaþols byggingarhluta ódags. fylgir erindinu. Stærð: Stækkun 43,9 ferm. og 138,5 rúmm. Gjald kr. 9.500."
47888 (01.13.501.1),http://gamli.rvk.is/vefur/owa/edutils.parse_page?nafn=BN047888,Ránargata 34,Reyndarteikningar,Samþykkt.  Samræmist ákvæðum laga nr. 160 / 2010. Áskilin lokaúttekt byggingarfulltrúa.,"Sótt er um leyfi fyrir áður gerðum innanhúss breytingum sem voru að fjarlægja léttan vegg, loka hurð, koma fyrir baði niðri í kjallara húss og gera grein fyrir ótengdum geymsluskúr sem er 9,6 ferm og framfylgir byggingareglugerð gr. 2.3.5 g á lóð nr. 34 við Ránargötu. Samþykki fyrir geymsluskúr frá Ránargötu 32 og meðeigendum á nr. 34 og frá Vesturgötu 41 dags. 5. Júní 2014 fylgir Gjald kr. 9.500"
47881 (01.70.131.0),http://gamli.rvk.is/vefur/owa/edutils.parse_page?nafn=BN047881,Reykjahlíð 14,Breyta glugga á efstu hæð,"Frestað. Málinu vísað til umsagnar skipulagsfulltrúa til ákvörðunar um grenndarkynningu.  Vísað til uppdrátta A100, A101 og A102 dags. desember 2013.","Sótt er um leyfi að stækka þakherbergi þannig að bætt er við þak og gluggi gerður lóðréttur í húsinu á lóð nr. 14 við Reykjahlíð. Samþykki meðeigenda dags. 17. júní 2014 fylgir. Samþykki sumra Drápuhlíð 1, 2 og Eskihlíð 12B fylgir. Gjald kr. 9.500"
47955 (01.54.110.4),http://gamli.rvk.is/vefur/owa/edutils.parse_page?nafn=BN047955,Reynimelur 28,Íbúð í kjallara,Frestað. Vísað til athugasemda á umsóknarblaði. Málinu vísað til umsagnar skipulagsfulltrúa.,"Sótt er um samþykki fyrir áður gerðri íbúð í kjallara og áður gerðri skiptingu lóðar fjölbýlishúss á lóð nr. 28 við Reynimel. Erindi fylgir virðingargjörð dags, 20. janúar 1948 og samþykki meðeigenda dags. 28. júlí 2014. Gjald kr. 9.500"
47915 (01.36.511.1),http://gamli.rvk.is/vefur/owa/edutils.parse_page?nafn=BN047915,Sigtún 41,Reyndarteikningar,Samþykkt.  Samræmist ákvæðum laga nr. 160 / 2010. Skilyrt er að eignaskiptayfirlýsingu vegna breytinga í húsinu sé þinglýst til þess að samþykktin öðlist gildi.     Áskilin lokaúttekt byggingarfulltrúa.,"Sótt er um leyfi fyrir áður gerðum breytingum sbr. BN046223 vegna lokaúttektar þar sem kemur fram að mænir hússins er 30 cm. hærri en hann var teiknaður í byrjun og því hækkar nýr kvistur um 25 cm, baðherbergi er fært til og þakkantur var minnkaður þar sem steyptur þakkantur reyndist ónýtur á húsinu á lóð nr. 41 við Sigtún. Samþykki meðeigenda fylgir ódags. Bréf frá hönnuði dags. 27. júní 2014 fylgir. Gjald kr. 9.500"
47362 (01.24.351.0),http://gamli.rvk.is/vefur/owa/edutils.parse_page?nafn=BN047362,Skeggjagata 3,Sameina eignir - reyndart.,Frestað. Vísað til athugasemda á umsóknarblaði.,Sótt er um samþykki fyrir núverandi innra fyrirkomulagi og leyfi til þess að sameina tvær íbúðareignir í eina eign og byggja svalir á austurhlið annarrar hæðar hússins á lóðinni nr. 3 við Skeggjagötu. Erindi fylgir samþykki eiganda á nr. 1 áritað á uppdrátt. Erindi var grenndarkynnt frá 5. maí til og með 2. júní 2014. Eftirtaldir aðilar sendu inn athugasemdir: Gísli Óskarsson dags. 31. maí 2014.  Ný skráningartafla fylgir erindinu. Gjald kr. 9.500
47914 (01.35.820.5),http://gamli.rvk.is/vefur/owa/edutils.parse_page?nafn=BN047914,Skipasund 43,Breytingar úti,Frestað. Vísað til athugasemda á umsóknarblaði.,"Sótt er um leyfi til að byggja svalir og stiga niður í garð, færa kofa á lóð, færa innkeyrslu og byggingarreit fyrir bílskúr við hús á lóð nr. 43 við Skipasund. Gjald kr. 9.500"
47739 (01.17.120.5),http://gamli.rvk.is/vefur/owa/edutils.parse_page?nafn=BN047739,Skólavörðustígur 6,Breytingar inni,Frestað. Vísað til athugasemda heilbrigðiseftirlits á umsóknarblaði.,Sótt er um leyfi til að koma fyrir veitingaverslun í flokki I sem selur grillaðar samlokur og djús í fatabúðinni í húsinu á lóð nr. 6 við Skólavörðustíg. Samþykki eigenda dags. 20. maí 2014 fylgir ásamt útskrift úr gerðabók embættisafgreiðslufundar skipulagsfulltrúa frá 2. júní 2014. Gjald kr. 9.500 + 9.500
47431 (01.81.0-9.8),http://gamli.rvk.is/vefur/owa/edutils.parse_page?nafn=BN047431,Sogavegur 3,Byggja yfir port - köld geymsla,Synjað. Með vísan til umsagnar skipulagsfulltrúa dags.6. júní 2014.,"Sótt er um leyfi til að byggja yfir port við fiskbúðina á lóð nr. 3 við Sogaveg. Erindi var grenndarkynnt frá 16. apríl til 14. maí 2014. Athugasemdir sendu: Baldur Ingi Jóhannsson dags. 28. apríl 2014, Rannveig Jónsdóttir dags. 7. maí 2014 og Steinbergur Finnbogason og Hrafnhildur Valdimarsdóttir dags. 13. maí 2014. Erindi fylgir umsögn skipulagsfulltrúa vegna fram kominna athugasemda dags. 6. júní 2014  Stækkun:  103,5 ferm., 326 rúmm. Gjald kr. 9.500"
47922 (01.23.000.3),http://gamli.rvk.is/vefur/owa/edutils.parse_page?nafn=BN047922,Sóltún 1,Stækkun á bílakjallara,Frestað. Vísað til athugasemda á umsóknarblaði.,"Sótt er um leyfi til að stækka bílastæðahús, mhl. 05, í suðvesturhorni þar sem bílakjallari tengist í framtíðinni við Sóltún 1-3 á lóð nr. 7-17 við Mánatún 1-17/Sóltún 1-3. Meðfylgjandi er bréf arkitekts dags. 25.6. 2014 og bréf framkvæmdastjóra Mánatúns hf. dags. 25.6. 2014. Stækkun: 124 ferm., 2.007,4 rúmm. Gjald kr. 9.500"
47951 (01.13.550.7),http://gamli.rvk.is/vefur/owa/edutils.parse_page?nafn=BN047951,Stýrimannastígur 15,Viðbygging,Frestað. Vísað til athugasemda á umsóknarblaði.,"Sótt er um leyfi til að byggja viðbyggingu með lágu risi við vesturgafl einbýlishúss á lóð nr. 15 við Stýrimannastíg. Stækkun 13,3 ferm., 49,6 rúmm. Gjald kr. 9.500"
47945 (01.26.200.1),http://gamli.rvk.is/vefur/owa/edutils.parse_page?nafn=BN047945,Suðurlandsbraut 4-4A,Anddyrishurð,Samþykkt.  Samræmist ákvæðum laga nr. 160 / 2010. Áskilin lokaúttekt byggingarfulltrúa.,"Sótt er um leyfi til að bæta við anddyrishurð í innskoti úr verslun á fyrstu hæð rými 0104 í húsinu á lóð nr. 4 við Suðurlandsbraut. Fundargerð af fundi húsfélags sem haldinn var 30. maí 2014 fylgir erindi.  Tölvupóstur þar sem eigendur Goshóls, Stórhöfða og Mörkin lýsa samþykki sínu. Gjald kr. 9.500"
47962 (05.05.570.1),http://gamli.rvk.is/vefur/owa/edutils.parse_page?nafn=BN047962,Úlfarsbraut 122-124,Færanlegar kennslustofur,Samþykkt.  Samræmist ákvæðum laga nr. 160 / 2010. Áskilið samþykki heilbrigðiseftirlits. Áskilin lokaúttekt byggingarfulltrúa.,"Sótt er um leyfi til að færa nýjar kennslustofur K96-E, K97-E og K98-E frá verksmiðjunni og smíða á staðnum tengiganga á milli þeirra við Dalskóla á lóð nr. 122-124 við Úlfarsbraut. Stærðir stofu og tengiganga:  K96-E : 80,2 ferm., 279,1 rúmm.  Tengigangur fyrir stofu K96-E er : 11,7 ferm., 38,6 rúmm. K97-E : 80,2 ferm., 279,1 rúmm.  K98-E : 80,2 ferm., 279,1 rúmm.  Tengigangur og tengirými fyrir stofu K97-E og K98-E er : 13,6 ferm., 42,4rúmm. Samtals: 265,9 ferm., 918,3 rúmm. Gjald kr. 9.500"
47919 (02.69.860.5),http://gamli.rvk.is/vefur/owa/edutils.parse_page?nafn=BN047919,Úlfarsbraut 96,Breyting á eignarhaldi geymslna,Samþykkt.  Samræmist ákvæðum laga nr. 160 / 2010. Áskilin lokaúttekt byggingarfulltrúa.,"Sótt er um leyfi að breyta eignarhaldi á geymslum þannig að íbúð 0101 fær geymslu 0103, íbúð 0102 fær geymslu 0106, íbúð 0201 fær geymslu 0105, íbúð 0202 fær geymslu 0104, 0301 fær geymslu 0107, 0302 fær geymslu 0108 og íbúð 0303 fær geymslu 0109 í fjölbýlishúsinu á lóð nr. 96 við Úlfarsbraut. Gjald kr. 9.500"
47440 (01.14.041.6),http://gamli.rvk.is/vefur/owa/edutils.parse_page?nafn=BN047440,Vallarstræti 4,Endurbætur og viðbygging,Frestað. Vísað til athugasemda á umsóknarblaði. Erindið verður kynnt  fyrir Umhverfis- og skipulagsráði.,"Sótt er um leyfi til að endurbæta og byggja við friðuð hús við Aðal- og Vallarstræti skv. deiliskipulagi sem samþykkt var í júlí 2013 fyrir íbúðir og þjónustustarfsemi, framkvæmd þessi er fyrsti hluti uppbyggingar á Landsímareit á lóð nr. 4 við Vallarstræti. Meðfylgjandi er bréf verkfræðings dags. 28. mars 2014, greinargerð um stærðarbreytingar dags. 29.apríl 2014, útreikningur á varmatapi dags. 25. mars 2014, umsögn Minjastofnunar Íslands dags. 5. maí 2014, umsögn Minjasafns Reykjavíkur dags. 24. maí 2014 ásamt útskrift úr gerðabók embættisafgreiðslufundar skipulagsfulltrúa frá 25. apríl 2014 og umsögn skipulagsfulltrúa dags. 25. apríl 2014. Niðurrif, skúr á baklóð, 12,6 ferm., 31,4 rúmm. Niðurrif, risloft: 30 ferm. Kjallari ónýttur? Stækkun:  65 ferm. 217,4 rúmm. Gjald kr. 9.500"
47618 (01.33.890.3),http://gamli.rvk.is/vefur/owa/edutils.parse_page?nafn=BN047618,Vatnagarðar 20,Reyndarteikningar,Samþykkt.  Samræmist ákvæðum laga nr. 160 / 2010. Með vísan til samþykktar borgarráðs frá 1. september 1998 skal utanhúss- og lóðarfrágangi vera lokið eigi síðar en innan tveggja ára frá útgáfu byggingarleyfis að viðlögðum dagsektum sbr. greinar nr. 2.4.7 og 2.9.2 í byggingarreglugerð nr. 112/2012. Áskilið samþykki heilbrigðiseftirlits. Áskilin lokaúttekt byggingarfulltrúa.,"Sótt er um leyfi fyrir áður gerðum breytingum sbr. erindi BN046077, hætt er við að fjarlægja nýjan inngang frá 2008, hækka vestari hliðarbyggingu, breytt er útliti á framhlið hliðarbyggingar á húsinu á lóð nr. 20 við Vatnagarða Tvær ljósmyndir af núverandi ástandi veggja þar sem skiltin voru. Stækkun vegna anddyris:  4,7 ferm., 15 rúmm.  Minnkun vegna hliðarbyggingar:  161,2 rúmm. Gjald kr. 9.500 + 9.500"
47771 (01.13.500.3),http://gamli.rvk.is/vefur/owa/edutils.parse_page?nafn=BN047771,Vesturgata 41,Reyndarteikningar v/eignaskiptayfirlýsingar,Samþykkt.  Samræmist ákvæðum laga nr. 160 / 2010. Skilyrt er að eignaskiptayfirlýsingu vegna breytinga í húsinu sé þinglýst til þess að samþykktin öðlist gildi.     Áskilin lokaúttekt byggingarfulltrúa.,Sótt er um samþykki fyrir áður gerðum breytingum vegna gerðar eignaskiptasamnings í tvíbýlishúsi á lóð nr. 41 við Vesturgötu. Gjald kr. 9.500 + 9.500
47808 (01.13.610.5),http://gamli.rvk.is/vefur/owa/edutils.parse_page?nafn=BN047808,Vesturgata 5B,Flytja Gröndalshús,"Samþykkt.  Samræmist ákvæðum laga nr. 160 / 2010. Frágangur á lóðamörkum verði gerður í samráði við lóðarhafa aðliggjandi lóða. Áskilin lokaúttekt byggingarfulltrúa. Með vísan til samþykktar umhverfis- og skipulagsráðs, dags. 22. maí 2013, skal lóðarhafi, í samráði við byggingarfulltrúa, setja upp skilti til kynningar á fyrirhuguðum framkvæmdum á byggingarstað. Sérstakt samráð skal haft við yfirverkfræðing byggingarfulltrúa vegna jarðvinnu.","Sótt er um leyfi til að flytja Gröndalshús, sem áður var Vesturgata 16b, byggja nýjan kjallara úr steinsteypu og grágrýti, og koma húsinu fyrir á lóð nr. 5b við Vesturgötu. Meðfylgjandi er umsögn Minjasafns Reykjavíkur dags. 30.5. 2014, umsögn Minjastofnunar Íslands dags. 2. júní 2014, brunavarnaskýrsla Eflu dags. 2. júní 2014, umsögn Minjasafns Reykjavíkur til Menningar- og ferðamálaráðs dags. 21. mars 2014, bréf arkitekts dags. 23.6. 2014. Stærðir alls:  Kjallari 61,2 ferm., 164,4 rúmm., 1. hæð 60,6 ferm., 2. hæð 44,7 ferm. Samtals 166,5 ferm., 479,2 rúmm. Gjald kr. 9.500"
47165 (01.13.430.4),http://gamli.rvk.is/vefur/owa/edutils.parse_page?nafn=BN047165,>Öldugata 55,Kvistir og svalir,"Samþykkt.  Samræmist ákvæðum laga nr. 160 / 2010. Skilyrt er að ný eignaskiptayfirlýsing sé samþykkt fyrir útgáfu byggingarleyfis, henni verður þinglýst eigi síðar en við lokaúttekt. Áskilin lokaúttekt byggingarfulltrúa.","Sótt er um leyfi til að byggja kvisti og svalir á norðurhlið og stækka þakglugga á suðurhlið fjölbýlishúss á lóð nr. 55 við Öldugötu. Útskrift úr gerðabók embættisafgreiðslufundar skipulagsfulltrúa frá 21. janúar 2014 fylgir erindinu ásamt umsögn skipulagsfulltrúa dags. 21. febrúar 2014 og útskrift úr gerðabók embættisafgreiðslufundar skipulagsfulltrúa frá 20. júní 2014. Erindið var grenndarkynnt frá 28. maí til og með 25. júní 2014 en þar sem samþykki allra hagsmundaaðila hefur borist er erindið nú lagt fram að nýju. Stækkun 6 ferm., 53,7 rúmm. Gjald kr. 9.500"
47971 (01.33.060.1),http://gamli.rvk.is/vefur/owa/edutils.parse_page?nafn=BN047971,Klettagarðar 11,Mæliblað,Samþykkt.  Samræmist ákvæðum laga nr. 160 / 2010.,"Óskað er eftir samþykki byggingarfulltrúans í Reykjavík á nýju mæliblaði fyrir lóðina nr. 11 við Klettagarða, mæliblað er í samræmi við deiliskipulag lóðarinnar sem samþykkt var á fundi skipulagsfulltrúa 16. maí 2014. Helstu breytingar eru að byggingarreitur er stækkaður frá fyrra skipulagi."
47974 (01.77.810.1),http://gamli.rvk.is/vefur/owa/edutils.parse_page?nafn=BN047974,Menntasveigur 15,Mæliblað,Samþykkt.  Samræmist ákvæðum laga nr. 160 / 2010.,"Óskað er eftir samþykki byggingarfulltrúans til að breyta mörkum lóðarinnar Menntasveigur 15 (staðgr. 1.778.101, landnr. 218666)  eins og sýnt er á meðsendum uppdrætti Landupplýsingadeildar dagsettum 20. 06. 2014. Lóðin Menntasveigur 15 er 2600 m², teknir eru  546 m² af lóðinni og bætt við óútvísað land (landnr. 221448), teknir eru 2 m² af lóðinni og bætt við óútvísað land (landnr. 221448), bætt er 398 m² við lóðina úr óútvísuðu landi (landnr. 221448) , bætt er 22 m² við lóðina úr óútvísuðu landi (landnr. 221448) , leiðrétt um 1 m² vegna fermetrabrota. Lóðin Menntasveigur 15 (staðgr. 1.778.101, landnr. 218666) verður 2473 m². Sjá deiliskipulag samþykkt í borgarráði þann 25. 07. 2013, samþykkt á afgreiðslufundi skipulagsfulltrúa þann 20. 09. 2013 og auglýst í B-deild Stjórnartíðinda þann 07. 11. 2013."
47970 (01.18.650.6),http://gamli.rvk.is/vefur/owa/edutils.parse_page?nafn=BN047970,Njarðargata 25,Mæliblað,Samþykkt. Samræmist ákvæðum laga nr. 160 / 2010.,"Óskað er eftir  samþykki byggingarfulltrúans  til að hnitsetja lóðina Njarðargata 25 (staðgr. 1.186.506, landnr. 102291) og hnitsetja og breyta mörkum lóðarinnar  Urðarstígur 15 (staðgr. 1.186.507, landnr. 102292).  Lóðin Njarðargata 25 (staðgr. 1.186.506, landnr. 102291) er talin 102,0 m². Lóðin Njarðargata 25 (staðgr. 1.186.506, landnr. 102291) reynist 99 m². Lóðin Urðarstígur 15 (staðgr. 1.186.507, landnr. 102292) er talin 150,3 m². Lóðin reynist 147 m². Teknir 6 m² af lóðinni og bætt við óútvísað land (landnr. 218177). Lóðin Urðarstígur 15 (staðgr. 1.186.507, landnr. 102292) verður 141 m².  Sjá deiliskipulag samþykkt í skipulagsnefnd þann 05. 09. 1988 og samþykkt í borgarráði þann 06. 09. 1988. Sjá deiliskipulag samþykkt borgarráði þann 30. 05. 2013 og auglýst í B-deild Stjórnartíðinda þann 21. 06. 2013."
47927 (01.16.020.8),http://gamli.rvk.is/vefur/owa/edutils.parse_page?nafn=BN047927,Blómvallagata 2,(fsp) - Viðbygging,Frestað. Málinu vísað til umsagnar skipulagsfulltrúa.,Spurt er hvort leyfi fengist til að byggja vinnustofu við útvegg Sólvallagötu 12 á lóð nr. 2 við Blómvallagötu. Ljósmyndir fylgja erindinu
47920 (01.18.231.0),http://gamli.rvk.is/vefur/owa/edutils.parse_page?nafn=BN047920,Frakkastígur 22,(fsp) - Byggja við anddyri á suðurhlið,Nei. Samkvæmt deiliskipulagi er lóðin fullbyggð.,Spurt er hvort leyfi fengist til að stækka hús með því að byggja anddyri  á 1. og stækka 2. hæð þar yfir og  svalir á 3. hæð á suðurhlið hússins á lóð nr. 22 við Frakkastíg.
47943 (01.17.303.0),http://gamli.rvk.is/vefur/owa/edutils.parse_page?nafn=BN047943,Frakkastígur 7,(fsp) - Kvistur á þaki,Nei. Samanber umsögn á fyrirspurnarblaði.,Spurt er hvort leyft yrði að breyta íbúðinni þannig að komið er fyrir kvisti yfir allt þak hússins á lóð nr. 7 við Frakkastíg. Synjuð teikning frá 31. maí 1956 fylgir erindinu.
47969 (01.18.210.2),http://gamli.rvk.is/vefur/owa/edutils.parse_page?nafn=BN047969,Grettisgata 2,(fsp) - Grettisgata 2b - byggja hæð yfir húsið,Frestað. Málinu vísað til umsagnar skipulagsfulltrúa.,"Spurt er hvort leyft yrði að byggja hæð ofan á mhl. 02, rými 0101 í húsinu á lóð nr. 2B við Grettisgötu."
47968 (01.18.210.2),http://gamli.rvk.is/vefur/owa/edutils.parse_page?nafn=BN047968,Grettisgata 2,(fsp) - Rífa eða flytja hús,Frestað. Málinu vísað til umsagnar skipulagsfulltrúa.,Spurt er hvort leyft yrði að byggja við Grettisgötu 2A og sameina lóðirnar nr. 2 og nr. 2A við Grettisgötu.
47930 (01.80.220.9),http://gamli.rvk.is/vefur/owa/edutils.parse_page?nafn=BN047930,Heiðargerði 80,(fsp) - Risíbúð samþykkt sem íbúðarhúsnæði,"Frestað, Fyrirspyrjandi óski eftir íbúðaskoðun hjá byggingarfulltrúa.",Spurt er hvort áður ósamþykkt íbúð fáist samþykkt í risi þríbýlishúss á lóð nr. 80 við Heiðargerði.
47946 (02.29.530.1 01),http://gamli.rvk.is/vefur/owa/edutils.parse_page?nafn=BN047946,Hlaðhamrar  8-14,(fsp) - Fjölgun bílastæða,Nei. Samræmist ekki deiliskipulagi.,Spurt er hvort leyft yrði að útbúa bílastæði á lóð nr 2-50  fyrir hús á lóð nr 8-14  við Hlaðhamra.
47923 (01.35.300.3),http://gamli.rvk.is/vefur/owa/edutils.parse_page?nafn=BN047923,Kleppsvegur 92,(fsp) - Breyta jarðhæð í íbúð,Frestað. Málinu vísað til umsagnar skipulagsfulltrúa.,Spurt er hvort samþykkt yrði íbúð á jarðhæð parhúss á lóð nr. 92 við Kleppsveg.
47926 (05.15.--7.8),http://gamli.rvk.is/vefur/owa/edutils.parse_page?nafn=BN047926,Langavatnsvegur 6,(fsp) - Stækka sumarhús,Frestað. Málinu vísað til umsagnar skipulagsfulltrúa.,"Spurt er hvort leyfi fengist til að stækka sumarhús eða til að reisa annað sumarhús á landinu sem er 1,1 hektara lóð nr. 6 við Langavatnsveg."
47728 (01.14.010.9),http://gamli.rvk.is/vefur/owa/edutils.parse_page?nafn=BN047728,Pósthússtræti 2,(fsp) - Útiveitingar,Jákvætt. Með vísan til leiðbeininga í umsögn skrifstofu reksturs- og umhirðu dags. 03.07.2014.,Spurt er hvort leyfi fengist til að setja borð og stóla á gangstétt fyrir framan veitingarstaðinn Hótel 1919 resturant og bar á lóð nr. 2 við Pósthússtræti.
47959 (01.13.021.1),http://gamli.rvk.is/vefur/owa/edutils.parse_page?nafn=BN047959,Vesturgata 52,(fsp) - Spurt er hvort rýmið sé samþykkt íbúð.,Jákvætt. Með vísan til leiðbeininga í umsögn sem fram koma á fyrirspurnarblaði.,Spurt er hvort rými 0101 í mhl. 01 sé samþykkt íbúð í húsinu á lóð nr. 52 við Vesturgötu.
47941 (00.00.000.0 07),http://gamli.rvk.is/vefur/owa/edutils.parse_page?nafn=BN047941,Vættaborgir 96,(fsp) - Anddyri,Jákvætt. Með vísan til leiðbeininga á fyrirspurnarblaði.,Spurt er hvort leyft yrði að útbúa sérinngang í íbúð 0101 í mhl. 07 í raðhúsinu nr. 96 á lóð nr. 84-96 við Vættaborgir.
47933 (01.13.441.4),http://gamli.rvk.is/vefur/owa/edutils.parse_page?nafn=BN047933,Öldugata 41,(fsp) - Fá íbúð samþykkta,Frestað. Fyrirspyrjandi óski eftir íbúðaskoðun.,Spurt er hvort samþykkt fáist íbúð 0001 í norðurhluta kjallara fjölbýlishúss á lóð nr. 41 við Öldugötu.
