nr,url,heimilisfang,tegund,nidurstada,spurning
47961 (01.11.980.1),http://gamli.rvk.is/vefur/owa/edutils.parse_page?nafn=BN047961,Austurbakki 2,"Innrétta 3., 4. og 5.hæð",Frestað. Vísað til athugasemda á umsóknarblaði.,"Sótt er um leyfi til að innrétta sýningarými 0301, 0401 og 0501 fyrir hreindýrasafn þar sem inn gangur verður í safnið frá 3. hæð og flæði gesta milli hæða um stiga sem tengir hæðirnar í Tónlistar-og ráðstefnuhúsinu Hörpu á lóð nr. 2 við Austurbakka. Bréf hönnuðar dags. 1. júlí 2014 og Skýringa teikningar sem sýna aðgengi og annað fylgir  Gjald kr. 9.500"
47949 (01.14.050.4),http://gamli.rvk.is/vefur/owa/edutils.parse_page?nafn=BN047949,Austurstræti 22,Innrétting,Frestað. Vísað til athugasemda á umsóknarblaði.,Sótt er um leyfi til að innrétta fyrir sameiginlega notkun sviðslistadeilda Listaháskóla Íslands á 2. og 3. hæð í Nýja Bíói í húsi á lóð við Lækjargötu 2/Austurstræti 22. Brunaskýrsla fylgir erindi.  Meðfylgjandi er bréf arkitekts dags. 30. júní 2014. Gjald kr. 9.500
47871 (01.14.021.3),http://gamli.rvk.is/vefur/owa/edutils.parse_page?nafn=BN047871,Austurstræti 3,Krá og veitingastaður,Frestað. Vísað til athugasemda á umsóknarblaði.,"Sótt er um leyfi til að innrétta veitingastað/krá í flokki III, teg. F, fyrir 45 gesti í húsi á lóð nr. 3 við Austurstræti. Útskrift úr gerðabók skipulagsfulltrúa dags. 4. júlí 2014 fylgir með erindinu ásamt umsögn skipulagsfulltrúa dags. 04. júlí 2014. Einnig fylgir hljóðvistarskýrsla dags. 8. júlí 2014. Gjald kr. 9.500"
47987 (01.43.501.4),http://gamli.rvk.is/vefur/owa/edutils.parse_page?nafn=BN047987,Álfheimar 31,Kjallari - Breyta í íbúð,Frestað. Vísað til athugasemda á umsóknarblaði.,Sótt er um leyfi til að breyta vinnustofu 0001 í kjallara í íbúð í í húsinu á lóð nr.  31 við Álfheima. Gjald kr. 9.500
47332 (01.26.310.3),http://gamli.rvk.is/vefur/owa/edutils.parse_page?nafn=BN047332,Ármúli 13,1.hæð - breyting á brunaskilum í anddyri,Samþykkt.  Samræmist ákvæðum laga nr. 160 / 2010. Áskilið samþykki heilbrigðiseftirlits. Áskilin lokaúttekt byggingarfulltrúa.,Sótt er um leyfi til að breyta brunaskilum í anddyri á 1. hæð húss á lóð nr. 13 við Ármúla. Gjald kr. 9.500
47780 (01.26.300.1),http://gamli.rvk.is/vefur/owa/edutils.parse_page?nafn=BN047780,Ármúli 9,Heilsu- og endurhæfingastöð,Samþykkt.  Samræmist ákvæðum laga nr. 160 / 2010. Áskilið samþykki Vinnueftirlits ríkisins. Áskilið samþykki heilbrigðiseftirlits. Áskilin lokaúttekt byggingarfulltrúa.,"Sótt er um leyfi til að fjarlægja millipall og stiga, til að steypa nýjan millipall, koma fyrir garðskála á austurhlið, koma fyrir þakglugga og  til að innrétta heilsumiðstöð  fyrir margþætta starfsemi á sviði heilsuverndar, skurðstofur og endurhæfingu í  húsi á lóð nr. 9 við Ármúla. Skýrsla brunahönnuðar dags. 27. maí 2014 fylgir erindi. Húsið er í dag skráð 8.638,7 ferm. og 30.089,0 rúmm hjá FMR. en skv. nýrri skráningar töflu er húsið að fara í 9.063,6 ferm. og 31.655,7 Niðurrif á milligólfi: 285,3 ferm. Stækkun millipalls: 412,6 ferm Stækkun garðskála: 15,8 ferm., 66,3 rúmm.  Stækkun á þakglugga: 141,0 rúmm Gjald kr. 9.500 + 9.500"
47977 (01.88.901.5),http://gamli.rvk.is/vefur/owa/edutils.parse_page?nafn=BN047977,Bleikargróf 1,Þaklyfting og kvistur,Frestað. Vísað til athugasemda á umsóknarblaði.,"Sótt er um leyfi til að lyfta þaki austanverðu, koma fyrir tveimur nýjum samvöxnum kvistum, nýtt anddyri er reist á austurhlið, svalir á suðugafl, nýir gluggar og forskalning fjarlægð og sett bárujárn í staðinn, inntök eru flutt og tengd við nýjan lagnastokk í bílskúr og byggt er við hann á lóð nr. 1 við Bleikargróf. Bréf frá hönnuði dags. 7. júlí 2014 og umsögn skipulagsfulltrúa fylgir erindi. Stækkun húss:  XX ferm., XX rúmm.  Gjald kr. 9.500"
47980 (01.22.100.1),http://gamli.rvk.is/vefur/owa/edutils.parse_page?nafn=BN047980,Borgartún 18,Ljósaskilti,Frestað. Vísað til athugasemda á umsóknarblaði.  Gera þarf betur grein fyrir erindinu.,"Sótt er um leyfi til að koma fyrir þriggja flata ljósaskilti úr plexigleri og áli, eitt sem verður 10 ferm., hin verða verða 7,5 ferm hvort og staðsett í norðvesturhorni lóðar nr. 18 við Borgartún. Gjald kr. 9.500"
47198 (04.76.410.3),http://gamli.rvk.is/vefur/owa/edutils.parse_page?nafn=BN047198,Brekknaás 9,Áður gerðar breytingar,Frestað. Vísað til athugasemda á umsóknarblaði.,"Sótt er um samþykki fyrir áður gerðum breytingum innanhúss, m.a. innrétting á verslun, móttöku fyrir hestaleigu, hestakerruleigu, kaffistofu í flokki II og dýralæknaráðgjöf í Dýraspítala Watsons á lóð nr. 9 við Brekknaás. Umsögn skrifstofu sviðsstjóra dags. 24. febrúar 2014 fylgir erindinu ásamt útskrift úr gerðabók embættisafgreiðslufundar skipulagsfulltrúa frá 4. apríl 2014 og umsögn skrifstofu sviðsstjóra dags. 24. febrúar 2014. Einnig bréf frá eigendum Brekknaáss 9 ódagsett. Gjald kr. 9.500 + 9.500"
47903 (01.45.440.9),http://gamli.rvk.is/vefur/owa/edutils.parse_page?nafn=BN047903,Dugguvogur 23,Breyta í íbúð,Synjað. Samanber umsögn skipulagsfulltrúa dags. 9. júlí 2014.,Sótt er um leyfi til að breyta rými 0305 úr skrifstofum í íbúðarhús og koma fyrir svölum við íbúðina á 3. hæð húss á lóð nr.23 við Dugguvog. Útskrift úr gerðabók skipulagsfulltrúa dags. 11. júlí 2014 ásamt umsögn skipulagsfulltrúa frá 9. júlí 2014 fylgja erindinu. Gjald kr. 9.500
47678 (01.11.140.4),http://gamli.rvk.is/vefur/owa/edutils.parse_page?nafn=BN047678,Eyjarslóð 3,Breytingar á milli rýma,Samþykkt.  Samræmist ákvæðum laga nr. 160 / 2010. Áskilið samþykki heilbrigðiseftirlits. Áskilin lokaúttekt byggingarfulltrúa.,"Sótt er um leyfi til að opna til bráðabirgða á milli rýma 0102, 0106, 0105 og 0103 í  húsinu á lóð nr. 3 við Eyjaslóð. Bréf eiganda dags. 30. júní 2014 fylgir erindi. Gjald kr. 9.500"
47518 (01.53.211.2),http://gamli.rvk.is/vefur/owa/edutils.parse_page?nafn=BN047518,Faxaskjól 26,"Kvistur, klæðning, svalir, stigi inni",Samþykkt.  Samræmist ákvæðum laga nr. 160 / 2010. Með vísan til samþykktar borgarráðs frá 1. september 1998 skal utanhúss- og lóðarfrágangi vera lokið eigi síðar en innan tveggja ára frá útgáfu byggingarleyfis að viðlögðum dagsektum sbr. greinar nr. 2.4.7 og 2.9.2 í byggingarreglugerð nr. 112/2012. Áskilin lokaúttekt byggingarfulltrúa.,"Sótt er um leyfi til að byggja kvist á vesturhlið, lengja kvist á austurhlið, byggja svalir á suður- og vesturhlið, nýjan inngang á norðurhlið, einangra og klæða að utan með timbri og breyta innra skipulagi í einbýlishúsi á lóð nr. 26 við Faxaskjól. Útskrift úr gerðabók embættisafgreiðslufundar skipulagsfulltrúa frá 2. maí 2014 fylgir erindinu ásamt umsögn skipulagsfulltrúa dags. 29. apríl 2014. Erindi var grenndarkynnt frá 6. júní til og með 4. júlí 2014. Engar athugasemdir bárust. Útskrift úr gerðabók skipulagsfulltrúa frá 11. júlí 2014 fylgir erindinu. Stækkun íbúðarhús:  00 ferm., 25,1 rúmm. Stækkun bílskúr: 9,2 ferm., 36 rúmm. Gjald kr. 9.500 + 9.500"
47948 (01.44.010.1),http://gamli.rvk.is/vefur/owa/edutils.parse_page?nafn=BN047948,Ferjuvogur 2,Frístundaheimili,Frestað. Vísað til athugasemda á umsóknarblaði.,"Sótt er um leyfi til að byggja frístundaheimili,  mhl. 02,  á einni hæð,  að mestu leyti niðurgrafið, staðsteyptir veggir einangraðir að innan þar sem þeir standa uppúr jörðu, en að utan neðanjarðar og þak er viðsnúið með lítið hallandi grasflöt efst og stétt við norðurbrún sem tengist  neðri skólalóð sunnan við aðal skólahús Vogaskóla á lóð nr. 2 við Ferjuvog. Bréf hönnuðar dags. 1. júlí 2014 og umsögn burðarvirkishönnuðar dags. 1. júlí 2014  og varmatapsútreikningur ódags. fylgja erindi. Stærðir húss: A rými: 342,0 ferm., 1.323,1 rúmm.  B rými 48,3 ferm.,  XX rúmm. Samtals: 390,3 ferm., XX rúmm Gjald kr. 9.500"
47738 (01.66.--9.9),http://gamli.rvk.is/vefur/owa/edutils.parse_page?nafn=BN047738,Flugvöllur 106748,Flugstjórnarmiðstöð - viðbygging - Nauthólsvegur 66,"Samþykkt.  Samræmist ákvæðum laga nr. 160 / 2010. Með vísan til samþykktar borgarráðs frá 1. september 1998 skal utanhúss- og lóðarfrágangi vera lokið eigi síðar en innan tveggja ára frá útgáfu byggingarleyfis að viðlögðum dagsektum sbr. greinar nr. 2.4.7 og 2.9.2 í byggingarreglugerð nr. 112/2012. Frágangur á lóðamörkum verði gerður í samráði við lóðarhafa aðliggjandi lóða. Í samræmi við samþykkt umhverfis- og skipulagsráðs dags. 9. október 2013 skal vélknúinn þvottabúnaður vera til staðar á byggingarlóð sem tryggi að vörubílar og aðrar þungavinnuvélar verði þrifnar áður en þær yfirgefa byggingarstað. Samráð skal haft við byggingarfulltrúa um staðsetningu búnaðarins. Með vísan til samþykktar umhverfis- og skipulagsráðs, dags. 22. maí 2013, skal lóðarhafi, í samráði við byggingarfulltrúa, setja upp skilti til kynningar á fyrirhuguðum framkvæmdum á byggingarstað. Sérstakt samráð skal haft við yfirverkfræðing byggingarfulltrúa vegna jarðvinnu. Áskilin lokaúttekt byggingarfulltrúa.","Sótt er um leyfi til að byggja 4. hæða viðbyggingu með  neðstu tvær hæðirnar byggðar í beinu framhaldi af  núverandi flugstjórnarmiðstöðinni í Reykjavík á lóð með staðgreinir 202-9310 og landnúmer 106748 við Flugvöllinn . Skýrsla Brunahönnuðar dags. 20. maí 2014 og bréf frá hönnuði dags. 03 júní 2014 fylgir erindi. Stækkun: 2.602,5 ferm. 9.495,2 rúmm. Gjald kr. 9.500"
47902 (04.06.010.4),http://gamli.rvk.is/vefur/owa/edutils.parse_page?nafn=BN047902,Funahöfði 15,Breyting á eignarhaldi,Samþykkt.  Samræmist ákvæðum laga nr. 160 / 2010. Skilyrt er að eignaskiptayfirlýsingu vegna breytinga í húsinu sem þinglýst til þess að samþykktin öðlist gildi. Áskilin lokaúttekt byggingarfulltrúa.,Sótt er um leyfi til að breyta eignarhaldi á skráningartöflu þannig að 101 stækkar sem nemur rými 0103 og 0102 minnkar að sama skapi í húsinu á lóð nr. 15 við Funahöfða. Gjald kr. 9.500
47966 (02.69.520.2),http://gamli.rvk.is/vefur/owa/edutils.parse_page?nafn=BN047966,Gefjunarbrunnur 5,Breyting - BN047506,Frestað. Vísað til athugasemda á umsóknarblaði.,"Sótt er um leyfi til að breyta áður samþykktu erindi BN047456, þannig að stigi verður lengdur, gluggar verða hækkaðir vegna gólfhitalagna, handrið verður lækkað og þakniðurföllum breytt á húsi á lóð nr. 5 við Gefjunarbrunn. Gjald kr. 9.500"
47979 (04.30.120.1),http://gamli.rvk.is/vefur/owa/edutils.parse_page?nafn=BN047979,Grjótháls 8,Tækjabúnaður fjarlægður mhl 04 og mhl.05  - Áður gert,Frestað. Samkvæmt gögnum embættisins er lágmarksgjald ógreitt.,"Sótt er um samþykki fyrir áður fjarlægðum tækjabúnaði mhl. 04 og 05 sem notaður var fyrir vetni á lóð nr. 8 við Grjótháls. Stærðir sem fjarlægðar voru: mhl. 04 25,0 ferm., 75,0 rúmm. mhl. 05 14,6 ferm., 37,8 rúmm.  Gjald kr. 9.500"
47276 (01.16.100.6),http://gamli.rvk.is/vefur/owa/edutils.parse_page?nafn=BN047276,Hólavallagata 3,"Endurnýjun - ris, svalir",Frestað. Lagfæra skráningu.,"Sótt er um leyfi til að hækka ris og byggja svalir á bakhlið, lækka jarðveg við suðurhlið húss, innrétta nýja íbúð í risi og hjóla- og vagnageymslu í kjallara fjölbýlishúss á lóð nr. 3 við Hólavallagötu. Útskrift úr gerðabók embættisafgreiðslufundar skipulagsfulltrúa frá 21. mars 2014 fylgir erindinu ásamt umsögn skipulagsfulltrúa dags. 21. mars 2014. Erindið var grenndarkynnt frá 15. maí til og með 12. júní 2014. Eftirtaldir aðilar sendu inn athugasemd: Rússneska sendiráðið dags. 11 júní 2014 og  Árni Guðmundsson og Hjördís Dalberg dags. 12. júní 2014.   Erindi fylgir fsp. BN047045 dags. 14. janúar 2014. Stækkun:  76,7 rúmm. Gjald kr. 9.500"
47377 (01.15.440.7),http://gamli.rvk.is/vefur/owa/edutils.parse_page?nafn=BN047377,""">Hverfisgata 103",Hótel,"Samþykkt.  Samræmist ákvæðum laga nr. 160 / 2010. Með vísan til samþykktar borgarráðs frá 1. september 1998 skal utanhúss- og lóðarfrágangi vera lokið eigi síðar en innan tveggja ára frá útgáfu byggingarleyfis að viðlögðum dagsektum sbr. greinar nr. 2.4.7 og 2.9.2 í byggingarreglugerð nr. 112/2012. Frágangur á lóðamörkum verði gerður í samráði við lóðarhafa aðliggjandi lóða. Áskilið samþykki Vinnueftirlits ríkisins. Áskilið samþykki heilbrigðiseftirlits. Sérstakt samráð skal haft við yfirverkfræðing byggingarfulltrúa vegna jarðvinnu. Með vísan til samþykktar umhverfis- og skipulagsráðs, dags. 22. maí 2013, skal lóðarhafi, í samráði við byggingarfulltrúa, setja upp skilti til kynningar á fyrirhuguðum framkvæmdum á byggingarstað. Í samræmi við samþykkt umhverfis- og skipulagsráðs dags. 9. október 2013 skal vélknúinn þvottabúnaður vera til staðar á byggingarlóð sem tryggi að vörubílar og aðrar þungavinnuvélar verði þrifnar áður en þær yfirgefa byggingarstað. Samráð skal haft við byggingarfulltrúa um staðsetningu búnaðarins. Áskilin lokaúttekt byggingarfulltrúa.","Sótt er um leyfi til að byggja hótel í flokki V, teg. a með 100 herbergjum úr forsteyptum einingum, þrjár til fjórar hæðir á kjallara  með bílgeymslu fyrir 28 bíla og veitingahúsi í flokki II, teg. a á jarðhæð á lóð nr. 103 við Hverfisgötu. Meðfylgjandi er brunahönnun frá VSI dags. 26. júní 2014, greinargerð vegna hljóðvistar dags. mars 2014, bréf hönnuðar dags. 24. júní 2014 og útskrift úr gerðabók skipulagsfulltrúa dags. 28. október 2013. Stærðir: Kjallari, 294 ferm., bílgeymsla 882 ferm., 1. hæð 886,1 ferm., 2. hæð 882,2 ferm., 3. hæð 818,4 ferm., 4. hæð 457 ferm. Samtals:  4.219,7 ferm., 13.481,3 rúmm. Gjald kr. 9.500"
47697 (97.00.102.0),http://gamli.rvk.is/vefur/owa/edutils.parse_page?nafn=BN047697,"97"">Í Úlfarsfellslandi 125475",Sumarhús,Samþykkt.  Samræmist ákvæðum laga nr. 160 / 2010. Með vísan til samþykktar borgarráðs frá 1. september 1998 skal utanhúss- og lóðarfrágangi vera lokið eigi síðar en innan tveggja ára frá útgáfu byggingarleyfis að viðlögðum dagsektum sbr. greinar nr. 2.4.7 og 2.9.2 í byggingarreglugerð nr. 112/2012. Áskilin lokaúttekt byggingarfulltrúa.,"Sótt er um leyfi til að byggja sumarhús úr timbri á steyptum undirstöðum og einni hæð með millilofti á landspildu úr landi Úlfársfells, landnúmer 125475. Útskrift úr gerðabók embættisafgreiðslufundar skipulagsfulltrúa frá 2. júní 2014 fylgir erindinu ásamt umsögn skipulagsfulltrúa dags. 2. júní 2014. Meðfylgjandi er bréf eiganda ódags. Stærðir: 117,5 ferm., 315,4 rúmm. Gjald kr 9.500 + 9.500"
47870 (32.47.240.1),http://gamli.rvk.is/vefur/owa/edutils.parse_page?nafn=BN047870,Jörfagrund 8,Bílageymsla úr timbri,Samþykkt.  Samræmist ákvæðum laga nr. 160 / 2010. Með vísan til samþykktar borgarráðs frá 1. september 1998 skal utanhúss- og lóðarfrágangi vera lokið eigi síðar en innan tveggja ára frá útgáfu byggingarleyfis að viðlögðum dagsektum sbr. greinar nr. 2.4.7 og 2.9.2 í byggingarreglugerð nr. 112/2012. Frágangur á lóðamörkum verði gerður í samráði við lóðarhafa aðliggjandi lóða. Áskilin lokaúttekt byggingarfulltrúa.,"Sótt er um leyfi til að byggja bílgeymslu úr timbri á steinsteyptum undirstöðum á lóð nr. 8 við Jörfagrund Kjalarnesi.  Stærð bílaskúrs: 39,4 ferm., 138,5 rúmm.  Útskrift úr gerðabók skipulagsfulltrúa frá 11. júlí 2014 ásamt umsögn skipulagsfulltrúa frá 9. júlí 2014 fylgja erindinu. Gjald kr. 9.500"
47908 (01.72.100.1),http://gamli.rvk.is/vefur/owa/edutils.parse_page?nafn=BN047908,Kringlan  4-12,Skipta í 2 einingar,Samþykkt.  Samræmist ákvæðum laga nr. 160 / 2010. Áskilin lokaúttekt byggingarfulltrúa.,"Sótt er um leyfi til að skipta einingu 248 í tvær einingar, 244 og 248 og breyta innra fyrirkomulagi þeirra í Kringlunni á lóð nr. 4-12 við Kringluna. Gjald kr. 9.500"
47957 (02.68.070.1),http://gamli.rvk.is/vefur/owa/edutils.parse_page?nafn=BN047957,Lambhagavegur 29,Rampa breytt og útiröppur fjarlægðar,"Samþykkt.  Samræmist ákvæðum laga nr. 160 / 2010. Með vísan til samþykktar borgarráðs frá 1. september 1998 skal utanhúss- og lóðarfrágangi vera lokið eigi síðar en innan tveggja ára frá útgáfu byggingarleyfis að viðlögðum dagsektum sbr. greinar nr. 2.4.7 og 2.9.2 í byggingarreglugerð nr. 112/2012. Frágangur á lóðamörkum verði gerður í samráði við lóðarhafa aðliggjandi lóða. Með vísan til samþykktar umhverfis- og skipulagsráðs, dags. 22. maí 2013, skal lóðarhafi, í samráði við byggingarfulltrúa, setja upp skilti til kynningar á fyrirhuguðum framkvæmdum á byggingarstað. Áskilin lokaúttekt byggingarfulltrúa.","Sótt er um leyfi til að breyta áður samþykktu erindi BN045705 þannig að fjarlægðar eru útitröppur niður í ramp og lengt í b-rými þannig að b-rýmið stækkar, breyta gluggaskipan á suðaustur hlið og sett er önnur lyftuhurð á húsið á lóð nr. 29 Lambhagaveg. Stækkun B- rýmis er : 35,5 ferm., 151,9 rúmm.  Gjald kr. 9.500"
47796 (01.35.520.5),http://gamli.rvk.is/vefur/owa/edutils.parse_page?nafn=BN047796,Langholtsvegur 15,Viðbygging,Samþykkt.  Samræmist ákvæðum laga nr. 160 / 2010. Með vísan til samþykktar borgarráðs frá 1. september 1998 skal utanhúss- og lóðarfrágangi vera lokið eigi síðar en innan tveggja ára frá útgáfu byggingarleyfis að viðlögðum dagsektum sbr. greinar nr. 2.4.7 og 2.9.2 í byggingarreglugerð nr. 112/2012. Frágangur á lóðamörkum verði gerður í samráði við lóðarhafa aðliggjandi lóða. Áskilin lokaúttekt byggingarfulltrúa.,"Sótt er um leyfi til að stækka viðbyggingu á tveimur hæðum, bílskúr á tveimur hæðum og koma fyrir útitröppum, heitum potti og stoðvegg á vesturhlið lóðar nr. 15 við Langholtsveg.  Stækkun viðbyggingar 131,1 ferm. 426,1 rúmm.  Stærð bílskúrs: 32,1 ferm., 106,4 rúmm.  Gjald kr. 9.500"
47841 (01.43.612.9),http://gamli.rvk.is/vefur/owa/edutils.parse_page?nafn=BN047841,Langholtsvegur126-130,Reyndarteikningar,Samþykkt.  Samræmist ákvæðum laga nr. 160 / 2010. Skilyrt er að eignaskiptayfirlýsingu vegna breytinga í húsinu  sé þinglýst til þess að samþykktin öðlist gildi Áskilin lokaúttekt byggingarfulltrúa.,"Sótt er um leyfi fyrir áður gerðum breytingum þar sem útbúin var ný geymsla í kjallara, 0011 sem séreign 0202 á, stækkuð er íbúð 0202 inní hluta sameignar 0205 og skipt er upp rishæð þannig komið er fyrir stiga á milli 0301 sem verður í eigu 0201 og 0302 sem verður í eigu 0202 í húsinu nr. 128 á lóð nr. 126-128 við Langholtsveg. Samþykki meðeigenda og umsögn burðarvirkishönnuðar ódagsett fylgir. Gjald kr. 9.500"
47981 (01.17.111.0),http://gamli.rvk.is/vefur/owa/edutils.parse_page?nafn=BN047981,Laugavegur  19-19B,Breytingar,Frestað. Vísað til athugasemda á umsóknarblaði.,"Sótt er um leyfi til að breyta áður samþykktu erindi BN047130 þannig að eldri kjallari verður uppfylltur og ekki með í ferm.,  gólfkvóti 1. hæðar breytist, steypt verður hluti af þaki viðbyggingar og fjarlægður er núverandi stigi og endurbyggja nýjan stiga á sama stað í húsinu á lóð nr. 19 við Laugaveg. Minnkun er 83,3 ferm., 197,5 rúmm.  Gjald kr. 9.500"
47610 (01.24.010.1),http://gamli.rvk.is/vefur/owa/edutils.parse_page?nafn=BN047610,Laugavegur 114,Reyndarteikningar,Samþykkt.  Samræmist ákvæðum laga nr. 160 / 2010. Áskilið samþykki heilbrigðiseftirlits. Áskilið samþykki Vinnueftirlits ríkisins. Áskilin lokaúttekt byggingarfulltrúa.,"Sótt er um leyfi fyrir áður gerðum breytingum, minni háttar tilfærsla á veggjum og hurðum í húsinu á lóð nr. 114 við Laugaveg. Gjald kr. 9.500"
47924 (01.17.200.9),http://gamli.rvk.is/vefur/owa/edutils.parse_page?nafn=BN047924,Laugavegur 27,Borð og stólar úti,Samþykkt.  Samræmist ákvæðum laga nr. 160 / 2010. Áskilið samþykki heilbrigðiseftirlits. Áskilin lokaúttekt byggingarfulltrúa.,Sótt er um leyfi til að setja fjögur tveggja manna borð á gangstétt fyrir utan veitingastaðinn Tíu Dropa sem er í kjallara hússins á lóð nr. 27 við Laugarveg. Jákvæð umsögn frá skrifstofu reksturs og umhirðu borgalands fylgir. Gjald kr. 9.500
47988 (01.43.710.1),http://gamli.rvk.is/vefur/owa/edutils.parse_page?nafn=BN047988,Ljósheimar 14-18,Flytja aðkomu slökkviliðs,Frestað. Vísað til athugasemda á umsóknarblaði.,Sótt er um leyfi til að flytja aðkomu slökkviliðs frá  samþykktri staðsetningu inn í gegnum bílastæði við Ljósheima 8-12 og verður aðkoma merkt skv. ákvæði Byggingareglugerðar fyrir húsi á lóð nr. 14-18 við Ljósheima. Gjald kr. 9.500
47983 (01.14.050.9),http://gamli.rvk.is/vefur/owa/edutils.parse_page?nafn=BN047983,Lækjargata 6B,1. og 2. hæð og ris - Breytingar inni,Frestað. Vísað til athugasemda á umsóknarblaði.,"Sótt er um leyfi til að byggja flóttastiga á bakhlið og breyta innra skipulagi á 1. 2. og 3 hæð, fjarlægð eru eldhús, borðstofa og dagstofa og innréttuð herbergi í gistiheimili á lóð nr. 6B við Lækjargötu. Gjald kr. 9.500"
45762 (01.71.020.9),http://gamli.rvk.is/vefur/owa/edutils.parse_page?nafn=BN045762,Mávahlíð 42,Svalir,Samþykkt.  Samræmist ákvæðum laga nr. 160 / 2010. Með vísan til samþykktar borgarráðs frá 1. september 1998 skal utanhúss- og lóðarfrágangi vera lokið eigi síðar en innan tveggja ára frá útgáfu byggingarleyfis að viðlögðum dagsektum sbr. greinar nr. 2.4.7 og 2.9.2 í byggingarreglugerð nr. 112/2012. Áskilin lokaúttekt byggingarfulltrúa.,Sótt er um leyfi til að byggja svalir inn í þak hússins á lóðinni nr. 42 við Mávahlíð. Sjá einnig fyrirspurnarerindi BN042749 sem fékk jákvæða afgreiðslu 29. mars 2011. Samþykki meðeigenda og eigenda húss nr. 44 við Mávahlíð (á teikn.) fylgja erindinu ásamt útskrift úr gerðabók embættisafgreiðslufundar skipulagsfulltrúa frá 27. september 2013 og umsögn skipulagsfulltrúa dags. 27. september 2013. . Erindið var grenndarkynnt frá 6. júní til og með 4. júlí 2014. Engar athugasemdir bárust. Útskrift úr gerðabók skipulagsstjóra frá 11. júlí 2014 fylgir erindinu. Gjald kr. 9.000
47992 (01.54.201.4),http://gamli.rvk.is/vefur/owa/edutils.parse_page?nafn=BN047992,>Melhagi 20-22,Innrétta veitingastað,Frestað. Vísað til athugasemda á umsóknarblaði.,Sótt er um leyfi til að innrétta veitingastað í flokki II fyrir 45 gesti í atvinnuhúsi á lóð nr. 20-22 við Melhaga. Gjald kr. 9.500
47756 (01.71.000.2),http://gamli.rvk.is/vefur/owa/edutils.parse_page?nafn=BN047756,Miklabraut 70,Stækka kvisti,Frestað. Vísað til athugasemda á umsóknarblaði.,"Sótt er um leyfi til að stækka kvisti á norður- og suðurhlið fjölbýlishússins á lóð nr. 70 við Miklubraut. Meðfylgjandi er samþykki meðeigenda í júní 2014. Stærðir stækkun: 9,0 rúmm. Gjald kr. 9.500"
47874 (01.11.630.6),http://gamli.rvk.is/vefur/owa/edutils.parse_page?nafn=BN047874,Mýrargata 14,Stækkun á nr.14-16,Frestað. Vísað til athugasemda á umsóknarblaði. Málinu vísað til umsagnar skipulagsfulltrúa.,"Sótt er um leyfi til að stækka hús nr. 14 og 16 og breyta þeim í hótelíbúðir, byggja tengibyggingu milli húsanna og einnig yfir í hús á nr. 12, þannig að hótelið stækki um húsin á lóðum nr. 14 og 16 sem verða sameinaðar í lóð nr. 14 við Mýrargötu. Meðfylgjandi er kvöð um aðgengi milli lóða dags. 12.6. 2014, skýring á sorphirðu fyrir Mýrargötu 2-16. Stærðarbreytingar: nýbyggingar, stækkanir, ferm., rúmm. Gjald kr. 9.500"
47905 (05.05.370.1),http://gamli.rvk.is/vefur/owa/edutils.parse_page?nafn=BN047905,Nönnubrunnur 1,Breytingar inni og úti,Frestað. Með vísan til útskriftar úr gerðabók skipulagsfulltrúa dags. 11. júlí 2014.  Vísað til athugasemda á umsóknarblaði.,"Sótt er um leyfi til að breyta innra skipulagi eldhúsa í íbúðum 104 og 204, steypa svalahandrið í stað léttra úr stáli og gleri og minnka bogaþak sbr. erindi BN046659 í fjölbýlishúsi á lóð nr. 1 við Nönnubrunn. Útskrift úr gerðabók skipulagsfulltrúa frá 11. júlí 2014 fylgir erindinu. Minnkun 105,3 rúmm. Gjald kr. 9.500"
47885 (04.36.020.1),http://gamli.rvk.is/vefur/owa/edutils.parse_page?nafn=BN047885,Rofabær 34,Klæðning,Samþykkt.  Samræmist ákvæðum laga nr. 160 / 2010. Með vísan til samþykktar borgarráðs frá 1. september 1998 skal utanhúss- og lóðarfrágangi vera lokið eigi síðar en innan tveggja ára frá útgáfu byggingarleyfis að viðlögðum dagsektum sbr. greinar nr. 2.4.7 og 2.9.2 í byggingarreglugerð nr. 112/2012. Áskilin lokaúttekt byggingarfulltrúa.,Sótt er um leyfi til að klæða E- og F álmu með sléttri klæðningu sem verður uppsett á upphengi kerfi og einangruð með 100 mm steinull á vegg hússins á lóð nr. 34 við Rofabær. Bréf frá hönnuði ódags. og umsögn burðarvirkishönnuðar dags. 4. júlí 2014 fylgir. Gjald kr. 9.500
47967 (05.05.540.2),http://gamli.rvk.is/vefur/owa/edutils.parse_page?nafn=BN047967,Sifjarbrunnur 26,Reyndarteikningar - breyting á gluggum og lóð,Frestað. Vísað til athugasemda á umsóknarblaði.,"Sótt er um leyfi fyrir áður gerðum breytingum sbr. BN036832 samþykkt 22. janúar 2008 þannig að gluggum verður breytt, lóð lagfærð og  koma fyrir handriðum sem fallvörn á norðausturhlið húss á lóð nr. 26 við Sifjarbrunn.  Gjald kr. 9.500"
47716 (04.38.650.2),http://gamli.rvk.is/vefur/owa/edutils.parse_page?nafn=BN047716,Skógarás 21,Áður gerð aukaíbúð á neðri hæð sem séreign,Samþykkt.  Samræmist ákvæðum laga nr. 160 / 2010. Áskilin lokaúttekt byggingarfulltrúa.,Sótt er um fastanúmer á íbúð neðri hæðar íbúðarhúss á lóð nr. 21 við Skógarás. Gjald kr. 9.500
47717 (04.38.650.3),http://gamli.rvk.is/vefur/owa/edutils.parse_page?nafn=BN047717,Skógarás 23,Áður gerð aukaíbúð á neðri hæð sem séreign,Samþykkt.  Samræmist ákvæðum laga nr. 160 / 2010. Áskilin lokaúttekt byggingarfulltrúa.,Sótt er um fastanúmer á íbúð neðri hæðar íbúðarhúss á lóð nr. 23 við Skógarás. Gjald kr. 9.500
47922 (01.23.000.3),http://gamli.rvk.is/vefur/owa/edutils.parse_page?nafn=BN047922,Sóltún 1,Stækkun á bílakjallara,Frestað. Vantar samþykki meðeigenda.,"Sótt er um leyfi til að stækka bílastæðahús, mhl. 05, í suðvesturhorni þar sem bílakjallari tengist í framtíðinni við Sóltún 1-3 á lóð nr. 7-17 við Mánatún 1-17/Sóltún 1-3. Meðfylgjandi er bréf arkitekts dags. 25. júní 2014 og bréf framkvæmdastjóra Mánatúns hf. dags. 25. júní 2014. Stækkun: 124 ferm., 2.007,4 rúmm. Gjald kr. 9.500"
47986 (01.13.461.6),http://gamli.rvk.is/vefur/owa/edutils.parse_page?nafn=BN047986,Sólvallagata 48,Færsla á innveggjum,Frestað. Vísað til athugasemda á umsóknarblaði.,"Sótt er um leyfi fyrir áður gerðum breytingum sbr. BN047396 þannig að innvegir færast til, brunamerkingar eru felldar út og breytt er salerni starfsmanna í húsinu á lóð nr. 48 við Sólvallagötu. Gjald kr. 9.500"
47984 (02.37.530.1),http://gamli.rvk.is/vefur/owa/edutils.parse_page?nafn=BN047984,Spöngin 33-41,41 - Bókasafn,Samþykkt.  Samræmist ákvæðum laga nr. 160 / 2010. Áskilið samþykki Vinnueftirlits ríkisins. Áskilið samþykki heilbrigðiseftirlits. Áskilin lokaúttekt byggingarfulltrúa.,Sótt er um leyfi til að breyta heilsugæslustöð í bókasafn í mhl. 02 1. og 2 hæð í húsinu nr. 41 á lóð nr. 33-41 við Spöngina. Gjald kr. 9.500
47884 (01.81.611.4),http://gamli.rvk.is/vefur/owa/edutils.parse_page?nafn=BN047884,Steinagerði 12,Bílskúr,Samþykkt.  Samræmist ákvæðum laga nr. 160 / 2010. Frágangur á lóðamörkum verði gerður í samráði við lóðarhafa aðliggjandi lóða. Með vísan til samþykktar borgarráðs frá 1. september 1998 skal utanhúss- og lóðarfrágangi vera lokið eigi síðar en innan tveggja ára frá útgáfu byggingarleyfis að viðlögðum dagsektum sbr. greinar nr. 2.4.7 og 2.9.2 í byggingarreglugerð nr. 112/2012. Áskilin lokaúttekt byggingarfulltrúa.,"Sótt er um leyfi til þess að byggja steinsteyptan bílskúr á lóð nr. 12 við Steinagerði. Stærð: Bílskúr 36,5 ferm., 115,3 rúmm. Gjald kr. 9.500"
47975 (01.89.--9.9),http://gamli.rvk.is/vefur/owa/edutils.parse_page?nafn=BN047975,Stjörnugróf 9,Verkfærageymsla,Frestað. Málinu vísað til umsagnar skipulagsfulltrúa.,"Sótt er um leyfi til að koma fyrir verkfærageymslum sem verða óeinangraðar og óupphitaðar úr timbri, klæddar timbri með bárujárnsþökum á steyptum sökkuleiningum,  á lóð nr. 9 við Stjörnugróf Bjarkarás. Stærð verkfærageymslu A er: 8,7 ferm., 23,0 rúmm.  Stærð verkfærageymslu B er: 27,0 ferm., 74,5 rúmm.  Samtals: 35,7 ferm., 97,2 rúmm.  Gjald kr. 9.500"
47976 (01.89.--9.9),http://gamli.rvk.is/vefur/owa/edutils.parse_page?nafn=BN047976,Stjörnugróf 9,Breyta gluggum,Frestað. Vísað til athugasemda á umsóknarblaði.,Sótt er um leyfi til að breyta gluggum þannig að opnanleg gluggafög eru minnkuð á vestur- og norðausturálmu og til að koma fyrir nýjum neðrigluggum  á norður- og austurhlið  hússins Lækjarás á lóð nr. 9 við Stjörnugróf. Gjald kr. 9.500
47951 (01.13.550.7),http://gamli.rvk.is/vefur/owa/edutils.parse_page?nafn=BN047951,Stýrimannastígur 15,Viðbygging,"Frestað. Vísað til athugasemda á umsóknarblaði. Málinu er vísað til skipulagsfulltrúa til ákvörðunar um grenndarkynningu. Vísað er til uppdrátta 1B, 2B dags. 30. júní 2014.","Sótt er um leyfi til að byggja viðbyggingu með lágu risi við vesturgafl einbýlishúss á lóð nr. 15 við Stýrimannastíg. Erindi fylgja umsagnir Minjasafns Reykjavíkur dags. 24. maí og Minjastofnunar Íslands dags. 6. júní 2014 sem báðar eru jákvæðar. Stækkun 13,3 ferm., 49,6 rúmm. Gjald kr. 9.500"
47982 (01.14.220.2),http://gamli.rvk.is/vefur/owa/edutils.parse_page?nafn=BN047982,Suðurgata 31,"Verönd, gluggar, hurð",Frestað. Málinu vísað til umsagnar skipulagsfulltrúa.,"Sótt er um leyfi til að reisa verönd, síkka glugga á suðaustur- og suðvestur horni til að koma fyrir hurð út á veröndina, leggja af útgang frá anddyri út í garð og gera grein fyrir áðurgerðum breytingum þar sem settir voru fjórir þakgluggar á húsið á lóð nr. 31 við Suðurgötu. Umsögn burðarvirkishönnuðar dags. 7. júlí 2014 fylgir.  Gjald kr. 9.500"
47913 (01.33.670.1),http://gamli.rvk.is/vefur/owa/edutils.parse_page?nafn=BN047913,Sundaborg 1-15,Reyndarteikning 1.hæð nr. 13-15,Samþykkt.  Samræmist ákvæðum laga nr. 160 / 2010. Áskilin lokaúttekt byggingarfulltrúa.,Sótt er um samþykki á þegar gerðum breytingum á listaverkageymslu og hillueiningum á brautum í skjalageymslu og brunaþoli veggja á 1. hæð í húsi á lóð nr. 13-15 við Sundaborg. Gjald kr. 9.500
47999 (01.63.130.3),http://gamli.rvk.is/vefur/owa/edutils.parse_page?nafn=BN047999,Sæmundargata 15-19,takmarkað byggingarleyfi - BN046396,"Samþykkt.  Samræmist ákvæðum laga nr. 160 / 2010. Samþykktin fellur úr gildi við útgáfu á endanlegu byggingarleyfi. Vegna útgáfu á takmörkuðu byggingarleyfi skal umsækjandi hafa samband við yfirverkfræðing embættis byggingarfulltrúa. Með vísan til samþykktar umhverfis- og skipulagsráðs, dags. 22. maí 2013, skal lóðarhafi, í samráði við byggingarfulltrúa, setja upp skilti til kynningar á fyrirhuguðum framkvæmdum á byggingarstað. Í samræmi við samþykkt umhverfis- og skipulagsráðs dags. 9. október 2013 skal vélknúinn þvottabúnaður vera til staðar á byggingarlóð sem tryggi að vörubílar og aðrar þungavinnuvélar verði þrifnar áður en þær yfirgefa byggingarstað. Samráð skal haft við byggingarfulltrúa.","Sótt er um takamarkað byggingaleyfi til að steypa plötu, veggi og súlur 4. hæðar ( þakhýsi) ásamt tæknirými þar fyrir ofan fyrir kæliblásara. Á 4. hæðinni eru skrifstofur ásamt stoðrýmum og mötuneyti starfsmanna Hátækniseturs Alvogen Biotech í Vatnsmýrinni, á  lóðinni nr. 15-19 við Sæmundargötu sbr. erindi BN046396."
47909 (01.87.500.1),http://gamli.rvk.is/vefur/owa/edutils.parse_page?nafn=BN047909,Traðarland 1,Stækka pall,Samþykkt.  Samræmist ákvæðum laga nr. 160 / 2010. Áskilin lokaúttekt byggingarfulltrúa.,Sótt er um leyfi til að setja rennihurð í stað glugga á suðurhlið samkomusalar á 2. hæð og byggja setpall í kverkinni fyrir utan við vallarhús Víkings á lóð nr. 1 við Traðarland. Gjald kr. 9.500
47965 (01.13.510.2),http://gamli.rvk.is/vefur/owa/edutils.parse_page?nafn=BN047965,Vesturgata 33,Niðurrif - Geymsla við 33b,Frestað. Gera þarf betur grein fyrir erindinu.,"Sótt er um leyfi til að rífa geymsluskúr sem liggur milli nr. 33A, mhl. 03, og nr. 33B, mhl. 02,  á lóð nr. 33 við Vesturgötu. Gjald kr. 9.500"
47985 (01.22.000.4),http://gamli.rvk.is/vefur/owa/edutils.parse_page?nafn=BN047985,Þórunnartún 4,Viðbygging - hótel,Frestað. Málinu vísað til umsagnar skipulagsfulltrúa. Vísað til athugasemda á umsóknarblaði.,"Sótt er um leyfi til að byggja viðbyggingu á bakhlið, byggja inndregna 5. hæð ofan á og til að innrétta gististað með 93 herbergjum í flokki V, teg. a á lóð nr. 4 við Þórunnartún. Stækkun:  1.817 ferm., 5.759,7 rúmm. Gjald kr. 9.500"
47996 (01.13.710.2),http://gamli.rvk.is/vefur/owa/edutils.parse_page?nafn=BN047996,Öldugata 27,breytingar á notkun húss,Frestað. Málinu vísað til umsagnar skipulagsfulltrúa.,Sótt er um leyfi til að breyta notkun íbúðarhúss i grunnskóla á lóð nr. 27 við Öldugötu. Bréf frá stjórn Reykjavík International School dags. 30 júní 2014 fylgir. Gjald kr. 9.500
48001 (01.67.501.3),http://gamli.rvk.is/vefur/owa/edutils.parse_page?nafn=BN048001,Fáfnisnes 11,Mæliblað,Samþykkt.  Samræmist ákvæðum laga nr. 160 / 2010.,"Óskað er eftir  samþykki byggingarfulltrúans á ""Hluta úr Lóðauppdrætti"" staðgreinir 1.675.0 vegna lóðar Fáfnisnes 11 (staðgr. 1.675.013, landnr. 106894), eða eins og sýnt er á meðfylgandi uppdrætti Landupplýsinga-deildar dagsettum 10.07. 2014. Mæliblað hefur ekki verið útgefið af lóðinni, en lóðin er skráð 628,0 m2 í Þjóðskrá Íslands, í eldri gögnum er lóðin skráð 1117,2 m2, lóðin reynist 1116 m2. Inná uppdráttinn er afmörkuð, með daufum línum, lóð og byggingarreitir Fáfnisnes 11, samkvæmt gildandi deiliskipulagi samþykktu í skipulags-   og byggingarnefnd 18. 02. 2004 og í borgarráði 24. 02.2004 og auglýstu í    B-deild Stjórnartíðinda, dags. 13. 07. 2004, sú lóð er 718 m2 að stærð."
47991 (01.34.600.4),http://gamli.rvk.is/vefur/owa/edutils.parse_page?nafn=BN047991,Laugarnesvegur 70,Mæliblað,Samþykkt.  Samræmist ákvæðum laga nr. 160 / 2010.,"Óskað er eftir  samþykki byggingarfulltrúans á breytingu á lóðamörkum á lóðinni Laugarnesvegur 70 (staðgr. 1.346.004, landnr. 104057), eða eins og sýnt er á meðfylgandi uppdrætti unnum af Skrifstofu Borgarverk-fræðings, Mælingadeild, dags. 19.5.1983.Landupplýsinga-deildar dagsettum 10.07. 2014. Lóðin Laugarnesvegur 70 er talin 510 m2, bætt er 39 m2við lóðina úr borgarlandi (landnúmer 218177), lóðin Laugarnesvegur 70 (staðgr. 1.346.004, landnr. 104057) verður 549 m2 að stærð."
47848 (01.81.321.3),http://gamli.rvk.is/vefur/owa/edutils.parse_page?nafn=BN047848,Akurgerði 11,(fsp) - Byggja bílskúr.,Jákvætt. Að uppfylltum skilyrðum. Sækja þarf um byggingarleyfi sem verður grenndarkynnt berist hún.,Spurt er hvort leyfi fengist til að byggja bílskúr samkvæmt teikningum frá 1982 og hvaða gögn þarf að skila inn til þess á lóð nr. 11 við Akurgerði. Útskrift úr gerðabók skipulagsfulltrúa dags. 4. júlí 2014 ásamt umsögn skipulagsfulltrúa dags. 2. júlí fylgja með fyrirspurninni. Samþykktar teikningar frá  árið 25 mars. 1982 fylgir af bílskúrnum.
47973 (01.26.200.2),http://gamli.rvk.is/vefur/owa/edutils.parse_page?nafn=BN047973,Ármúli 5,(fsp) - Breyting v/gistiaðstöðu,Frestað. Málinu vísað til umsagnar skipulagsfulltrúa.,Spurt er hvort leyfi fengist til að breyta atvinnuhúsnæði í norðurálmu í gistiheimili með 43 herbergjum á lóð nr. 5 við Ármúla. Skissur af fyrirhuguðum breytingum fylgir.
47863 (01.18.450.5),http://gamli.rvk.is/vefur/owa/edutils.parse_page?nafn=BN047863,Baldursgata 25B,(fsp) - Ósamþykkt íbúð,Jákvætt. Að uppfylltum skilyrðum. Sækja þarf um byggingarleyfi sem verður grenndarkynnt berist hún.,Spurt er hvað gera þurfi til að fá íbúð samþykkta í húsi á lóð nr. 25B við Baldursgötu. Útskrift úr gerðabók skipulagsfulltrúa dags. 4. júlí 2014 fylgir með fyrirspurninni.
47927 (01.16.020.8),http://gamli.rvk.is/vefur/owa/edutils.parse_page?nafn=BN047927,Blómvallagata 2,(fsp) - Viðbygging,Jákvætt. Að uppfylltum skilyrðum. Sækja þarf um byggingarleyfi sem verður grenndarkynnt berist hún.,Spurt er hvort leyfi fengist til að byggja vinnustofu við útvegg Sólvallagötu 12 á lóð nr. 2 við Blómvallagötu. Útskrift úr gerðabók skipulagsfulltrúa dags. 11. júlí 2014 ásamt umsögn skipulagsfulltrúa dags. 11. júlí 2014 fylgja erindinu. Ljósmyndir fylgja erindinu
47972 (01.19.500.5),http://gamli.rvk.is/vefur/owa/edutils.parse_page?nafn=BN047972,Egilsgata 18,(fsp) - Breyta glugga á bílskúr,Jákvætt. Að uppfylltum skilyrðum. Sækja þarf um byggingarleyfi sem verður grenndarkynnt berist hún.,Spurt er hvort leyfi fengist til að síkka glugga og koma fyrir hurð út frá neðrihæð bílskúrs á lóð nr. 18 við Egilsgötu.
47875 (01.86.220.1),http://gamli.rvk.is/vefur/owa/edutils.parse_page?nafn=BN047875,Helluland 1-19 2-24,(fsp) - Létt þak,Nei. Samanber umsögn skipulagsfulltrúa dags. 4. júlí 2014.,Spurt er hvort leyfi fengist til að framlengja léttu þaki sem verður úr plexi- plötum yfir hellulagða stétt svo að útbúið er B- rými á raðhúsinu nr. 12 á lóð nr. 1-19 2-24 við Helluland.  Útskrift úr gerðabók skipulagsfulltrúa frá 4. júlí 2014 ásamt umsögn skipulagsfulltrúa dags. 4. júlí 2014 fylgja með fyrirspurninni.
47989 (01.86.200.1),http://gamli.rvk.is/vefur/owa/edutils.parse_page?nafn=BN047989,Hjallaland 1-31 2-40,(fsp) - 1 - Breyting á nýtingu lóðar,Frestað. Málinu er vísað til umsagnar skipulagsfulltrúa og til samgöngustjóra Reykjavíkur.,"Spurt er hvort leyfi fengist til að helluleggja og koma fyrir bílastæði á lóð sem húseigandi fékk yfirráðarétt yfir árið 1997 við raðhús  nr. 1 á lóð nr. 1-31, 2-40 við Hjallaland. Samþykki frá meðeigendum á lóð undanskildum tveimur, með fyrirvara frá 20. maí 1997 og 28. apríl 1998"
47443 (01.18.531.1),http://gamli.rvk.is/vefur/owa/edutils.parse_page?nafn=BN047443,Laufásvegur 45B,(fsp) - Ofanábygging,Jákvætt. Að uppfylltum skilyrðum. Sækja þarf um  byggingarleyfi sem verður grenndarkynnt berist hún.,Spurt er hvort leyft yrði að byggja íbúðarherbergi og svalir ofan á einbýlishúsið á lóðinni nr. 45B við Laufásveg. Útskrift úr gerðabók embættisafgreiðslufundar skipulagsfulltrúa frá 25. apríl 2014 fylgir erindinu ásamt útskrift úr gerðabók skipulagsfulltrúa dags. 14. júlí 2014 fylgir erindinu.
47844 (01.18.141.6),http://gamli.rvk.is/vefur/owa/edutils.parse_page?nafn=BN047844,Lokastígur 13,(fsp) - Útlitsbreytingar sólskáli og svalir.,Nei. Samanber umsögn skipulagsfulltrúa dags. 4. júlí 2014.,Spurt er hvort leyfi fengist til að byggja sólskála á 3. hæð og svalir út frá þeim í húsinu á lóð nr. 13 við Lokastíg.  Útskrift úr gerðabók skipulagsfulltrúa frá 4. júlí 2014 ásamt umsögn skipulagsfulltrúa frá 4. júlí 2014 fylgja með fyrirspurninni.
47851 (01.75.520.4),http://gamli.rvk.is/vefur/owa/edutils.parse_page?nafn=BN047851,Nauthólsvegur 89,(fsp) - Færanleg kennslustofa,Nei. Samanber umsögn skipulagsfulltrúa frá 9. júlí 2014.,Spurt er hvort tímabundið stöðuleyfi fáist fyrir færanlega 100 fermetra kennslustofu á lóð nr. 89 við Nauthólsveg í tengslum við Barnaskóla Hjallastefnunnar á lóð nr. 87 við sömu götu. Útskrift úr gerðabók skipulagsfulltrúa frá 11. júlí 2014 ásamt umsögn skipulagsfulltrúa dags. 9. júlí 2014 fylgja með fyrirspurninni.
47879 (01.22.210.8),http://gamli.rvk.is/vefur/owa/edutils.parse_page?nafn=BN047879,Rauðarárstígur 3,(fsp) - Kvistir,Nei. Samanber umsögn skipulagsfulltrúa dags. 9. julí 2014.,Spurt er hvort leyfi fengist til að setja kvist götumegin á þrjú herbergi götumegin á þak hússins á lóð nr. 3 við Rauðarárstig. Útskrift úr gerðarbók skipulagsfulltrúa frá 11 júlí 2014 ásamt umsögn skipulagsfulltrúa dags. 9. júlí 2014 fylgja með erindinu.
47861 (01.25.520.8),http://gamli.rvk.is/vefur/owa/edutils.parse_page?nafn=BN047861,Skipholt 70,(fsp) - Breyta efri hæð í leiguíbúðir,Nei. Samanber umsögn  skipulagsfulltrúa dags. 2. júlí 2014.,"Spurt er hvort breyta megi skrifstofum á efri hæð í 22 litlar íbúðir til útleigu í atvinnuhúsinu á lóð nr. 70 við Skipholt. Útskrift úr gerðabók skipulagsfulltrúa dags. 04.07.2014 ásamt umsókn skipulagsfulltrúa dags, 2. júlí 2014 fylgja með fyrirspurninni."
47978 (01.79.050.1),http://gamli.rvk.is/vefur/owa/edutils.parse_page?nafn=BN047978,Sléttuvegur 3,(fsp) - Breyta svölum,Frestað. Gera þarf betur grein fyrir erindinu.,Spurt er hvort heimilt sé að minnka einangrun svala sem eru ofan á íbúð og setja í staðinn hitalögn í lokuðu kerfi þannig að betra væri að koma hjólastól út á þær í húsi Sem samtakana á lóð nr. 3 við Sléttuveg.
47990 (01.24.010.5),http://gamli.rvk.is/vefur/owa/edutils.parse_page?nafn=BN047990,Snorrabraut 35,"(fsp) - Nr.35A, stækka geymslu",Jákvætt. Að uppfylltum skilyrðum enda verði sótt um byggingarleyfi.,Spurt er hvort leyfi fengist til að stækka geymslu með því að setja hurð á milli rými undir stiga sem ætlunin er að kaupa af húsfélaginu í fjölbýlishúsinu á lóð nr. 35A við Snorrabraut.
47894 (01.88.920.3),http://gamli.rvk.is/vefur/owa/edutils.parse_page?nafn=BN047894,Stjörnugróf 31,(fsp) - Stækka efri hæð,Nei. Samanber umsögn skipulagsfulltrúa dags. 10. júlí 2014.,Spurt er hvort leyft yrði að byggja ofan á bílskúr og tengja við einbýlishúsið á lóð nr. 31 við Stjörnugróf. Útskrift úr gerðabók skipulagsfulltrúa frá 11. júlí 2014 ásamt umsögn skipulagsfulltrúa dags. 10. júlí 2014 fylgja með erindinu.
47715 (04.92.230.3),http://gamli.rvk.is/vefur/owa/edutils.parse_page?nafn=BN047715,Strýtusel 5,(fsp) - Svalalokun/sólstofa,Jákvætt. Samanber umsögn skipulagsfulltrúa dags.11. júlí 2014.,Spurt er hvort leyft yrði að gera sólstofu með því að byggja yfir svalir samkvæmt meðfylgandi skissu af einbýlishúsinu á lóð nr. 5 við Strýtusel. Útskrift úr gerðabók skipulagsfulltrúa frá 11. júlí 2014 ásamt umsögn skipulagsfulltrúa dags. 11.07.2014 fylgja með erindinu. Bréf frá umsækjanda dags. 9. maí 2014
47797 (01.18.350.2),http://gamli.rvk.is/vefur/owa/edutils.parse_page?nafn=BN047797,Þingholtsstræti 30,(fsp) - Bílastæði,Nei. Samanber umsögn skipulagsfulltrúa dags. 3. júlí 2014.,"Spurt er hvort koma megi fyrir tveimur bílastæðum götu megin á lóð, eins og samþykkt var á fundi í húsfélaginu 1972 og hefur verið framfylgt síðan, við fjölbýlishúsið á lóð nr. 30 við Þingholtsstræti. Útskrift úr gerðabók skipulagsfulltrúa dags. 4. júlí 2014 ásamt umsögn skipulagsfulltrúa dags. 3. júlí 2014 fylgja fyrirspurninni."
