nr,url,heimilisfang,tegund,nidurstada,spurning
48099 (01.81.321.3),http://gamli.rvk.is/vefur/owa/edutils.parse_page?nafn=BN048099,Akurgerði 11,Hurð út í garð og bílskúr,Frestað. Vísað til athugasemda á umsóknarblaði. Málinu vísað til umsagnar skipulagsfulltrúa.,"Sótt er um leyfi til að byggja bílskúr úr steinsteypu með pappaklæddu timburþaki og setja hurð og tröppur úr borðstofu út í garð við tvíbýlishús á lóð nr. 11 við Akurgerði. Meðfylgjandi er bréf umsækjanda. Stærðir bílskúr: 30,7 ferm., 107,9 rúmm. Gjald kr. 9.500"
47899 (05.86.520.1),http://gamli.rvk.is/vefur/owa/edutils.parse_page?nafn=BN047899,Almannadalur 25-29,Breytingar inni og úti nr. 25,Frestað. Vísað til athugasemda eldvarnaeftirlits á umsóknarblaði.,"Sótt er um leyfi til að byggja svalir á austurgafl eins og eru á vesturgafli, skipta loftunargerði úti í fjóra hluta og breyta inni kring um stiga í einingum 0103 og 0104 í hesthúsi á lóð nr. 25 við Almannadal. Meðfylgjandi er samþykki eigenda dags. 24.7. 2014. Gjald kr. 9.500"
47872 (01.14.040.8),http://gamli.rvk.is/vefur/owa/edutils.parse_page?nafn=BN047872,Austurstræti 12A,Breyta innra skipulagi á 5.hæð,Frestað. Vísað til athugasemda á umsóknarblaði. Málinu vísað til umsagnar skipulagsfulltrúa.,"Sótt er um leyfi til að breyta innra skipulagi 5. hæðar þannig að lokað er fyrir stigaop, opnað er að hluta upp í þakrými, gluggar á hlið og þakgluggar endurnýjaðir og hæð á svalahandriði verður hækkuð með hertu gleri í húsinu á lóð nr. 12A við Austurstræti.  Umsögn Minjastofnunar Íslands.dags. 9. júlí 2014 og tölvupóstur frá Borgarsögusafni Reykjavíkur dags. 28 júlí 2014 fylgja erindi. Gjald kr. 9.500 + 9.500"
47949 (01.14.050.4),http://gamli.rvk.is/vefur/owa/edutils.parse_page?nafn=BN047949,Austurstræti 22,Innrétting,Samþykkt.  Samræmist ákvæðum laga nr. 160 / 2010. Áskilin lokaúttekt byggingarfulltrúa. Áskilið samþykki heilbrigðiseftirlits. Áskilið samþykki Vinnueftirlits ríkisins.,"Sótt er um leyfi til að innrétta fyrir sameiginlega notkun sviðslistadeilda Listaháskóla Íslands á 2. og 3. hæð í Nýja Bíói í húsi á lóð við Lækjargötu 2/Austurstræti 22. Brunaskýrsla 23. maí 2011, bréf frá Verkís um lagnaleið dags. 9. júlí 2014 fylgir erindi.  Meðfylgjandi er bréf arkitekts dags. 30. júní 2014. Gjald kr. 9.500"
48080 (01.43.501.4),http://gamli.rvk.is/vefur/owa/edutils.parse_page?nafn=BN048080,Álfheimar 31,Stækkun vinnustofu - 0001,Frestað. Vísað til athugasemda á umsóknarblaði.,Sótt er um leyfi til að breyta innra skipulagi þannig að vinnustofa 0001 stækkar í kjallara fjölbýlishúss á lóð nr. 31 . Gjald kr. 9.500
48073 (01.26.300.1),http://gamli.rvk.is/vefur/owa/edutils.parse_page?nafn=BN048073,Ármúli 9,Stækkun veitingastaðar o.fl.,Frestað. Vísað til athugasemda á umsóknarblaði.,"Sótt er um leyfi til að breyta áður samþykktu erindi BN047780 þannig að stækkaður verður veitingastaðurinn á 1. hæð til suðurs og svo aðrar smávægilegar breytingar á öðrum hæðum í húsinu á lóð nr. 9 við Ármúla. Stækkun: XX ferm., XX rúmm.  Gjald kr. 9.500"
48053 (01.17.010.1),http://gamli.rvk.is/vefur/owa/edutils.parse_page?nafn=BN048053,"3"">Bankastræti 2",Breytingar á bakhúsum 1.og 2.hæð,Frestað. Vísað til athugasemda á umsóknarblaði.,"Sótt er um leyfi til að breyta bakhúsum, mhl. 04 og 02 á 1. og 2. hæð þannig að stigagangi í mhl 02 verður lokað, komið verður fyrir kæligeymslu og geymslurými í eldhúsi, opnað verður inn í mhl 04 og komið fyrir lyftu, salernum fjölgað og komið fyrir nýju eldhúsi á 2. hæð í húsi á lóð nr. 2 við Bankastræti. Umsögn Minjastofnunar Íslands dags. 31. júlí 2014 fylgir erindinu. Gjald kr. 9.500"
47381 (01.15.441.2),http://gamli.rvk.is/vefur/owa/edutils.parse_page?nafn=BN047381,Barónsstígur 5,Gistiheimili,"Samþykkt.  Samræmist ákvæðum laga nr. 160 / 2010. Með vísan til samþykktar borgarráðs frá 1. september 1998 skal utanhúss- og lóðarfrágangi vera lokið eigi síðar en innan tveggja ára frá útgáfu byggingarleyfis að viðlögðum dagsektum sbr. greinar nr. 2.4.7 og 2.9.2 í byggingarreglugerð nr. 112/2012. Skilyrt er að ný eignaskiptayfirlýsing sé samþykkt fyrir útgáfu byggingarleyfis, henni verður þinglýst eigi síðar en við lokaúttekt. Áskilin lokaúttekt byggingarfulltrúa. Áskilið samþykki heilbrigðiseftirlits. Áskilið samþykki Vinnueftirlits ríkisins.","Sótt er um leyfi til þess að byggja svalir á suðausturhlið og innrétta gistiheimili í rými 0201 á annarri hæð hússins á lóðinni nr. 5 við Barónsstíg. Útskrift úr gerðabók embættisafgreiðslufundar skipulagsfulltrúa frá 31. júlí 2014 fylgir erindinu. Grenndarkynning stóð frá 13. júní til 11. júlí 2014. Engar athugasemdir bárust. Fyrirspurnarerindi sama efnis sem fékk jákvæða afgreiðslu byggingarfulltrúa þann 25. febrúar 2014 fylgir erindinu, einnig samþykki meðeigenda fyrir rekstri gistiheimilis og vegna byggingar svala fylgir erindinu. Gjald kr. 9.500"
48077 (01.18.031.3),http://gamli.rvk.is/vefur/owa/edutils.parse_page?nafn=BN048077,Bergstaðastræti 9B,Breyting inni - 0101 og 0102,Frestað. Vísað til athugasemda á umsóknarblaði.,"Sótt er um leyfi til að breyta fyrirkomulagi í rými 0101 og færa inntök lagna í rými 0102 í fjölbýlishúsi á lóð nr, 9B við Bergstaðastræti. Gjald kr 9.500"
47977 (01.88.901.5),http://gamli.rvk.is/vefur/owa/edutils.parse_page?nafn=BN047977,Bleikargróf 1,Þaklyfting og kvistur,Samþykkt.  Samræmist ákvæðum laga nr. 160 / 2010. Með vísan til samþykktar borgarráðs frá 1. september 1998 skal utanhúss- og lóðarfrágangi vera lokið eigi síðar en innan tveggja ára frá útgáfu byggingarleyfis að viðlögðum dagsektum sbr. greinar nr. 2.4.7 og 2.9.2 í byggingarreglugerð nr. 112/2012. Áskilin lokaúttekt byggingarfulltrúa.,"Sótt er um leyfi til að lyfta þaki austanverðu, koma fyrir tveimur nýjum samvöxnum kvistum, nýtt anddyri er reist á austurhlið, svalir á suðugafl, nýir gluggar og forskalning fjarlægð og sett bárujárn í staðinn, inntök eru flutt og tengd við nýjan lagnastokk í bílskúr og byggt er við hann á lóð nr. 1 við Bleikargróf. Bréf frá hönnuði dags. 7. júlí 2014 og umsögn skipulagsfulltrúa fylgir erindi. Einnig umsögn burðarvirkishönnuðar dags. 25. júlí 2014.  Stækkun húss:  24,6 ferm., 151,3 rúmm.  Gjald kr. 9.500"
47670 (01.18.663.9),http://gamli.rvk.is/vefur/owa/edutils.parse_page?nafn=BN047670,Bragagata 26A,Endurnýjun - BN035456,Frestað. Málinu vísað til skipulagsfulltrúa til ákvörðunar um grenndarkynningu. Vísað er til uppdráttar nr. 1 dags. 27. júní 2007.,"Sótt er um leyfi til að byggja nýjar svalir á suðvesturgafli, koma fyrir þaksvölum og skjólgirðingu ofan á geymsluskúr og reisa skjólvegg á lóðamörkum við einbýlishúsið á lóðinni nr. 26A við Bragagötu. Sjá erindi BN035456 sem samþykkt var 29. ágúst 2007. Meðfylgjandi er samþykki meðeiganda dags. 23. maí 2014 og samþykki nágranna á nr. 24 og 26 dags. 23. maí 2014. Gjald kr 9.500"
47655 (01.81.410.8),http://gamli.rvk.is/vefur/owa/edutils.parse_page?nafn=BN047655,Breiðagerði 7,Kvistur - klæðning,Frestað. Vísað til athugasemda á umsóknarblaði.,"Sótt er um leyfi til að byggja nýjan kvist og stækka annan á vesturhlið, byggja tvo nýja kvisti á austurhlið og klæða og einangra að utan með aluzinkuðu bárujárni hús og bílskúr á lóð nr. 7 við Breiðagerði. Útskrift úr gerðabók embættisafgreiðslufundar skipulagsfulltrúa frá 8. ágúst 2014 fylgir erindinu.  Erindið var sent í grenndarkynningu sem frá 2. júlí til 30. júlí. Engar athugasemdir bárust. Stækkun:  5 ferm., 26,6 rúmm. Gjald kr. 9.500"
48087 (01.34.430.1),http://gamli.rvk.is/vefur/owa/edutils.parse_page?nafn=BN048087,Bugðulækur 6,Bílskúr,"Frestað. Vísað til athugasemda á umsóknarblaði. Málinu vísað til  skipulagsfulltrúa. til ákvörðunar um grenndarkynningar. Vísað er til uppdrátta nr. 100-01, -02 og -03 dags. 25. maí 2014.","Sótt er um leyfi til að byggja steinsteyptan bílskúr norðaustan við fjölbýlishús á lóð nr. 6 við Bugðulæk. Erindi fylgir samþykki meðlóðarhafa dags. 10. júlí 2014 og sumra lóðarhafa Bugðulækjar 8 dags. 13. júlí 2014. Stærð:  43 ferm., 143 rúmm. Gjald kr. 9.500"
48089 (04.68.300.7),http://gamli.rvk.is/vefur/owa/edutils.parse_page?nafn=BN048089,Drafnarfell  2-18,12 - Reyndarteikningar af verslunarhúsnæði,Frestað. Vísað til athugasemda á umsóknarblaði.,Sótt er um leyfi fyrir áður gerðum breytingum sem er að loka hurð og gluggum á suðurhlið hússins nr. 12 á lóð nr. 2-18 við Drafnarfell.  Gjald kr. 9.500
48014 (01.67.501.3),http://gamli.rvk.is/vefur/owa/edutils.parse_page?nafn=BN048014,Fáfnisnes 11,Viðbygging,Frestað. Lagfæra skráningartöflu.,"Sótt er um leyfi til að byggja kjallara, 1. hæð og rishæð til suðurs og úr járnbentri steinsteypu og einangrað að utan með þéttull, koma fyrir þaksvölum á 1. hæð og kvist á norðurhlið tvíbýlishússins á lóð nr.  11 við Fáfnisnes. Umsögn burðarvirkishönnuðar dags. 28. júlí 2014 fylgir. Stækkun viðbyggingar: 94,1 ferm., 262,2rúmm. Útskrift úr gerðabók skipulagsfulltrúa frá 25. júlí 2014 fylgir með erindinu. Gjald kr. 9.500"
48098 (01.08.920.2),http://gamli.rvk.is/vefur/owa/edutils.parse_page?nafn=BN048098,Fiskislóð 23-25,"Breyting úti, BN047357",Samþykkt.  Samræmist ákvæðum laga nr. 160 / 2010. Með vísan til samþykktar borgarráðs frá 1. september 1998 skal utanhúss- og lóðarfrágangi vera lokið eigi síðar en innan tveggja ára frá útgáfu byggingarleyfis að viðlögðum dagsektum sbr. greinar nr. 2.4.7 og 2.9.2 í byggingarreglugerð nr. 112/2012. Áskilin lokaúttekt byggingarfulltrúa. Áskilið samþykki heilbrigðiseftirlits.,"Sótt er um leyfi til að breyta frágangi lóðar, útliti suðurgafls  og til að breyta veitingasölu úr flokki I í flokk II, tegund C, sjá erindi BN047357, í húsi á lóð nr. 23-25 við Fiskislóð. Gjald kr. 9.500"
48056 (01.66.--9.9),http://gamli.rvk.is/vefur/owa/edutils.parse_page?nafn=BN048056,"56"">Flugvöllur 106748",Nauthólsvegur 66 - kjallari,"Samþykkt.  Samræmist ákvæðum laga nr. 160 / 2010. Með vísan til samþykktar borgarráðs frá 1. september 1998 skal utanhúss- og lóðarfrágangi vera lokið eigi síðar en innan tveggja ára frá útgáfu byggingarleyfis að viðlögðum dagsektum sbr. greinar nr. 2.4.7 og 2.9.2 í byggingarreglugerð nr. 112/2012. Í samræmi við samþykkt umhverfis- og skipulagsráðs dags. 9. október 2013 skal vélknúinn þvottabúnaður vera til staðar á byggingarlóð sem tryggi að vörubílar og aðrar þungavinnuvélar verði þrifnar áður en þær yfirgefa byggingarstað. Samráð skal haft við byggingarfulltrúa um staðsetningu búnaðarins. Sérstakt samráð skal haft við yfirverkfræðing byggingarfulltrúa vegna jarðvinnu. Með vísan til samþykktar umhverfis- og skipulagsráðs, dags. 22. maí 2013, skal lóðarhafi, í samráði við byggingarfulltrúa, setja upp skilti til kynningar á fyrirhuguðum framkvæmdum á byggingarstað. Áskilin lokaúttekt byggingarfulltrúa.","Sótt er um leyfi til að breyta áður samþykktu erindi BN047738, að koma fyrir kjallara undir jarðvegsyfirborði miðgarðs sem notaður verður fyrir starfsmannaaðstöðu staðsteyptur með viðsnúnu hellulögðu þaki í húsi flugstjórnarmiðstöðvarinnar í Reykjavík nr. 66 við Nauthólsveg á lóð 106748 við flugvöllinn. Stækkun kjallara:  143,2 ferm., 520,8 rúmm. Gjald kr. 9.500"
47998 (02.45.610.1),http://gamli.rvk.is/vefur/owa/edutils.parse_page?nafn=BN047998,Fossaleynir 1,Fimleikahús 5. áfangi,Frestað. Vísað til athugasemda á umsóknarblaði.,"Sótt er um leyfi til að breyta rýmisnr., byggja við mhl. 01 5. áfanga sem er fimleikahús úr forsteyptum samlokueiningum og þakið klætt með stallastáli, einangrað og klætt að ofan með pvc þakdúki á suðurhluta íþróttamiðstöðvarinnar Egilshöll á lóð nr. 1 við Fossaleynir . Stækkun mhl. 01: 2.309,4 ferm., 23.472,3 rúmm.  Gjald kr. 9.500"
47911 (02.69.380.2),http://gamli.rvk.is/vefur/owa/edutils.parse_page?nafn=BN047911,""">Friggjarbrunnur 3-5",Færanlegt garðskýli,Frestað. Vísað til athugasemda á umsóknarblaði.,"Sótt er um leyfi til uppsetningar á opnanlegu garðskýli úr álrömmum á rennibrautum, glerjað með einföldu plexigleri, á þaksvölum fjölbýlishúss á lóð nr. 3-5 við Friggjarbrunn. Samþykki meðeigenda á Friggjarbrunni 3, sumra á Friggjarbrunni 5 og tölvupóstur burðarvirkishönnuðar dags. 16. júlí 2014 fylgja erindi. Gjald kr. 9.500 + 9.500"
48082 (01.52.040.1),http://gamli.rvk.is/vefur/owa/edutils.parse_page?nafn=BN048082,Grandavegur 42,Takmarkað byggingarleyfi - BN046483,"Samþykkt.  Samræmist ákvæðum laga nr. 160 / 2010. Frágangur á lóðamörkum verði gerður í samráði við lóðarhafa aðliggjandi lóða. Með vísan til samþykktar umhverfis- og skipulagsráðs, dags. 22. maí 2013, skal lóðarhafi, í samráði við byggingarfulltrúa, setja upp skilti til kynningar á fyrirhuguðum framkvæmdum á byggingarstað. Í samræmi við samþykkt umhverfis- og skipulagsráðs dags. 9. október 2013 skal vélknúinn þvottabúnaður vera til staðar á byggingarlóð sem tryggi að vörubílar og aðrar þungavinnuvélar verði þrifnar áður en þær yfirgefa byggingarstað. Samráð skal haft við byggingarfulltrúa um staðsetningu búnaðarins. Samþykktin fellur úr gildi við útgáfu á endanlegu byggingarleyfi. Vegna útgáfu á takmörkuðu byggingarleyfi skal umsækjandi hafa samband við yfirverkfræðing embættis byggingarfulltrúa. Áskilin lokaúttekt byggingarfulltrúa.","Sótt er um takmarkað byggingarleyfi til að steypa upp veggi á neðri hæð bílgeymslu ásamt súlum, milligólfi bílgeymslna, sökklum undir plötu og gólfplötu efri hæðar bílgeymslu þar sem ekki eru holplötur, sbr. stofnerindi nr.  BN046483 og með breytingum í erindi BN048016 sem samþykkt var 29.07.2014"
48012 (04.30.400.1),http://gamli.rvk.is/vefur/owa/edutils.parse_page?nafn=BN048012,Grjótháls 7-11,Lagertankar - breyting 1.og 2.hæð,Samþykkt.  Samræmist ákvæðum laga nr. 160 / 2010. Með vísan til samþykktar borgarráðs frá 1. september 1998 skal utanhúss- og lóðarfrágangi vera lokið eigi síðar en innan tveggja ára frá útgáfu byggingarleyfis að viðlögðum dagsektum sbr. greinar nr. 2.4.7 og 2.9.2 í byggingarreglugerð nr. 112/2012. Áskilin lokaúttekt byggingarfulltrúa. Áskilið samþykki heilbrigðiseftirlits.,"Sótt er um leyfi til að staðsetja við mhl. 01 fimm lagertanka við suðurhlið, fjölga sílóum úr tveimur í þrjú við norðurhlið breyta kynningaraðstöðu á 1. hæð í átöppunarsal fyrir bjór og flytja kynningaraðstöðu upp á 2. hæð og verður pallur fyrir framan stiga stækkaður í húsinu á lóð nr. 7-11 við Grjótháls. Brunaskýrsla dags. 8. júlí 2014, umboð frá Hilmari Þór Kristinssyni þar sem hann veitir Gylfa Óskarssyni umboð til að undirrita öll skjöl er varðar byggingarleyfisumsókn fyrir 9-11 og bréf frá hönnuði dags. 15. júlí 2014 fylgir. Síló mhl. 06 10,2 ferm., 79,0 rúmm. Síló mhl. 07, 08, 09, 10 og 11 hver um sig 4,2 ferm., 15,3 rúmm. Samtals: 31,2 ferm.,  155,5 rúmm. Gjald kr. 9.500"
48071 (05.11.470.2),http://gamli.rvk.is/vefur/owa/edutils.parse_page?nafn=BN048071,Haukdælabraut 48-56,48 - Breyting inni - geymsla,Samþykkt.  Samræmist ákvæðum laga nr. 160 / 2010. Áskilin lokaúttekt byggingarfulltrúa.,"Sótt er um leyfi til að breyta innra fyrirkomulagi í raðhúsi nr. 48, sjá erindi BN044541 og BN045810, á lóð nr. 48-56 við Haukdælabraut. Gjald kr. 9.500"
47276 (01.16.100.6),http://gamli.rvk.is/vefur/owa/edutils.parse_page?nafn=BN047276,Hólavallagata 3,"Endurnýjun - ris, svalir","Samþykkt.  Samræmist ákvæðum laga nr. 160 / 2010. Með vísan til samþykktar borgarráðs frá 1. september 1998 skal utanhúss- og lóðarfrágangi vera lokið eigi síðar en innan tveggja ára frá útgáfu byggingarleyfis að viðlögðum dagsektum sbr. greinar nr. 2.4.7 og 2.9.2 í byggingarreglugerð nr. 112/2012. Skilyrt er að ný eignaskiptayfirlýsing sé samþykkt fyrir útgáfu byggingarleyfis, henni verður þinglýst eigi síðar en við lokaúttekt. Áskilin lokaúttekt byggingarfulltrúa.","Sótt er um leyfi til að hækka ris og byggja svalir á bakhlið, lækka jarðveg við suðurhlið húss, innrétta nýja íbúð í risi og hjóla- og vagnageymslu í kjallara fjölbýlishúss á lóð nr. 3 við Hólavallagötu. Útskrift úr gerðabók embættisafgreiðslufundar skipulagsfulltrúa frá 21. mars 2014 fylgir erindinu ásamt umsögn skipulagsfulltrúa dags. 21. mars 2014. Erindið var grenndarkynnt frá 15. maí til og með 12. júní 2014. Eftirtaldir aðilar sendu inn athugasemd: Rússneska sendiráðið dags. 11 júní 2014 og  Árni Guðmundsson og Hjördís Dalberg dags. 12. júní 2014.   Erindi fylgir fsp. BN047045 dags. 14. janúar 2014. Stækkun:  76,7 rúmm. Gjald kr. 9.500"
47683 (01.08.500.1),http://gamli.rvk.is/vefur/owa/edutils.parse_page?nafn=BN047683,Hólmaslóð olíustöð 1,Varnarþró,Samþykkt 31. júlí 2014. Samþykkt.  Samræmist ákvæðum laga nr. 160 / 2010.  Frágangur á lóðamörkum verði gerður í samráði við lóðarhafa aðliggjandi lóða. Áskilið samþykki heilbrigðiseftirlits. Áskilið samþykki Vinnueftirlits ríkisins. Áskilin lokaúttekt byggingarfulltrúa.,"Sótt er um leyfi til að steypa skilveggi milli þróa 1, 2 og 3 í olíustöð nr. 1 á lóð við Hólmaslóð. Meðfylgjandi er brunahönnun frá verkfræðistofunni Mannvit ódagsett, einnig bréf Umhverfisstofnunar dags. 10. júní 2014. Gjald kr. 9.500"
48020 (01.32.310.1),http://gamli.rvk.is/vefur/owa/edutils.parse_page?nafn=BN048020,Korngarðar 1,Vöruhús,Frestað. Vísað til athugasemda á umsóknarblaði.,"Sótt er um leyfi til að byggja mhl. 01 vöruhús úr staðsteypu og stálvirki fyrir geymslu á grænmeti og ávöxtum á lóð nr. 1 við Korngarða. Umsókn um starfsleyfi  dags. 11. júlí 2014 og bréf frá hönnuði dags. 15. júlí 2014 fylgir. Stærðir A rýmis :  5.481,2 ferm., 60.694,1 rúmm. B rými: 118,7 ferm., 641,0 rúmm. Samtals : 5.599,9 ferm., 61.335,1 rúmm.  Gjald kr. 9.500"
48061 (02.68.410.1),http://gamli.rvk.is/vefur/owa/edutils.parse_page?nafn=BN048061,Lambhagavegur 23,Spennistöð í gróðurhúsi,"Samþykkt.  Samræmist ákvæðum laga nr. 160 / 2010. Í samræmi við samþykkt umhverfis- og skipulagsráðs dags. 9. október 2013 skal vélknúinn þvottabúnaður vera til staðar á byggingarlóð sem tryggi að vörubílar og aðrar þungavinnuvélar verði þrifnar áður en þær yfirgefa byggingarstað. Samráð skal haft við byggingarfulltrúa um staðsetningu búnaðarins. Sérstakt samráð skal haft við yfirverkfræðing byggingarfulltrúa vegna jarðvinnu. Skilyrt er að umsögn matvælastofnunar og greinagerðu um starfsemi í vinnusal liggi fyrir, fyrir útgáfu endanlegs byggingarleyfis. Áskilin lokaúttekt byggingarfulltrúa. Áskilið samþykki heilbrigðiseftirlits.","Sótt er um leyfi til að breyta áður samþykktu erindi BN047811 sem er breyting við BN047660 þannig að byggð er spennistöð rými 0102 inn í mhl. 02 í rými 0101 og ætlunin er að nota toppinn á 0102 sem millipall í gróðurhúsinu á lóð nr. 23 við Lambhagaveg.  Stækkun millilofts og vegna framkvæmdar við sökkul á spennistöðinni : 17,4 ferm., og 16,7 rúmm.  Gjald kr. 9.500"
47838 (01.26.070.1),http://gamli.rvk.is/vefur/owa/edutils.parse_page?nafn=BN047838,Lágmúli 4,Hurð á norðurhlið + eldhús lagfært í kjallara,Frestað. Vísað til athugasemda heilbrigðiseftirlits á umsóknarblaði.,Sótt er um leyfi til að setja hurð á norðurhlið og lagfæra eldhús í kjallara hússins á lóð nr. 4 við Lágmúla. Samþykki meðeigenda dags. 23.júní 2014fylgir. Gjald kr. 9.500 + 9.500
48090 (01.15.241.0),http://gamli.rvk.is/vefur/owa/edutils.parse_page?nafn=BN048090,Lindargata 28,Takmarkað byggingarleyfi - BN047355,"Samþykkt.  Samræmist ákvæðum laga nr. 160 / 2010. Frágangur á lóðamörkum verði gerður í samráði við lóðarhafa aðliggjandi lóða.  Með vísan til samþykktar umhverfis- og skipulagsráðs, dags. 22. maí 2013, skal lóðarhafi, í samráði við byggingarfulltrúa, setja upp skilti til kynningar á fyrirhuguðum framkvæmdum á byggingarstað. Í samræmi við samþykkt umhverfis- og skipulagsráðs dags. 9. október 2013 skal vélknúinn þvottabúnaður vera til staðar á byggingarlóð sem tryggi að vörubílar og aðrar þungavinnuvélar verði þrifnar áður en þær yfirgefa byggingarstað. Samráð skal haft við byggingarfulltrúa um staðsetningu búnaðarins. Sérstakt samráð skal haft við yfirverkfræðing byggingarfulltrúa vegna jarðvinnu. Samþykktin fellur úr gildi við útgáfu á endanlegu byggingarleyfi. Vegna útgáfu á takmörkuðu byggingarleyfi skal umsækjandi hafa samband við yfirverkfræðing embættis byggingarfulltrúa. Áskilin lokaúttekt byggingarfulltrúa.","Sótt er um takmarkað byggingarleyfi fyrir uppsteypu sökkla, kjallaraveggi, plötu yfir kjallara  og lögnum í jörð skv. erindi BN047355 á lóð nr. 28-30 við Lindargötu."
47942 (04.32.640.2),http://gamli.rvk.is/vefur/owa/edutils.parse_page?nafn=BN047942,Lyngháls 4,Breyta innra skipulagi í 01-0204,Samþykkt.  Samræmist ákvæðum laga nr. 160 / 2010. Áskilin lokaúttekt byggingarfulltrúa. Áskilið samþykki heilbrigðiseftirlits.,Sótt er um leyfi til að koma fyrir hundasnyrtistofu í rými 0204 í húsinu á lóð nr. 4 við Lyngháls. Gjald kr. 9.500
47983 (01.14.050.9),http://gamli.rvk.is/vefur/owa/edutils.parse_page?nafn=BN047983,Lækjargata 6B,1. og 2. hæð og ris - Breytingar inni,Frestað. Vísað til athugasemda á umsóknarblaði.,"Sótt er um leyfi til að byggja flóttastiga á bakhlið og breyta innra skipulagi á 1. 2. og 3 hæð, fjarlægð eru eldhús, borðstofa og dagstofa og innréttuð herbergi í gistiheimili á lóð nr. 6B við Lækjargötu. Gjald kr. 9.500"
47561 (01.53.110.3),http://gamli.rvk.is/vefur/owa/edutils.parse_page?nafn=BN047561,Nesvegur 47,Reyndarteikningar,Samþykkt.  Samræmist ákvæðum laga nr. 160 / 2010. Með vísan til samþykktar borgarráðs frá 1. september 1998 skal utanhúss- og lóðarfrágangi vera lokið eigi síðar en innan tveggja ára frá útgáfu byggingarleyfis að viðlögðum dagsektum sbr. greinar nr. 2.4.7 og 2.9.2 í byggingarreglugerð nr. 112/2012. Áskilin lokaúttekt byggingarfulltrúa.,Sótt er um leyfi fyrir áður gerðum breytingum inni sem eru veggir sagaðir og úti hafa verið komið fyrir hurð og glugga á kjallara verönd og fjórum þakgluggum á suðurhluta þaks. á  húsinu á lóð nr. 47 við Nesveg. Umsögn burðavirkishönnuðar dags. 28. júlí 2014 og bréf frá hönnuði dags. 28. júlí 2014 fylgir.  Gjald kr. 9.500
48072 (01.14.051.4),http://gamli.rvk.is/vefur/owa/edutils.parse_page?nafn=BN048072,Pósthússtræti 11,"Breyting - BN046537, inni 1. hæð og kjallari",Frestað. Vísað til athugasemda á umsóknarblaði.,"Sótt er um leyfi til breytinga sem orðið hafa á hönnun, sjá BN046537, á 1. hæð og í kjallara Hótel Borgar á lóð nr. 11 við Pósthússtræti. Gjald kr. 9.500"
47866 (01.13.520.7),http://gamli.rvk.is/vefur/owa/edutils.parse_page?nafn=BN047866,Ránargata 29A,Kvistur og svalir,Frestað. Málið er til umfjöllunar hjá skipulagsfulltrúa.,"Sótt er um leyfi til að stækka kvist og byggja svalir við hann, stækka aðaltröppur með palli, breyta stiga milli kjallara og neðri hæðar, koma fyrir salernum og böðum í fjórum svefnherbergum, breyta inntaki og endurnýja heimtaugar og heimaæðar í húsinu lóð nr. 29A við Ránargötu. Umsögn Minjastofnunar Íslands dags. 10. júní 2014 og tölvupóstur frá hönnuði dags. 21. júní 2014 fylgja erindi. Stækkun kvist :  8,3 rúmm. Gjald kr. 9.500"
48081 (01.62.--9.0),http://gamli.rvk.is/vefur/owa/edutils.parse_page?nafn=BN048081,Reykjavíkurflugvöllur 9,Stöðuleyfi - Gámur,Samþykkt.  Samræmist ákvæðum laga nr. 160 / 2010. Stöðuleyfi til eins árs.,"Sótt er um stöðuleyfi fyrir 3x6 metra skrifstofu- og geymslugám við flugskýli flugfélasins Ernir nr. 6 í flugvallargeira 3 á Reykjavíkurflugvelli. Meðfylgjandi er bréf arkitekts dags. 29.7. 2014, og bréf flugfélagsins Ernis dags. 29.7. 2014. Gjald kr. 9.500"
47955 (01.54.110.4),http://gamli.rvk.is/vefur/owa/edutils.parse_page?nafn=BN047955,Reynimelur 28,Íbúð í kjallara,Samþykkt.  Samræmist ákvæðum laga nr. 160 / 2010. Skilyrt er að eignaskiptayfirlýsingu vegna breytinga í húsinu sé þinglýst til þess að samþykktin öðlist gildi.,Sótt er um samþykki fyrir áður gerðri íbúð í kjallara og skiptingu lóðar í sérafnotafleti fjölbýlishúss á lóð nr. 28 við Reynimel. Erindi fylgir virðingargjörð dags. 20. janúar 1948 og samþykki meðeigenda dags. 28. júlí 2014. Útskrift úr gerðabók afgreiðslufundar skipulagsfulltrúa frá 18. júlí 2014  ásamt umsögn skipulagsfulltrúa dags. 17. júlí 2014 fylgja erindinu. Gjald kr. 9.500 + 9.500
48011 (01.83.000.1),http://gamli.rvk.is/vefur/owa/edutils.parse_page?nafn=BN048011,Réttarholtsvegur  1-3,1 - Grillaðstaða og útblástur,Frestað. Vísað til umsagnar skrifstofu sviðsstjóra varðandi ákvæði um samþykki meðlóðarhafa.,"Sótt er um leyfi til að koma fyrir grilli í söluturni þannig að hann verður veitingaverslun með útsog út um útvegg, upp með útvegg og upp með þakinu á húsinu á lóð nr. 1 við Réttarholtsveg. Samþykki sumra meðlóðarhafa dags. 15. júlí og aftur 23. júlí 2014, Bréf frá umsækjanda dags. 5. ágúst. 2014 fylgja erindi. Gjald kr. 9.500 + 9.500"
48095 (00.06.400.0),http://gamli.rvk.is/vefur/owa/edutils.parse_page?nafn=BN048095,Saltvík 125744,Ný frystigeymsla,Frestað. Vísað til athugasemda á umsóknarblaði.,"Sótt er um leyfi til að byggja nýja frystigeymslu úr timbri við austurhlið svínasláturhúss á lóðinni Saltvík, 125744. Jafnframt er erindi BN046812 dregið til baka. Stækkun:  166,5 ferm., 811,6 rúmm. Gjald kr. 9.500"
47362 (01.24.351.0),http://gamli.rvk.is/vefur/owa/edutils.parse_page?nafn=BN047362,Skeggjagata 3,Sameina eignir - reyndart.,Samþykkt.  Samræmist ákvæðum laga nr. 160 / 2010. Með vísan til samþykktar borgarráðs frá 1. september 1998 skal utanhúss- og lóðarfrágangi vera lokið eigi síðar en innan tveggja ára frá útgáfu byggingarleyfis að viðlögðum dagsektum sbr. greinar nr. 2.4.7 og 2.9.2 í byggingarreglugerð nr. 112/2012. Áskilin lokaúttekt byggingarfulltrúa.,Sótt er um samþykki fyrir núverandi innra fyrirkomulagi og leyfi til þess að sameina tvær íbúðareignir í eina eign og byggja svalir á austurhlið annarrar hæðar hússins á lóðinni nr. 3 við Skeggjagötu. Erindi fylgir samþykki eiganda á nr. 1 áritað á uppdrátt. Erindi var grenndarkynnt frá 5. maí til og með 2. júní 2014. Eftirtaldir aðilar sendu inn athugasemdir: Gísli Óskarsson dags. 31. maí 2014.  Ný skráningartafla fylgir erindinu. Gjald kr. 9.500
47868 (01.24.750.5),http://gamli.rvk.is/vefur/owa/edutils.parse_page?nafn=BN047868,Snorrabraut 83,Breyting inni,Frestað. Vísað til athugasemda á umsóknarblaði.,Sótt er um leyfi til ýmiss konar breytinga innanhúss og til að byggja skábraut frá björgunaropi í eldhúsi yfir á bílskúrsþak á húsi á lóð nr. 83 við Snorrabraut. Útskrift úr gerðabók embættisafgreiðslufundar skipulagsfulltrúa frá 8. ágúst 2014 fylgir erindinu ásamt umsögn skipulagsfulltrúa dags. 5. ágúst 2014. Gjald kr. 9.500
47975 (01.89.--9.9),http://gamli.rvk.is/vefur/owa/edutils.parse_page?nafn=BN047975,Stjörnugróf 9,Verkfærageymsla,Frestað. Erindið er í grenndarkynningu.,"Sótt er um leyfi til að koma fyrir verkfærageymslum sem verða óeinangraðar og óupphitaðar úr timbri, klæddar timbri með bárujárnsþökum á steyptum sökkuleiningum,  á lóð nr. 9 við Stjörnugróf Bjarkarás. Stærð verkfærageymslu 1 er: 8,7 ferm., 23,0 rúmm.  Stærð verkfærageymslu mhl. 10 er: 27,0 ferm., 74,5 rúmm.  Samtals: 35,7 ferm., 97,2 rúmm.  Gjald kr. 9.500"
47976 (01.89.--9.9),http://gamli.rvk.is/vefur/owa/edutils.parse_page?nafn=BN047976,Stjörnugróf 9,Breyta gluggum,Frestað. Vísað til athugasemda á umsóknarblaði.,Sótt er um leyfi til að breyta gluggum þannig að opnanleg gluggafög eru minnkuð á vestur- og norðausturálmu og til að koma fyrir nýjum neðri gluggum  á norður- og austurhlið  hússins Lækjarás á lóð nr. 9 við Stjörnugróf. Gjald kr. 9.500
48010 (01.14.100.3),http://gamli.rvk.is/vefur/owa/edutils.parse_page?nafn=BN048010,Suðurgata 3,1.hæð - Breyting inni,Frestað. Vísað til athugasemda á umsóknarblaði.,"Sótt er um leyfi til að breyta innra skipulagi á 1. hæð þannig að burðarvirki breytist, salerni stækkuð til að koma fyrir aðgengi fyrir alla og komið verður fyrir hringstiga og pallalyftu á milli kjallara og 1. hæðar húss á lóð nr. 3 við Suðurgötu. Umsögn burðarvirkishönnuðar dags. 28. júlí 2014 fylgir erindi. Gjald kr.  9.500"
47684 (01.26.210.3),http://gamli.rvk.is/vefur/owa/edutils.parse_page?nafn=BN047684,Suðurlandsbraut 8,Forðageymsla fyrir F-gas,Samþykkt.  Samræmist ákvæðum laga nr. 160 / 2010. Tímabundið til eins árs. Áskilin lokaúttekt byggingarfulltrúa. Áskilið samþykki heilbrigðiseftirlits.,Sótt er um leyfi til að setja upp til eins árs bráðabirgða læsta eldvarða forðageymslu úr ryðfríu stáli til varðveislu á F- gasi við norðurhlið veitingahússins á lóð nr. 8 við Suðurlandsbraut. Jákvæð fyrirspurn BN048030 dags. 22. júlí 2014 fylgir.  Gjald kr. 9.500
48074 (00.00.000.0),http://gamli.rvk.is/vefur/owa/edutils.parse_page?nafn=BN048074,Sundlaugavegur 30A,Veitingasala - breytingar,Frestað. Vísað til athugasemda á umsóknarblaði.,Sótt er um leyfi til að breyta innréttingum og fyrirkomulagi í veitingasölu í flokki I fyrir 30 gesti á 1. hæð í Heilsumiðstöðinni Laugardal á lóð nr. 30A við Sundlaugaveg. Meðfylgjandi er bréf arkitekts dags. 29. júlí 2014. Gjald kr. 9.500
48085 (01.45.440.1),http://gamli.rvk.is/vefur/owa/edutils.parse_page?nafn=BN048085,Súðarvogur 36,Íbúð 2. hæð,Frestað. Málinu vísað til umsagnar skipulagsfulltrúa.,Sótt er um leyfi til að skrá íbúð/vinnustofu á annari hæð sem íbúð í húsi á lóð nr. 36 við Súðavog. Íbúðin er skráð sem 30% atvinnuhúsnæði og 70% íbúðarhúsnæði. Gjald kr. 9.500
47307 (02.3-.--9.9),http://gamli.rvk.is/vefur/owa/edutils.parse_page?nafn=BN047307,Thorsvegur 1,Bökunareldhús,Frestað. Vísað til athugasemda á umsóknarblaði.,Sótt er um leyfi fyrir bökunareldhúsi á 1. hæð í rými 12.28 og að koma fyrir fellistiga við norðurhlið á húsi Korpúlfsstaða á lóð nr. 1 við Thorsveg.  Umsögn Minjastofnun Ísland 16. júlí 2014 fylgir. Gjald kr. 9.500
47669 (01.33.770.3),http://gamli.rvk.is/vefur/owa/edutils.parse_page?nafn=BN047669,Vatnagarðar 8,Reyndarteikningar,Frestað. Lagfæra skráningartöflu.,"Sótt er um samþykki fyrir áður gerðum breytingum vegna lokaúttektar, sjá erindi BN045363, í húsi á lóð nr. 8 við Vatnagarða.  Gjald kr. 9.500"
47965 (01.13.510.2),http://gamli.rvk.is/vefur/owa/edutils.parse_page?nafn=BN047965,Vesturgata 33,Niðurrif - Geymsla við 33b,Samþykkt.  Samræmist ákvæðum laga nr. 160 / 2010. Áskilin lokaúttekt byggingarfulltrúa. Áskilið samþykki heilbrigðiseftirlits.,"Sótt er um leyfi til að rífa geymsluskúr mhl. 04 sem liggur milli nr. 33A, mhl. 03, og nr. 33B, mhl. 02,  á lóð nr. 33 við Vesturgötu.  Erindi fylgir jákvæð umsögn Minjastofnunar Íslands dags. 30. júní og samþykki meðlóðarhafa dags. 31. ágúst 2014.  Stærð geymsluskúrs: 20,2 ferm. og 60,0 rúmm. Gjald kr. 9.500"
48101 (01.17.311.9),http://gamli.rvk.is/vefur/owa/edutils.parse_page?nafn=BN048101,Vitastígur 12,Breyting v/ lokaúttektar BN047194/BN046442,Samþykkt.  Samræmist ákvæðum laga nr. 160 / 2010.,Sótt er um leyfi fyrir breytingum innanhúss vegna lokaúttektar sem felast í að geymsla er minnkuð og þar komið fyrir hurð á lömum í stað rennihurðar í íbúð 0102 á 1. hæð í húsi á lóð nr. 12 við Vitastíg. Gjald kr. 9.500
48091 (01.18.010.4),http://gamli.rvk.is/vefur/owa/edutils.parse_page?nafn=BN048091,Þingholtsstræti 15,Svalaskýli 1.hæð,Frestað. Vísað til athugasemda á umsóknarblaði.,"Sótt er um leyfi til að byggja svalaskýli og breyta fyrirkomulagi í kjallara sbr. erindi BN040125 í einbýlishúsi, mhl. 02, á lóð nr. 15A við Þingholtsstræti. Stærðir viðbygging, svalaskýli. 11,7 ferm., 28,7 rúmm. Gjald kr. 9.500"
48076 (04.77.380.1),http://gamli.rvk.is/vefur/owa/edutils.parse_page?nafn=BN048076,Þingvað 21,Einbýlishús,Frestað. Vísað til athugasemda á umsóknarblaði. Málinu vísað til umsagnar skipulagsfulltrúa.,"Sótt er um leyfi til að byggja einbýlishús á einni hæð, timbur á steyptum kjallara með innbyggðri bílsgeymslu á lóð nr. 21 við Þingvað. Erindi fylgir staðfesting á starfsábyrgðartryggingu aðalhönnuðar dags. 6. maí 2014. Jafnframt eru áður samþykkt erindi, BN032120 og BN036900 felld úr gildi. Stærð:  Íbúð 181,1 ferm., bílgeymsla 34,3 ferm. Samtals 215,4 ferm., 773,4 rúmm. Gjald kr. 9.500"
47238 (01.55.311.0 06),http://gamli.rvk.is/vefur/owa/edutils.parse_page?nafn=BN047238,Þrastargata 7,Reyndarteikningar,Frestað. Vísað til athugasemda eldvarnaeftirlits á umsóknarblaði.,"Sótt er um leyfi fyrir áður gerðum breytingum v/lokaúttektar, sjá erindi BN045916, þar sem m.a. er felldur út björgunarstigi og björgunarop fært á einbýlishúsi á lóð nr. 7 við Þrastargötu.  Gjald kr. 9.500"
48100 (01.53.200.4),http://gamli.rvk.is/vefur/owa/edutils.parse_page?nafn=BN048100,Ægisíða 123,Atvinnuhúsnæði,Frestað. Vísað til athugasemda á umsóknarblaði.,Sótt er um leyfi til að skipta núverandi verslunarhúnæði í tvö atvinnurými á 1. hæð húss á lóð nr. 123 við Ægisíðu. Gjald kr. 9.500
48079 (01.54.330.1),http://gamli.rvk.is/vefur/owa/edutils.parse_page?nafn=BN048079,Ægisíða 82,Fjarlægja vegg - 1.hæð,Frestað. Vísað til athugasemda á umsóknarblaði.,Sótt et um leyfi il að fjarlægja vegg milli eldhúss og borðstofu og stækka gat í 160 cm milli borðstofu og hols í íbúð á 1. hæð í íbúðarhúsi á lóð nr. 82 við Ægisíðu. Gjald kr. 9.500
48103 (01.18.640.3),http://gamli.rvk.is/vefur/owa/edutils.parse_page?nafn=BN048103,Urðarstígur 14,mæliblað,Samþykkt.  Samræmist ákvæðum laga nr. 160 / 2010.,"Óskað er eftir  samþykki byggingarfulltrúans til að breyta mörkum lóðanna Urðarstígur 14, Urðarstígur 16 og Urðarstígur 16A eða eins og sýnt er á meðfylgjandi uppáttum Landupplýsingadeildar dagsettum 30. 7. 2014. Urðarstígur 14 (staðgr. 1.186.403, landnr. 102278), lóðin er talin 238,9 m², lóðin reynist 247 m², teknir eru  20 m² af lóðinni og bætt við óútvísað land (landnr. 218177), lóðin verður 227 m². Urðarstígur 16 (staðgr. 1.186.404, landnr. 102279), lóðin er talin 149,9 m², lóðin reynist 154 m², teknir eru 7 m² af lóðinni og bætt við Urðarstíg 16A, teknir eru 20 m² af lóðinni og bætt við óútvísað land (landnr. 218177), bætt 0,1 m² við lóðina frá Urðastíg 16A, bætt 0,1 m² við lóðina úr óútvísuðu landi (landnr. 218177),  lóðin verður 127 m². Urðarstígur 16A (staðgr. 1.186.405, landnr.102280), lóðin er talin 102,5 m², lóðin reynist 106 m², bætt 7 m² við lóðina frá Urðarstíg 16A, teknir eru  0,1 m² af lóðinni og bætt við Urðarstíg 16, lóðin verður 113 m². Sjá deiliskipulag samþykkt í skipulagsráði þann 09. 05. 2012, samþykkt í borgarráði þann 18. 05. 2012 og auglýst í B-deild Stjórnartíðinda þann 22. 06. 2012."
48104 (01.18.640.4),http://gamli.rvk.is/vefur/owa/edutils.parse_page?nafn=BN048104,Urðarstígur 16,mæliblað,Samþykkt.  Samræmist ákvæðum laga nr. 160 / 2010.,"Óskað er eftir  samþykki byggingarfulltrúans til að breyta mörkum lóðanna Urðarstígur 14, Urðarstígur 16 og Urðarstígur 16A eða eins og sýnt er á meðfylgjandi uppáttum Landupplýsingadeildar dagsettum 30. 7. 2014. Urðarstígur 14 (staðgr. 1.186.403, landnr. 102278), lóðin er talin 238,9 m², lóðin reynist 247 m², teknir eru  20 m² af lóðinni og bætt við óútvísað land (landnr. 218177), lóðin verður 227 m². Urðarstígur 16 (staðgr. 1.186.404, landnr. 102279), lóðin er talin 149,9 m², lóðin reynist 154 m², teknir eru 7 m² af lóðinni og bætt við Urðarstíg 16A, teknir eru 20 m² af lóðinni og bætt við óútvísað land (landnr. 218177), bætt 0,1 m² við lóðina frá Urðastíg 16A, bætt 0,1 m² við lóðina úr óútvísuðu landi (landnr. 218177),  lóðin verður 127 m². Urðarstígur 16A (staðgr. 1.186.405, landnr.102280), lóðin er talin 102,5 m², lóðin reynist 106 m², bætt 7 m² við lóðina frá Urðarstíg 16A, teknir eru  0,1 m² af lóðinni og bætt við Urðarstíg 16, lóðin verður 113 m². Sjá deiliskipulag samþykkt í skipulagsráði þann 09. 05. 2012, samþykkt í borgarráði þann 18. 05. 2012 og auglýst í B-deild Stjórnartíðinda þann 22. 06. 2012."
48105 (01.18.640.5),http://gamli.rvk.is/vefur/owa/edutils.parse_page?nafn=BN048105,Urðarstígur 16A,mæliblað,Samþykkt.  Samræmist ákvæðum laga nr. 160 / 2010.,"Óskað er eftir  samþykki byggingarfulltrúans til að breyta mörkum lóðanna Urðarstígur 14, Urðarstígur 16 og Urðarstígur 16A eða eins og sýnt er á meðfylgjandi uppáttum Landupplýsingadeildar dagsettum 30. 7. 2014. Urðarstígur 14 (staðgr. 1.186.403, landnr. 102278), lóðin er talin 238,9 m², lóðin reynist 247 m², teknir eru  20 m² af lóðinni og bætt við óútvísað land (landnr. 218177), lóðin verður 227 m². Urðarstígur 16 (staðgr. 1.186.404, landnr. 102279), lóðin er talin 149,9 m², lóðin reynist 154 m², teknir eru 7 m² af lóðinni og bætt við Urðarstíg 16A, teknir eru 20 m² af lóðinni og bætt við óútvísað land (landnr. 218177), bætt 0,1 m² við lóðina frá Urðastíg 16A, bætt 0,1 m² við lóðina úr óútvísuðu landi (landnr. 218177),  lóðin verður 127 m². Urðarstígur 16A (staðgr. 1.186.405, landnr.102280), lóðin er talin 102,5 m², lóðin reynist 106 m², bætt 7 m² við lóðina frá Urðarstíg 16A, teknir eru  0,1 m² af lóðinni og bætt við Urðarstíg 16, lóðin verður 113 m². Sjá deiliskipulag samþykkt í skipulagsráði þann 09. 05. 2012, samþykkt í borgarráði þann 18. 05. 2012 og auglýst í B-deild Stjórnartíðinda þann 22. 06. 2012."
48107 (01.14.042.1),http://gamli.rvk.is/vefur/owa/edutils.parse_page?nafn=BN048107,Vallarstræti 2,mæliblað,Samþykkt.  Samræmist ákvæðum laga nr. 160 / 2010.,"Óskað er eftir  samþykki byggingarfulltrúans til að breyta mörkum lóðanna Vallarstrætis 2 og Vallarstrætis 4, eða eins og sýnt er á meðfylgjandi upp-dáttum Landupplýsingadeildar dagsettum 31. 7. 2014. Vallarstræti 2 (staðgr. 1.140.421, landnr. 222269), lóðin er 88 m², teknir        2 m² af lóðinni og bætt við Vallarstræti 4, lóðin verður 86 m². Vallarstræti 4 (staðgr. 1.140.416, landnr. 100857), lóðin er 239 m², bætt er    2 m² við lóðina frá Vallarstræti 2, lóðin verður  241 m² Breytingar þessar byggja á: Mælingu á húsinu Vallarstræti 4 sem Land-upplýsingadeild gerði í júlí 2014. Gögnum í safni Landupplýsingadeildar, mælingadeild. Vörpun á lóðamörkum í Hnitakerfi Reykjavíkur 1951 eftir rannsóknarvinnu á staðnum. Deiliskipulagi samþykktu í umhverfis- og skipulagsráði þann 12. 07. 2013, samþykktu í borgarráði þann 25. 07. 2013 og auglýstu í B-deild Stjórnartíðinda þann 10. 10. 2013."
48108 (01.14.041.6),http://gamli.rvk.is/vefur/owa/edutils.parse_page?nafn=BN048108,Vallarstræti 4,mæliblað,Samþykkt.  Samræmist ákvæðum laga nr. 160 / 2010.,"Óskað er eftir  samþykki byggingarfulltrúans til að breyta mörkum lóðanna Vallarstrætis 2 og Vallarstrætis 4, eða eins og sýnt er á meðfylgjandi upp-dáttum Landupplýsingadeildar dagsettum 31. 7. 2014. Vallarstræti 2 (staðgr. 1.140.421, landnr. 222269), lóðin er 88 m², teknir        2 m² af lóðinni og bætt við Vallarstræti 4, lóðin verður 86 m². Vallarstræti 4 (staðgr. 1.140.416, landnr. 100857), lóðin er 239 m², bætt er    2 m² við lóðina frá Vallarstræti 2, lóðin verður  241 m² Breytingar þessar byggja á: Mælingu á húsinu Vallarstræti 4 sem Land-upplýsingadeild gerði í júlí 2014. Gögnum í safni Landupplýsingadeildar, mælingadeild. Vörpun á lóðamörkum í Hnitakerfi Reykjavíkur 1951 eftir rannsóknarvinnu á staðnum. Deiliskipulagi samþykktu í umhverfis- og skipulagsráði þann 12. 07. 2013, samþykktu í borgarráði þann 25. 07. 2013 og auglýstu í B-deild Stjórnartíðinda þann 10. 10. 2013."
48097 (01.13.430.8),http://gamli.rvk.is/vefur/owa/edutils.parse_page?nafn=BN048097,Brekkustígur 12,(fsp) - Leiguíbúðir,Frestað. Málinu vísað til umsagnar skipulagsfulltrúa.,Spurt er hvort leigja megi í 3-20 daga í senn íbúð á 1. hæð í fjölbýlishúsi á lóð nr. 12 við Brekkustíg. Meðfylgjandi er útskrift úr fundargerð húsfundar Brekkustígs 12 dags. 28.7. 2014
48083 (01.24.410.1),http://gamli.rvk.is/vefur/owa/edutils.parse_page?nafn=BN048083,Einholt 2,(fsp) - Breyta í gistiheimili,Frestað. Málinu vísað til umsagnar skipulagsfulltrúa.,Spurt er hvort leyft yrði að innrétta gistiheimili með níu gistieiningum í fjölbýlishúsi á lóð nr. 2 við Einholt.
48065 (01.37.820.1),http://gamli.rvk.is/vefur/owa/edutils.parse_page?nafn=BN048065,Engjavegur 8,(fsp) - Áhorfendastúka - tímabundið leyfi,Jákvætt. Að uppfylltum skilyrðum samanber umsagnir heilbrigðisfulltrúa og forvarnadeildar SHS. Skila skal til byggingarfulltrúa greinagerð um burðarfyrirkomulag áhorfendabekkja,Spurt er hvort leyfi fengist fyrir tímabundinni uppsetningu á áhorfendastúku fyrir 4.200 manns í tengslum við Evrópumótið í hópfimleikum sem fram fer á Íslandi dagana 15. - 18 október í Frjálsíþróttahöllinni í Laugardal á lóð nr. 6 við Engjaveg. Áætlað er að hafist verði handa við uppsetningu á stúkunni 8. október og að búið verði að taka stúkuna niður 22.  október 2014. Umsögn (tölvupóstur) heilbrigðisfulltrúa dags. 1. ágúst 2014 fylgir erindinu. Brunaskýrsla á ensku dags. 1 júlí 2014 fylgir.
48093 (01.19.100.1),http://gamli.rvk.is/vefur/owa/edutils.parse_page?nafn=BN048093,Grettisgata 64,(fsp) - Gluggar viðbygging,Jákvætt. Að uppfylltum skilyrðum enda verði sótt um byggingarleyfi og samþykki meðeigenda í húsi fylgi.,Spurt er hvort leyfi fengist til að setja glugga og hurð á rými 0104 sem er viðbygging út frá rými 0103 í húsinu álóð nr. 64 við Grettisgötu.
48092 (01.81.740.2),http://gamli.rvk.is/vefur/owa/edutils.parse_page?nafn=BN048092,Háagerði 22,(fsp) - Bílskúr,Frestað. Málinu vísað til umsagnar skipulagsfulltrúa.,Spurt er hvort leyft yrði að byggja bílskúr eins og sýnt er á meðfylgjandi skissu við einbýlishús á lóð nr. 22 við Háagerði.
48084 (01.23.511.6),http://gamli.rvk.is/vefur/owa/edutils.parse_page?nafn=BN048084,Hátún 35,(fsp) - Viðbygging,Frestað. Málinu vísað til umsagnar skipulagsfulltrúa og til athugasemda.,Spurt er hvort byggja megi 20 fermetra sólstofu (viðbyggingu úr gleri) við austurgafl íbúðarhússins á lóð nr. 35 við Hátún.
48078 (01.16.030.1),http://gamli.rvk.is/vefur/owa/edutils.parse_page?nafn=BN048078,Hávallagata 17,(fsp) - Íbúð kjallara,Nei. Ekki er heimilt að gera nýja íbúð í kjallara.,Spurt er hvort leyft yrði að innrétta sjálfstæða íbúð í kjallara fjölbýlishúss á lóð nr. 17 við Hávallagötu.
48048 (01.17.030.8),http://gamli.rvk.is/vefur/owa/edutils.parse_page?nafn=BN048048,Ingólfsstræti 8,(fsp) - Safnaðarheimili - veitingarekstur,Jákvætt. Að uppfylltum skilyrðum enda verði sótt um byggingarleyfi.,"Spurt er hvort leyft yrði að breyta íbúð á 1. hæð í safnaðarheimili, bænahús og veitingahús í flokki I á lóð nr. 8 við Ingólfsstræti. Útskrift úr gerðabók embættisafgreiðslufundar skipulagsfulltrúa frá 8. ágúst 2014 fylgir erindinu ásamt umsögn skipulagsfulltrúa dags. 6. ágúst 2014."
47926 (05.15.--7.8),http://gamli.rvk.is/vefur/owa/edutils.parse_page?nafn=BN047926,Langavatnsvegur 6,(fsp) - Stækka sumarhús,Nei. Samanber umsögn skipulagfulltrúa dags. 29. júlí 2014.,"Spurt er hvort leyfi fengist til að stækka sumarhús eða til að reisa annað sumarhús á landinu sem er 1,1 hektara lóð nr. 6 við Langavatnsveg. Útskrift úr gerðabók embættisafgreiðslufundar skipulagsfulltrúa frá 31. júlí 2014 fylgir erindinu ásamt umsögn skipulagsfulltrúa dags. 29. júlí 2014."
48086 (01.17.433.0),http://gamli.rvk.is/vefur/owa/edutils.parse_page?nafn=BN048086,Laugavegur 86-94,(fsp) - Veitingastaður,Frestað. Málinu vísað til umsagnar skipulagsfulltrúa.,"Spurt er hvort leyft yrði að innrétta ""take away"" veitingastað í flokki ? í rými 0101 í íbúðar- og atvinnuhúsi á lóð nr. 86-94 við Laugaveg."
48094 (01.18.451.5),http://gamli.rvk.is/vefur/owa/edutils.parse_page?nafn=BN048094,Óðinsgata 21,(fsp) - Stækka opnanlegt fag,Jákvætt.,Spurt er hvort breyta megi glugga til að gera löglegt björgunarop og koma fyrir syllu ásamt handriði á vegg við gluggann. Samþykki meðeigenda fylgir og samþykki Minjastofnunar Íslands
48096 (04.68.600.1),http://gamli.rvk.is/vefur/owa/edutils.parse_page?nafn=BN048096,Unufell 44-50,(fsp) - 48 Þvottahús,Nei. Samræmist ekki ákvæðum byggingarreglugerðar.,Spurt er hvort leyfi fengist til að breyta geymslu í þvottahús í fjölbýlishúsinu nr. 48 á lóð nr. 44-50 við Unufell
47546 (04.76.770.1),http://gamli.rvk.is/vefur/owa/edutils.parse_page?nafn=BN047546,Vatnsveituvegur 4,(fsp) - Viðbygging,"Jákvætt. Að uppfylltum skilyrðum enda verði sótt um byggingarleyfi, og með vísan til umsagnar skipulagfulltrúa dags. 8. ágúst 2014.",Spurt er hvort leyft yrði að byggja u.þ.b. 18 fermetra viðbyggingu úr timbri að austurhlið hesthúss (matshl. 41 - hús merkt nr. 17) á lóðinni nr. 4 við Vatnsveituveg. Útskrift úr gerðabók embættisafgreiðslufundar skipulagsfulltrúa frá 8. ágúst 2014 fylgir erindinu ásamt umsögn skipulagsfulltrúa dags. 8. ágúst 2014 og umsögn stjórnar hestamannfélagsins Fáks dags. 9. júlí 2014.
48070 (01.14.042.0),http://gamli.rvk.is/vefur/owa/edutils.parse_page?nafn=BN048070,Veltusund 3B,(fsp) - Breyta innra skipulagi,Frestað. Gera þarf betur grein fyrir erindi.,Spurt er hvort breyta megi innra skipulagi verslunar í húsi á lóð nr. 3B við Veltusund.
47933 (01.13.441.4),http://gamli.rvk.is/vefur/owa/edutils.parse_page?nafn=BN047933,Öldugata 41,(fsp) - Fá íbúð samþykkta,Nei. Samkvæmt framlögðum gögnum.,"Spurt er hvort samþykkt fáist íbúð 0001 í norðurhluta kjallara fjölbýlishúss á lóð nr. 41 við Öldugötu. Erindi fylgir þinglýst afsal dags. 31. mars 2005, þinglýstur eignaskiptasamningur dags. 6. ágíst 1996 og íbúðarskoðun byggingarfulltrúa dags. 22. júlí 2014."
